Place,Name,CyrillicName,WeightClassKg,Sex,BirthYear,BodyweightKg,Best3SquatKg,Best3BenchKg,Best3DeadliftKg,TotalKg,Event,Equipment,Division
DQ,Lyubov Potanina,Любовь Потанина,48,F,1984,47.7,,,,,SBD,Single-ply,Open
1,Khava Azhigova,Хава Ажигова,52,F,1991,50.6,132.5,67.5,125,325,SBD,Single-ply,Open
2,Natalya Melnikova,Наталья Мельникова,52,F,1992,50.7,130,65,127.5,322.5,SBD,Single-ply,Open
1,Lidiya Pakhomova,Лидия Пахомова,56,F,1988,56,165,75,150,390,SBD,Single-ply,Open
2,Yana Talybova,Яна Талыбова,56,F,1991,55.6,150,77.5,150,377.5,SBD,Single-ply,Open
3,Svetlana Savinskaya,Светлана Савинская,56,F,1975,56,140,95,140,375,SBD,Single-ply,Open
4,Zenfira Islamova,Зенфира Исламова,56,F,1982,53.9,150,70,145,365,SBD,Single-ply,Open
5,Mariya Shestakova,Мария Шестакова,56,F,1991,54,112.5,67.5,130,310,SBD,Single-ply,Open
1,Anna Novokreshchenova,Анна Новокрещенова,60,F,1982,58.7,160,72.5,145,377.5,SBD,Single-ply,Open
1,Viktoriya Poltoratskaya,Виктория Полторацкая,67.5,F,1981,66.3,167.5,100,140,407.5,SBD,Single-ply,Open
2,Irina Vorontsova,Ирина Воронцова,67.5,F,1990,67.1,152.5,85,140,377.5,SBD,Single-ply,Open
3,Olga Lukinykh,Ольга Лукиных,67.5,F,1977,66.6,125,67.5,120,312.5,SBD,Single-ply,Open
1,Natalya Gurishkina,Наталья Гуришкина,75,F,1980,69.6,165,112.5,165,442.5,SBD,Single-ply,Open
2,Olga Yuzhakova,Ольга Южакова,75,F,1975,72.4,167.5,87.5,170,425,SBD,Single-ply,Open
1,Nataliya Savinykh,Наталия Савиных,82.5,F,1985,79.9,240,117.5,210,567.5,SBD,Single-ply,Open
1,Natalya Forsunova,Наталья Форсунова,90,F,1972,84.2,155,85,160,400,SBD,Single-ply,Open
1,Olga Gemaletdinova,Ольга Гемалетдинова,90+,F,1986,121.9,235,130,240,605,SBD,Single-ply,Open
1,Dmitriy Devyatkin,Дмитрий Девяткин,56,M,1988,54.7,205,120,210,535,SBD,Single-ply,Open
2,Veniamin Kurakin,Вениамин Куракин,56,M,1988,55.4,200,120,210,530,SBD,Single-ply,Open
3,Andrey Romanov,Андрей Романов,56,M,1987,55.9,202.5,100,190,492.5,SBD,Single-ply,Open
4,Anton Polyakov,Антон Поляков,56,M,1992,56,155,87.5,170,412.5,SBD,Single-ply,Open
5,Kirill Krut,Кирилл Круть,56,M,1991,49.4,165,85,160,410,SBD,Single-ply,Open
6,Evgeniy Tsarkov,Евгений Царьков,56,M,1991,53.5,130,80,140,350,SBD,Single-ply,Open
1,Vitaliy Evgrafov,Виталий Евграфов,60,M,1987,58.7,220,145,195,560,SBD,Single-ply,Open
2,Ilya Nikitin,Илья Никитин,60,M,1989,59.6,215,110,230,555,SBD,Single-ply,Open
3,Maksim Romanchuk,Максим Романчук,60,M,1992,59.5,145,80,170,395,SBD,Single-ply,Open
DQ,Aleksandr Lopato,Александр Лопато,60,M,1992,60,152.5,,,,SBD,Single-ply,Open
1,Evgeniy Biktagirov,Евгений Биктагиров,67.5,M,1979,67.5,265,190,272.5,727.5,SBD,Single-ply,Open
2,Artyom Rubtsov,Артём Рубцов,67.5,M,1984,67.5,260,205,250,715,SBD,Single-ply,Open
3,Sergey Savinykh,Сергей Савиных,67.5,M,1983,66.3,240,190,210,640,SBD,Single-ply,Open
4,Aleksandr Komarov,Александр Комаров,67.5,M,1989,66.6,215,132.5,210,557.5,SBD,Single-ply,Open
5,Kirill Ivanov,Кирилл Иванов,67.5,M,1988,67.5,185,130,200,515,SBD,Single-ply,Open
6,Tural Suvarov,Турал Суваров,67.5,M,1990,66.4,200,115,175,490,SBD,Single-ply,Open
7,Sergey Koltunov,Сергей Колтунов,67.5,M,1979,64.6,180,130,175,485,SBD,Single-ply,Open
8,Andrey Mitichkin,Андрей Митичкин,67.5,M,1990,67.2,190,100,190,480,SBD,Single-ply,Open
9,Dmitriy Zolotarev,Дмитрий Золотарев,67.5,M,1985,67.5,185,115,170,470,SBD,Single-ply,Open
DQ,Ivan Pavlov,Иван Павлов,67.5,M,1991,66.5,250,145,,,SBD,Single-ply,Open
DQ,Alisa Ashurov,Алиса Ашуров,67.5,M,1961,,,,,,SBD,Single-ply,Open
1,Aleksey Bizyaev,Алексей Бизяев,75,M,1982,74.3,300,182.5,297.5,780,SBD,Single-ply,Open
2,Konstantin Girin,Константин Гирин,75,M,1983,74.4,320,210,240,770,SBD,Single-ply,Open
3,Umar Atabiev,Умар Атабиев,75,M,1975,74.6,265,175,260,700,SBD,Single-ply,Open
4,Evgeniy Vasilenko,Евгений Василенко,75,M,1986,74.5,255,172.5,247.5,675,SBD,Single-ply,Open
5,Andrey Skopin,Андрей Скопин,75,M,1988,75,255,175,215,645,SBD,Single-ply,Open
6,Elchin Eyyubov,Эльчин Эйюбов,75,M,1987,74.3,215,145,232.5,592.5,SBD,Single-ply,Open
7,Andrey Svyatchenko,Андрей Святченко,75,M,1988,74.7,212.5,140,220,572.5,SBD,Single-ply,Open
8,Sergey Makaev,Сергей Макаев,75,M,1985,73.6,215,145,205,565,SBD,Single-ply,Open
9,Denis Shlyakhtun,Денис Шляхтун,75,M,1989,72.3,195,140,210,545,SBD,Single-ply,Open
10,Artyom Lovkis,Артём Ловкис,75,M,1991,74.8,200,120,210,530,SBD,Single-ply,Open
11,Valerian Bogdanov,Валериан Богданов,75,M,1988,73.7,190,130,200,520,SBD,Single-ply,Open
12,Artyom Zemtsov,Артём Земцов,75,M,1980,75,180,112.5,205,497.5,SBD,Single-ply,Open
13,Abdulmedzhid Magomedov,Абдулмеджид Магомедов,75,M,1991,75,190,110,190,490,SBD,Single-ply,Open
14,Sergey Eremeev,Сергей Еремеев,75,M,1989,74,190,110,165,465,SBD,Single-ply,Open
DQ,Ivan Ruf,Иван Руф,75,M,1985,75,,,,,SBD,Single-ply,Open
1,Sergey Saranskiy,Сергей Саранский,82.5,M,1979,82.4,325,245,300,870,SBD,Single-ply,Open
2,Ivan Kallya,Иван Калля,82.5,M,1962,79.2,290,180,335,805,SBD,Single-ply,Open
3,Artem Razzhivin,Артем Разживин,82.5,M,1983,81.5,300,215,290,805,SBD,Single-ply,Open
4,Eduard Lorents,Эдуард Лоренц,82.5,M,1990,80,280,187.5,252.5,720,SBD,Single-ply,Open
5,Andrey Grebenyuk,Андрей Гребенюк,82.5,M,1985,81.6,280,190,230,700,SBD,Single-ply,Open
6,Dmitriy Shestakov,Дмитрий Шестаков,82.5,M,1988,81.2,207.5,125,245,577.5,SBD,Single-ply,Open
7,Vladimir Vasilev,Владимир Васильев,82.5,M,1988,77.8,210,135,230,575,SBD,Single-ply,Open
1,Aleksandr Bobykin,Александр Бобыкин,90,M,1983,90,317.5,200,300,817.5,SBD,Single-ply,Open
2,Levon Tavakalov,Левон Тавакалов,90,M,1988,89.5,300,212.5,302.5,815,SBD,Single-ply,Open
3,Sergey Yudin,Сергей Юдин,90,M,1973,88.9,295,195,290,780,SBD,Single-ply,Open
4,Andrey Kopysov,Андрей Копысов,90,M,1980,90,280,210,262.5,752.5,SBD,Single-ply,Open
5,Mikhail Fedorov,Михаил Федоров,90,M,1975,89.4,300,185,265,750,SBD,Single-ply,Open
6,Evgeniy Lukyanov,Євгеній Лукьянов,90,M,1985,89.5,270,230,250,750,SBD,Single-ply,Open
DQ,Oleg Chvanov,Олег Чванов,90,M,1977,89.5,315,220,,,SBD,Single-ply,Open
1,Aleksandr Ivanitskiy,Александр Иваницкий,100,M,1977,99.7,342.5,220,340,902.5,SBD,Single-ply,Open
2,Igor Zhemelinskikh,Игорь Жемелинских,100,M,1979,99.3,310,257.5,260,827.5,SBD,Single-ply,Open
3,Aleksey Garashchenko,Алексей Гаращенко,100,M,1981,95.9,280,190,305,775,SBD,Single-ply,Open
4,Andrey Flegantov,Андрей Флегантов,100,M,1973,99.9,292.5,202.5,280,775,SBD,Single-ply,Open
5,Evgeniy Golubev,Евгений Голубев,100,M,1989,98.9,300,175,290,765,SBD,Single-ply,Open
6,Sergey Komarov,Сергей Комаров,100,M,1979,95.2,282.5,182.5,275,740,SBD,Single-ply,Open
7,Yuriy Danilov,Юрий Данилов,100,M,1986,99.7,310,190,240,740,SBD,Single-ply,Open
8,Ivan Goryachev,Иван Горячев,100,M,1990,99.7,270,177.5,252.5,700,SBD,Single-ply,Open
9,Boris Shchamel,Борис Щамель,100,M,1979,97.5,255,180,245,680,SBD,Single-ply,Open
DQ,Stepan Kochkin,Степан Кочкин,100,M,1986,97.5,352.5,230,,,SBD,Single-ply,Open
1,Maksim Salnikov,Максим Сальников,110,M,1981,108.4,330,215,290,835,SBD,Single-ply,Open
2,Yuriy Romanov #1,Юрий Романов,110,M,1984,106.5,310,230,270,810,SBD,Single-ply,Open
3,Sergey Sotnikov,Сергей Сотников,110,M,1985,107.6,295,230,275,800,SBD,Single-ply,Open
4,Viktor Marfin,Виктор Марфин,110,M,1984,108.8,320,190,285,795,SBD,Single-ply,Open
1,Andrey Skvortsov,Андрей Скворцов,125,M,1969,115.4,340,255,300,895,SBD,Single-ply,Open
2,Kirill Davydov,Кирилл Давыдов,125,M,1988,123.7,320,215,300,835,SBD,Single-ply,Open
3,Dmitriy Ilin,Дмитрий Ильин,125,M,1985,123.9,330,210,270,810,SBD,Single-ply,Open
4,Aleksey Lofitskiy,Алексей Лофицкий,125,M,1975,120.3,310,200,280,790,SBD,Single-ply,Open
5,Sergey Kurilo,Сергей Курило,125,M,1971,114.2,305,215,260,780,SBD,Single-ply,Open
6,Roman Abdulmanov,Роман Абдульманов,125,M,1980,123.6,270,190,270,730,SBD,Single-ply,Open
7,Erik Salimov,Эрик Салимов,125,M,1984,114.6,300,165,250,715,SBD,Single-ply,Open
8,Aleksey Popov,Алексей Попов,125,M,1975,114.9,240,170,230,640,SBD,Single-ply,Open
DQ,Evgeniy Aybulatov,Евгений Айбулатов,125,M,1979,122.5,350,,,,SBD,Single-ply,Open
1,Aleksey Pankov,Алексей Панков,125+,M,1983,125.1,370,240,350,960,SBD,Single-ply,Open
2,Sergey Melnikov,Сергей Мельников,125+,M,1981,141,375,200,317.5,892.5,SBD,Single-ply,Open
3,Denis Vashchenko,Денис Ващенко,125+,M,1987,159.8,340,200,260,800,SBD,Single-ply,Open
