Name,CyrillicName,Division,BirthDate,BodyweightKg,WeightClassKg,Sex,Bench1Kg,Bench2Kg,Bench3Kg,Best3BenchKg,TotalKg,Event,Equipment,Place
Elena Belousova,Елена Белоусова,Pro Open,1981-12-02,52,52,F,40,42.5,45,45,45,B,Raw,1
Tatyana Obraztsova,Татьяна Образцова,Pro Open,1978-04-17,56,56,F,52.5,55,57.5,57.5,57.5,B,Raw,1
Yuliya Kuznetsova,Юлия Кузнецова,Pro Open,1973-05-15,60,60,F,65,70,75,75,75,B,Raw,1
Evgeniya Nikiforova,Евгения Никифорова,Pro Open,1990-03-16,62.5,67.5,F,40,42.5,45,45,45,B,Raw,1
Nikita Tsvetkov,Никита Цветков,Pro Open,1986-11-10,50.9,52,M,60,-65,-67.5,60,60,B,Raw,1
Dmitriy Arzhanov,Дмитрий Аржанов,Pro Teen 16-17,1996-08-26,55,56,M,92.5,95,-100,95,95,B,Raw,1
Ararat Gulyan,Арарат Гулян,Pro Open,1989-08-07,67.4,67.5,M,115,122.5,127.5,127.5,127.5,B,Raw,1
Dmitriy Golubev,Дмитрий Голубев,Pro Masters,1971-10-11,66.3,67.5,M,-110,110,115,115,115,B,Raw,1
Mikhail Rokhmanov,Михаил Рохманов,Pro Open,1986-05-29,73.3,75,M,115,125,130,130,130,B,Raw,1
Roman Bulakhov,Роман Булахов,Pro Open,1990-03-03,72.4,75,M,95,112.5,125,125,125,B,Raw,2
Dmitriy Ivanov,Дмитрий Иванов,Pro Teen 16-17,1997-04-18,74,75,M,105,110,-112.5,110,110,B,Raw,2
Mikhail Savkin,Михаил Савкин,Pro Teen 18-19,1995-04-02,75,75,M,105,110,115,115,115,B,Raw,1
Ivan Tsvetkov,Иван Цветков,Pro Open,1986-12-07,81.9,82.5,M,160,165,170,170,170,B,Raw,2
Oleg Zolotov,Олег Золотов,Pro Teen 16-17,1997-07-07,81.6,82.5,M,105,115,120,120,120,B,Raw,2
Aleksey Smirnov,Алексей Смирнов,Pro Open,1987-12-11,81.6,82.5,M,160,170,175,175,175,B,Raw,1
Vyacheslav Banteev,Вячеслав Бантеев,Pro Teen 18-19,1995-12-17,81.3,82.5,M,95,-100,-100,95,95,B,Raw,4
Denis Puchkov,Денис Пучков,Pro Juniors 20-23,1991-06-07,81.5,82.5,M,120,-127.5,127.5,127.5,127.5,B,Raw,1
Aleksandr Losev,Александр Лосев,Pro Teen 16-17,1997-01-28,76.3,82.5,M,100,-107.5,107.5,107.5,107.5,B,Raw,3
Sergey Bazanov,Сергей Базанов,Pro Masters,1962-06-22,85,90,M,145,150,155,155,155,B,Raw,2
Aleksandr Rumyantsev,Александр Румянцев,Pro Masters,1969-11-26,88,90,M,160,-167.5,-167.5,160,160,B,Raw,1
Ilya Snezhkov,Илья Снежков,Pro Open,1989-12-06,90,90,M,170,180,185,185,185,B,Raw,1
Dmitriy Lebedev,Дмитрий Лебедев,Pro Open,1988-09-29,86,90,M,-160,160,165,165,165,B,Raw,2
Andrey Burmenko,Андрей Бурменко,Pro Open,1988-11-13,86.4,90,M,140,145,-155,145,145,B,Raw,3
Mikhail Starovoytov,Михаил Старовойтов,Pro Open,1967-08-01,86.7,90,M,135,-140,140,140,140,B,Raw,4
Maksim Stepanov #3,Максим Степанов,Pro Open,1977-01-18,100,100,M,150,165,-175,165,165,B,Raw,2
Denis Malchikov,Денис Мальчиков,Pro Open,1980-06-12,97,100,M,175,185,190,190,190,B,Raw,1
Vadim Pronin,Вадим Пронин,Pro Open,1979-09-10,105,110,M,150,160,165,165,165,B,Raw,2
Ruslan Shlyagun,Руслан Шлягун,Pro Open,1979-03-11,104.9,110,M,170,180,185,185,185,B,Raw,1
Valeriy Bryusov,Валерий Брюсов,Pro Masters,1973-12-02,109,110,M,180,190,,190,190,B,Raw,1
Viktor Maslyuk,Виктор Маслюк,Pro Masters,1974-02-10,103.2,110,M,170,175,-180,175,175,B,Raw,2
Sergey Kondratinskiy,Сергей Кондратинский,Pro Open,1984-07-06,120,125,M,190,-200,-200,190,190,B,Raw,1
Dmitriy Ivasenko,Дмитрий Ивасенко,Pro Open,1976-11-14,123.5,125,M,130,135,142.5,142.5,142.5,B,Raw,2
Dmitriy Fadeev,Дмитрий Фадеев,Pro Masters,1972-10-21,121.5,125,M,180,190,200,200,200,B,Raw,1
Sergey Mogilnikov,Сергей Могильников,Pro Masters,1973-09-19,,140,M,175,180,185,185,185,B,Raw,1
