Tested,Equipment,Place,Name,Division,BirthYear,Country,BodyweightKg,Squat1Kg,Squat2Kg,Squat3Kg,Best3SquatKg,Bench1Kg,Bench2Kg,Bench3Kg,Best3BenchKg,Deadlift1Kg,Deadlift2Kg,Deadlift3Kg,Best3DeadliftKg,TotalKg,WeightClassKg,Sex,CyrillicName,Event
Yes,Raw,1,Anastasiya Svateeva,Amateur Open,1989,Russia,50.3,60,70,72.5,72.5,37.5,-42.5,42.5,42.5,80,-90,-90,80,195,52,F,Анастасия Сватеева,SBD
Yes,Raw,1,Valeriya Berdnikova,Amateur Teen 13-15,1999,Russia,56,-90,95,-100,95,40,45,-47.5,45,100,110,-117.5,110,250,56,F,Валерия Бердникова,SBD
Yes,Raw,1,Diana Volkova,Amateur Teen 16-17,1998,Russia,55.4,70,80,85,85,40,45,-47.5,45,90,105,115,115,245,56,F,Диана Волкова,SBD
Yes,Raw,1,Yuliya Zhikhar,Amateur Open,1979,Russia,53.9,42.5,45,47.5,47.5,32.5,35,-37.5,35,50,55,60,60,142.5,56,F,Юлия Жихарь,SBD
Yes,Raw,DQ,Yuliya Kovaleva,Amateur Open,1983,Russia,58.2,-77.5,-80,-80,,,,,,,,,,,60,F,Юлия Ковалева,SBD
Yes,Raw,1,Nikolay Petrakov,Amateur Teen 13-15,1999,Russia,59.4,135,-140,-140,135,75,80,-85,80,150,160,-165,160,375,60,M,Николай Петраков,SBD
Yes,Raw,1,Rostislav Petrenko,Amateur Open,1982,Russia,61.9,130,135,-140,135,90,-95,95,95,135,140,-145,140,370,67.5,M,Ростислав Петренко,SBD
Yes,Raw,1,Artem Ivanisov,Amateur Juniors 20-23,1995,Russia,73.6,180,190,-200,190,100,-105,-110,100,200,210,-220,210,500,75,M,Артем Иванисов,SBD
Yes,Raw,1,Sergey Sitalo,Amateur Open,1982,Russia,81.9,135,145,-150,145,110,120,125,125,175,185,190,190,460,82.5,M,Сергей Ситало,SBD
Yes,Raw,2,Andrey Svateev,Amateur Open,1990,Russia,82.5,145,150,160,160,100,-110,110,110,165,175,185,185,455,82.5,M,Андрей Сватеев,SBD
Yes,Raw,1,Ilya Petrov,Amateur Juniors 20-23,1991,Russia,85.8,210,220,-230,220,145,150,-152.5,150,240,250,-255,250,620,90,M,Илья Петров,SBD
Yes,Raw,2,Vadim Chipniev,Amateur Juniors 20-23,1991,Russia,89.5,-190,190,195,195,-140,140,142.5,142.5,210,215,220,220,557.5,90,M,Вадим Чипниев,SBD
Yes,Raw,1,Osman Kodzoev,Amateur Juniors 20-23,1993,Russia,93.2,-185,185,200,200,130,140,145,145,200,222.5,-230,222.5,567.5,100,M,Осман Кодзоев,SBD
Yes,Raw,DQ,Igor Bezmolitvennov,Amateur Open,1988,Russia,99.7,-170,180,190,190,-130,-130,-130,,,,,,,100,M,Игорь Безмолитвеннов,SBD
Yes,Raw,1,Sergey Sokolov,Amateur Masters 45-49,1969,Russia,104,240,255,-260,255,170,-180,-180,170,240,250,-260,250,675,110,M,Сергей Соколов,SBD
Yes,Single-ply,1,Alina Stepina,Amateur Juniors 20-23,1992,Russia,64.2,-120,125,130,130,70,77.5,-85,77.5,120,140,152.5,152.5,360,67.5,F,Алина Степина,SBD
Yes,Single-ply,1,Dmitriy Mikryukov,Amateur Open,1991,Russia,98.5,180,190,200,200,-130,135,-140,135,180,-190,,180,515,100,M,Дмитрий Микрюков,SBD
No,Raw,1,Karina Nebyvaeva,Pro Open,1984,Russia,55.4,92.5,100,-105,100,45,-50,-50,45,115,122.5,127.5,127.5,272.5,56,F,Карина Небываева,SBD
No,Raw,1,Evgeniya Moskalenko,Pro Open,1982,Ukraine,63.5,-80,80,85,85,47.5,50,52.5,52.5,100,110,115,115,252.5,67.5,F,Євгенія Москаленко,SBD
No,Raw,2,Ekaterina Egorova,Pro Open,1984,Russia,64.7,82.5,87.5,-92.5,87.5,45,50,-52.5,50,95,102.5,112.5,112.5,250,67.5,F,Екатерина Егорова,SBD
No,Raw,1,Vladimir Rybalko,Pro Open,1987,Russia,81.6,190,200,-205,200,145,150,155,155,220,230,-240,230,585,82.5,M,Владимир Рыбалко,SBD
No,Raw,1,Ivan Pipenko,Pro Open,1990,Russia,88.8,190,205,220,220,150,160,-170,160,220,240,-270,240,620,90,M,Иван Пипенко,SBD
No,Raw,1,Aleksey Vorobyev,Pro Open,1983,Russia,96.4,255,270,280,280,150,165,-170,165,275,290,-300,290,735,100,M,Алексей Воробьев,SBD
No,Raw,2,Sergey Goryainov,Pro Open,1988,Russia,94.2,-150,150,160,160,110,-120,120,120,200,210,215,215,495,100,M,Сергей Горяинов,SBD
No,Raw,1,Andrey Chernenko,Pro Juniors 20-23,1993,Russia,109,-265,275,285,285,195,205,-210,205,290,305,312.5,312.5,802.5,110,M,Андрей Черненко,SBD
No,Raw,1,Akim Vakhtin,Pro Open,1983,Russia,105.6,275,290,-300,290,170,180,185,185,305,-317.5,327.5,327.5,802.5,110,M,Аким Вахтин,SBD
No,Raw,2,Egor Mizhevskiy,Pro Open,1990,Russia,106.8,240,250,260,260,150,160,165,165,240,250,260,260,685,110,M,Егор Мижевский,SBD
No,Single-ply,1,Nadezhda Pavlovskaya,Pro Juniors 20-23,1991,Russia,59.9,-125,-125,125,125,70,-75,-77.5,70,125,135,140,140,335,60,F,Надежда Павловская,SBD
No,Single-ply,1,Rachik Apoyan,Pro Open,1987,Russia,74.5,200,,,200,120,,,120,200,,,200,520,75,M,Рачик Апоян,SBD
No,Single-ply,1,Roman Khaustov,Pro Open,1983,Russia,82.4,-340,340,-360,340,165,175,-190,175,290,300,310,310,825,82.5,M,Роман Хаустов,SBD
No,Single-ply,1,Sergey Mamatkov,Pro Teen 18-19,1996,Russia,85.3,190,200,215,215,155,160,-165,160,190,205,215,215,590,90,M,Сергей Маматков,SBD
No,Single-ply,1,Dmitriy Pershin,Pro Juniors 20-23,1991,Russia,98.5,290,-300,-300,290,-180,185,190,190,255,265,270,270,750,100,M,Дмитрий Першин,SBD
No,Single-ply,1,Sergey Kardash,Pro Open,1979,Russia,105.5,300,-310,310,310,230,235,-240,235,240,250,-260,250,795,110,M,Сергей Кардаш,SBD
No,Single-ply,1,Denis Grebenchenko,Pro Open,1990,Russia,133.9,-400,400,-420,400,270,-280,280,280,300,320,-342.5,320,1000,140,M,Денис Гребенченко,SBD
Yes,Raw,1,Darya Polyakova,Amateur Open,1988,Russia,44.9,,,,,45,52.5,-55,52.5,,,,,52.5,48,F,Дарья Полякова,B
Yes,Raw,1,Olga Burchakova,Amateur Teen 13-15,2001,Russia,54.6,,,,,35,40,-45,40,,,,,40,56,F,Ольга Бурчакова,B
Yes,Raw,1,Yuliya Zhikhar,Amateur Open,1979,Russia,53.9,,,,,32.5,-35,35,35,,,,,35,56,F,Юлия Жихарь,B
Yes,Raw,1,Inga Ermak,Amateur Open,1982,Russia,60,,,,,45,55,-60,55,,,,,55,60,F,Инга Ермак,B
Yes,Raw,1,Irina Karpilenya,Amateur Open,1982,Russia,66.7,,,,,-60,60,65,65,,,,,65,67.5,F,Ирина Карпиленя,B
Yes,Raw,2,Veronika Isakova,Amateur Open,1986,Russia,67.1,,,,,52.5,60,-65,60,,,,,60,67.5,F,Вероника Исакова,B
Yes,Raw,1,Anna Rodnina,Amateur Open,1984,Russia,80,,,,,65,70,-75,70,,,,,70,82.5,F,Анна Роднина,B
Yes,Raw,DQ,Denis Obukhov,Amateur Teen 18-19,1997,Russia,58.8,,,,,-75,-77.5,-77.5,,,,,,,60,M,Денис Обухов,B
Yes,Raw,1,Dmitriy Kulagin,Amateur Teen 13-15,1999,Russia,62.1,,,,,60,65,-70,65,,,,,65,67.5,M,Дмитрий Кулагин,B
Yes,Raw,1,Aleksandr Afanasov,Amateur Juniors 20-23,1992,Russia,66,,,,,110,-120,-125,110,,,,,110,67.5,M,Александр Афанасов,B
Yes,Raw,1,Sultan Kugotov,Amateur Open,1990,Russia,66.8,,,,,125,132.5,142.5,142.5,,,,,142.5,67.5,M,Султан Куготов,B
Yes,Raw,2,Dmitriy Borisenko,Amateur Open,1988,Russia,65.3,,,,,130,135,-137.5,135,,,,,135,67.5,M,Дмитрий Борисенко,B
Yes,Raw,3,Suleyman Mekhmanov,Amateur Open,1990,Russia,65.4,,,,,130,-135,-137.5,130,,,,,130,67.5,M,Сулейман Мехманов,B
Yes,Raw,4,Vitaliy Evsyukov,Amateur Open,1983,Russia,67.2,,,,,110,115,-117.5,115,,,,,115,67.5,M,Виталий Евсюков,B
Yes,Raw,5,Rostislav Petrenko,Amateur Open,1982,Russia,61.9,,,,,100,-102.5,-102.5,100,,,,,100,67.5,M,Ростислав Петренко,B
Yes,Raw,1,Aleksey Pelekh,Amateur Teen 16-17,1998,Russia,70.3,,,,,-115,115,-120,115,,,,,115,75,M,Алексей Пелех,B
Yes,Raw,2,Sergey Kustovinov,Amateur Teen 16-17,1998,Russia,70.2,,,,,100,107.5,-112.5,107.5,,,,,107.5,75,M,Сергей Кустовинов,B
Yes,Raw,3,Maksim Chernenok,Amateur Teen 16-17,1998,Russia,73.1,,,,,90,-100,107.5,107.5,,,,,107.5,75,M,Максим Черненок,B
Yes,Raw,DQ,Kamil Tetuev,Amateur Open,1990,Russia,74.3,,,,,-130,-135,-150,,,,,,,75,M,Камиль Тетуев,B
Yes,Raw,1,Georgiy Gogiya,Amateur Juniors 20-23,1994,Russia,78.8,,,,,127.5,130,132.5,132.5,,,,,132.5,82.5,M,Георгий Гогия,B
Yes,Raw,2,Grigoriy Isakhanyan,Amateur Juniors 20-23,1991,Russia,80.4,,,,,-115,-127.5,127.5,127.5,,,,,127.5,82.5,M,Григорий Исаханян,B
Yes,Raw,1,Roman Rudakov,Amateur Open,1987,Russia,81.5,,,,,127.5,130,-132.5,130,,,,,130,82.5,M,Роман Рудаков,B
Yes,Raw,2,Vladislav Kudryashov,Amateur Open,1988,Russia,80.1,,,,,122.5,-127.5,-127.5,122.5,,,,,122.5,82.5,M,Владислав Кудряшов,B
Yes,Raw,3,Maksim Mikheev,Amateur Open,1988,Russia,82.2,,,,,117.5,-120,-120,117.5,,,,,117.5,82.5,M,Максим Михеев,B
Yes,Raw,DQ,Aleksandr Kochubey,Amateur Open,1990,Russia,81.2,,,,,-125,-127.5,,,,,,,,82.5,M,Александр Кочубей,B
Yes,Raw,1,Aleksandr Solovyev,Amateur Masters 45-49,1968,Russia,80.7,,,,,100,-112.5,-112.5,100,,,,,100,82.5,M,Александр Соловьев,B
Yes,Raw,1,Grigoriy Zrazhevskiy,Amateur Juniors 20-23,1992,Russia,87,,,,,120,-132.5,-132.5,120,,,,,120,90,M,Григорий Зражевский,B
Yes,Raw,1,Mikhail Akhverdov,Amateur Open,1983,Russia,84,,,,,140,155,-160,155,,,,,155,90,M,Михаил Ахвердов,B
Yes,Raw,2,Akhmat Ittiev,Amateur Open,1986,Russia,87.4,,,,,132.5,-142.5,142.5,142.5,,,,,142.5,90,M,Ахмат Иттиев,B
Yes,Raw,3,Demyan Kobilinskiy,Amateur Open,1991,Russia,84.4,,,,,135,140,-147.5,140,,,,,140,90,M,Демьян Кобилинский,B
Yes,Raw,4,Viktor Kravitskiy,Amateur Open,1987,Russia,89.7,,,,,130,140,-145,140,,,,,140,90,M,Виктор Кравицкий,B
Yes,Raw,5,Maksim Mitrofanov,Amateur Open,1976,Russia,88.8,,,,,115,122.5,-130,122.5,,,,,122.5,90,M,Максим Митрофанов,B
Yes,Raw,1,Vasiliy Shmoylov,Amateur Masters 55-59,1960,Russia,87,,,,,120,137.5,-140,137.5,,,,,137.5,90,M,Василий Шмойлов,B
Yes,Raw,1,Sergey Antonenko,Amateur Teen 18-19,1995,Russia,98.6,,,,,135,-140,140,140,,,,,140,100,M,Сергей Антоненко,B
Yes,Raw,1,Vladislav Suprunenko,Amateur Open,1989,Russia,94.7,,,,,180,-187.5,-187.5,180,,,,,180,100,M,Владислав Супруненко,B
Yes,Raw,2,Denis Davydov,Amateur Open,1983,Russia,97.2,,,,,155,162.5,-167.5,162.5,,,,,162.5,100,M,Денис Давыдов,B
Yes,Raw,3,Ivan Dolgopyat,Amateur Open,1991,Russia,94.7,,,,,145,150,-155,150,,,,,150,100,M,Иван Долгопят,B
Yes,Raw,1,Vladislav Shurinov,Amateur Masters 40-44,1973,Russia,98.4,,,,,160,165,-170,165,,,,,165,100,M,Владислав Шуринов,B
Yes,Raw,1,Aleksandr Korovin,Amateur Open,1988,Russia,107.8,,,,,160,170,177.5,177.5,,,,,177.5,110,M,Александр Коровин,B
Yes,Raw,2,Aleksandr Pakhuchiy,Amateur Open,1978,Russia,104.2,,,,,-167.5,-170,170,170,,,,,170,110,M,Александр Пахучий,B
Yes,Raw,3,Sergey Ovcharov,Amateur Open,1979,Russia,106,,,,,-150,-150,150,150,,,,,150,110,M,Сергей Овчаров,B
Yes,Raw,4,Viktor Popov,Amateur Open,1987,Russia,106.2,,,,,130,142.5,-147.5,142.5,,,,,142.5,110,M,Виктор Попов,B
Yes,Raw,DQ,Nikolay Vypryazhkin,Amateur Open,1991,Russia,101.3,,,,,-152.5,-152.5,-152.5,,,,,,,110,M,Николай Выпряжкин,B
Yes,Single-ply,1,Ekaterina Vysotskova,Amateur Open,1990,Russia,51.9,,,,,100,-110,-110,100,,,,,100,52,F,Екатерина Высоцкова,B
Yes,Single-ply,DQ,Denis Obukhov,Amateur Teen 18-19,1997,Russia,58.8,,,,,-77.5,-77.5,,,,,,,,60,M,Денис Обухов,B
Yes,Single-ply,1,Maksim Tarasov,Amateur Teen 18-19,1997,Russia,65.2,,,,,132.5,-142.5,-152.5,132.5,,,,,132.5,67.5,M,Максим Тарасов,B
Yes,Single-ply,1,Evgeniy Smirkin,Amateur Juniors 20-23,1992,Russia,88.1,,,,,180,-190,190,190,,,,,190,90,M,Евгений Смиркин,B
Yes,Single-ply,2,Kirill Tarasov,Amateur Juniors 20-23,1993,Russia,87.3,,,,,165,175,185,185,,,,,185,90,M,Кирилл Тарасов,B
Yes,Single-ply,1,Viktor Chekhirkin,Amateur Open,1982,Russia,98.3,,,,,205,210,-220,210,,,,,210,100,M,Виктор Чехиркин,B
Yes,Single-ply,1,Aleksey Isaev,Amateur Open,1975,Russia,108.3,,,,,210,220,-230,220,,,,,220,110,M,Алексей Исаев,B
Yes,Raw,1,Darya Polyakova,Amateur Open,1988,Russia,44.9,,,,,,,,,80,92.5,,92.5,92.5,48,F,Дарья Полякова,D
Yes,Raw,1,Anastasiya Svateeva,Amateur Open,1989,Russia,50.3,,,,,,,,,80,-85,-85,80,80,52,F,Анастасия Сватеева,D
Yes,Raw,1,Diana Volkova,Amateur Teen 16-17,1998,Russia,55.4,,,,,,,,,110,117.5,-122.5,117.5,117.5,56,F,Диана Волкова,D
Yes,Raw,1,Elizaveta Merzlyakova,Amateur Teen 16-17,1997,Russia,58.7,,,,,,,,,90,100,-110,100,100,60,F,Елизавета Мерзлякова,D
Yes,Raw,1,Yuliya Kovaleva,Amateur Open,1983,Russia,58.2,,,,,,,,,70,80,90,90,90,60,F,Юлия Ковалева,D
Yes,Raw,1,Elizaveta Bochkova,Amateur Juniors 20-23,1994,Russia,64.2,,,,,,,,,-95,95,102.5,102.5,102.5,67.5,F,Елизавета Бочкова,D
Yes,Raw,1,Natalya Arkhipkova,Amateur Open,1982,Russia,65.3,,,,,,,,,110,117.5,120,120,120,67.5,F,Наталья Архипкова,D
Yes,Raw,1,Anna Rodnina,Amateur Open,1984,Russia,80,,,,,,,,,125,130,140,140,140,82.5,F,Анна Роднина,D
Yes,Raw,1,Dmitriy Didechkin,Amateur Teen 18-19,1996,Russia,55.9,,,,,,,,,135,142.5,150,150,150,56,M,Дмитрий Дидечкин,D
Yes,Raw,1,Daniil Zhardev,Amateur Teen 13-15,1999,Russia,79.1,,,,,,,,,150,-185,-185,150,150,82.5,M,Даниил Жардев,D
Yes,Raw,1,Dmitriy Nosenko,Amateur Open,1976,Russia,82.5,,,,,,,,,185,195,-200,195,195,82.5,M,Дмитрий Носенко,D
Yes,Raw,2,Ruslan Moskalenko,Amateur Open,1981,Russia,77.9,,,,,,,,,190,-210,,190,190,82.5,M,Руслан Москаленко,D
Yes,Raw,1,Aleksey Orlov,Amateur Teen 18-19,1995,Russia,85.2,,,,,,,,,200,210,222.5,222.5,222.5,90,M,Алексей Орлов,D
Yes,Raw,1,Anton Schekolkin,Amateur Juniors 20-23,1995,Russia,87.6,,,,,,,,,200,210,-222.5,210,210,90,M,Антон Щеколкин,D
Yes,Raw,1,Aleksandr Sulatskiy,Amateur Open,1986,Russia,88.9,,,,,,,,,202.5,-212.5,-212.5,202.5,202.5,90,M,Александр Сулацкий,D
Yes,Raw,2,Aleksandr Balanovskiy,Amateur Open,1986,Russia,87.9,,,,,,,,,185,-200,-200,185,185,90,M,Александр Балановский,D
Yes,Raw,1,Aleksndr Vasilyev,Amateur Open,1989,Russia,92.2,,,,,,,,,-200,200,215,215,215,100,M,Алексндр Васильев,D
Yes,Raw,1,Aleksandr Bochkov,Amateur Juniors 20-23,1992,Russia,106.4,,,,,,,,,-190,207.5,-215,207.5,207.5,110,M,Александр Бочков,D
Yes,Raw,1,Aleksandr Pakhuchiy,Amateur Open,1978,Russia,104.2,,,,,,,,,-240,-250,250,250,250,110,M,Александр Пахучий,D
Yes,Raw,2,Viktor Popov,Amateur Open,1987,Russia,106.2,,,,,,,,,190,207.5,-220,207.5,207.5,110,M,Виктор Попов,D
Yes,Raw,DQ,Evgeniy Golovnin,Amateur Open,1986,Russia,106.3,,,,,,,,,-210,-210,-210,,,110,M,Евгений Головнин,D
Yes,Multi-ply,1,Vadim Orlov,Amateur Open,1990,Russia,81.3,,,,,,,,,220,235,247.5,247.5,247.5,82.5,M,Вадим Орлов,D
No,Raw,1,Anastasiya Potapova,Pro Teen 16-17,1998,Russia,50.9,,,,,35,-40,-40,35,,,,,35,52,F,Анастасия Потапова,B
No,Raw,1,Natalya Yavilyak,Pro Open,1983,Ukraine,51.9,,,,,60,-65,-65,60,,,,,60,52,F,Наталія Явіляк,B
No,Raw,1,Dmitriy Gorodnikov,Pro Open,1986,Russia,74.6,,,,,145,150,-155,150,,,,,150,75,M,Дмитрий Городников,B
No,Raw,2,Ivan Sokolenko,Pro Open,1986,Russia,75,,,,,140,145,-150,145,,,,,145,75,M,Иван Соколенко,B
No,Raw,1,Emin Kerimov,Pro Teen 18-19,1996,Russia,78.6,,,,,125,132.5,-140,132.5,,,,,132.5,82.5,M,Эмин Керимов,B
No,Raw,1,Nikolay Glazyrin,Pro Open,1987,Russia,80.6,,,,,160,-170,170,170,,,,,170,82.5,M,Николай Глазырин,B
No,Raw,2,Georgiy Udovenko,Pro Open,1986,Russia,81.3,,,,,-140,140,-145,140,,,,,140,82.5,M,Георгий Удовенко,B
No,Raw,1,Aleksandr Kolesnikov,Pro Open,1985,Russia,88.8,,,,,180,185,187.5,187.5,,,,,187.5,90,M,Александр Колесников,B
No,Raw,2,Khasylzhan Dadakhanov,Pro Open,1988,Russia,87.1,,,,,185,-192.5,-192.5,185,,,,,185,90,M,Хасылжан Дадаханов,B
No,Raw,3,Denis Litvak,Pro Open,1990,Russia,88.2,,,,,-125,125,132.5,132.5,,,,,132.5,90,M,Денис Литвак,B
No,Raw,1,Aleksandr Yakovenko,Pro Teen 18-19,1996,Russia,92.8,,,,,165,-170,-170,165,,,,,165,100,M,Александр Яковенко,B
No,Raw,1,Ilya Pokhodov,Pro Juniors 20-23,1994,Russia,95.4,,,,,160,167.5,-170,167.5,,,,,167.5,100,M,Илья Походов,B
No,Raw,2,Roman Gavrilenko,Pro Juniors 20-23,1993,Russia,97.1,,,,,140,-155,-155,140,,,,,140,100,M,Роман Гавриленко,B
No,Raw,1,Dmitriy Podbereznyy,Pro Open,1986,Russia,98.3,,,,,-180,-180,180,180,,,,,180,100,M,Дмитрий Подберезный,B
No,Raw,2,Artur Khmara,Pro Open,1983,Ukraine,90.7,,,,,150,160,170,170,,,,,170,100,M,Артур Хмара,B
No,Raw,3,Artur Guduyan,Pro Open,1988,Russia,95,,,,,125,127.5,132.5,132.5,,,,,132.5,100,M,Артур Гудуян,B
No,Raw,1,Denis Mogilskiy,Pro Juniors 20-23,1991,Russia,107.3,,,,,180,190,197.5,197.5,,,,,197.5,110,M,Денис Могильский,B
No,Raw,DQ,Aleksandr Morozov,Pro Open,1985,Russia,106.5,,,,,-170,-170,-172.5,,,,,,,110,M,Александр Морозов,B
No,Raw,1,Igor Indukaev,Pro Open,1981,Russia,122.9,,,,,210,-225,-225,210,,,,,210,125,M,Игорь Индукаев,B
No,Raw,2,Vadim Bespalov,Pro Open,1979,Russia,113.8,,,,,180,187.5,192.5,192.5,,,,,192.5,125,M,Вадим Беспалов,B
No,Single-ply,1,Vyacheslav Mironov,Pro Open,1976,Russia,89.8,,,,,-205,-205,205,205,,,,,205,90,M,Вячеслав Миронов,B
No,Single-ply,DQ,Nikita Pudikov,Pro Teen 16-17,1997,Russia,99.3,,,,,-175,-175,-175,,,,,,,100,M,Никита Пудиков,B
No,Single-ply,1,Kirill Voynov,Pro Teen 18-19,1995,Russia,91.8,,,,,165,-177.5,-190,165,,,,,165,100,M,Кирилл Войнов,B
No,Single-ply,1,Valeriy Gavrikov,Pro Open,1990,Russia,98.5,,,,,200,220,-230,220,,,,,220,100,M,Валерий Гавриков,B
No,Single-ply,1,Sergey Starodubskiy,Pro Open,1977,Russia,109.7,,,,,260,270,,270,,,,,270,110,M,Сергей Стародубский,B
No,Raw,1,Viktoriya Isychko,Pro Open,1991,Russia,47.5,,,,,,,,,-90,90,-95,90,90,48,F,Виктория Исычко,D
No,Raw,2,Yuliya Mayko,Pro Open,1984,Russia,46.7,,,,,,,,,-87.5,-87.5,87.5,87.5,87.5,48,F,Юлия Майко,D
No,Raw,1,Albina Eknadiosova,Pro Open,1985,Russia,64.4,,,,,,,,,90,97.5,-105,97.5,97.5,67.5,F,Альбина Экнадиосова,D
No,Raw,1,Aramo Kirakosyan,Pro Juniors 20-23,1992,Russia,77.4,,,,,,,,,100,,,100,100,82.5,M,Арамо Киракосян,D
No,Raw,1,Yevgen Korotych,Pro Open,1977,Ukraine,86.6,,,,,,,,,195,202.5,-207.5,202.5,202.5,90,M,Євген Коротич,D
No,Raw,1,Maksim Koryagin,Pro Juniors 20-23,1992,Russia,98.1,,,,,,,,,230,-240,240,240,240,100,M,Максим Корягин,D
No,Raw,2,Anton Bortnikov,Pro Juniors 20-23,1992,Russia,96.8,,,,,,,,,170,190,210,210,210,100,M,Антон Бортников,D
No,Raw,1,Aleksandr Evdoshenko,Pro Open,1986,Russia,97.7,,,,,,,,,250,260,265,265,265,100,M,Александр Евдошенко,D
No,Raw,1,Dmitriy Srybnyy,Pro Teen 18-19,1996,Russia,109.3,,,,,,,,,260,-285,-285,260,260,110,M,Дмитрий Срыбный,D
No,Raw,DQ,Akim Vakhtin,Pro Open,1983,Russia,105.6,,,,,,,,,-200,,,,,110,M,Аким Вахтин,D
No,Raw,1,Leonid Kornienko,Pro Open,1984,Russia,115.8,,,,,,,,,230,-250,-250,230,230,125,M,Леонид Корниенко,D
No,Single-ply,1,Rachik Apoyan,Pro Open,1987,Russia,74.5,,,,,,,,,230,-252.5,,230,230,75,M,Рачик Апоян,D
No,Single-ply,1,Yaroslav Shutyaev,Pro Open,1990,Russia,98.5,,,,,,,,,265,-285,-285,265,265,100,M,Ярослав Шутяев,D
No,Single-ply,1,Sergey Starodubskiy,Pro Open,1977,Russia,109.7,,,,,,,,,280,315,-332.5,315,315,110,M,Сергей Стародубский,D
Yes,Raw,1,Vladimir Eryshkanov,Amateur Disabled,1979,Russia,60,,,,,-95,95,100,100,,,,,100,60,M,Владимир Ерышканов,B
Yes,Raw,1,Sergey Martynov,Amateur Disabled,1966,Russia,80,,,,,100,-110,-110,100,,,,,100,82.5,M,Сергей Мартынов,B
