Division,WeightClassKg,Place,Name,Team,BodyweightKg,Best3SquatKg,Best3BenchKg,Best3DeadliftKg,TotalKg,Equipment,Event,Sex
Girls,44.23,1,Erica Rico,Kennedale,41.28,92.99,45.36,102.06,240.4,Single-ply,SBD,F
Girls,44.23,2,Alex Villegas,Wylie East,40.19,79.38,36.29,95.25,210.92,Single-ply,SBD,F
Girls,44.23,3,Aiyeem Kelton,Sunnyvale,41.73,81.65,34.02,88.45,204.12,Single-ply,SBD,F
Girls,44.23,4,Annette Roberts,Forney,44.18,86.18,31.75,81.65,199.58,Single-ply,SBD,F
Girls,44.23,5,Joseline Vega,Ferris,40.82,65.77,34.02,90.72,190.51,Single-ply,SBD,F
Girls,44.23,6,Julia Rico,Kennedale,42,68.04,36.29,70.31,174.63,Single-ply,SBD,F
Girls,47.85,1,Annie Tidwell,Terrell,46.72,83.91,34.02,92.99,210.92,Single-ply,SBD,F
Girls,47.85,2,Marlina DeLeon,Kennedale,46.81,81.65,38.56,77.11,197.31,Single-ply,SBD,F
Girls,47.85,3,Joselyn Chavez,Ferris,45,70.31,36.29,79.38,185.97,Single-ply,SBD,F
Girls,47.85,4,Brooke Coy,Red Oak,47.54,74.84,34.02,74.84,183.7,Single-ply,SBD,F
Girls,47.85,5,Vanessa Valle,Ferris,45.27,56.7,29.48,77.11,163.29,Single-ply,SBD,F
Girls,47.85,6,Aillissa West,Forney,45,52.16,24.95,77.11,154.22,Single-ply,SBD,F
Girls,47.85,7,Gracie Williams,Kaufman,46.18,56.7,29.48,65.77,151.95,Single-ply,SBD,F
Girls,51.94,1,Marigrace Coleman,Waxahachie,50.53,79.38,40.82,97.52,217.72,Single-ply,SBD,F
Girls,51.94,2,Alicia Chavez,Terrell,51.71,81.65,38.56,88.45,208.65,Single-ply,SBD,F
Girls,51.94,3,Bella Guajardo,Corsicana,48.99,83.91,31.75,90.72,206.38,Single-ply,SBD,F
Girls,51.94,4,Stephanie Martinez,Ferris,51.44,68.04,34.02,81.65,183.7,Single-ply,SBD,F
Girls,51.94,5,Alana Sauls,Red Oak,48.99,52.16,31.75,79.38,163.29,Single-ply,SBD,F
Girls,51.94,6,Emma Beebe,Wylie East,51.44,117.93,,,117.93,Single-ply,S,F
Girls,56.02,1,Natalie Garcia,Forney,53.89,115.67,47.63,113.4,276.69,Single-ply,SBD,F
Girls,56.02,2,Sharie Johnson,Waxahachie,55.07,111.13,52.16,111.13,274.42,Single-ply,SBD,F
Girls,56.02,3,Ashton Strange #1,Waxahachie,55.34,102.06,49.9,115.67,267.62,Single-ply,SBD,F
Girls,56.02,4,Emily Harber,Kaufman,55.7,86.18,45.36,95.25,226.8,Single-ply,SBD,F
Girls,56.02,5,Jazmin Arveola,Terrell,53.8,88.45,38.56,92.99,219.99,Single-ply,SBD,F
Girls,56.02,6,Alanah Trudeau,Kaufman,55.79,90.72,34.02,95.25,219.99,Single-ply,SBD,F
Girls,56.02,7,Heydenreich Kerbe,North Forney,55.16,90.72,36.29,90.72,217.72,Single-ply,SBD,F
Girls,56.02,8,Katie Agee,Royse City,54.7,90.72,38.56,83.91,213.19,Single-ply,SBD,F
Girls,56.02,9,Anahi Vargas,Ferris,55.7,70.31,34.02,97.52,201.85,Single-ply,SBD,F
Girls,56.02,10,Tiffany Bowman,Terrell,55.61,86.18,34.02,77.11,197.31,Single-ply,SBD,F
Girls,56.02,11,Kiera White,Red Oak,52.8,70.31,,,70.31,Single-ply,S,F
Girls,56.02,12,Edith Fisher,Royse City,54.34,,34.02,,34.02,Single-ply,B,F
Girls,60.1,1,Jamie Williams #1,Royse City,57.61,131.54,63.5,117.93,312.98,Single-ply,SBD,F
Girls,60.1,2,Bailey Crocker,Forney,59.87,133.81,43.09,124.74,301.64,Single-ply,SBD,F
Girls,60.1,3,Keely Watson,Wylie East,58.24,122.47,54.43,104.33,281.23,Single-ply,SBD,F
Girls,60.1,4,Mac Ortega,Wylie East,58.15,102.06,56.7,108.86,267.62,Single-ply,SBD,F
Girls,60.1,5,Kira Bockemehl,Wylie East,58.88,106.59,45.36,99.79,251.74,Single-ply,SBD,F
Girls,60.1,6,Avery Dickard,Red Oak,58.97,90.72,49.9,108.86,249.48,Single-ply,SBD,F
Girls,60.1,7,Jesyka Lee,Red Oak,59.69,83.91,56.7,104.33,244.94,Single-ply,SBD,F
Girls,60.1,8,Sarah O'Conner,Red Oak,58.97,97.52,43.09,99.79,240.4,Single-ply,SBD,F
Girls,60.1,9,Camille Buster,North Forney,59.87,92.99,34.02,108.86,235.87,Single-ply,SBD,F
Girls,60.1,10,Bennett Blair,North Forney,59.87,90.72,34.02,97.52,222.26,Single-ply,SBD,F
Girls,60.1,11,Mileyshka Colon,Kennedale,56.43,86.18,43.09,90.72,219.99,Single-ply,SBD,F
Girls,60.1,12,LaDayiza Johnson,Tyler,57.52,68.04,43.09,74.84,185.97,Single-ply,SBD,F
Girls,60.1,13,Savannah Johnson,Winona,59.87,117.93,52.16,,170.1,Single-ply,SB,F
Girls,67.36,1,Kylee Howard,Kennedale,66.41,131.54,65.77,138.35,335.66,Single-ply,SBD,F
Girls,67.36,2,Morgan Lowry,Forney,64.41,138.35,56.7,131.54,326.59,Single-ply,SBD,F
Girls,67.36,3,Nichole Howard,Kaufman,60.69,131.54,56.7,122.47,310.71,Single-ply,SBD,F
Girls,67.36,4,Cassidy Schubert,Forney,63.68,124.74,47.63,133.81,306.17,Single-ply,SBD,F
Girls,67.36,5,Dulce Hernandez,North Forney,66.86,124.74,49.9,131.54,306.17,Single-ply,SBD,F
Girls,67.36,6,Mariah Wells,Kennedale,61.51,117.93,43.09,129.27,290.3,Single-ply,SBD,F
Girls,67.36,7,McKayla McDade,Red Oak,65.5,97.52,58.97,124.74,281.23,Single-ply,SBD,F
Girls,67.36,8,Ruth Mitchell #1,Kennedale,61.23,113.4,52.16,111.13,276.69,Single-ply,SBD,F
Girls,67.36,9,Laura Espino,Red Oak,66.41,102.06,52.16,120.2,274.42,Single-ply,SBD,F
Girls,67.36,10,Mikayla Massara,Waxahachie,63.23,104.33,47.63,120.2,272.16,Single-ply,SBD,F
Girls,67.36,11,Erica Francisco,Red Oak,66.77,88.45,56.7,115.67,260.82,Single-ply,SBD,F
Girls,67.36,12,Tristen Long,Sunnyvale,64.86,97.52,45.36,111.13,254.01,Single-ply,SBD,F
Girls,67.36,13,Natalie McBride,Waxahachie,64.95,88.45,43.09,104.33,235.87,Single-ply,SBD,F
Girls,67.36,14,Callista Labato,Waxahachie,62.23,95.25,43.09,88.45,226.8,Single-ply,SBD,F
Girls,67.36,15,McKenna Monk,Forney,66.32,90.72,36.29,92.99,219.99,Single-ply,SBD,F
Girls,67.36,16,Rosado Alvarez Yulie,North Forney,63.55,90.72,38.56,86.18,215.46,Single-ply,SBD,F
Girls,67.36,17,Tronica Monroe,Tyler,65.68,72.57,38.56,86.18,197.31,Single-ply,SBD,F
Girls,67.36,18,Malarie Garcia,Ferris,63.87,68.04,40.82,81.65,190.51,Single-ply,SBD,F
Girls,67.36,DQ,Britney Berlanga,Winona,62.41,,,,,Single-ply,SBD,F
Girls,75.07,1,Aundrea Jackson,Ferris,72.03,158.76,63.5,158.76,381.02,Single-ply,SBD,F
Girls,75.07,2,Katy Shipley,Rockwall-Heath,73.39,154.22,68.04,147.42,369.68,Single-ply,SBD,F
Girls,75.07,3,Megan Higbee,Rockwall-Heath,72.48,149.69,65.77,151.95,367.41,Single-ply,SBD,F
Girls,75.07,4,Lauren Foley,Wylie East,71.49,142.88,54.43,138.35,335.66,Single-ply,SBD,F
Girls,75.07,5,Maria Lopez,Kennedale,71.21,142.88,61.23,129.27,333.39,Single-ply,SBD,F
Girls,75.07,6,Maiya Rodriguez,Kaufman,68.76,136.08,52.16,129.27,317.51,Single-ply,SBD,F
Girls,75.07,7,Gabriela Zeavala,Waxahachie,73.66,104.33,49.9,122.47,276.69,Single-ply,SBD,F
Girls,75.07,8,Alyssa Canales,Corsicana,73.48,127.01,54.43,92.99,274.42,Single-ply,SBD,F
Girls,75.07,9,Grace Guadagnolo,Kennedale,72.48,117.93,40.82,113.4,272.16,Single-ply,SBD,F
Girls,75.07,10,Yanelle Lopez,Kennedale,73.57,115.67,47.63,104.33,267.62,Single-ply,SBD,F
Girls,75.07,11,Hailey Mullins,Wylie East,72.85,104.33,56.7,102.06,263.08,Single-ply,SBD,F
Girls,75.07,12,Madison Duran,Ferris,71.4,90.72,47.63,104.33,242.67,Single-ply,SBD,F
Girls,75.07,13,Kristy Coatney,Sunnyvale,74.84,97.52,34.02,102.06,233.6,Single-ply,SBD,F
Girls,75.07,14,Tarri Tindall,Kaufman,68.49,97.52,43.09,88.45,229.06,Single-ply,SBD,F
Girls,75.07,15,Lisa Vega,Terrell,73.84,90.72,31.75,86.18,208.65,Single-ply,SBD,F
Girls,75.07,16,Hannah Valles,Royse City,70.03,79.38,31.75,77.11,188.24,Single-ply,SBD,F
Girls,82.33,1,Hailey Jacobs,Winona,81.1,142.88,52.16,149.69,344.73,Single-ply,SBD,F
Girls,82.33,2,Madi Young,Rockwall-Heath,80.2,113.4,54.43,140.61,308.44,Single-ply,SBD,F
Girls,82.33,3,Alexandra De La Cruz,Waxahachie,81.1,115.67,58.97,115.67,290.3,Single-ply,SBD,F
Girls,82.33,4,Ja'Shae Collier,Tyler,75.84,97.52,52.16,108.86,258.55,Single-ply,SBD,F
Girls,82.33,5,Brenda Teran,Terrell,82.1,97.52,47.63,113.4,258.55,Single-ply,SBD,F
Girls,82.33,6,Rickia Smith,Red Oak,78.38,97.52,47.63,106.59,251.74,Single-ply,SBD,F
Girls,82.33,7,Cheyenne Shewmake,North Forney,79.33,106.59,38.56,97.52,242.67,Single-ply,SBD,F
Girls,82.33,8,Ashley Henigan,Wylie East,78.65,92.99,40.82,106.59,240.4,Single-ply,SBD,F
Girls,82.33,9,Karina Revilla,Royse City,80.1,61.23,40.82,70.31,172.37,Single-ply,SBD,F
Girls,82.33,DQ,Khesslyn Henderson,Kennedale,79.38,,,,,Single-ply,SBD,F
Girls,90.04,1,Takaira Scott,Ferris,83.46,124.74,63.5,140.61,328.85,Single-ply,SBD,F
Girls,90.04,2,Taylor Flaishans,Forney,87.82,129.27,54.43,117.93,301.64,Single-ply,SBD,F
Girls,90.04,3,Fre'Kelle Rouse,Waxahachie,89.81,111.13,54.43,120.2,285.76,Single-ply,SBD,F
Girls,90.04,4,Riley Moore,Kaufman,89.63,99.79,40.82,111.13,251.74,Single-ply,SBD,F
Girls,90.04,5,Loran Patterson,North Forney,85.09,99.79,40.82,90.72,231.33,Single-ply,SBD,F
Girls,100.02,1,Karizma Alexander,Waxahachie,97.34,149.69,61.23,154.22,365.14,Single-ply,SBD,F
Girls,100.02,2,Daisy Ayala,Kaufman,99.79,145.15,68.04,136.08,349.27,Single-ply,SBD,F
Girls,100.02,3,Allyssa Boubel,Kennedale,91.26,145.15,65.77,136.08,347,Single-ply,SBD,F
Girls,100.02,4,Kat Jones,Rockwall-Heath,95.44,127.01,58.97,138.35,324.32,Single-ply,SBD,F
Girls,100.02,5,Shae Smith,Kennedale,98.43,104.33,52.16,145.15,301.64,Single-ply,SBD,F
Girls,100.02,6,Katie Gailey,Royse City,97.89,113.4,43.09,120.2,276.69,Single-ply,SBD,F
Girls,100.02,7,Atenea Santuario,Corsicana,95.89,95.25,47.63,102.06,244.94,Single-ply,SBD,F
Girls,100.02,8,April Odom,Kaufman,92.17,102.06,38.56,97.52,238.14,Single-ply,SBD,F
Girls,100.02,9,Anna Stearman,Corsicana,93.35,70.31,45.36,90.72,206.38,Single-ply,SBD,F
Girls,100.02+,1,Marion Wright,Wylie East,118.3,165.56,92.99,151.95,410.5,Single-ply,SBD,F
Girls,100.02+,2,Artoria Hunter,Tyler,117.3,158.76,70.31,163.29,392.36,Single-ply,SBD,F
Girls,100.02+,3,Lorna Baulachong,Corsicana,125.74,158.76,58.97,151.95,369.68,Single-ply,SBD,F
Girls,100.02+,4,Leslie Quijada,Royse City,106.78,151.95,72.57,142.88,367.41,Single-ply,SBD,F
Girls,100.02+,5,Chloe Durham,Tyler,153.59,127.01,65.77,120.2,312.98,Single-ply,SBD,F
Girls,100.02+,6,Natalie Monrreal,Corsicana,103.87,106.59,61.23,113.4,281.23,Single-ply,SBD,F
Girls,100.02+,7,Devon Andrews,Waxahachie,104.69,106.59,54.43,108.86,269.89,Single-ply,SBD,F
Girls,100.02+,8,Caylin Gaines,North Forney,110.22,97.52,49.9,117.93,265.35,Single-ply,SBD,F
Girls,100.02+,9,Lindsey Weaver,Red Oak,102.06,74.84,47.63,111.13,233.6,Single-ply,SBD,F
Girls,,NS,Gabby Medrano,Royse City,,,,,,Single-ply,SBD,F
Girls,,NS,Jacqueline Pina,Terrell,,,,,,Single-ply,SBD,F
Girls,,NS,Eva Harris,Terrell,,,,,,Single-ply,SBD,F
Girls,,NS,Kayla Hudson,Royse City,,,,,,Single-ply,SBD,F
Girls,,NS,Jessica Harper,Corsicana,,,,,,Single-ply,SBD,F
Girls,,NS,Emily Miller,Corsicana,,,,,,Single-ply,SBD,F
Girls,,NS,Destiny Whitney,Wylie East,,,,,,Single-ply,SBD,F
