Name,CyrillicName,BirthDate,BirthYear,Division,BodyweightKg,WeightClassKg,Sex,Squat1Kg,Squat2Kg,Squat3Kg,Best3SquatKg,Bench1Kg,Bench2Kg,Bench3Kg,Bench4Kg,Best3BenchKg,Deadlift1Kg,Deadlift2Kg,Deadlift3Kg,Best3DeadliftKg,TotalKg,Event,Equipment,Place
Oksana Kuzmechyova,Оксана Кузмечёва,,1980,Pro Open,51.8,52,F,,,,,40,-47.5,-47.5,,40,,,,,40,B,Raw,1
Natalya Statsenko,Наталья Стаценко,1985-09-25,,Pro Open,72.9,75,F,,,,,50,55,-57.5,,55,,,,,55,B,Raw,1
Evgeniya Chekanova,Евгения Чеканова,1972-02-01,,Pro Masters 40-44,59.9,60,F,,,,,55,65,-70,,65,,,,,65,B,Raw,1
Natalya Arbuzova,Наталья Арбузова,1963-02-10,,Pro Masters 50-54,59.8,60,F,,,,,35,-42.5,-42.5,,35,,,,,35,B,Raw,1
Aleksandra Olkhovskaya,Александра Ольховская,2000-12-10,,Pro Teen,74.8,75,F,,,,,37.5,40,42.5,,42.5,,,,,42.5,B,Raw,1
Svetlana Frants,Светлана Франц,1975-12-22,,Pro Open,95,90+,F,,,,,70,75,80,,80,,,,,80,B,Raw,1
Elena Guseva,Елена Гусева,1990-09-13,,Pro Open,55.8,56,F,,,,,25,27.5,30,,30,,,,,30,B,Raw,2
Elizaveta Anisimova,Елизавета Анисимова,1992-06-18,,Pro Juniors 20-23,54,56,F,,,,,30,35,-42.5,,35,,,,,35,B,Raw,1
Natalya Shmaylova,Наталья Шмайлова,1988-03-01,,Pro Open,67.2,67.5,F,,,,,50,55,60,,60,,,,,60,B,Raw,2
Svetlana Grek,Светлана Грек,1987-12-11,,Pro Open,55.8,56,F,,,,,52.5,57.5,-60,,57.5,,,,,57.5,B,Raw,1
Tatyana Belykh,Татьяна Белых,1963-12-09,,Pro Masters 50-54,80,82.5,F,,,,,40,45,47.5,,47.5,,,,,47.5,B,Raw,1
Viktoriya Demenchuk,Виктория Деменчук,1986-02-17,,Pro Open,67,67.5,F,,,,,67.5,72.5,75,,75,,,,,75,B,Raw,1
Dmitriy Pomelnikov,Дмитрий Помельников,1997-10-11,,Pro Teen,47.9,52,M,,,,,65,72.5,-75,,72.5,,,,,72.5,B,Raw,1
Nikolay Izergin,Николай Изергин,1997-09-02,,Pro Teen,72,75,M,,,,,95,112.5,-125,,112.5,,,,,112.5,B,Raw,1
Pyotr Furmanov,Пётр Фурманов,1992-05-11,,Pro Juniors 20-23,66,67.5,M,,,,,120,125,127.5,,127.5,,,,,127.5,B,Raw,1
Grigoriy Gusev,Григорий Гусев,1991-10-01,,Pro Juniors 20-23,103,110,M,,,,,140,150,-152.5,,150,,,,,150,B,Raw,2
Ivan Rubtsov,Иван Рубцов,1994-07-01,,Pro Juniors 20-23,107.8,110,M,,,,,150,-160,160,,160,,,,,160,B,Raw,1
Leonid Kolesnikov,Леонид Колесников,1997-07-29,,Pro Teen,66,67.5,M,,,,,80,85,-90,,85,,,,,85,B,Raw,1
Dmitriy Vodovskov,Дмитрий Водовсков,1993-08-17,,Pro Juniors 20-23,73.2,75,M,,,,,90,100,-115,,100,,,,,100,B,Raw,1
Yasha Avramenko,Яша Авраменко,1991-02-19,,Pro Juniors 20-23,99.5,100,M,,,,,170,-175,-175,,170,,,,,170,B,Raw,1
Viktor Mironenko,Виктор Мироненко,1990-12-03,,Pro Juniors 20-23,67.4,67.5,M,,,,,110,117.5,-125,,117.5,,,,,117.5,B,Raw,2
Maksim Shashelev,Максим Шашелев,1997-03-20,,Pro Teen,59.5,60,M,,,,,65,70,-72.5,,70,,,,,70,B,Raw,1
Roman Mamedov,Роман Мамедов,1994-01-25,,Pro Juniors 20-23,117,125,M,,,,,190,200,207.5,,207.5,,,,,207.5,B,Raw,1
Nikolay Orlov,Николай Орлов,1971-01-05,,Pro Masters 40-44,121.3,125,M,,,,,200,210,217.5,,217.5,,,,,217.5,B,Raw,1
Leonid Tikhonov,Леонид Тихонов,1963-03-25,,Pro Masters 50-54,94,100,M,,,,,162.5,-172.5,175,,175,,,,,175,B,Raw,2
Vladimir Rurenko,Владимир Руренко,1953-10-03,,Pro Masters 60-64,88.4,90,M,,,,,120,130,132.5,,132.5,,,,,132.5,B,Raw,1
Ivan Konyakhin,Иван Коняхин,1974-04-13,,Pro Masters 40-44,78.5,82.5,M,,,,,125,-135,-140,,125,,,,,125,B,Raw,1
Aleksey Chernikov,Алексей Черников,1958-11-24,,Pro Masters 55-59,89.9,90,M,,,,,115,120,-127.5,,120,,,,,120,B,Raw,1
Yuriy Azarov,Юрий Азаров,1942-01-18,,Pro Masters 70-74,85,90,M,,,,,-50,-65,70,,70,,,,,70,B,Raw,1
Yuriy Chmil,Юрий Чмиль,1964-11-23,,Pro Masters 45-49,98.9,100,M,,,,,150,155,160,,160,,,,,160,B,Raw,1
Vladimir Shershenyuk,Владимир Шершенюк,1969-09-26,,Pro Masters 45-49,98.8,100,M,,,,,110,120,-125,,120,,,,,120,B,Raw,2
Aleksandr Tsmyg,Александр Цмыг,1963-10-20,,Pro Masters 50-54,82.4,82.5,M,,,,,115,122.5,127.5,,127.5,,,,,127.5,B,Raw,1
Valeriy Kutyryov,Валерий Кутырёв,1957-02-06,,Pro Masters 55-59,99.7,100,M,,,,,135,-145,145,,145,,,,,145,B,Raw,1
Eduard Buslenko,Эдуард Бусленко,1971-06-26,,Pro Masters 40-44,94.5,100,M,,,,,170,-172.5,172.5,,172.5,,,,,172.5,B,Raw,1
Gennadiy Matsegora,Геннадий Мацегора,1963-07-16,,Pro Masters 50-54,95.5,100,M,,,,,180,190,192.5,195,192.5,,,,,192.5,B,Raw,1
Aleksandr Vasilev,Александр Васильев,1973-04-08,,Pro Masters 40-44,119,125,M,,,,,200,-207.5,207.5,,207.5,,,,,207.5,B,Raw,2
Vladimír Belykh,Владимир Белых,1958-04-24,,Pro Masters 55-59,107.5,110,M,,,,,140,150,155,,155,,,,,155,B,Raw,1
Aleksey Kudryavtsev,Алексей Кудрявцев,1989-11-03,,Pro Open,130,140,M,,,,,160,167.5,-180,,167.5,,,,,167.5,B,Raw,1
Vasiliy Ostanin,Василий Останин,1974-05-18,,Pro Open,117,125,M,,,,,155,162.5,-170,,162.5,,,,,162.5,B,Raw,1
Vyacheslav Nikitin,Вячеслав Никитин,1984-10-17,,Pro Open,106,110,M,,,,,170,175,180,,180,,,,,180,B,Raw,2
Viktor Skorokhod,Виктор Скороход,1987-11-13,,Pro Open,106,110,M,,,,,155,160,-172.5,,160,,,,,160,B,Raw,3
Andrey Nazarenko,Андрей Назаренко,1986-02-21,,Pro Open,96.2,100,M,,,,,180,190,-195,,190,,,,,190,B,Raw,1
Aleksandr Kersh,Александр Керш,1982-05-02,,Pro Open,97.8,100,M,,,,,185,-190,190,,190,,,,,190,B,Raw,2
Aleksandr Potapov,Александр Потапов,1985-07-12,,Pro Open,85.5,90,M,,,,,75,80,85,,85,,,,,85,B,Raw,8
Vladimir Gorbenko,Владимир Горбенко,1979-01-06,,Pro Open,89.7,90,M,,,,,117.5,122.5,125,,125,,,,,125,B,Raw,7
Aleksey Severukhin,Алексей Северухин,1977-01-11,,Pro Open,85.5,90,M,,,,,125,135,140,,140,,,,,140,B,Raw,6
Yuriy Ukhanov,Юрий Уханов,1983-12-11,,Pro Open,84.9,90,M,,,,,140,150,-157.5,,150,,,,,150,B,Raw,5
Vitaliy Marchenko,Виталий Марченко,1984-06-13,,Pro Open,89.3,90,M,,,,,152.5,-157.5,157.5,,157.5,,,,,157.5,B,Raw,4
Vladimir Im,Владимир Им,1987-06-30,,Pro Open,86.7,90,M,,,,,180,190,-195,,190,,,,,190,B,Raw,2
Evgeniy Zankov,Евгений Заньков,1987-04-10,,Pro Open,88.4,90,M,,,,,180,190,200,,200,,,,,200,B,Raw,1
Aleksandr Dudnikov,Александр Дудников,1982-03-11,,Pro Open,82.2,82.5,M,,,,,200,210,-220,,210,,,,,210,B,Raw,1
Daniil Poddubnyak,Даниил Поддубняк,1990-04-14,,Pro Open,82,82.5,M,,,,,170,175,-180,,175,,,,,175,B,Raw,2
Maksim Nepomnyashchiy,Максим Непомнящий,1988-07-13,,Pro Open,82,82.5,M,,,,,147.5,-152.5,152.5,,152.5,,,,,152.5,B,Raw,3
Yuriy Sviridenko #1,Юрий Свириденко,1984-01-09,,Pro Open,74.9,75,M,,,,,145,150,-160,,150,,,,,150,B,Raw,1
Andrey Ilkun,Андрей Илькун,1978-01-23,,Pro Open,74.5,75,M,,,,,130,140,-150,,140,,,,,140,B,Raw,2
Boris Khon,Борис Хон,1987-08-18,,Pro Open,74.7,75,M,,,,,125,127.5,-130,,127.5,,,,,127.5,B,Raw,3
Anatoliy Ivanov,Анатолий Иванов,1984-02-07,,Pro Open,101,110,M,,,,,200,210,-215,,210,,,,,210,B,Raw,1
Sergey Busygin,Сергей Бусыгин,1985-05-11,,Pro Open,77.5,82.5,M,,,,,-110,110,-112.5,,110,,,,,110,B,Raw,4
Aleksey Rybakov,Алексей Рыбаков,1988-04-26,,Pro Open,67.5,67.5,M,,,,,115,117.5,-120,,117.5,,,,,117.5,B,Raw,1
Maksim Istomin,Максим Истомин,1986-11-18,,Pro Open,89.7,90,M,,,,,165,170,-180,,170,,,,,170,B,Raw,3
Nikolay Orlov,Николай Орлов,1971-01-05,,Pro Masters 40-44,121.3,125,M,200,210,220,220,200,,,,200,210,220,-230,220,640,SBD,Raw,1
Evgeniy Sednev,Евгений Седнев,1966-08-20,,Pro Masters 45-49,105,110,M,160,170,-180,170,130,135,140,,140,180,190,200,200,510,SBD,Raw,1
Valeriy Khomenko,Валерий Хоменко,1951-08-03,,Pro Masters 60-64,74.9,75,M,120,130,,130,80,85,,,85,160,170,,170,385,SBD,Raw,1
Zakhar Artyomov,Захар Артёмов,1986-06-06,,Pro Open,70,75,M,-100,100,110,110,85,-90,-90,,85,150,160,-165,160,355,SBD,Raw,1
Maksim Shakhov,Максим Шахов,1997-11-06,,Pro Teen,78.3,82.5,M,110,-120,120,120,80,85,90,,90,140,150,-160,150,360,SBD,Raw,2
Stepan Severin,Степан Северин,1997-02-19,,Pro Teen,80.6,82.5,M,150,-160,-160,150,100,105,-110,,105,170,-180,185,185,440,SBD,Raw,1
Mikhail Klyukanov,Михаил Клюканов,1983-09-30,,Pro Open,81.5,82.5,M,170,180,190,190,140,150,160,,160,200,220,,220,570,SBD,Raw,1
Aleksandr Dubrov,Александр Дубров,1998-09-13,,Pro Open,79,82.5,M,160,170,180,180,110,120,130,,130,190,200,210,210,520,SBD,Raw,2
Egor Romanov,Егор Романов,1997-05-25,,Pro Teen,74.9,75,M,115,125,135,135,70,80,-90,,80,130,140,-155,140,355,SBD,Raw,2
Stepan Garkusha,Степан Гаркуша,1997-10-22,,Pro Teen,74,75,M,120,-130,-135,120,115,-120,-120,,115,160,175,185,185,420,SBD,Raw,1
Boris Tsvetkov #2,Борис Цветков,1987-08-05,,Pro Open,98.5,100,M,170,180,-190,180,-140,-145,150,,150,190,205,225,225,555,SBD,Raw,2
Viktor Lysenko,Виктор Лысенко,1981-02-26,,Pro Open,98.7,100,M,210,220,225,225,150,-160,-160,,150,230,240,,240,615,SBD,Raw,1
Nikolay Maryushin,Николай Марюшин,1984-08-10,,Pro Open,118.1,125,M,275,290,300,300,200,210,215,,215,310,330,350,350,865,SBD,Raw,1
Dmitriy Kiselyov,Дмитрий Киселёв,1985-05-16,,Pro Open,117.5,125,M,305,315,-325,315,185,195,-200,,195,280,-290,-290,280,790,SBD,Raw,2
Sergey Mazanov,Сергей Мазанов,1975-06-18,,Pro Open,118.2,125,M,205,215,230,230,150,165,-172.5,,165,260,275,-290,275,670,SBD,Raw,3
Olga Zamyshlyaeva,Ольга Замышляева,1988-07-02,,Pro Open,51.5,52,F,100,105,-110,105,50,52.5,-55,,52.5,120,-125,125,125,282.5,SBD,Raw,1
Svetlana Grek,Светлана Грек,1987-12-11,,Pro Open,56,56,F,60,65,70,70,50,55,-60,,55,90,100,105,105,230,SBD,Raw,1
Ivan Aurov,Иван Ауров,1987-09-09,,Pro Open,89.9,90,M,-200,-200,200,200,140,-150,-150,,140,210,-215,215,215,555,SBD,Raw,2
Anton Arnaut,Антон Арнаут,1992-03-27,,Pro Juniors 20-23,87.6,90,M,140,160,175,175,120,130,,,130,200,215,222.5,222.5,527.5,SBD,Raw,1
Anatoliy Ivanov,Анатолий Иванов,1984-02-07,,Pro Open,101,110,M,260,280,290,290,190,200,207.5,,207.5,270,280,287.5,287.5,785,SBD,Raw,1
Aleksey Rybakov,Алексей Рыбаков,1988-04-26,,Pro Open,67.5,67.5,M,130,135,140,140,-115,115,-120,,115,180,190,-200,190,445,SBD,Raw,1
Maksim Istomin,Максим Истомин,1986-11-18,,Pro Open,89.7,90,M,200,222.5,230,230,165,-172.5,172.5,,172.5,235,245,260,260,662.5,SBD,Raw,1
Vladimír Belykh,Владимир Белых,1958-04-24,,Pro Masters 55-59,107.5,110,M,160,180,-190,180,140,150,157.5,,157.5,180,190,210,210,547.5,SBD,Raw,1
Viktoriya Demenchuk,Виктория Деменчук,1986-02-17,,Pro Open,67,67.5,F,115,125,130,130,67.5,72.5,-80,,72.5,155,-165,-165,155,357.5,SBD,Raw,2
Sergey Busygin,Сергей Бусыгин,1985-05-11,,Pro Open,77.5,82.5,M,130,135,-137.5,135,110,-112.5,,,110,150,155,160,160,405,SBD,Raw,3
