Place,Sex,Name,CyrillicName,BodyweightKg,Bench1Kg,Bench2Kg,Bench3Kg,Best3BenchKg,Bench4Kg,TotalKg,WeightClassKg,Event,Equipment,Tested,Division,Age,BirthDate
1,F,Albina Sergeeva,Альбина Сергеева,66.9,55,-60,60,60,,60,67.5,B,Raw,No,Teen 18-19,18,2000-12-22
1,M,Vanik Karapetyan,Ваник Карапетян,71.7,110,-115,-115,110,,110,75,B,Raw,No,Teen 18-19,19,1999-05-17
1,M,Maksim Rudakov,Максим Рудаков,74.8,-147.5,147.5,-150,147.5,,147.5,75,B,Raw,No,Open,27,1991-03-12
1,M,Aleksey Antonenko,Алексей Антоненко,79.7,112.5,115,120,120,,120,82.5,B,Raw,No,Open,25,1993-03-06
1,M,Vladislav Volchanov,Владислав Волчанов,86.2,175,180,187.5,187.5,,187.5,90,B,Raw,No,Open,43,1975-10-31
2,M,Nikolay Krasnov,Николай Краснов,85.2,165,-170,-170,165,,165,90,B,Raw,No,Open,58,1960-07-22
3,M,Aleksey Korolkov,Алексей Корольков,88.9,127.5,-132.5,-132.5,127.5,,127.5,90,B,Raw,No,Open,28,1990-04-02
1,M,Viktor Fedotov,Виктор Федотов,97.3,-130,130,-140,130,,130,100,B,Raw,No,Teen 16-17,16,2002-07-27
1,M,Ilya Orlov,Илья Орлов,99.8,225,230,-235,230,,230,100,B,Raw,No,Open,36,1982-06-23
2,M,Oleg Varvarin,Олег Варварин,98.2,170,177.5,182.5,182.5,,182.5,100,B,Raw,No,Open,32,1986-04-02
3,M,Aleksey Marchenko,Алексей Марченко,96.2,160,170,-177.5,170,,170,100,B,Raw,No,Open,37,1981-06-19
4,M,Gor Petrosyan,Гор Петросян,95.9,150,157.5,165,165,,165,100,B,Raw,No,Open,24,1994-06-27
5,M,Vladimir Dementev,Владимир Дементьев,99.8,165,-172.5,-172.5,165,,165,100,B,Raw,No,Open,37,1981-04-23
1,M,Evgeniy Orlov,Евгений Орлов,107.5,145,-160,-167.5,145,,145,110,B,Raw,No,Juniors 20-23,22,1996-11-15
1,M,Aleksey Solovev,Алексей Соловьев,104,230,237.5,242.5,242.5,,242.5,110,B,Raw,No,Open,28,1990-07-01
2,M,Dmitriy Zheleznov,Дмитрий Железнов,108.7,220,-225,-225,220,,220,110,B,Raw,No,Open,25,1993-01-24
3,M,Andrey Makhrov,Андрей Махров,109.2,205,210,-217.5,210,,210,110,B,Raw,No,Open,28,1990-05-18
4,M,Aleksandr Vorfolomeev,Александр Ворфоломеев,106.6,175,-185,,175,,175,110,B,Raw,No,Open,47,1971-01-27
5,M,Andrey Gorbachev,Андрей Горбачев,103,170,-180,-180,170,,170,110,B,Raw,No,Open,39,1979-07-16
1,M,Aleksandr Zhuravlev,Александр Журавлев,105.7,170,-172.5,-175,170,,170,110,B,Raw,No,Masters 45-49,46,1972-06-23
1,M,Anatoliy Serbin,Анатолий Сербин,120,255,265,270,270,,270,125,B,Raw,No,Open,28,1990-01-01
2,M,Konstantin Morozov #1,Константин Морозов,124.8,210,220,230,230,,230,125,B,Raw,No,Open,34,1984-10-23
3,M,Aleksandr Kuznetsov #1,Александр Кузнецов,116.6,225,-240,-240,225,,225,125,B,Raw,No,Open,39,1979-06-20
4,M,Konstantin Usynin,Константин Усынин,122.6,200,210,-217.5,210,,210,125,B,Raw,No,Open,30,1988-05-13
5,M,Aleksandr Mishonkov,Александр Мишонков,113.8,195,-205,-205,195,,195,125,B,Raw,No,Open,28,1990-05-09
1,M,Aleksandr Zhuravlyov,Александр Журавлёв,119.5,80,-90,-90,80,,80,125,B,Raw,No,Masters 55-59,59,1959-11-06
1,M,Sergey Zakharov,Сергей Захаров,125.9,180,190,200,200,,200,140,B,Raw,No,Open,44,1974-09-27
