Place,Name,CyrillicName,BirthDate,WeightClassKg,Sex,Division,BodyweightKg,Squat1Kg,Squat2Kg,Squat3Kg,Best3SquatKg,Bench1Kg,Bench2Kg,Bench3Kg,Best3BenchKg,Deadlift1Kg,Deadlift2Kg,Deadlift3Kg,Best3DeadliftKg,TotalKg,Event,Equipment,Tested
1,Aleksey Mirgorodskiy,Алексей Миргородский,1987-11-30,67.5,M,Amateur Open,67.5,200,-215,220,220,-150,150,-160,150,180,190,-200,190,560,SBD,Multi-ply,Yes
2,Vladimir Bavtenko,Владимир Бавтенко,1984-09-08,67.5,M,Amateur Open,63.5,150,-160,160,160,105,110,115,115,150,160,170,170,445,SBD,Multi-ply,Yes
1,Pavel Duyunov,Павел Дуюнов,1981-10-22,75,M,Amateur Open,74.1,240,-255,-255,240,135,-140,-140,135,222.5,230,237.5,237.5,612.5,SBD,Multi-ply,Yes
2,Ilya Fokin,Илья Фокин,1982-06-15,75,M,Amateur Open,69.3,175,185,-192.5,185,110,-120,-125,110,160,175,-185,175,470,SBD,Multi-ply,Yes
1,Anton Lyusov,Антон Люсов,1986-06-15,82.5,M,Amateur Open,82,-200,200,-210,200,140,147.5,152.5,152.5,200,210,-222.5,210,562.5,SBD,Multi-ply,Yes
1,Nikolay Vikharev,Николай Вихарев,1996-01-27,90,M,Amateur Teen 16-17,88.1,130,135,140,140,-85,-85,85,85,130,140,150,150,375,SBD,Multi-ply,Yes
1,Evgeniy Khripunov,Евгений Хрипунов,1981-07-13,90,M,Amateur Open,89.3,285,-300,300,300,185,205,210,210,250,262.5,-270,262.5,772.5,SBD,Multi-ply,Yes
2,Vladislav Shakhov,Владислав Шахов,1983-07-30,90,M,Amateur Open,86.1,150,160,-170,160,100,105,-110,105,150,180,190,190,455,SBD,Multi-ply,Yes
1,Pavel Shcheglov,Павел Щеглов,1978-07-18,125,M,Amateur Open,123.7,300,320,335,335,215,227.5,235,235,240,255,-270,255,825,SBD,Multi-ply,Yes
1,Aleksandra Skidan,Александра Скидан,1992-05-09,67.5,F,Amateur Juniors 20-23,67,-80,-80,80,80,35,-40,-40,35,-90,100,-105,100,215,SBD,Raw,Yes
2,Olesya Zotova,Олеся Зотова,1991-01-01,67.5,F,Amateur Juniors 20-23,63.9,-45,-45,45,45,45,47.5,-50,47.5,100,-110,110,110,202.5,SBD,Raw,Yes
DQ,Alena Govorova,Алена Говорова,1992-11-12,56,F,Amateur Teen 18-19,55.3,65,-70,70,70,-50,-50,-50,,,,,,,SBD,Raw,Yes
1,Nikolay Altunin,Николай Алтунин,1977-07-24,67.5,M,Amateur Open,67.1,150,160,170,170,100,-110,110,110,-190,190,-220,190,470,SBD,Raw,Yes
2,Andrey Minenkov,Андрей Миненков,1985-08-27,67.5,M,Amateur Open,66.5,140,-150,-150,140,97,-102.5,102.5,102.5,160,170,-197.5,170,412.5,SBD,Raw,Yes
1,Andrey Anufriev,Андрей Ануфриев,1996-04-06,67.5,M,Amateur Teen 16-17,62,60,70,80,80,50,-55,55,55,100,112.5,-125,112.5,247.5,SBD,Raw,Yes
1,Sergey Stepanov,Сергей Степанов,1988-07-28,75,M,Amateur Open,74.4,165,-170,-170,165,-110,110,-112.5,110,192.5,-200,-200,192.5,467.5,SBD,Raw,Yes
1,Sergey Chekmasov,Сергей Чекмасов,1989-03-13,75,M,Amateur Juniors 20-23,73.25,152.5,162.5,170,170,92.5,-100,-100,92.5,190,-202.5,-202.5,190,452.5,SBD,Raw,Yes
1,Dmitriy Kazantsev,Дмитрий Казанцев,1994-10-16,75,M,Amateur Teen 18-19,74.9,160,-170,170,170,110,-120,-120,110,170,-177.5,,170,450,SBD,Raw,Yes
2,Aleksandr Petrukhin,Александр Петрухин,1993-12-07,75,M,Amateur Teen 18-19,71.9,145,-155,-155,145,95,105,112.5,112.5,140,152.5,-160,152.5,410,SBD,Raw,Yes
1,Anatoliy Pudenkov,Анатолий Пуденков,1989-04-13,82.5,M,Amateur Open,78.7,135,140,-145,140,110,117.5,125,125,170,180,-200,180,445,SBD,Raw,Yes
1,Maksim Kalinin,Максим Калинин,1993-06-01,90,M,Amateur Teen 18-19,88.1,175,180,-190,180,140,147.5,152.5,152.5,215,222.5,230,230,562.5,SBD,Raw,Yes
2,Nikolay Vikharev,Николай Вихарев,1996-01-27,90,M,Amateur Teen 16-17,88.1,130,135,140,140,-85,-85,85,85,130,140,150,150,375,SBD,Raw,Yes
3,Nikita Ivanov,Никита Иванов,1993-05-20,82.5,M,Amateur Teen 18-19,78.7,110,120,-130,120,70,80,85,85,120,130,140,140,345,SBD,Raw,Yes
1,Oleg Isaev,Олег Исаев,1985-02-23,90,M,Amateur Open,85.2,160,-170,-170,160,105,110,-112.5,110,155,165,170,170,440,SBD,Raw,Yes
DQ,Aleksey Zotov,Алексей Зотов,1986-07-05,90,M,Amateur Open,86.9,-140,-140,-140,,,,,,,,,,,SBD,Raw,Yes
DQ,Vitaliy Morozov,Виталий Морозов,1975-01-19,90,M,Amateur Open,90,-185,-185,-185,,,,,,,,,,,SBD,Raw,Yes
1,Dmitriy Lavrikov,Дмитрий Лавриков,1972-01-19,90,M,Amateur Masters 40-44,87.9,,170,,170,132.5,,,132.5,175,,,175,477.5,SBD,Raw,Yes
1,Oleg Musatkin,Олег Мусаткин,1967-05-06,100,M,Amateur Open,98.5,205,222,230,230,120,132.5,137.5,137.5,245,262.5,,262.5,630,SBD,Raw,Yes
2,Kirill Ponomarev,Кирилл Пономарев,1980-10-28,100,M,Amateur Open,97.1,190,200,210,210,125,132.5,137.5,137.5,225,232.5,237.5,237.5,585,SBD,Raw,Yes
DQ,Mikhail Loktionov,Михаил Локтионов,1985-09-09,100,M,Amateur Open,91.35,-110,-110,-110,,,,,,,,,,,SBD,Raw,Yes
1,Oleg Musatkin,Олег Мусаткин,1967-05-06,100,M,Amateur Masters 45-49,98.5,205,222.5,230,230,125,132.5,137.5,137.5,245,262.5,,262.5,630,SBD,Raw,Yes
2,Evgeniy Linev,Евгений Линев,1966-10-21,100,M,Amateur Masters 45-49,99.25,230,240,-250,240,130,-150,-150,130,210,240,,240,610,SBD,Raw,Yes
1,Vasiliy Shutko,Василий Шутько,1990-03-19,100,M,Amateur Juniors 20-23,98.85,180,200,210,210,140,-150,150,150,200,210,220,220,580,SBD,Raw,Yes
1,Yuliya Bakhir,Юлия Бахир,1984-02-18,60,F,Pro Open,59.5,115,-120,-120,115,90,-95,95,95,170,190,,190,400,SBD,Raw,No
1,Andrey Komolov,Андрей Комолов,1997-10-20,56,M,Pro Teen 13-15,52.7,65,-70,-70,65,35,40,-45,40,-80,80,-90,80,185,SBD,Raw,No
1,Vladimir Zhadenov,Владимир Жаденов,1987-06-01,67.5,M,Pro Open,66.95,200,-215,-215,200,130,140,-145,140,200,215,-225,215,555,SBD,Raw,No
1,Dmitriy Biryukov,Дмитрий Бирюков,1994-05-28,82.5,M,Pro Teen 18-19,75.7,-140,140,-150,140,115,120,,120,170,175,,175,435,SBD,Raw,No
2,Nikita Golivets,Никита Голивец,1994-11-22,82.5,M,Pro Teen 16-17,79.7,-170,170,-180,170,115,125,,125,200,205,,205,500,SBD,Raw,No
1,Valeriy Polosminninkov,Валерий Полосминнинков,1975-08-12,90,M,Pro Open,88.5,135,142.5,150,150,107.5,-115,115,115,-175,175,-180,175,440,SBD,Raw,No
2,Vladimir Epifanov,Владимир Епифанов,1973-09-27,90,M,Pro Open,89,170,180,185,185,125.5,132.5,135,135,200,,,200,520,SBD,Raw,No
DQ,Aleksandr Provotorov,Александр Провоторов,1979-04-10,90,M,Pro Open,84.85,-170,-175,-175,,,,,,,,,,,SBD,Raw,No
1,Dmitriy Postnov,Дмитрий Постнов,1971-07-17,90,M,Pro Masters 40-44,90,170,190,205,205,127.5,140,147.5,147.5,190,202.5,,202.5,555,SBD,Raw,No
1,Boris Shlizhis,Борис Шлижис,1993-10-20,90,M,Pro Teen 18-19,90,190,205,-215,205,120,-130,-135,120,200,210,220,220,545,SBD,Raw,No
1,Evgeniy Kurnosov,Евгений Курносов,1991-03-28,100,M,Pro Open,93.3,220,230,240,240,150,155,160,160,270,282.5,292.5,292.5,692.5,SBD,Raw,No
2,Andrey Skoartsa,Андрей Скоарца,1985-06-27,100,M,Pro Open,97.3,200,220,230,230,150,160,170,170,282.5,-305,-305,282.5,682.5,SBD,Raw,No
3,Evgeniy Nikolaev,Евгений Николаев,1975-02-09,100,M,Pro Open,94.15,220,230,-237,230,140,155,-170,155,250,270,-290,270,655,SBD,Raw,No
1,Evgeniy Kurnosov,Евгений Курносов,1991-03-28,100,M,Pro Juniors 20-23,93.3,220,230,240,240,150,155,160,160,270,282.5,292.5,292.5,692.5,SBD,Raw,No
1,Vladimir Kornev,Владимир Корнев,1987-04-27,100,M,Pro Open,98.7,150,160,170,170,110,120,130,130,170,185,200,200,500,SBD,Raw,No
1,Aleksandr Kadzaev,Александр Кадзаев,1990-05-03,110,M,Pro Juniors 20-23,107.2,220,-235,-235,220,150,160,165,165,240,265,-280,265,650,SBD,Raw,No
1,Oleg Sergunin,Олег Сергунин,1993-01-20,110,M,Pro Teen 18-19,100.1,170,180,190,190,115,125,-130,125,-180,180,-210,180,495,SBD,Raw,No
1,Ramin Ramazanov,Рамин Рамазанов,1985-11-27,110,M,Pro Open,106.2,250,-275,-275,250,185,195,-205,195,230,265,-275,265,710,SBD,Raw,No
1,Anton Bespoludin,Антон Бесполудин,1976-12-27,125,M,Pro Open,113.4,180,200,220,220,140,150,-160,150,200,215,-225,215,585,SBD,Raw,No
1,Olga Ilicheva,Ольга Ильичева,1979-03-03,67.5,F,Pro Open,67.4,-145,145,-165,145,75,82.5,90,90,130,-145,-145,130,365,SBD,Multi-ply,No
1,Rail Albikov,Раиль Альбиков,1989-04-07,75,M,Pro Juniors 20-23,74.95,-180,180,-190,180,140,150,155,155,175,185,192.5,192.5,527.5,SBD,Multi-ply,No
1,Ernest Arushanyan,Эрнест Арушанян,1991-05-25,82.5,M,Pro Juniors 20-23,81.5,205,215,220,220,147.5,155,-160,155,215,225,-232.5,225,600,SBD,Multi-ply,No
2,Vladimir Avdonin,Владимир Авдонин,1991-01-11,82.5,M,Pro Juniors 20-23,78.6,190,205,212.5,212.5,130,142.5,-152.5,142.5,200,210,215,215,570,SBD,Multi-ply,No
1,Dmitriy Kochevatkin,Дмитрий Кочеваткин,1976-02-18,82.5,M,Pro Open,81.8,245,-255,255,255,200,205,210,210,-230,230,-235,230,695,SBD,Multi-ply,No
1,Denis Atroshenko,Денис Атрошенко,1981-07-30,90,M,Pro Open,88.5,280,300,315,315,200,-210,-210,200,-270,270,-280,270,785,SBD,Multi-ply,No
1,Nikolay Efremov,Николай Ефремов,1991-12-18,100,M,Pro Open,96.5,260,280,,280,190,200,207.5,207.5,260,282.5,,282.5,770,SBD,Multi-ply,No
2,Aleksandr Kamolin,Александр Камолин,1987-12-25,100,M,Pro Open,99.75,255,-270,280,280,185,195,200,200,265,-290,-290,265,745,SBD,Multi-ply,No
1,Ruslan Guseynov,Руслан Гусейнов,1978-11-29,125,M,Pro Open,124,270,290,-300,290,225,,,225,260,280,292.5,292.5,807.5,SBD,Multi-ply,No
1,Alena Urazgalieva,Алена Уразгалиева,1981-10-08,52,F,Amateur Open,50.6,,,,,52.5,55,-57.5,55,,,,,55,B,Raw,Yes
2,Svetlana Kochevatkina,Светлана Кочеваткина,1975-08-05,52,F,Amateur Open,49.9,,,,,50,-52.5,-52.5,50,,,,,50,B,Raw,Yes
3,Svetlana Zemtsova,Светлана Земцова,1975-08-05,52,F,Amateur Open,49.4,,,,,35,40,42.5,42.5,,,,,42.5,B,Raw,Yes
1,Polina Tokareva,Полина Токарева,1998-07-30,56,F,Amateur Teen 13-15,55.8,,,,,-50,50,-55,50,,,,,50,B,Raw,Yes
1,Kristina Bukreeva,Кристина Букреева,1996-04-28,60,F,Amateur Teen 16-17,59,,,,,35,37.5,-40,37.5,,,,,37.5,B,Raw,Yes
1,Regina Vorobeva,Регина Воробьева,1980-07-30,67.5,F,Amateur Open,65.7,,,,,85,-90,-90,85,,,,,85,B,Raw,Yes
2,Nataliya Zagrebina,Наталия Загребина,1977-10-29,67.5,F,Amateur Open,63.9,,,,,62.5,65,,65,,,,,65,B,Raw,Yes
1,Anastasiya Kargina,Анастасия Каргина,1993-01-28,67.5,F,Amateur Teen 18-19,62.4,,,,,62.5,-65,65,65,,,,,65,B,Raw,Yes
1,Dmitriy Kulakov,Дмитрий Кулаков,1996-05-09,56,M,Amateur Teen 16-17,55.5,,,,,82.5,85,-90,85,,,,,85,B,Raw,Yes
DQ,Dmitriy Ogrin,Дмитрий Огрин,1996-09-29,56,M,Amateur Teen 16-17,56,,,,,-75,-80,-80,,,,,,,B,Raw,Yes
1,Georgiy Kotandzhyan,Георгий Котанджян,1996-10-18,60,M,Amateur Teen 16-17,59,,,,,-70,70,75,75,,,,,75,B,Raw,Yes
DQ,Grach Arutyunyan,Грач Арутюнян,1994-10-02,60,M,Amateur Teen 18-19,59.25,,,,,-100,-105,-110,,,,,,,B,Raw,Yes
DQ,Alisher Nazirov,Алишер Назиров,1994-02-07,67.5,M,Amateur Teen 18-19,66.55,,,,,-110,-110,-110,,,,,,,B,Raw,Yes
1,Artem Minasyan,Артем Минасян,1993-09-10,75,M,Amateur Teen 18-19,74.25,,,,,115,120,125,125,,,,,125,B,Raw,Yes
1,Mikhail Kalabin,Михаил Калабин,1989-02-05,75,M,Amateur Juniors 20-23,73.4,,,,,125,-135,-135,125,,,,,125,B,Raw,Yes
1,Vladimir Tonkoglaz,Владимир Тонкоглаз,1996-02-01,75,M,Amateur Teen 16-17,68.15,,,,,115,120,-130,120,,,,,120,B,Raw,Yes
2,Konstantin Balashov,Константин Балашов,1993-06-03,75,M,Amateur Teen 18-19,71.8,,,,,105,117.5,122.5,122.5,,,,,122.5,B,Raw,Yes
2,Dmitriy Skrinev,Дмитрий Скринев,1995-07-05,75,M,Amateur Teen 16-17,70.1,,,,,112,-117.5,117.5,117.5,,,,,117.5,B,Raw,Yes
DQ,Oleg Seleznev,Олег Селезнев,1992-02-27,75,M,Amateur Juniors 20-23,74.7,,,,,-117.5,-117.5,-117.5,,,,,,,B,Raw,Yes
DQ,Kamil Kuzakhmetov,Камиль Кузахметов,1995-05-04,75,M,Amateur Teen 16-17,73.6,,,,,-110,-110,-117.5,,,,,,,B,Raw,Yes
1,Andrey Svidin,Андрей Свидин,1980-02-01,75,M,Amateur Open,75,,,,,135,142.5,145,145,,,,,145,B,Raw,Yes
2,Armen Saakyan,Армен Саакян,1988-09-04,75,M,Amateur Open,73.95,,,,,135,-140,-140,135,,,,,135,B,Raw,Yes
3,Aleksandr Popov,Александр Попов,1986-06-21,75,M,Amateur Open,74,,,,,130,135,-142.5,135,,,,,135,B,Raw,Yes
4,Sabir Mazhitov,Сабир Мажитов,1984-01-04,75,M,Amateur Open,74,,,,,125,130,135,135,,,,,135,B,Raw,Yes
5,Farman Aslanov,Фарман Асланов,1984-06-28,75,M,Amateur Open,73,,,,,125,-135,-135,125,,,,,125,B,Raw,Yes
6,Aleksandr Shesternin,Александр Шестернин,1975-07-26,75,M,Amateur Open,73.3,,,,,112.5,-117.5,-117.5,112.5,,,,,112.5,B,Raw,Yes
7,Yuriy Shcherenko,Юрий Щеренко,1985-02-17,75,M,Amateur Open,74.9,,,,,97.5,105,-110,105,,,,,105,B,Raw,Yes
1,Yuriy Dvizov,Юрий Двизов,1947-02-05,75,M,Amateur Masters 65-69,74.7,,,,,117,-120,120,120,,,,,120,B,Raw,Yes
1,Yuriy Kotrunov,Юрий Котрунов,1994-04-15,82.5,M,Amateur Teen 18-19,81,,,,,115,120,-127.5,120,,,,,120,B,Raw,Yes
2,Arseniy Kruming,Арсений Круминг,1995-08-02,82.5,M,Amateur Teen 16-17,77.1,,,,,100,-110,110,110,,,,,110,B,Raw,Yes
1,Igor Sergeev,Игорь Сергеев,1995-08-31,82.5,M,Amateur Teen 16-17,80.9,,,,,122.5,127.5,130,130,,,,,130,B,Raw,Yes
1,Anatoliy Pudenkov,Анатолий Пуденков,1989-04-13,82.5,M,Amateur Juniors 20-23,78.7,,,,,115,122.5,127.5,127.5,,,,,127.5,B,Raw,Yes
1,Anton Chibisov,Антон Чибисов,1988-02-15,82.5,M,Amateur Open,80.2,,,,,140,145,150,150,,,,,150,B,Raw,Yes
2,Konstantin Sapunkov,Константин Сапунков,1981-09-02,82.5,M,Amateur Open,82.5,,,,,140,-147.5,-147.5,140,,,,,140,B,Raw,Yes
3,Anton Gorbushin,Антон Горбушин,1987-07-07,82.5,M,Amateur Open,81.9,,,,,130,-140,-145,130,,,,,130,B,Raw,Yes
1,Maksim Kalinin,Максим Калинин,1993-06-10,90,M,Amateur Teen 18-19,88.1,,,,,147.5,152.5,-157.5,152.5,,,,,152.5,B,Raw,Yes
1,Artem Mamontov,Артем Мамонтов,1991-01-14,90,M,Amateur Juniors 20-23,88.1,,,,,152.5,160,-165,160,,,,,160,B,Raw,Yes
2,Aleksey Kiryanov,Алексей Кирьянов,1989-04-07,90,M,Amateur Juniors 20-23,88.8,,,,,-140,145,-152.5,145,,,,,145,B,Raw,Yes
3,Mikhail Sharovara,Михаил Шаровара,1991-06-15,90,M,Amateur Juniors 20-23,89.3,,,,,135,-142.5,145,145,,,,,145,B,Raw,Yes
4,Yaroslav Zakharov,Ярослав Захаров,1991-12-25,90,M,Amateur Juniors 20-23,89.6,,,,,132.5,-152.5,-152.5,132.5,,,,,132.5,B,Raw,Yes
1,Artem Kiselev,Артем Киселев,1988-12-17,90,M,Amateur Open,88.7,,,,,170,175,-180,175,,,,,175,B,Raw,Yes
2,Andrey Kirindyasov,Андрей Кириндясов,1988-03-20,90,M,Amateur Open,90,,,,,140,152.5,-160,152.5,,,,,152.5,B,Raw,Yes
3,Aleksey Zotov,Алексей Зотов,1986-07-05,90,M,Amateur Open,86.9,,,,,142.5,147.5,-152.5,147.5,,,,,147.5,B,Raw,Yes
4,Igor Sergeev,Игорь Сергеев,1985-11-01,90,M,Amateur Open,89.71,,,,,-142.5,142.5,-152.5,142.5,,,,,142.5,B,Raw,Yes
5,Konstantin Pershin,Константин Першин,1984-02-10,90,M,Amateur Open,86.7,,,,,130,-142.5,-142.5,130,,,,,130,B,Raw,Yes
1,Dmitriy Lavrikov,Дмитрий Лавриков,1972-01-19,90,M,Amateur Masters 40-44,87.9,,,,,142.5,152.5,-157.5,152.5,,,,,152.5,B,Raw,Yes
2,Aleksey Frolov,Алексей Фролов,1969-05-28,90,M,Amateur Masters 40-44,87.2,,,,,140,145,-152.5,145,,,,,145,B,Raw,Yes
1,Sergey Makeev,Сергей Макеев,1965-09-22,90,M,Amateur Masters 45-49,86,,,,,110,117.5,122.5,122.5,,,,,122.5,B,Raw,Yes
1,Ildar Yagudin,Ильдар Ягудин,1993-04-24,100,M,Amateur Teen 18-19,97.9,,,,,130,140,145,145,,,,,145,B,Raw,Yes
2,Pavel Pasechnik,Павел Пасечник,1993-10-15,100,M,Amateur Teen 18-19,95.4,,,,,132,137.5,-142.5,137.5,,,,,137.5,B,Raw,Yes
1,Oleg Filimonov,Олег Филимонов,1987-03-12,100,M,Amateur Open,97.8,,,,,212.5,222.5,-225,222.5,,,,,222.5,B,Raw,Yes
2,Evgeniy Ryabtsev,Евгений Рябцев,1988-05-08,100,M,Amateur Open,98.8,,,,,175,-185,185,185,,,,,185,B,Raw,Yes
1,Vladimir Varaksin,Владимир Вараксин,1972-02-27,100,M,Amateur Masters 40-44,99.15,,,,,147.5,157.5,162.5,162.5,,,,,162.5,B,Raw,Yes
1,Dmitriy Semizelnikov,Дмитрий Семизельников,1987-04-25,110,M,Amateur Open,109,,,,,185,195,200,200,,,,,200,B,Raw,Yes
2,Aleksandr Lezin,Александр Лёзин,1970-06-03,110,M,Amateur Open,102.8,,,,,155,162.5,-167.5,162.5,,,,,162.5,B,Raw,Yes
3,Pavel Ustyuzhanin,Павел Устюжанин,1985-07-23,110,M,Amateur Open,108.3,,,,,-142.5,147.5,-152.5,147.5,,,,,147.5,B,Raw,Yes
1,Aleksandr Lezin,Александр Лёзин,1970-06-03,110,M,Amateur Masters 40-44,102.8,,,,,155,162.5,-167.5,162.5,,,,,162.5,B,Raw,Yes
1,Elena Grigoreva,Елена Григорьева,1976-06-06,56,F,Amateur Open,55.6,,,,,82.5,-87.5,87.5,87.5,,,,,87.5,B,Multi-ply,Yes
DQ,Nataliya Zagrebina,Наталия Загребина,1977-10-29,67.5,F,Amateur Open,63.9,,,,,-90,-90,-90,,,,,,,B,Multi-ply,Yes
1,Vladimir Strizhak,Владимир Стрижак,1995-08-31,60,M,Amateur Teen 16-17,58.4,,,,,90,95,-100,95,,,,,95,B,Multi-ply,Yes
DQ,Grach Arutyunyan,Грач Арутюнян,1994-10-02,60,M,Amateur Teen 18-19,59.25,,,,,-110,-110,-110,,,,,,,B,Multi-ply,Yes
1,Dmitriy Skrenev,Дмитрий Скренев,1995-07-05,75,M,Amateur Teen 16-17,70.1,,,,,120,125,-130,125,,,,,125,B,Multi-ply,Yes
1,Aleksey Mirgorodskiy,Алексей Миргородский,1987-11-30,67.5,M,Amateur Open,67.5,,,,,150,157.5,-165,157.5,,,,,157.5,B,Multi-ply,Yes
2,Aleksey Zhemchugov,Алексей Жемчугов,1986-07-17,67.5,M,Amateur Open,66.9,,,,,132.5,142.5,-145,142.5,,,,,142.5,B,Multi-ply,Yes
1,Dmitriy Grishchenko,Дмитрий Грищенко,1989-05-28,82.5,M,Amateur Juniors 20-23,80,,,,,150,-160,160,160,,,,,160,B,Multi-ply,Yes
DQ,Sergey Tupikov,Сергей Тупиков,1988-11-12,82.5,M,Amateur Open,81.45,,,,,-172.5,-172.5,-172.5,,,,,,,B,Multi-ply,Yes
1,Vladimir Tishkovskiy,Владимир Тишковский,1986-10-26,90,M,Amateur Open,83.6,,,,,200,-205,205,205,,,,,205,B,Multi-ply,Yes
1,Evgeniy Khripunov,Евгений Хрипунов,1981-03-04,90,M,Amateur Open,89.3,,,,,205,215,220,220,,,,,220,B,Multi-ply,Yes
1,Vasiliy Shpodarev,Василий Шподарев,1989-01-13,110,M,Amateur Juniors 20-23,107.5,,,,,220,-242.5,242.5,242.5,,,,,242.5,B,Multi-ply,Yes
1,Dmitriy Krivosheev,Дмитрий Кривошеев,1981-06-15,110,M,Amateur Open,110,,,,,135,-142.5,-145,135,,,,,135,B,Multi-ply,Yes
1,Artem Sedov,Артем Седов,1979-03-18,125,M,Amateur Open,113.7,,,,,-235,235,-245,235,,,,,235,B,Multi-ply,Yes
2,Pavel Shcheglov,Павел Щеглов,1978-07-18,125,M,Amateur Open,123.7,,,,,205,220,,220,,,,,220,B,Multi-ply,Yes
1,Vitaliy Gritsienko,Виталий Грициенко,1984-05-26,82.5,M,Amateur Open,80,,,,,,,,,220,235,-237.5,235,235,D,Single-ply,Yes
2,Anton Lyusov,Антон Люсов,1986-09-15,82.5,M,Amateur Open,82,,,,,,,,,200,210,-222.5,210,210,D,Single-ply,Yes
3,Yuriy Elin,Юрий Елин,1984-10-06,82.5,M,Amateur Open,82.5,,,,,,,,,205,-235,-235,205,205,D,Single-ply,Yes
1,Olesya Goncharova,Олеся Гончарова,1986-07-30,56,F,Amateur Open,52.6,,,,,,,,,-90,-90,92.5,92.5,92.5,D,Raw,Yes
1,Mariya Galkina,Мария Галкина,1992-09-01,60,F,Amateur Juniors 20-23,58.8,,,,,,,,,-100,100,-110,100,100,D,Raw,Yes
1,Marina Vishnevskaya,Марина Вишневская,1985-10-26,67.5,F,Amateur Open,63.5,,,,,,,,,135,142.5,-147.5,142.5,142.5,D,Raw,Yes
1,Olesya Zotova,Олеся Зотова,1991-01-01,67.5,F,Amateur Juniors 20-23,63.9,,,,,,,,,110,117.5,,117.5,117.5,D,Raw,Yes
1,Mikhail Gorlinskiy,Михаил Горлинский,1998-08-03,60,M,Amateur Teen 13-15,59.5,,,,,,,,,70,100,105,105,105,D,Raw,Yes
1,Viktor Babikov,Виктор Бабиков,1991-12-28,67.5,M,Amateur Juniors 20-23,66.6,,,,,,,,,145,155,-165,155,155,D,Raw,Yes
1,Andrey Minenkov,Андрей Миненков,1985-08-27,67.5,M,Amateur Open,66.5,,,,,,,,,165,175,-180,175,175,D,Raw,Yes
2,Vasiliy Ryazantsev,Василий Рязанцев,1985-10-15,67.5,M,Amateur Open,63.5,,,,,,,,,160,165,-170,165,165,D,Raw,Yes
1,Artur Volkov,Артур Волков,1991-01-03,75,M,Amateur Juniors 20-23,74.6,,,,,,,,,167.5,177.5,180,180,180,D,Raw,Yes
1,Artem Minasyan,Артем Минасян,1993-09-10,75,M,Amateur Teen 18-19,74.25,,,,,,,,,-185,-185,185,185,185,D,Raw,Yes
1,Aleksandr Zhigulin,Александр Жигулин,1986-12-27,75,M,Amateur Open,74.9,,,,,,,,,205,210,-232.5,210,210,D,Raw,Yes
2,Sergey Stepanov,Сергей Степанов,1988-10-22,75,M,Amateur Open,74.9,,,,,,,,,180,190,-192.5,190,190,D,Raw,Yes
3,Petr Krasnoperov,Петр Красноперов,1987-06-24,75,M,Amateur Open,73.4,,,,,,,,,170,-177.5,177.5,177.5,177.5,D,Raw,Yes
4,Aleksandr Shesternin,Александр Шестернин,1975-07-26,75,M,Amateur Open,73.5,,,,,,,,,140,145,150,150,150,D,Raw,Yes
1,Anton Alyabin,Антон Алябин,1984-07-02,82.5,M,Amateur Open,80.9,,,,,,,,,185,195,205,205,205,D,Raw,Yes
2,Aleksey Nedostupov,Алексей Недоступов,1988-07-30,82.5,M,Amateur Open,80.45,,,,,,,,,170,185,-192.5,185,185,D,Raw,Yes
1,Aleksandr Shuvalov,Александр Шувалов,1990-07-10,82.5,M,Amateur Juniors 20-23,81.5,,,,,,,,,200,215,-225,215,215,D,Raw,Yes
1,Dmitriy Lavrikov,Дмитрий Лавриков,1972-01-19,90,M,Amateur Masters 40-44,87.9,,,,,,,,,170,195,,195,195,D,Raw,Yes
1,Aleksandr Teplovodskiy,Александр Тепловодский,1990-06-26,90,M,Amateur Juniors 20-23,88.1,,,,,,,,,222.5,230,-237.5,230,230,D,Raw,Yes
2,Aleksandr Amelchenko,Александр Амельченко,1991-05-19,90,M,Amateur Juniors 20-23,86.75,,,,,,,,,190,195,200,200,200,D,Raw,Yes
DQ,Artem Kiselev,Артем Киселев,1988-12-17,90,M,Amateur Open,88.7,,,,,,,,,-170,,,,,D,Raw,Yes
1,Andrey Ivanyuk,Андрей Иванюк,1986-07-09,90,M,Amateur Open,87.2,,,,,,,,,195,222.5,235,235,235,D,Raw,Yes
2,Aleksey Zotov,Алексей Зотов,1986-07-05,90,M,Amateur Open,88.7,,,,,,,,,160,180,195,195,195,D,Raw,Yes
1,Ildar Yagudin,Ильдар Ягудин,1993-04-24,100,M,Amateur Teen 18-19,97.9,,,,,,,,,210,220,-232.5,220,220,D,Raw,Yes
1,Oleg Musatkin,Олег Мусаткин,1967-05-06,100,M,Amateur Masters 45-49,98.5,,,,,,,,,245,270,290,290,290,D,Raw,Yes
DQ,Aleksey Kiselev,Алексей Киселев,1974-04-27,110,M,Amateur Open,107.6,,,,,,,,,-275,,,,,D,Raw,Yes
1,Aleksey Dmitriev,Алексей Дмитриев,1977-06-02,125,M,Amateur Open,120.1,,,,,,,,,265,275,287.5,287.5,287.5,D,Raw,Yes
1,Yuliya Bakhir,Юлия Бахир,1984-02-18,60,F,Pro Open,59.5,,,,,87.5,92.5,95,95,,,,,95,B,Raw,No
2,Lyubov Maltseva,Любовь Мальцева,1976-07-05,60,F,Pro Open,58,,,,,75,77.5,-80,77.5,,,,,77.5,B,Raw,No
1,Armen Abramyan,Армен Абрамян,1986-10-31,52,M,Pro Open,52,,,,,95,105,,105,,,,,105,B,Raw,No
1,Robert Barsegyan,Роберт Барсегян,1998-01-24,56,M,Pro Teen 13-15,52.15,,,,,75,80,85,85,,,,,85,B,Raw,No
1,Sergey Krysanov,Сергей Крысанов,1994-04-04,60,M,Pro Teen 18-19,57,,,,,80,-85,85,85,,,,,85,B,Raw,No
1,Vladislav Sedunov,Владислав Седунов,1996-08-28,67.5,M,Pro Teen 16-17,64.2,,,,,75,85,90,90,,,,,90,B,Raw,No
1,Rinat Abdyushev,Ринат Абдюшев,1990-01-24,75,M,Pro Juniors 20-23,73.9,,,,,130,135,140,140,,,,,140,B,Raw,No
1,Dmitriy Bochkov,Дмитрий Бочков,1995-10-02,75,M,Pro Teen 16-17,71.6,,,,,110,115,120,120,,,,,120,B,Raw,No
2,Dmitriy Zagrebin,Дмитрий Загребин,1996-07-28,75,M,Pro Teen 16-17,69.9,,,,,70,77.5,85,85,,,,,85,B,Raw,No
1,Aleksandr Otchin,Александр Отчин,1985-07-18,75,M,Pro Open,74.8,,,,,142,150,152.5,152.5,,,,,152.5,B,Raw,No
2,Pavel Zabaznov,Павел Забазнов,1987-02-18,75,M,Pro Open,74.9,,,,,142.5,150,-157,150,,,,,150,B,Raw,No
3,Maksim Chernov,Максим Чернов,1983-11-28,75,M,Pro Open,74.1,,,,,120,130,-140,130,,,,,130,B,Raw,No
4,Sergey Shchedrikov,Сергей Щедриков,1988-03-02,82.5,M,Pro Open,77.2,,,,,-97.5,97.5,105,105,,,,,105,B,Raw,No
1,Martiros Pogosyan,Мартирос Погосян,1991-04-03,82.5,M,Pro Juniors 20-23,80.1,,,,,170,-180,180,180,,,,,180,B,Raw,No
2,Dmitriy Varakin,Дмитрий Варакин,1989-02-27,82.5,M,Pro Juniors 20-23,78.35,,,,,140,150,-155,150,,,,,150,B,Raw,No
1,Aleksandr Sobolev,Александр Соболев,1987-08-18,82.5,M,Pro Open,82.5,,,,,155,162.5,167.5,167.5,,,,,167.5,B,Raw,No
2,Maksim Orlov,Максим Орлов,1981-12-21,82.5,M,Pro Open,82.1,,,,,147.5,155,160,160,,,,,160,B,Raw,No
3,Pavel Dvoryadkin,Павел Дворядкин,1986-07-17,82.5,M,Pro Open,82.5,,,,,150,157.5,-162.5,157.5,,,,,157.5,B,Raw,No
1,Aleksey Nebykov,Алексей Небыков,1966-03-19,90,M,Pro Masters 45-49,86.8,,,,,160,170,-180,170,,,,,170,B,Raw,No
1,Evgeniy Timanteev,Евгений Тимантеев,1983-01-09,90,M,Pro Open,90,,,,,155,162.5,167.5,167.5,,,,,167.5,B,Raw,No
2,Evgeniy Kuznetsov,Евгений Кузнецов,1984-07-04,90,M,Pro Open,88.2,,,,,145,150,-155,150,,,,,150,B,Raw,No
3,Vitaliy Skidan,Виталий Скидан,1974-08-22,90,M,Pro Open,88.7,,,,,145,-165,-170,145,,,,,145,B,Raw,No
1,Andrey Mladentsev,Андрей Младенцев,1969-12-27,100,M,Pro Masters 40-44,98.2,,,,,150,160,-165,160,,,,,160,B,Raw,No
1,Viktor Morozov,Виктор Морозов,1990-09-11,100,M,Pro Juniors 20-23,91.2,,,,,145,-152.5,155,155,,,,,155,B,Raw,No
1,Aleksandr Fomichev #4,Александр Фомичев,1993-04-07,100,M,Pro Teen 18-19,97,,,,,160,165,170,170,,,,,170,B,Raw,No
2,Maksim Rusnak,Максим Руснак,1993-12-29,100,M,Pro Teen 18-19,96.15,,,,,130,-135,137.5,137.5,,,,,137.5,B,Raw,No
3,Sergey Konovalov #6,Сергей Коновалов,1993-09-12,100,M,Pro Teen 18-19,93.1,,,,,-135,-135,135,135,,,,,135,B,Raw,No
1,Stanislav Ilin,Станислав Ильин,1983-11-09,100,M,Pro Open,97,,,,,180,190,205,205,,,,,205,B,Raw,No
2,Sergey Lygin,Сергей Лыгин,1979-10-23,100,M,Pro Open,98,,,,,180,192.5,205,205,,,,,205,B,Raw,No
3,Aleksandr Plaksin,Александр Плаксин,1987-02-14,100,M,Pro Open,100,,,,,190,197,-205,197,,,,,197,B,Raw,No
4,Evgeniy Vetchinov,Евгений Ветчинов,1987-09-01,100,M,Pro Open,95,,,,,180,190,-195,190,,,,,190,B,Raw,No
5,Andrey Zolotukhin,Андрей Золотухин,1985-02-18,100,M,Pro Open,97,,,,,170,180,-190,180,,,,,180,B,Raw,No
6,Evgeniy Fedosov,Евгений Федосов,1981-07-09,100,M,Pro Open,98.1,,,,,175,-190,-190,175,,,,,175,B,Raw,No
7,Denis Chuyko,Денис Чуйко,1986-11-16,100,M,Pro Open,95,,,,,147.5,-155,155,155,,,,,155,B,Raw,No
DQ,Dmitriy Ovsyannikov,Дмитрий Овсянников,1984-08-26,100,M,Pro Open,97.9,,,,,-170,-170,-170,,,,,,,B,Raw,No
1,Oleg Sergulin,Олег Сергулин,1993-01-20,110,M,Pro Teen 18-19,100.1,,,,,115,122.5,-130,122.5,,,,,122.5,B,Raw,No
1,Aleksey Savkin,Алексей Савкин,1990-04-05,110,M,Pro Juniors 20-23,104.7,,,,,165,-172.5,-172.5,165,,,,,165,B,Raw,No
1,Andrey Kulagin,Андрей Кулагин,1978-09-16,110,M,Pro Open,107.6,,,,,210,215,220,220,,,,,220,B,Raw,No
2,Valentin Trepshin,Валентин Трепшин,1987-06-10,110,M,Pro Open,110,,,,,190,-205,,190,,,,,190,B,Raw,No
3,Ivan Mikheev,Иван Михеев,1977-09-12,110,M,Pro Open,100.4,,,,,140,150,160,160,,,,,160,B,Raw,No
1,Vitaliy Makaganov,Виталий Макаганов,1964-02-03,125,M,Pro Masters 45-49,112.6,,,,,180,190,-200,190,,,,,190,B,Raw,No
1,Konstantin Savin,Константин Савин,1986-04-01,125,M,Pro Open,115.2,,,,,207.5,212.5,217.5,217.5,,,,,217.5,B,Raw,No
2,Ruslan Guseynov,Руслан Гусейнов,1978-11-29,125,M,Pro Open,124.9,,,,,190,207.5,,207.5,,,,,207.5,B,Raw,No
3,Mikhail Mirsagatov,Михаил Мирсагатов,1982-03-21,125,M,Pro Open,116,,,,,180,-200,-205,180,,,,,180,B,Raw,No
4,Aleksandr Malofeev,Александр Малофеев,1981-06-06,125,M,Pro Open,113.2,,,,,140,150,160,160,,,,,160,B,Raw,No
1,Igor Lyapkov,Игорь Ляпков,1984-12-21,140,M,Pro Open,125.1,,,,,190,,,190,,,,,190,B,Raw,No
1,Aleksey Marukhnenko,Алексей Марухненко,1971-01-16,140,M,Pro Masters 40-44,135,,,,,175,190,205,205,,,,,205,B,Raw,No
1,Artur Abdyushev,Артур Абдюшев,1993-02-28,75,M,Pro Teen 18-19,70.1,,,,,175,182.5,-190,182.5,,,,,182.5,B,Multi-ply,No
1,Rail Albikov,Раиль Альбиков,1989-04-07,75,M,Pro Juniors 20-23,74.95,,,,,145,152.5,-157.5,152.5,,,,,152.5,B,Multi-ply,No
1,Pavel Zabaznov,Павел Забазнов,1987-02-18,75,M,Pro Open,74.9,,,,,175,187.5,-190,187.5,,,,,187.5,B,Multi-ply,No
DQ,Aleksandr Sobolev,Александр Соболев,1987-08-18,82.5,M,Pro Open,82.5,,,,,-205,-210,-210,,,,,,,B,Multi-ply,No
1,Pavel Dvoryadkin,Павел Дворядкин,1986-07-17,82.5,M,Pro Open,82.5,,,,,185,195,202.5,202.5,,,,,202.5,B,Multi-ply,No
2,Yuriy Elin,Юрий Елин,1984-10-06,82.5,M,Pro Open,82.5,,,,,120,-130,-130,120,,,,,120,B,Multi-ply,No
1,Nikolay Treshkin,Николай Трешкин,1990-12-04,90,M,Pro Juniors 20-23,89.9,,,,,210,220,-230,220,,,,,220,B,Multi-ply,No
DQ,Viktor Morozov,Виктор Морозов,1990-09-11,100,M,Pro Juniors 20-23,91.2,,,,,-165,-170,-170,,,,,,,B,Multi-ply,No
1,Stanislav Ilin,Станислав Ильин,1983-09-09,100,M,Pro Open,95,,,,,220,230,-240,230,,,,,230,B,Multi-ply,No
2,Sergey Malchikov,Сергей Мальчиков,1986-03-04,100,M,Pro Open,99.3,,,,,190,205,220,220,,,,,220,B,Multi-ply,No
3,Vasiliy Sayutin,Василий Саютин,1983-04-28,100,M,Pro Open,99.15,,,,,170,180,-190,180,,,,,180,B,Multi-ply,No
1,Sergey Kakichev,Сергей Какичев,1980-12-11,110,M,Pro Open,109.3,,,,,220,230,-240,230,,,,,230,B,Multi-ply,No
1,Sergey Dzhurilov,Сергей Джурилов,1976-11-30,125,M,Pro Open,120,,,,,250,270,-280,270,,,,,270,B,Multi-ply,No
2,Ruslan Guseynov,Руслан Гусейнов,1978-11-29,125,M,Pro Open,124.9,,,,,255,265,,265,,,,,265,B,Multi-ply,No
3,Mikhail Reutov,Михаил Реутов,1972-12-08,125,M,Pro Open,124,,,,,250,260,-272.5,260,,,,,260,B,Multi-ply,No
4,Aleksandr Malofeev,Александр Малофеев,1981-06-06,125,M,Pro Open,113.2,,,,,180,190,200,200,,,,,200,B,Multi-ply,No
1,Igor Lyapkov,Игорь Ляпков,1984-12-21,140,M,Pro Open,125.1,,,,,240,260,270,270,,,,,270,B,Multi-ply,No
2,Aleksey Tarasov,Алексей Тарасов,1976-03-21,140,M,Pro Open,127.3,,,,,250,260,-270,260,,,,,260,B,Multi-ply,No
3,Viktor Yakhnovskiy,Виктор Яхновский,1988-10-05,140,M,Pro Open,129.3,,,,,150,160,170,170,,,,,170,B,Multi-ply,No
DQ,Sergey Golyush,Сергей Голюш,1972-09-01,140,M,Pro Open,133.1,,,,,-260,-260,-260,,,,,,,B,Multi-ply,No
DQ,Sergey Golyush,Сергей Голюш,1972-09-01,140,M,Pro Masters 40-44,133.1,,,,,-260,-260,-260,,,,,,,B,Multi-ply,No
DQ,Aleksey Marukhnenko,Алексей Марухненко,1971-01-16,140,M,Pro Masters 40-44,135,,,,,-240,,,,,,,,,B,Multi-ply,No
1,Marina Vishnevskaya,Марина Вишневская,1995-10-26,67.5,F,Pro Teen 16-17,66.1,,,,,,,,,130,140,145,145,145,D,Raw,No
1,Sergey Krysanov,Сергей Крысанов,1994-04-04,60,M,Pro Teen 18-19,57,,,,,,,,,145,-152.5,152.5,152.5,152.5,D,Raw,No
1,Nikolay Altunin,Николай Алтунин,1977-07-24,67.5,M,Pro Open,67.1,,,,,,,,,180,200,210,210,210,D,Raw,No
1,Rinat Abdyushev,Ринат Абдюшев,1990-01-24,75,M,Pro Juniors 20-23,73,,,,,,,,,180,190,-195,190,190,D,Raw,No
1,Aleksandr Shchepetnov,Александр Щепетнов,1978-04-10,90,M,Pro Open,89.1,,,,,,,,,190,207.5,215,215,215,D,Raw,No
1,Vladimir Epifanov,Владимир Епифанов,1970-09-27,90,M,Pro Masters 40-44,90,,,,,,,,,-210,210,-230,210,210,D,Raw,No
1,Evgeniy Kurnosov,Евгений Курносов,1991-11-16,100,M,Pro Open,92.5,,,,,,,,,250,270,-285,270,270,D,Raw,No
2,Denis Chuyko,Денис Чуйко,1986-11-16,100,M,Pro Open,97.8,,,,,,,,,215,222.5,-227.5,222.5,222.5,D,Raw,No
DQ,Aleksey Kiselev,Алексей Киселев,1974-04-27,110,M,Pro Open,107.6,,,,,,,,,-270,-270,,,,D,Raw,No
1,Aleksandr Kadzaev,Александр Кадзаев,1990-01-24,110,M,Pro Open,107.2,,,,,,,,,260,285,-300,285,285,D,Raw,No
1,Aleksey Kuchma,Алексей Кучма,1979-01-04,125,M,Pro Open,113.4,,,,,,,,,260,295,-300,295,295,D,Raw,No
