Sex,Name,CyrillicName,BodyweightKg,Squat1Kg,Squat2Kg,Squat3Kg,Best3SquatKg,Squat4Kg,Bench1Kg,Bench2Kg,Bench3Kg,Best3BenchKg,Bench4Kg,Deadlift1Kg,Deadlift2Kg,Deadlift3Kg,Best3DeadliftKg,Deadlift4Kg,TotalKg,WeightClassKg,Event,Equipment,Tested,Division,BirthDate,Place
F,Galina Vavilkina,Галина Вавилкина,47.6,-65,65,70,70,,42.5,45,-47.5,45,,87.5,95,-100,95,,210,48,SBD,Wraps,No,Masters 45-49,1971-04-25,1
F,Anna Smirnova,Анна Смирнова,52.1,80,90,-95,90,,47.5,50,52.5,52.5,,95,-100,100,100,,242.5,56,SBD,Wraps,No,Open,1983-03-09,1
F,Elena Abramova,Елена Абрамова,58.9,65,70,75,75,,40,45,47.5,47.5,,80,85,-90,85,,207.5,60,SBD,Wraps,No,Open,1985-05-29,1
F,Yuliya Yarilina,Юлия Ярилина,67.1,105,110,115,115,,65,67.5,70,70,,-110,-115,115,115,,300,67.5,SBD,Wraps,No,Open,1994-06-14,1
M,Dmitriy Korneev,Дмитрий Корнеев,68.5,-150,-150,-150,,,-100,,,,,-180,,,,,,75,SBD,Wraps,No,Open,1991-01-16,DQ
M,Mikhail Lodygin,Михаил Лодыгин,80.8,125,-130,135,135,,77.5,-82.5,-82.5,77.5,,140,145,150,150,,362.5,82.5,SBD,Wraps,No,Open,1986-04-22,1
M,Igor Shchekotov,Игорь Щекотов,86.7,175,-185,195,195,,115,-120,-120,115,,175,185,200,200,,510,90,SBD,Wraps,No,Open,1987-03-12,2
M,Sergey Petrenko,Сергей Петренко,96.9,-105,105,115,115,,80,85,87.5,87.5,,130,140,150,150,,352.5,100,SBD,Wraps,No,Submasters 33-39,1982-06-11,1
M,Ion Parshikov,Ион Паршиков,114.4,-230,230,-240,230,,155,160,-165,160,,230,235,240,240,,630,125,SBD,Wraps,No,Juniors 20-23,1995-10-14,1
M,Ion Parshikov,Ион Паршиков,114.4,-230,230,-240,230,,155,160,-165,160,,230,235,240,240,,630,125,SBD,Wraps,No,Open,1995-10-14,1
M,Maksim Ardashev,Максим Ардашев,120.2,-80,-100,100,100,,80,-85,87.5,87.5,,100,120,140,140,,327.5,125,SBD,Wraps,No,Masters 40-44,1977-04-16,1
F,Sokhayla Farakhmand,Сохайла Фарахманд,41.7,,,,,,-42.5,42.5,47.5,47.5,,,,,,,47.5,44,B,Raw,No,Open,1988-04-13,1
F,Elena Lysenkova,Елена Лысенкова,47.1,,,,,,-45,-45,45,45,,,,,,,45,48,B,Raw,No,Open,1989-03-29,1
F,Ekaterina Ilinskaya,Екатерина Ильинская,55.7,,,,,,67.5,-70,-70,67.5,,,,,,,67.5,56,B,Raw,No,Open,1988-12-04,1
F,Yuliya Tatarintseva,Юлия Татаринцева,56.2,,,,,,60,-62.5,-62.5,60,,,,,,,60,60,B,Raw,No,Open,1993-09-26,2
F,Tatyana Chaplygina,Татьяна Чаплыгина,53.5,,,,,,50,55,57.5,57.5,,,,,,,57.5,56,B,Raw,No,Open,1984-05-05,3
F,Elena Abramova,Елена Абрамова,58.9,,,,,,40,,,40,,,,,,,40,60,B,Raw,No,Open,1985-05-29,1
F,Irina Yakovleva,Ирина Яковлева,73.9,,,,,,-90,90,-95,90,,,,,,,90,75,B,Raw,No,Masters 45-49,1970-01-08,1
M,Aleksandr Matveev,Александр Матвеев,55.1,,,,,,72.5,80,-82.5,80,,,,,,,80,56,B,Raw,No,Juniors 20-23,1995-12-05,1
M,Sergey Pustomolotov,Сергей Пустомолотов,60,,,,,,-55,65,-67.5,65,,,,,,,65,60,B,Raw,No,Open,1979-11-29,1
M,Artem Naumov,Артем Наумов,66.7,,,,,,120,125,130,130,,,,,,,130,67.5,B,Raw,No,Open,1984-06-12,1
M,Ivan Yarilin,Иван Ярилин,67.5,,,,,,120,-125,-125,120,,,,,,,120,67.5,B,Raw,No,Open,1993-12-07,2
M,Daniil Isaev,Даниил Исаев,72.5,,,,,,-90,92.5,-95,92.5,,,,,,,92.5,75,B,Raw,No,Teen 13-15,2002-12-23,1
M,Denis Kuklin,Денис Куклин,72.8,,,,,,127.5,135,137.5,137.5,,,,,,,137.5,75,B,Raw,No,Open,1989-09-06,2
M,Aleksey Nechaev,Алексей Нечаев,74.5,,,,,,-125,125,-135,125,,,,,,,125,75,B,Raw,No,Open,1987-11-17,3
M,Edvard Dyakov,Эдвард Дьяков,73.3,,,,,,-110,-117.5,,,,,,,,,,75,B,Raw,No,Open,1989-01-27,DQ
M,Vladislav Krasnov,Владислав Краснов,81.1,,,,,,140,145,147.5,147.5,,,,,,,147.5,82.5,B,Raw,No,Juniors 20-23,1997-11-02,1
M,Timofey Chernyavskiy,Тимофей Чернявский,80.3,,,,,,165,170,-175,170,,,,,,,170,82.5,B,Raw,No,Open,1985-09-08,1
M,Evgeniy Plaksin,Евгений Плаксин,82,,,,,,155,-160,-160,155,,,,,,,155,82.5,B,Raw,No,Open,1987-12-26,2
M,Dmitriy Sergeev,Дмитрий Сергеев,78.6,,,,,,115,-120,-120,115,,,,,,,115,82.5,B,Raw,No,Open,1987-02-12,3
M,Vladlen Drygin,Владлен Дрыгин,81.6,,,,,,105,107.5,110,110,,,,,,,110,82.5,B,Raw,No,Masters 60-64,1956-02-18,1
M,Artem Verzhanovskiy,Артем Вержановский,85.8,,,,,,-100,100,-102.5,100,,,,,,,100,90,B,Raw,No,Teen 13-15,2002-10-24,1
M,Igor Rogachev,Игорь Рогачев,88.5,,,,,,145,-152.5,-152.5,145,,,,,,,145,90,B,Raw,No,Juniors 20-23,1994-08-07,1
M,Vadim Orekhov,Вадим Орехов,88,,,,,,127.5,132.5,137.5,137.5,,,,,,,137.5,90,B,Raw,No,Open,1989-10-08,2
M,Sergey Dementev,Сергей Дементьев,87.5,,,,,,127.5,132.5,-135,132.5,,,,,,,132.5,90,B,Raw,No,Open,1983-02-22,4
M,Dmitriy Aristov,Дмитрий Аристов,87.8,,,,,,125,-130,-130,125,,,,,,,125,90,B,Raw,No,Open,1981-01-21,5
M,Georgiy Timokhin,Георгий Тимохин,87.7,,,,,,115,120,-132.5,120,,,,,,,120,90,B,Raw,No,Open,1993-01-29,6
M,Igor Sukharev,Игорь Сухарев,85.2,,,,,,-132.5,-132.5,-132.5,,,,,,,,,90,B,Raw,No,Open,1989-12-20,DQ
M,Aleksey Shustov,Алексей Шустов,95.8,,,,,,170,-177.5,-177.5,170,,,,,,,170,100,B,Raw,No,Open,1985-10-19,4
M,Vitaliy Danilov,Виталий Данилов,95.3,,,,,,155,160,-165,160,,,,,,,160,100,B,Raw,No,Open,1986-08-23,5
M,Mikhail Urlov,Михаил Урлов,96.5,,,,,,155,-162.5,-162.5,155,,,,,,,155,100,B,Raw,No,Open,1984-07-30,6
M,Ruslan Rozmirets,Руслан Розмирец,96.6,,,,,,-155,155,-165,155,,,,,,,155,100,B,Raw,No,Open,1976-08-26,7
M,Dmitriy Kutelvyas,Дмитрий Кутельвяс,94.1,,,,,,-140,140,150,150,,,,,,,150,100,B,Raw,No,Open,1991-11-21,8
M,Vladimir Levykin,Владимир Левыкин,93.9,,,,,,147.5,-155,-155,147.5,,,,,,,147.5,100,B,Raw,No,Open,1981-07-19,9
M,Dmitriy Chernyavskiy,Дмитрий Чернявский,93.2,,,,,,-140,140,-145,140,,,,,,,140,100,B,Raw,No,Open,1985-09-08,10
M,Andrey Zaykin,Андрей Зайкин,96.9,,,,,,-175,-175,-177.5,,,,,,,,,100,B,Raw,No,Open,1984-01-21,DQ
M,Yuriy Vavilkin,Юрий Вавилкин,97.4,,,,,,-130,-135,-135,,,,,,,,,100,B,Raw,No,Open,1994-03-04,DQ
M,Anton Panchev,Антон Панчев,99.6,,,,,,-132.5,-132.5,-140,,,,,,,,,100,B,Raw,No,Open,1987-10-05,DQ
M,Sergey Ovinov,Сергей Овинов,96.3,,,,,,150,155,-160,155,,,,,,,155,100,B,Raw,No,Masters 40-44,1976-09-17,2
M,Ruslan Rozmirets,Руслан Розмирец,96.6,,,,,,-155,155,-165,155,,,,,,,155,100,B,Raw,No,Masters 40-44,1976-08-26,3
M,Aleksandr Mantserov,Александр Манцеров,109.1,,,,,,-205,,205,205,,,,,,,205,110,B,Raw,No,Open,1983-06-13,1
M,Ruslan Namazov,Руслан Намазов,105.4,,,,,,-140,147.5,170,170,,,,,,,170,110,B,Raw,No,Open,1994-01-07,3
M,Vladimir Seleznev,Владимир Селезнев,122.3,,,,,,165,170,-175,170,,,,,,,170,125,B,Raw,No,Open,1977-05-09,1
M,Vadim Stepanov,Вадим Степанов,118,,,,,,160,-167.5,-172.5,160,,,,,,,160,125,B,Raw,No,Open,1986-08-24,2
M,Vadim Korzinkin,Вадим Корзинкин,115.3,,,,,,-160,-170,-170,,,,,,,,,125,B,Raw,No,Open,1983-03-26,DQ
M,Vladimir Seleznev,Владимир Селезнев,122.3,,,,,,165,170,-175,170,,,,,,,170,125,B,Raw,No,Masters 40-44,1977-05-09,1
M,Igor Bychkov,Игорь Бычков,112.8,,,,,,170,-172.5,-172.5,170,,,,,,,170,125,B,Raw,No,Masters 45-49,1970-06-18,1
M,Vladimir Chubarov,Владимир Чубаров,122.7,,,,,,170,-172.5,-172.5,170,,,,,,,170,125,B,Raw,No,Masters 50-54,1964-04-03,1
F,Galina Vavilkina,Галина Вавилкина,47.6,,,,,,,,,,,100,-107.5,,100,,100,48,D,Raw,No,Open,1971-04-25,1
F,Mariya Zhumagulova,Мария Жумагулова,49.4,,,,,,,,,,,70,-75,-75,70,,70,52,D,Raw,No,Open,1991-08-04,1
F,Ekaterina Manyazhina,Екатерина Маняжина,56.2,,,,,,,,,,,90,-95,-95,90,,90,60,D,Raw,No,Teen 18-19,1998-08-02,1
F,Elena Abramova,Елена Абрамова,58.9,,,,,,,,,,,80,85,-90,85,,85,60,D,Raw,No,Open,1985-05-29,1
F,Elizaveta Vashkeba,Елизавета Вашкеба,67.1,,,,,,,,,,,140,142.5,145,145,,145,67.5,D,Raw,No,Juniors 20-23,1997-08-27,1
F,Darya Kalugina,Дарья Калугина,71.6,,,,,,,,,,,137.5,142.5,-147.5,142.5,,142.5,75,D,Raw,No,Open,1983-07-17,1
F,Irina Zmievskaya,Ирина Змиевская,71.2,,,,,,,,,,,92.5,97.5,100,100,,100,75,D,Raw,No,Open,1988-11-17,2
F,Anna Chefranova,Анна Чефранова,76.2,,,,,,,,,,,80,90,102.5,102.5,,102.5,82.5,D,Raw,No,Masters 45-49,1969-05-25,1
M,Ivan Yarilin,Иван Ярилин,67.5,,,,,,,,,,,190,-200,-200,190,,190,67.5,D,Raw,No,Open,1993-12-07,1
M,Aleksey Zryuev,Алексей Зрюев,74.2,,,,,,,,,,,-202.5,202.5,-205,202.5,,202.5,75,D,Raw,No,Open,1991-07-27,1
M,Aleksandr Osokin,Александр Осокин,80.3,,,,,,,,,,,190,-205,-205,190,,190,82.5,D,Raw,No,Juniors 20-23,1995-03-22,1
M,Stepan Dupenko,Степан Дупенко,81.3,,,,,,,,,,,190,202.5,-215,202.5,,202.5,82.5,D,Raw,No,Open,1989-02-05,2
M,Sergey Torchin,Сергей Торчин,78.9,,,,,,,,,,,-175,185,187.5,187.5,,187.5,82.5,D,Raw,No,Open,1984-03-11,3
M,Dmitriy Sheremetev,Дмитрий Шереметьев,87,,,,,,,,,,,-200,210,222.5,222.5,,222.5,90,D,Raw,No,Open,1982-07-08,2
M,Aleksandr Kornilenko,Александр Корниленко,87.9,,,,,,,,,,,-195,195,202.5,202.5,,202.5,90,D,Raw,No,Masters 40-44,1975-09-27,1
M,Igor Khovanets,Игорь Хованец,87.6,,,,,,,,,,,140,145,147.5,147.5,,147.5,90,D,Raw,No,Masters 60-64,1957-01-07,1
M,Mikhail Zhukov,Михаил Жуков,98.5,,,,,,,,,,,250,-280,-280,250,,250,100,D,Raw,No,Open,1987-02-26,1
M,Sergey Ovinov,Сергей Овинов,96.3,,,,,,,,,,,210,215,-220,215,,215,100,D,Raw,No,Masters 40-44,1976-09-17,1
M,Kirill Abakumov,Кирилл Абакумов,108,,,,,,,,,,,200,210,-240,210,,210,110,D,Raw,No,Juniors 20-23,1994-11-12,1
M,Ion Parshikov,Ион Паршиков,114.4,,,,,,,,,,,230,235,240,240,,240,125,D,Raw,No,Juniors 20-23,1995-10-14,1
M,Yuriy Kolmakov,Юрий Колмаков,118.3,,,,,,,,,,,280,300,315,315,,315,125,D,Raw,No,Open,1983-05-06,1
M,Sergey Lukyanov,Сергей Лукьянов,115.7,,,,,,,,,,,-150,160,170,170,,170,125,D,Raw,No,Masters 60-64,1955-10-25,1
F,Elena Enina,Елена Енина,51.7,,,,,,,,,,,145,155,-162.5,155,,155,52,D,Single-ply,No,Open,1989-05-10,1
F,Anastasiya Bychkova,Анастасия Бычкова,55.7,80,90,-100,90,,-40,40,45,45,,75,80,-85,80,,215,56,SBD,Wraps,No,Teen 16-17,2001-11-05,1
M,Zurab Zhilenko,Зураб Жиленко,86.4,-175,180,195,195,,135,145,-150,145,,-190,-205,205,205,,545,90,SBD,Wraps,No,Open,1990-04-02,1
M,Dmitriy Loginov,Дмитрий Логинов,121.2,-350,350,-370,350,,235,245,252.5,252.5,,-340,350,-375,350,,952.5,125,SBD,Single-ply,No,Open,1989-05-12,1
M,Dmitriy Baryshev,Дмитрий Барышев,67.4,,,,,,120,-125,-125,120,,,,,,,120,67.5,B,Raw,No,Juniors 20-23,1997-01-09,1
M,Dmitriy Ayrapetyan,Дмитрий Айрапетян,73.6,,,,,,130,137.5,140,140,,,,,,,140,75,B,Raw,No,Open,1987-10-25,1
M,Vadim Aksenchik,Вадим Аксенчик,87.9,,,,,,172.5,180,182.5,182.5,,,,,,,182.5,90,B,Raw,No,Open,1982-05-26,1
M,Aleksey Armashov,Алексей Армашов,83.2,,,,,,130,-135,135,135,,,,,,,135,90,B,Raw,No,Open,1988-11-14,3
M,Vladimir Uvetov,Владимир Уветов,98.1,,,,,,210,215,-220,215,,,,,,,215,100,B,Raw,No,Open,1979-04-12,1
M,Anton Belov,Антон Белов,97,,,,,,200,-205,205,205,,,,,,,205,100,B,Raw,No,Open,1985-03-24,2
M,Ilya Snezhkov,Илья Снежков,98.2,,,,,,200,205,-210,205,,,,,,,205,100,B,Raw,No,Open,1989-12-06,3
M,Dmitriy Kulagin,Дмитрий Кулагин,98.7,,,,,,-150,-150,-150,,,,,,,,,100,B,Raw,No,Open,1989-06-07,DQ
M,Nodar Tsutskiridze,Нодар Цуцкиридзе,100,,,,,,170,180,,180,,,,,,,180,100,B,Raw,No,Masters 40-44,1976-09-14,1
M,Aleksey Novozhilov,Алексей Новожилов,99.5,,,,,,150,155,160,160,,,,,,,160,100,B,Raw,No,Masters 45-49,1972-03-28,1
M,Evgeniy Balandin,Евгений Баландин,104.5,,,,,,125,135,-142.5,135,,,,,,,135,110,B,Raw,No,Teen 18-19,1999-07-12,1
M,Dmitriy Medvedev,Дмитрий Медведев,107.6,,,,,,125,132.5,-140,132.5,,,,,,,132.5,110,B,Raw,No,Juniors 20-23,1996-03-16,1
M,Sergey Venin,Сергей Венин,108.2,,,,,,190,-197.5,-197.5,190,,,,,,,190,110,B,Raw,No,Open,1985-05-23,2
M,Mikhail Nikolaev,Михаил Николаев,124,,,,,,-200,,,,,,,,,,,125,B,Raw,No,Open,1961-05-27,DQ
M,Mikhail Nikolaev,Михаил Николаев,124,,,,,,-200,,,,,,,,,,,125,B,Raw,No,Masters 55-59,1961-05-27,DQ
M,Denis Kuklin,Денис Куклин,72.8,,,,,,160,-170,-170,160,,,,,,,160,75,B,Unlimited,No,Open,1989-09-06,1
M,Yuriy Dobrynin,Юрий Добрынин,72.9,,,,,,147.5,-160,160,160,,,,,,,160,75,B,Unlimited,No,Masters 45-49,1971-02-13,1
M,Andrey Babenkov,Андрей Бабенков,85.7,,,,,,-215,-215,215,215,,,,,,,215,90,B,Unlimited,No,Open,1991-07-16,1
M,Sergey Khovanets,Сергей Хованец,85.6,,,,,,-150,-150,-150,,,,,,,,,90,B,Unlimited,No,Open,1985-03-13,DQ
M,Kirill Makushin,Кирилл Макушин,86.9,,,,,,-185,-185,-185,,,,,,,,,90,B,Unlimited,No,Open,1986-08-10,DQ
M,Viktor Kotov,Виктор Котов,123.6,,,,,,235,260,-265,260,,,,,,,260,125,B,Unlimited,No,Open,1989-10-10,1
M,Anton Tukaev,Антон Тукаев,76.8,,,,,,-160,-177.5,-177.5,,,,,,,,,82.5,B,Unlimited,No,Open,1990-07-03,DQ
M,Aleksey Bartenev,Алексей Бартенев,80.4,,,,,,-250,-272.5,272.5,272.5,,,,,,,272.5,82.5,B,Unlimited,No,Masters 40-44,1975-03-31,1
M,Yuriy Korikov,Юрий Кориков,81.4,,,,,,-180,-180,-190,,,,,,,,,82.5,B,Unlimited,No,Masters 55-59,1962-04-24,DQ
M,Sergey Zakharov,Сергей Захаров,106.3,,,,,,230,240,250,250,,,,,,,250,110,B,Unlimited,No,Open,1991-03-20,1
M,Pavel Amelchenkov,Павел Амельченков,78.8,,,,,,,,,,,215,222.5,-225,222.5,,222.5,82.5,D,Raw,No,Open,1984-02-24,1
M,Aleksey Armashov,Алексей Армашов,83.2,,,,,,,,,,,220,-230,230,230,,230,90,D,Raw,No,Open,1988-11-14,1
M,Aleksey Kucheryavenkov,Алексей Кучерявенков,119.3,,,,,,,,,,,245,-257.5,-257.5,245,,245,125,D,Raw,No,Open,1981-04-21,2
