Place,Name,BodyweightKg,Squat1Kg,Squat2Kg,Squat3Kg,Best3SquatKg,Bench1Kg,Bench2Kg,Bench3Kg,Best3BenchKg,Deadlift1Kg,Deadlift2Kg,Deadlift3Kg,Best3DeadliftKg,TotalKg,WeightClassKg,Sex,CyrillicName,BirthYear,Equipment,Event,Division
1,Sergey Zhuravlev #1,51.54,200,215,-220,215,100,110,112.5,112.5,190,200,-210,200,527.5,52,M,Сергей Журавлев,1960,Single-ply,SBD,Open
2,Igor Artemyev,51.82,160,167.5,,167.5,115,122.5,-125,122.5,160,175,185,185,475,52,M,Игорь Артемьев,1971,Single-ply,SBD,Open
3,Valeriy Krasnov,52,150,162.5,172.5,172.5,80,85,-90,85,170,180,-192.5,180,437.5,52,M,Валерий Краснов,1984,Single-ply,SBD,Open
1,Fanil Mukhamatyanov,55.97,215,225,-235,225,155,165,172.5,172.5,175,185,195,195,592.5,56,M,Фаниль Мухаматьянов,1972,Single-ply,SBD,Open
2,Petr Zapolskiy,55.22,195,205,-210,205,115,120,-125,120,195,200,-215,200,525,56,M,Петр Запольский,1980,Single-ply,SBD,Open
3,Andrey Svistunov,55.94,190,200,207.5,207.5,110,117.5,120,120,185,192.5,197.5,197.5,525,56,M,Андрей Свистунов,1977,Single-ply,SBD,Open
4,Vitaliy Burmatov,55.58,172.5,180,187.5,187.5,105,112.5,115,115,187.5,197.5,215,215,517.5,56,M,Виталий Бурматов,1976,Single-ply,SBD,Open
5,Mikhail Voskresenskiy,55.96,180,190,-195,190,100,110,-112.5,110,180,190,-192.5,190,490,56,M,Михаил Воскресенский,1983,Single-ply,SBD,Open
6,Oleg Artemyev,55.36,165,175,182.5,182.5,120,130,-135,130,150,170,-177.5,170,482.5,56,M,Олег Артемьев,1971,Single-ply,SBD,Open
1,Aleksandr Gromov,59.84,240,255,-262.5,255,150,-165,165,165,-207.5,215,220,220,640,60,M,Александр Громов,1981,Single-ply,SBD,Open
2,Nikolay Asabin,59.32,235,245,-252.5,245,145,-155,155,155,225,235,-240,235,635,60,M,Николай Асабин,1978,Single-ply,SBD,Open
3,Valeriy Bogdanov,60,225,232.5,,232.5,175,182.5,186,186,210,-220,-220,210,628.5,60,M,Валерий Богданов,1970,Single-ply,SBD,Open
4,Sergey Savinykh,59.08,-240,-240,240,240,155,160,162.5,162.5,-210,210,-215,210,612.5,60,M,Сергей Савиных,1983,Single-ply,SBD,Open
5,Aleksandr Zolov,59.58,-220,220,-230,220,155,-165,165,165,220,-230,-230,220,605,60,M,Александр Золов,1980,Single-ply,SBD,Open
6,Ayrat Zakiev,59.38,-220,220,232.5,232.5,170,177.5,185.5,185.5,175,185,-192.5,185,603,60,M,Айрат Закиев,1981,Single-ply,SBD,Open
7,Maxim Nurutdinov,59.98,-230,230,245,245,115,122.5,125,125,215,220,-225,220,590,60,M,Максим Нурутдинов,1982,Single-ply,SBD,Open
8,Vitaliy Petrochenko,59.84,215,-222.5,-225,215,145,150,-155,150,210,220,-225,220,585,60,M,Виталий Петроченко,1982,Single-ply,SBD,Open
9,Pavel Chernikov,59.96,225,232.5,-237.5,232.5,115,120,122.5,122.5,215,230,-240,230,585,60,M,Павел Черников,1973,Single-ply,SBD,Open
10,Maksim Beloborodov,59.54,215,-230,-230,215,130,140,-142.5,140,215,-230,-230,215,570,60,M,Максим Белобородов,1983,Single-ply,SBD,Open
11,Anatoliy Proskurin,59.62,210,220,-230,220,105,115,-122.5,115,200,215,-225,215,550,60,M,Анатолий Проскурин,1972,Single-ply,SBD,Open
12,Aleksey Shalonkin,59.78,195,207.5,215,215,110,115,-120,115,195,205,-215,205,535,60,M,Алексей Шалонкин,1979,Single-ply,SBD,Open
13,Albert Valeev,59.88,195,202.5,205,205,130,140,-142.5,140,185,190,-200,190,535,60,M,Альберт Валеев,1983,Single-ply,SBD,Open
14,Gennadiy Zykov,59.82,195,202.5,-205,202.5,120,-125,125,125,190,-200,-200,190,517.5,60,M,Геннадий Зыков,1979,Single-ply,SBD,Open
DQ,Denis Yurchenko,59.76,-210,-210,-210,,,,,,,,,,,60,M,Денис Юрченко,1985,Single-ply,SBD,Open
DQ,Konstantin Belushkin,59.92,-230,-230,,,,,,,,,,,,60,M,Константин Белушкин,1984,Single-ply,SBD,Open
DQ,Konstantin Girin,58.98,210,220,-235,220,140,145,150,150,-215,-215,-215,,,60,M,Константин Гирин,1981,Single-ply,SBD,Open
1,Evgeniy Dolgov,66.9,260,270,-280,270,155,160,162.5,162.5,260,277.5,282.5,282.5,715,67.5,M,Евгений Долгов,1976,Single-ply,SBD,Open
2,Nikolay Sokolov,66.85,270,-282.5,282.5,282.5,170,-180,180,180,250,265,270,270,732.5,67.5,M,Николай Соколов,1979,Single-ply,SBD,Open
3,Sergey Filyagin,67.25,250,260,265,265,180,-187.5,-187.5,180,255,265,-280,265,710,67.5,M,Сергей Филягин,1978,Single-ply,SBD,Open
9,Ruslan Araslanov,67.5,240,247.5,-255,247.5,170,177.5,-182.5,177.5,250,265,-275,265,690,67.5,M,Руслан Арасланов,1976,Single-ply,SBD,Open
5,Alexey Merkulov,67,255,260,272.5,272.5,175,185,190,190,220,-225,225,225,687.5,67.5,M,Алексей Меркулов,1983,Single-ply,SBD,Open
6,Stanislav Petrushin,67.5,230,-240,-240,230,160,167.5,172.5,172.5,240,250,-257.5,250,652.5,67.5,M,Станислав Петрушин,1972,Single-ply,SBD,Open
7,Igor Teplykh,67.1,252.5,260,265,265,155,-160,160,160,225,-235,235,235,660,67.5,M,Игорь Теплых,1973,Single-ply,SBD,Open
8,Yuriy Karasev,67.3,245,255,-260,255,137.5,-140,-140,137.5,257.5,-267.5,-267.5,257.5,650,67.5,M,Юрий Карасов,1981,Single-ply,SBD,Open
9,Ivan Yurchenko,66.55,230,240,245,245,135,140,-142.5,140,255,260,-275,260,645,67.5,M,Иван Юрченко,1981,Single-ply,SBD,Open
10,Maksim Gnatyuk,66.65,235,-245,-247.5,235,-145,145,-152.5,145,250,265,-280,265,645,67.5,M,Максим Гнатюк,1982,Single-ply,SBD,Open
11,Anatoliy Glazunov,67.45,245,260,-270,260,160,-170,-170,160,215,225,-232.5,225,645,67.5,M,Анатолий Глазунов,1974,Single-ply,SBD,Open
13,Ilya Kokorev,65.05,240,250,-255,250,140,-155,-155,140,240,-255,-255,240,630,67.5,M,Илья Кокорев,1973,Single-ply,SBD,Open
14,Emil Galeev,66.8,-225,225,-230,225,150,-155,-155,150,250,-285,-285,250,625,67.5,M,Эмиль Галеев,1969,Single-ply,SBD,Open
15,Evgeniy Efimov,67.3,230,237.5,-242.5,237.5,132.5,140,-145,140,232.5,240,-247.5,240,617.5,67.5,M,Евгений Ефимов,1982,Single-ply,SBD,Open
16,Evgeniy Baranov,67.5,-230,230,-240,230,150,-160,160,160,220,230,-240,230,620,67.5,M,Евгений Баранов,1972,Single-ply,SBD,Open
17,Aleksey Ganichev,67.45,230,-245,-245,230,137.5,142.5,145,145,235,-245,-245,235,610,67.5,M,Алексей Ганичев,1980,Single-ply,SBD,Open
18,Alexey Bakhirev,67.45,-212.5,212.5,-220,212.5,140,-152.5,152.5,152.5,240,-255,-265,240,605,67.5,M,Алексей Бахирев,1981,Single-ply,SBD,Open
19,Mikhail Kryukov,67.25,225,232.5,-237.5,232.5,135,-140,-140,135,220,-230,230,230,597.5,67.5,M,Михаил Крюков,1972,Single-ply,SBD,Open
20,Aleksey Chirukhin,67.15,210,220,-225,220,125,130,135,135,225,235,-245,235,590,67.5,M,Алексей Чирухин,1978,Single-ply,SBD,Open
21,Igor Lyubaev,66.65,220,-230,-230,220,110,115,125,125,220,230,-240,230,575,67.5,M,Игорь Любаев,1979,Single-ply,SBD,Open
22,Izrail Musaev,66.85,210,220,-230,220,120,130,-140,130,-210,210,-220,210,560,67.5,M,Израил Мусаев,1981,Single-ply,SBD,Open
DQ,Sergey Shekurov,66.75,-240,240,250,250,160,-165,,160,-220,-220,-220,,,67.5,M,Сергей Шекуров,1981,Single-ply,SBD,Open
DQ,Igor Kuimov,66.75,240,250,-255,250,-145,-145,-145,,,,,,,67.5,M,Игорь Куимов,1962,Single-ply,SBD,Open
1,Viktor Baranov,74.3,280,300,310,310,170,177.5,182.5,182.5,282.5,302.5,-312.5,302.5,795,75,M,Виктор Баранов,1967,Single-ply,SBD,Open
2,Andrey Belyaev #1,74.95,275,-295,305,305,180,190,195,195,275,295,-305,295,795,75,M,Андрей Беляев,1983,Single-ply,SBD,Open
3,Sergey Ushakov,74.95,280,300,310,310,185,197.5,205,205,260,,275,275,790,75,M,Сергей Ушаков,1974,Single-ply,SBD,Open
4,Sergey Koshkin,74.95,290,305,310,310,190,197.5,-200,197.5,260,267.5,-277.5,267.5,775,75,M,Сергей Кошкин,1971,Single-ply,SBD,Open
5,Andrey Altsybeev,75,282.5,295,-302.5,295,160,172.5,180,180,280,-290,-290,280,755,75,M,Андрей Алцыбеев,1978,Single-ply,SBD,Open
6,Oleg Ryabinnikov,74.95,275,285,295,295,170,177.5,-182.5,177.5,280,-302.5,-302.5,280,752.5,75,M,Олег Рябинников,1978,Single-ply,SBD,Open
7,Aleksey Kuleshov,74.6,280,300,-305,300,150,160,170,170,250,270,-285,270,740,75,M,Алексей Кулешов,1980,Single-ply,SBD,Open
8,Ruslan Guliev,74.6,270,280,-290,280,185,197.5,-202.5,197.5,250,260,-272.5,260,737.5,75,M,Руслан Гулиев,1981,Single-ply,SBD,Open
9,Dmitriy Dvornikov,74.9,285,-295,295,295,160,167.5,-170,167.5,260,270,-280,270,732.5,75,M,Дмитрий Дворников,1982,Single-ply,SBD,Open
10,Vladimir Sokolov,75,260,270,-280,270,160,170,-172.5,170,260,270,,270,710,75,M,Владимир Соколов,1976,Single-ply,SBD,Open
11,Alexey Ryabkov,74.9,270,-285,-285,270,155,-162.5,-162.5,155,240,250,260,260,685,75,M,Алексей Рябков,1983,Single-ply,SBD,Open
12,Oleg Vorozheykin,75,260,270,-280,270,-140,147.5,152.5,152.5,240,-245,,240,662.5,75,M,Олег Ворожейкин,1980,Single-ply,SBD,Open
18,Dmitriy Khametov,74.8,240,-247.5,247.5,247.5,160,165,170,170,232.5,240,250,250,667.5,75,M,Дмитрий Хаметов,1973,Single-ply,SBD,Open
14,Khanpasha Usumov,75,250,-260,-260,250,140,145,150,150,240,-250,-250,240,640,75,M,Ханпаша Усумов,1982,Single-ply,SBD,Open
15,Marat Latfullov,73.85,230,240,242.5,242.5,-165,165,170,170,225,-237.5,,225,637.5,75,M,Марат Латфуллов,1961,Single-ply,SBD,Open
16,Sergey Letuta,73.7,240,250,-255,250,150,-157.5,-157.5,150,220,-250,-250,220,620,75,M,Сергей Летута,1982,Single-ply,SBD,Open
17,Maksim Tokarev,72.6,240,250,-260,250,140,-147.5,147.5,147.5,-220,220,,220,617.5,75,M,Максим Токарев,1975,Single-ply,SBD,Open
18,Evgeniy Ufimtsev,73.2,-220,220,-230,220,130,140,145,145,250,-260,,250,615,75,M,Евгений Уфимцев,1982,Single-ply,SBD,Open
DQ,Sergey Vlaznev,74.7,250,270,-280,270,-210,-210,-210,,,,,,,75,M,Сергей Влазнев,1974,Single-ply,SBD,Open
1,Sergey Gordeev,82.3,305,-320,-330,305,180,190,197.5,197.5,302.5,320,330,330,832.5,82.5,M,Сергей Гордеев,1976,Single-ply,SBD,Open
2,Sergey Nochnoy,82.25,300,-315,315,315,210,220,225,225,280,290,-300,290,830,82.5,M,Сергей Ночной,1965,Single-ply,SBD,Open
3,Dmitriy Shvetsov,82.45,310,340,-350,340,180,190,-197.5,190,275,300,-307.5,300,830,82.5,M,Дмитрий Швецов,1979,Single-ply,SBD,Open
4,Aleksandr Alekseev,81.9,295,310,-320,310,190,200,205,205,290,-305,-307.5,290,805,82.5,M,Александр Алексеев,1973,Single-ply,SBD,Open
5,Pavel Malygin,82,295,310,315,315,165,170,-175,170,290,300,-305,300,785,82.5,M,Павел Малыгин,1978,Single-ply,SBD,Open
6,Aleksandr Kokornov,82.25,290,305,-310,305,185,195,200,200,250,265,272.5,272.5,777.5,82.5,M,Александр Кокорнов,1964,Single-ply,SBD,Open
7,Aleksey Onofrienko,80.7,290,300,305,305,160,-170,-170,160,295,-310,,295,760,82.5,M,Алексей Онофриенко,1974,Single-ply,SBD,Open
8,Dmitriy Pervukhin,81.35,285,-300,-300,285,170,177.5,180,180,270,-280,-280,270,735,82.5,M,Дмитрий Первухин,1979,Single-ply,SBD,Open
9,Andrey Yakovlev,80.8,265,272.5,277.5,277.5,160,167.5,172.5,172.5,270,280,-285,280,730,82.5,M,Андрей Яковлев,1979,Single-ply,SBD,Open
10,Nikolay Kozlovskiy,82.5,-270,270,290,290,170,-190,-190,170,270,-280,-280,270,730,82.5,M,Николай Козловский,1981,Single-ply,SBD,Open
11,Oleg Makedonov,82.4,255,-270,-270,255,-150,155,-162.5,155,265,-285,285,285,695,82.5,M,Олег Македонов,1966,Single-ply,SBD,Open
12,Nikolay Fedorov,81.35,-240,240,250,250,145,150,155,155,240,250,-257.5,250,655,82.5,M,Николай Федоров,1967,Single-ply,SBD,Open
DQ,Vladimir Grishaev,82,295,305,310,310,-205,-205,-205,,,,,,,82.5,M,Владимир Гришаев,1981,Single-ply,SBD,Open
DQ,Stanislav Balashov,79.5,-280,-280,-285,,,,,,,,,,,82.5,M,Станислав Балашов,1982,Single-ply,SBD,Open
DQ,Pavel Sled,82.35,-270,-270,270,270,195,-200,-200,195,-250,-250,,,,82.5,M,Павел Следь,1972,Single-ply,SBD,Open
1,Dmitriy Fedenko,89.6,325,340,350,350,200,207.5,215,215,310,325,-335,325,890,90,M,Дмитрий Феденко,1975,Single-ply,SBD,Open
2,Alexey Kharauzov,88.9,322.5,330,,330,220,227.5,232.5,232.5,280,290,-295,290,852.5,90,M,Алексей Хараузов,1973,Single-ply,SBD,Open
3,Igor Alikberov,89.25,300,310,315,315,200,207.5,210,210,300,315,-330,315,840,90,M,Игорь Аликберов,1972,Single-ply,SBD,Open
4,Vadim Usanov,89.65,-300,300,310,310,-200,210,-215,210,300,310,320,320,840,90,M,Вадим Усанов,1977,Single-ply,SBD,Open
5,Anton Bogdanov,89.95,300,310,320,320,195,205,210,210,285,300,-312.5,300,830,90,M,Антон Богданов,1973,Single-ply,SBD,Open
6,Konstantin Ganovsky,89.7,280,292.5,300,300,180,192.5,197.5,197.5,285,307.5,-327.5,307.5,805,90,M,Константин Гановский,1982,Single-ply,SBD,Open
7,Sergey Guschin,89.85,315,-325,-325,315,170,-175,-175,170,300,320,337.5,337.5,822.5,90,M,Сергей Гущин,1974,Single-ply,SBD,Open
8,Sergey Zalozhkov,89.55,300,320,340,340,180,-190,-190,180,300,-310,310,310,830,90,M,Сергей Заложков,1974,Single-ply,SBD,Open
9,Sergey Vlaznev,89.15,285,295,-300,295,-207.5,207.5,215,215,280,295,-300,295,805,90,M,Сергей Влазнев,1975,Single-ply,SBD,Open
11,Viktor Manishin,89.35,280,290,300,300,190,-195,195,195,290,300,-310,300,795,90,M,Виктор Манишин,1979,Single-ply,SBD,Open
13,Aleksey Yutkin,88.95,320,-330,-330,320,180,-185,185,185,280,-290,-290,280,785,90,M,Алексей Юткин,1974,Single-ply,SBD,Open
14,Pavel Mitin,89.8,-290,300,-302.5,300,190,200,-202.5,200,285,-305,-305,285,785,90,M,Павел Митин,1969,Single-ply,SBD,Open
15,Evgeniy Zhukov,89.3,290,305,-312.5,305,-175,-182.5,185,185,290,-305,-315,290,780,90,M,Евгений Жуков,1978,Single-ply,SBD,Open
16,Aleksey Kornilov,89.55,270,280,290,290,170,180,185,185,270,280,285,285,760,90,M,Алексей Корнилов,1974,Single-ply,SBD,Open
17,Denis Alekhin,88.15,280,287.5,-295,287.5,-155,155,-162.5,155,280,-287.5,,280,722.5,90,M,Денис Алехин,1980,Single-ply,SBD,Open
18,Sergey Igolkin,89.55,-260,270,-290,270,140,152.5,157.5,157.5,270,-292.5,-292.5,270,697.5,90,M,Сергей Иголкин,1983,Single-ply,SBD,Open
DQ,Andrey Gornostaev,89.2,270,280,-285,280,-160,-160,-160,,,,,,,90,M,Андрей Горностаев,1977,Single-ply,SBD,Open
DQ,Arkadiy Pechenin,89.35,-280,-280,-280,,,,,,,,,,,90,M,Аркадий Печенин,1977,Single-ply,SBD,Open
DQ,Aleksandr Atlas,89.25,-290,-290,-290,,,,,,,,,,,90,M,Александр Атлас,1981,Single-ply,SBD,Open
1,Aleksey Malunin,95.3,,,340,340,,,235,235,,,325,325,900,100,M,Алексей Малунин,1978,Single-ply,SBD,Open
2,Vladimir Rudenko,99.35,,,355,355,,,220,220,,,320,320,895,100,M,Владимир Руденко,1981,Single-ply,SBD,Open
3,Konstantin Otavin,98.45,,,312.5,312.5,,,230,230,,,350,350,892.5,100,M,Константин Отавин,1973,Single-ply,SBD,Open
5,Alexander Butov,99,,,,350,,,,215,,,,315,880,100,M,Александр Бутов,1981,Single-ply,SBD,Open
6,Andrey Sorokin,99.05,330,340,-345,340,210,-215,,210,-310,310,-320,310,860,100,M,Андрей Сорокин,1974,Single-ply,SBD,Open
8,Leonid Rafutdinov,98.85,310,327.5,332.5,332.5,200,210,-215,210,290,307.5,,307.5,850,100,M,Леонид Рафутдинов,1970,Single-ply,SBD,Open
12,Evgeniy Bokov,97,315,330,340,340,-200,200,205,205,-280,280,-290,280,825,100,M,Евгений Боков,1978,Single-ply,SBD,Open
13,Kamo Simonyan,97,290,310,320,320,180,-190,-190,180,290,300,,300,800,100,M,Камо Симонян,1971,Single-ply,SBD,Open
14,Sergey Pudovkin,99.6,-280,290,297.5,297.5,185,190,200,200,270,280,290,290,787.5,100,M,Сергей Пудовкин,1980,Single-ply,SBD,Open
15,Vladimir Kuvaev,99.65,305,-315,-315,305,182.5,192.5,-195,192.5,280,-302.5,-302.5,280,777.5,100,M,Владимир Куваев,1980,Single-ply,SBD,Open
16,Andrey Ostapenko,95.25,-300,300,-325,300,170,-177.5,,170,300,-320,-320,300,770,100,M,Андрей Остапенко,1981,Single-ply,SBD,Open
17,Aleksandr Deryagin,99.2,280,-295,-305,280,190,197.5,200,200,270,280,-290,280,760,100,M,Александр Дерягин,1973,Single-ply,SBD,Open
18,Sergey Kokarev,99,265,275,-282.5,275,170,180,190,190,265,-280,,265,730,100,M,Сергей Кокарев,1973,Single-ply,SBD,Open
19,Arkadiy Elizarov,92.6,270,-280,-280,270,-180,-180,180,180,250,-260,,250,700,100,M,Аркадий Елизаров,1964,Single-ply,SBD,Open
1,Vladimir Kotkov,105.35,340,360,370,370,215,-225,225,225,310,325,-330,325,920,110,M,Владимир Котков,1980,Single-ply,SBD,Open
2,Evgeniy Grachev,105.65,350,-365,365,365,200,210,-215,210,325,332.5,-347.5,332.5,907.5,110,M,Евгений Грачев,1973,Single-ply,SBD,Open
3,Andrey Peterskiy,109.3,355,365,375,375,190,197.5,-202.5,197.5,305,320,327.5,327.5,900,110,M,Андрей Петерский,1978,Single-ply,SBD,Open
4,Konstantin Kuznetsov,109.25,310,-322.5,322.5,322.5,205,215,220,220,320,335,350,350,892.5,110,M,Константин Кузнецов,1972,Single-ply,SBD,Open
5,Vyacheslav Korchin,109.15,342.5,355,360,360,210,220,-230,220,280,300,-310,300,880,110,M,Вячеслав Корчин,1976,Single-ply,SBD,Open
6,Aleksey Kozlov #1,102.8,315,320,325,325,215,225,230,230,322.5,-335,-335,322.5,877.5,110,M,Алексей Козлов,1970,Single-ply,SBD,Open
7,Aleksandr Kazakov,106.55,330,-350,-350,330,200,210,215,215,-310,310,325,325,870,110,M,Александр Казаков,1972,Single-ply,SBD,Open
8,Andrey Ovechkin,107.1,310,330,342.5,342.5,195,205,212.5,212.5,300,315,-320,315,870,110,M,Андрей Овечкин,1979,Single-ply,SBD,Open
9,Aleksey Chebotarev,109.2,320,-335,-340,320,225,240,-245,240,290,310,-320,310,870,110,M,Алексей Чеботарев,1978,Single-ply,SBD,Open
10,Evgeniy Goncharuk,106.6,315,332.5,-340,332.5,205,215,-217.5,215,305,315,-322.5,315,862.5,110,M,Евгений Гончарук,1971,Single-ply,SBD,Open
11,Suleyman Bisultanov,109.85,320,335,-340,335,190,205,-210,205,320,-330,-330,320,860,110,M,Сулейман Бисултанов,1964,Single-ply,SBD,Open
12,Mikhail Glazunov,107.3,310,320,325,325,195,200,-205,200,300,305,-310,305,830,110,M,Михаил Глазунов,1974,Single-ply,SBD,Open
13,Aleksandr Lebedev,108.5,290,300,320,320,190,205,215,215,250,280,295,295,830,110,M,Александр Лебедев,1972,Single-ply,SBD,Open
14,Aleksandr Bessonov,110,300,310,315,315,-205,210,-220,210,300,-310,-315,300,825,110,M,Александр Бессонов,1967,Single-ply,SBD,Open
15,Aleksey Chistyakov,106.75,-325,335,-350,335,-200,200,-210,200,270,-280,,270,805,110,M,Алексей Чистяков,1980,Single-ply,SBD,Open
16,Sergey Stepanenko,107.7,280,290,300,300,190,-200,-200,190,260,-280,-280,260,750,110,M,Сергей Степаненко,1974,Single-ply,SBD,Open
DQ,Vladimir Semenov,109.45,-300,-300,-300,,,,,,,,,,,110,M,Владимир Семенов,1977,Single-ply,SBD,Open
DQ,Evgeniy Vlasov,107.05,-300,-300,-300,,,,,,,,,,,110,M,Евгений Власов,1972,Single-ply,SBD,Open
1,Mikhail Bulychev,125,370,390,-400,390,240,-250,250,250,330,350,360,360,1000,125,M,Михаил Булычев,1973,Single-ply,SBD,Open
2,Vladimir Maksimov,123.6,355,370,-377.5,370,260,270.5,275,275,280,300,310,310,955,125,M,Владимир Максимов,1966,Single-ply,SBD,Open
3,Vyacheslav Karkh,123.55,320,330,340,340,230,242.5,-252.5,242.5,280,300,305,305,887.5,125,M,Вячеслав Карх,1967,Single-ply,SBD,Open
4,Sergey Ovsyannikov,122.9,340,360,370,370,-215,215,230,230,280,-300,-300,280,880,125,M,Сергей Овсянников,1979,Single-ply,SBD,Open
5,Maksim Korotkov #1,123.35,340,-355,-355,340,-210,210,220,220,285,300,307.5,307.5,867.5,125,M,Максим Коротков,1974,Single-ply,SBD,Open
6,Aleksey Pankov,121.3,315,325,330,330,200,210,-215,210,325,-345,-345,325,865,125,M,Алексей Панков,1983,Single-ply,SBD,Open
7,Andrey Reshetnyak,125,295,305,310,310,207.5,215,222.5,222.5,252.5,265,280,280,812.5,125,M,Андрей Решетняк,1979,Single-ply,SBD,Open
8,Dmitriy Chechurin,124.75,270,-290,-290,270,220,225,-230,225,270,285,295,295,790,125,M,Дмитрий Чечурин,1977,Single-ply,SBD,Open
9,Artem Sukhov,120.9,-290,290,-315,290,180,190,-200,190,250,,,250,730,125,M,Артем Сухов,1983,Single-ply,SBD,Open
DQ,Aleksey Gontsov,122.15,-330,330,-350,330,,,,,,,,,,125,M,Алексей Гонцов,1978,Single-ply,SBD,Open
DQ,Oleg Manuylov,116.95,-310,-320,-325,,,,,,,,,,,125,M,Олег Мануйлов,1975,Single-ply,SBD,Open
1,Vladimir Bondarenko,146.5,395,410,,410,250,-260,260,260,350,365,380,380,1050,125+,M,Владимир Бондаренко,1978,Single-ply,SBD,Open
2,Arkadiy Vasnetsov,137.65,370,390,400,400,220,230,-235,230,330,340,345,345,975,125+,M,Аркадий Васнецов,1976,Single-ply,SBD,Open
3,Andrey Moroz,146.6,380,390,400,400,215,-220,-220,215,320,342.5,352.5,352.5,967.5,125+,M,Андрей Мороз,1965,Single-ply,SBD,Open
4,Oleg Gagin,139.25,385,400,-410,400,-230,230,235,235,320,330,-337.5,330,965,125+,M,Олег Гагин,1975,Single-ply,SBD,Open
5,Igor Nastynov,155,355,-385,390,390,200,220,232.5,232.5,280,302.5,-322.5,302.5,925,125+,M,Игорь Настынов,1961,Single-ply,SBD,Open
6,Eduard Lodvigov,137.1,320,340,350,350,-220,220,230,230,300,320,-330,320,900,125+,M,Эдуард Лодвигов,1964,Single-ply,SBD,Open
7,Denis Morozkin,153,-360,360,380,380,190,200,-205,200,300,-320,-320,300,880,125+,M,Денис Морозкин,1978,Single-ply,SBD,Open
8,Roman Misyura,129.9,340,-355,-355,340,190,200,-205,200,320,-330,-330,320,860,125+,M,Роман Мисюра,1970,Single-ply,SBD,Open
9,Vyacheslav Aksenov,130.25,305,325,-337.5,325,192.5,202.5,205,205,300,320,-330,320,850,125+,M,Вячеслав Аксенов,1981,Single-ply,SBD,Open
10,Sergey Kurilenko,135.3,290,305,315,315,210,220,-225,220,275,-290,290,290,825,125+,M,Сергей Куриленко,1979,Single-ply,SBD,Open
11,Dzhalavdi Adkhalimov,138.9,320,340,350,350,180,190,200,200,260,-280,,260,810,125+,M,Джалавди Адхалимов,1961,Single-ply,SBD,Open
1,Oksana Ryzhenko,43.6,-112.5,112.5,-117.5,112.5,65,70,75,75,115,120,125,125,312.5,44,F,Оксана Рыженко,1975,Single-ply,SBD,Open
2,Zhanna Eliseeva,43.4,100,107.5,112.5,112.5,45,50,-52.5,50,120,132.5,137.5,137.5,300,44,F,Жанна Елисеева,1974,Single-ply,SBD,Open
3,Marina Poduzova,43.8,110,-115,-115,110,50,52.5,-55,52.5,122.5,-127.5,-127.5,122.5,285,44,F,Марина Подузова,1985,Single-ply,SBD,Open
4,Anna Alekseeva,44,100,-110,110,110,52.5,55,-57.5,55,105,-112.5,-112.5,105,270,44,F,Анна Алексеева,1976,Single-ply,SBD,Open
5,Oksana Pugaeva,43.4,90,100,-110,100,40,-47.5,47.5,47.5,90,97.5,-102.5,97.5,245,44,F,Оксана Пугаева,1988,Single-ply,SBD,Open
1,Natalya Shapovalova,47.5,155,165,175,175,80,-85,-85,80,150,160,170,170,425,48,F,Наталья Шаповалова,1983,Single-ply,SBD,Open
2,Olesya Lafina,45,160,175,-185,175,80,90,95,95,110,120,125,125,395,48,F,Олеся Лафина,1979,Single-ply,SBD,Open
3,Olga Oparina,48,135,145,-147.5,145,70,-77.5,80,80,135,-140,140,140,365,48,F,Ольга Опарина,1979,Single-ply,SBD,Open
4,Ekaterina Perina,47.4,130,137.5,-142.5,137.5,62.5,70,72.5,72.5,130,140,145,145,355,48,F,Екатерина Перина,1977,Single-ply,SBD,Open
5,Natalya Tulina,47.8,130,140,-142.5,140,72.5,-77.5,-77.5,72.5,120,127.5,135,135,347.5,48,F,Наталья Тулина,1959,Single-ply,SBD,Open
6,Natalya Salamon,47.9,125,135,142.5,142.5,70,77.5,80,80,125,-137.5,-137.5,125,347.5,48,F,Наталья Саламон,1970,Single-ply,SBD,Open
7,Elena Vorobyeva,47.8,112.5,117.5,122.5,122.5,65,70,72.5,72.5,130,137.5,-140,137.5,332.5,48,F,Елена Воробьева,1978,Single-ply,SBD,Open
8,Natalya Mazilova,47.5,120,130,135,135,60,-62.5,-62.5,60,125,132.5,-135,132.5,327.5,48,F,Наталья Мазилова,1986,Single-ply,SBD,Open
9,Elena Neverova,45.5,110,120,-125,120,65,70,-75,70,110,120,-125,120,310,48,F,Елена Неверова,1981,Single-ply,SBD,Open
10,Olga Serba,47.8,100,107.5,110,110,47.5,-50,50,50,100,-110,-110,100,260,48,F,Ольга Серба,1972,Single-ply,SBD,Open
11,Tatyana Koroleva,45.8,-90,-95,95,95,40,-45,45,45,-115,-115,115,115,255,48,F,Татьяна Королёва,1986,Single-ply,SBD,Open
DQ,Yuliya Dyakonova,48,,,,,,,,,,,,,,48,F,Юлия Дьяконова,1983,Single-ply,SBD,Open
1,Inna Tairova,51.8,150,-160,160,160,87.5,-95,95,95,160,175,-185,175,430,52,F,Инна Таирова,1980,Single-ply,SBD,Open
2,Rashida Salikhova,51.8,130,137.5,142.5,142.5,70,75,-77.5,75,135,145,152.5,152.5,370,52,F,Рашида Салихова,1971,Single-ply,SBD,Open
3,Vera Kokhanchik,51.7,142.5,147.5,152.5,152.5,-75,75,-77.5,75,127.5,-132.5,132.5,132.5,360,52,F,Вера Коханчик,1986,Single-ply,SBD,Open
4,Elena Yachishina,50.6,132.5,137.5,-140,137.5,80,85,-87.5,85,125,-132.5,132.5,132.5,355,52,F,Елена Ячишина,1981,Single-ply,SBD,Open
5,Landysh Gavina,52,120,127.5,-132.5,127.5,70,-75,,70,130,140,150,150,347.5,52,F,Ландыш Гавина,1980,Single-ply,SBD,Open
6,Tatyana Telegina,50.9,130,140,-145,140,65,70,-72.5,70,120,130,135,135,345,52,F,Татьяна Телегина,1961,Single-ply,SBD,Open
7,Ekaterina Kulikova,51.55,120,125,130,130,50,-55,-55,50,120,125,130,130,310,52,F,Екатерина Куликова,1976,Single-ply,SBD,Open
8,Anastasiya Lyubimova,51.6,-105,110,115,115,55,-60,60,60,115,122.5,130,130,305,52,F,Анастасия Любимова,1982,Single-ply,SBD,Open
9,Elena Perevozchikova,52,105,-110,110,110,55,57.5,-60,57.5,125,-130,130,130,297.5,52,F,Елена Перевозчикова,1983,Single-ply,SBD,Open
10,Svetlana Chesnokova,49,-100,100,-110,100,35,-40,-40,35,110,-120,-120,110,245,52,F,Светлана Чеснокова,1987,Single-ply,SBD,Open
1,Valentina Morozova,56,170,177.5,-182.5,177.5,87.5,-90,-90,87.5,180,187.5,190,190,455,56,F,Валентина Морозова,1960,Single-ply,SBD,Open
2,Svetlana Samar,55.32,180,190,-195,190,90,95,-100,95,157.5,167.5,-172.5,167.5,452.5,56,F,Светлана Самар,1979,Single-ply,SBD,Open
3,Olga Korzhavina,56,165,170,175,175,-90,-92.5,92.5,92.5,170,-177.5,177.5,177.5,445,56,F,Ольга Коржавина,1973,Single-ply,SBD,Open
4,Elena Nikulina,55.78,170,180,-185,180,80,85,-90,85,150,160,-172.5,160,425,56,F,Елена Никулина,1977,Single-ply,SBD,Open
5,Anna Lobanova,55.96,160,170,-175,170,80,87.5,-92.5,87.5,155,-165,-165,155,412.5,56,F,Анна Лобанова,1980,Single-ply,SBD,Open
6,Alla Chukhonastova,55.64,140,145,147.5,147.5,80,-85,-85,80,152.5,162.5,-172.5,162.5,390,56,F,Алла Чухонастова,1974,Single-ply,SBD,Open
7,Tatyana Veselova,54.56,150,-160,160,160,60,-65,65,65,145,155,-160,155,380,56,F,Татьяна Веселова,1974,Single-ply,SBD,Open
8,Oksana Usova,54.66,140,150,157.5,157.5,75,80,-85,80,125,135,142.5,142.5,380,56,F,Оксана Усова,1982,Single-ply,SBD,Open
9,Elena Povolotskaya,55.38,135,-145,155,155,57.5,65,-67.5,65,140,150,160,160,380,56,F,Елена Поволоцкая,1978,Single-ply,SBD,Open
10,Olga Kabanova,55.75,127.5,137.5,147.5,147.5,85,90,92.5,92.5,125,132.5,140,140,380,56,F,Ольга Кабанова,1978,Single-ply,SBD,Open
11,Natalya Tkacheva,55.78,130,140,150,150,75,80,-85,80,140,150,-160,150,380,56,F,Наталья Ткачева,1977,Single-ply,SBD,Open
12,Natalya Klimkina,55.98,150,155,-157.5,155,62.5,65,-67.5,65,160,-165,-165,160,380,56,F,Наталья Климкина,1979,Single-ply,SBD,Open
13,Anna Muratova,55.58,145,-152.5,-152.5,145,80,-85,-85,80,135,145,-155,145,370,56,F,Анна Муратова,1982,Single-ply,SBD,Open
14,Anastasiya Schuk,55.38,140,-145,145,145,77.5,82.5,-85,82.5,135,-145,-152.5,135,362.5,56,F,Анастасия Щук,1984,Single-ply,SBD,Open
15,Elena Khosroeva,55.72,120,125,130,130,77.5,82.5,85,85,135,142.5,147.5,147.5,362.5,56,F,Елена Хосроева,1980,Single-ply,SBD,Open
16,Valentina Filina,55.42,-130,130,-135,130,75,82.5,-90,82.5,130,140,142.5,142.5,355,56,F,Валентина Филина,1977,Single-ply,SBD,Open
17,Ekaterina Nardet,54.24,135,145,150,150,70,75,-77.5,75,-120,120,-130,120,345,56,F,Екатерина Нардет,1984,Single-ply,SBD,Open
18,Larisa Kotkova,55.3,120,130,140,140,85,90,-95,90,100,110,-115,110,340,56,F,Лариса Коткова,1974,Single-ply,SBD,Open
19,Olga Fomina,55.26,-130,130,-135,130,60,65,-70,65,120,130,-135,130,325,56,F,Ольга Фомина,1973,Single-ply,SBD,Open
DQ,Vera Fomina,55.94,-150,150,-155,150,-80,-80,-80,,,,,,,56,F,Вера Фомина,1962,Single-ply,SBD,Open
1,Maria Revva,59.4,160,170,180,180,107.5,117.5,-120,117.5,180,195,-205,195,492.5,60,F,Мария Ревва,1977,Single-ply,SBD,Open
2,Veronika Kanutkina,57.5,170,180,-187.5,180,92.5,97.5,-100,97.5,170,-180,-180,170,447.5,60,F,Вероника Кануткина,1979,Single-ply,SBD,Open
3,Natalya Igosheva,60,147.5,155,160,160,95,102.5,107.5,107.5,150,160,170,170,437.5,60,F,Наталья Игошева,1981,Single-ply,SBD,Open
4,Tatyana Dolguy,59.88,160,-167.5,-170,160,95,-102.5,102.5,102.5,155,165,170,170,432.5,60,F,Татьяна Долгуй,1980,Single-ply,SBD,Open
5,Elena Bukina,59.4,150,160,-165,160,82.5,87.5,92.5,92.5,150,165,172.5,172.5,425,60,F,Елена Букина,1971,Single-ply,SBD,Open
6,Larisa Sviderskaya,59.7,160,165,170,170,-90,90,92.5,92.5,150,160,-165,160,422.5,60,F,Лариса Свидерская,1967,Single-ply,SBD,Open
7,Yuliya Perelomova,60,135,-145,145,145,95,-102.5,102.5,102.5,145,157.5,162.5,162.5,410,60,F,Юлия Переломова,1980,Single-ply,SBD,Open
8,Svetlana Samokhina,59.7,130,140,145,145,-97.5,97.5,-100,97.5,132.5,145,150,150,392.5,60,F,Светлана Самохина,1975,Single-ply,SBD,Open
9,Natalya Kalenichenko,59.74,147.5,-155,-155,147.5,85,-90,90,90,150,-162.5,-162.5,150,387.5,60,F,Наталья Калениченко,1972,Single-ply,SBD,Open
10,Olga Okhapkina,59.9,120,130,135,135,60,65,-67.5,65,125,135,-140,135,335,60,F,Ольга Охапкина,1980,Single-ply,SBD,Open
DQ,Anna Gavrilova,59,-117.5,-117.5,-117.5,,,,,,,,,,,60,F,Анна Гаврилова,1979,Single-ply,SBD,Open
DQ,Ekaterina Makina,59.62,-155,-155,-155,,,,,,,,,,,60,F,Екатерина Макина,1986,Single-ply,SBD,Open
1,Marina Kudinova,67,235,,,235,140,150,153,153,210,220,228,228,616,67.5,F,Марина Кудинова,1977,Single-ply,SBD,Open
2,Ludmila Roschina,66.5,-205,210,225,225,95,102.5,110,110,185,195,202.5,202.5,537.5,67.5,F,Людмила Рощина,1983,Single-ply,SBD,Open
3,Olga Chumincheva,66.7,190,205,212.5,212.5,-110,110,117.5,117.5,190,200,-205,200,530,67.5,F,Ольга Чуминчева,1976,Single-ply,SBD,Open
4,Svetlana Bochko,67.5,190,200,205,205,105,110,-112.5,110,210,-220,-220,210,525,67.5,F,Светлана Бочко,1963,Single-ply,SBD,Open
5,Galina Lyubeznaya,66.55,-210,-210,210,210,-120,120,-130,120,175,182.5,-190,182.5,512.5,67.5,F,Галина Любезная,1980,Single-ply,SBD,Open
6,Evgeniya Tomilovskaya,64.4,200,210,-215,210,100,105,-107.5,105,180,190,-197.5,190,505,67.5,F,Евгения Томиловская,1982,Single-ply,SBD,Open
7,Viktoriya Pisapenko,64.6,215,-225,-225,215,100,105,-110,105,185,-192.5,-192.5,185,505,67.5,F,Виктория Писаренко,1979,Single-ply,SBD,Open
8,Olga Chuvileva,64.1,165,175,185,185,92.5,100,105,105,145,160,170,170,460,67.5,F,Ольга Чувилева,1979,Single-ply,SBD,Open
9,Svetlana Sharifulina,66.95,160,165,170,170,105,110,-112.5,110,160,175,,175,455,67.5,F,Светлана Шарифулина,1979,Single-ply,SBD,Open
10,Marina Mikhaylova,63.5,175,185,-192.5,185,-90,90,-97.5,90,150,160,170,170,445,67.5,F,Марина Михайлова,1981,Single-ply,SBD,Open
11,Evgeniya Fedortsova,67.5,165,175,-180,175,82.5,-87.5,87.5,87.5,155,165,172.5,172.5,435,67.5,F,Евгения Федорцова,1973,Single-ply,SBD,Open
12,Yuliya Matveeva,66.55,157.5,167.5,-172.5,167.5,85,92.5,-95,92.5,147.5,157.5,-162.5,157.5,417.5,67.5,F,Юлия Матвеева,1981,Single-ply,SBD,Open
13,Ilona Bataeva,65,150,-162.5,165,165,90,95,-100,95,145,155,-175,155,415,67.5,F,Илона Батаева,1982,Single-ply,SBD,Open
14,Irina Shilina,67,-135,135,142.5,142.5,-72.5,72.5,-77.5,72.5,135,140,145,145,360,67.5,F,Ирина Шилина,1978,Single-ply,SBD,Open
DQ,Zhanna Vizhichenko,66.8,-175,-175,-175,,,,,,,,,,,67.5,F,Жанна Вижиченко,1976,Single-ply,SBD,Open
DQ,Svetlana Tsvetkova,67.5,160,170,172.5,172.5,80,85,-87.5,85,-170,-170,-170,,,67.5,F,Светлана Цветкова,1980,Single-ply,SBD,Open
1,Anna Terentyeva,74.8,220,230,-235,230,140,145,,145,215,-225,-225,215,590,75,F,Анна Терентьева,1975,Single-ply,SBD,Open
2,Yulia Zaugolova,73.65,-210,210,225,225,115,122.5,127.5,127.5,195,210,217.5,217.5,570,75,F,Юлия Зауголова,1981,Single-ply,SBD,Open
3,Elena Nikolaeva,67.7,200,205,-210,205,102.5,107.5,112.5,112.5,170,-180,182.5,182.5,500,75,F,Елена Николаева,1974,Single-ply,SBD,Open
4,Elena Sheverdina,73.25,165,175,-180,175,-120,120,-122.5,120,165,170,177.5,177.5,472.5,75,F,Елена Шевердина,1968,Single-ply,SBD,Open
5,Aleksandra Zaychenko,73.35,170,180,187.5,187.5,95,100,-102.5,100,172.5,180,-185,180,467.5,75,F,Александра Зайченко,1981,Single-ply,SBD,Open
6,Mariia Panferova,72.35,172.5,-180,180,180,100,105,107.5,107.5,165,172.5,-175,172.5,460,75,F,Мария Панферова,1977,Single-ply,SBD,Open
7,Alla Tishina,73.15,170,182.5,-195,182.5,90,-95,-95,90,175,-187.5,-187.5,175,447.5,75,F,Алла Тишина,1961,Single-ply,SBD,Open
8,Svetlana Shaburkina,70.75,170,-180,-180,170,90,95,-97.5,95,170,175,-180,175,440,75,F,Светлана Шабуркина,1977,Single-ply,SBD,Open
9,Anna Sheina,74.55,170,-180,-180,170,90,95,-97.5,95,150,160,-165,160,425,75,F,Анна Шеина,1978,Single-ply,SBD,Open
10,Elza Ramazanova,68.05,90,95,100,100,50,55,,55,110,120,,120,275,75,F,Эльза Рамазанова,1981,Single-ply,SBD,Open
DQ,Tatyana Gavrilova,68.5,,,,,,,,,,,,,,75,F,Татьяна Завьялова,1963,Single-ply,SBD,Open
1,Elena Ignatenkova,82.5,-230,230,-250,230,130,140,-145,140,200,220,240,240,610,82.5,F,Елена Игнатенкова,1971,Single-ply,SBD,Open
2,Alexandra Murashova,81,210,225,235,235,95,100,-105,100,170,185,-200,185,520,82.5,F,Александра Мурашова,1982,Single-ply,SBD,Open
3,Oksana Ageeva,79.55,180,190,195,195,90,100,-102.5,100,170,180,190,190,485,82.5,F,Оксана Агеева,1979,Single-ply,SBD,Open
1,Larisa Osadko,88.4,180,190,200,200,90,100,105,105,185,195,-200,195,500,90,F,Лариса Осадько,1977,Single-ply,SBD,Open
2,Tatyana Ponomareva,82.55,130,145,155,155,85,90,95,95,140,150,165,165,415,90,F,Татьяна Пономарева,1962,Single-ply,SBD,Open
3,Natalya Savinykh,89.5,185,-200,,185,85,-95,-95,85,145,-150,,145,415,90,F,Наталья Савиных,1985,Single-ply,SBD,Open
1,Anastasia Pavlova,111.15,240,-250,250,250,140,147.5,150,150,220,240,-250,240,640,90+,F,Анастасия Павлова,1968,Single-ply,SBD,Open
2,Elena Avilkina,107.2,220,240,262.5,262.5,125,135,-140,135,180,195,210,210,607.5,90+,F,Елена Авилкина,1977,Single-ply,SBD,Open
3,Elena Kurbakova,110.05,215,230,237.5,237.5,135,140,145,145,170,180,187.5,187.5,570,90+,F,Елена Курбакова,1976,Single-ply,SBD,Open
