Division,WeightClassKg,Place,Name,Team,BodyweightKg,Best3SquatKg,Best3BenchKg,Best3DeadliftKg,TotalKg,Equipment,Event,Sex
Boys,51.71,1,Justin Dowdy,Wills Point,49.35,136.08,88.45,147.42,371.95,Single-ply,SBD,M
Boys,51.71,2,Aaron Johnson,Jefferson,51.71,124.74,74.84,138.35,337.93,Single-ply,SBD,M
Boys,51.71,3,Cody Brown #5,Lindale,50.71,127.01,58.97,113.4,299.37,Single-ply,SBD,M
Boys,55.79,4,Ethan Hoops,Eustace,51.94,113.4,63.5,122.47,299.37,Single-ply,SBD,M
Boys,55.79,5,Mason Lindamood,Bullard,51.8,120.2,56.7,115.67,292.57,Single-ply,SBD,M
Boys,51.71,6,Gilbert Garcia,Longview Spring Hill,48.53,106.59,54.43,108.86,269.89,Single-ply,SBD,M
Boys,51.71,7,Camdeon Jones,Jefferson,46.63,63.5,36.29,74.84,174.63,Single-ply,SBD,M
Boys,51.71,DQ,Alec Marable,Eustace,49.62,77.11,,,,Single-ply,SBD,M
Boys,55.79,DQ,Jesus Perez,Kemp,51.94,124.74,,,,Single-ply,SBD,M
Boys,55.79,1,Jose Rodriguez,Athens,54.98,174.63,120.2,167.83,462.66,Single-ply,SBD,M
Boys,59.87,2,Riley Slocum,Longview Pine Tree,56.02,115.67,65.77,138.35,319.78,Single-ply,SBD,M
Boys,59.87,3,Jonathan Hernandez,Malakoff,56.02,124.74,61.23,117.93,303.91,Single-ply,SBD,M
Boys,55.79,4,Dylan Simmons,Emory Rains,55.43,124.74,65.77,102.06,292.57,Single-ply,SBD,M
Boys,55.79,5,Preston Davis,Lindale,52.89,74.84,49.9,115.67,240.4,Single-ply,SBD,M
Boys,55.79,DQ,Caleb Weaver,Van,53.52,79.38,,,,Single-ply,SBD,M
Boys,67.13,1,Dario Choice,Lindale,60.1,154.22,79.38,163.29,396.89,Single-ply,SBD,M
Boys,59.87,2,Jimmy Kimbrell,Kemp,59.15,154.22,79.38,151.95,385.55,Single-ply,SBD,M
Boys,59.87,3,Austin Dennie,Kemp,57.24,124.74,97.52,158.76,381.02,Single-ply,SBD,M
Boys,67.13,4,Trent Fischer,Kemp,60.1,136.08,88.45,149.69,374.21,Single-ply,SBD,M
Boys,59.87,5,Cesar Colunga,Emory Rains,56.97,120.2,61.23,133.81,315.25,Single-ply,SBD,M
Boys,59.87,6,Montana Meador,Lindale,59.51,106.59,56.7,111.13,274.42,Single-ply,SBD,M
Boys,59.87,7,Kam Neely,Lindale,57.61,95.25,58.97,117.93,272.16,Single-ply,SBD,M
Boys,59.87,8,Eric Brown,Wills Point,59.33,61.23,52.16,92.99,206.38,Single-ply,SBD,M
Boys,59.87,DQ,Jude Bonner,Eustace,58.97,,,,,Single-ply,SBD,M
Boys,67.13,1,Kenny Buffin,Longview Pine Tree,66.95,174.63,102.06,185.97,462.66,Single-ply,SBD,M
Boys,67.13,2,Justin Griffin,Eustace,66.32,170.1,86.18,158.76,415.04,Single-ply,SBD,M
Boys,67.13,3,Oscar Lujan,Kemp,66.13,149.69,83.91,149.69,383.29,Single-ply,SBD,M
Boys,67.13,4,Brant Hamilton,Eustace,62.69,140.61,74.84,161.03,376.48,Single-ply,SBD,M
Boys,67.13,5,Casey Cranford,Wills Point,67.13,133.81,92.99,145.15,371.95,Single-ply,SBD,M
Boys,67.13,6,Hunter Miller,Bullard,65.59,142.88,83.91,142.88,369.68,Single-ply,SBD,M
Boys,67.13,7,Keegan Mazel,Jefferson,61.05,124.74,83.91,149.69,358.34,Single-ply,SBD,M
Boys,67.13,8,Christian Johnson,Longview Spring Hill,66.5,136.08,74.84,145.15,356.07,Single-ply,SBD,M
Boys,67.13,9,Cameron Rogers,Eustace,62.51,131.54,63.5,147.42,342.46,Single-ply,SBD,M
Boys,67.13,10,Jacob Waggoner,Lindale,62.96,124.74,65.77,147.42,337.93,Single-ply,SBD,M
Boys,67.13,11,Clayton Harris,Emory Rains,64.5,124.74,83.91,129.27,337.93,Single-ply,SBD,M
Boys,67.13,12,Trenton Worley,Emory Rains,64.5,122.47,74.84,131.54,328.85,Single-ply,SBD,M
Boys,67.13,13,Luis Gonzales,Longview Pine Tree,65.41,102.06,86.18,140.61,328.85,Single-ply,SBD,M
Boys,67.13,14,Jase Dixon,Beckville,65.32,127.01,72.57,124.74,324.32,Single-ply,SBD,M
Boys,67.13,15,Naim Diego,Emory Rains,62.41,117.93,56.7,145.15,319.78,Single-ply,SBD,M
Boys,67.13,16,Josh Hughes,Eustace,61.87,113.4,79.38,124.74,317.51,Single-ply,SBD,M
Boys,67.13,17,Shane Parker,Wills Point,64.77,113.4,63.5,136.08,312.98,Single-ply,SBD,M
Boys,74.84,18,Josh Morgan,Eustace,67.22,115.67,65.77,120.2,301.64,Single-ply,SBD,M
Boys,67.13,19,Nathan Henshaw,Beckville,61.42,106.59,70.31,117.93,294.84,Single-ply,SBD,M
Boys,67.13,20,Fabian Roman,Quitman,63.05,92.99,79.38,122.47,294.84,Single-ply,SBD,M
Boys,67.13,21,Maalik Hall,Athens,63.96,108.86,61.23,111.13,281.23,Single-ply,SBD,M
Boys,67.13,DQ,Joel Saucedo,Beckville,67.13,111.13,,,,Single-ply,SBD,M
Boys,67.13,DQ,Hunter Hopson,Bullard,63.05,124.74,,,,Single-ply,SBD,M
Boys,67.13,DQ,Hunter Norris,Eustace,64.5,95.25,,,,Single-ply,SBD,M
Boys,67.13,DQ,Kacie Crossland,Kemp,65.68,149.69,,,,Single-ply,SBD,M
Boys,74.84,DQ,Saul Rios,Lindale,67.36,117.93,,,,Single-ply,SBD,M
Boys,67.13,DQ,Marcus Piroutek,Longview Pine Tree,62.87,154.22,,,,Single-ply,SBD,M
Boys,67.13,DQ,Caleb Gober,Van,65.77,106.59,,,,Single-ply,SBD,M
Boys,74.84,1,Austin Skelton,Bullard,74.3,210.92,129.27,226.8,566.99,Single-ply,SBD,M
Boys,74.84,2,Olice Rogers,Kemp,68.04,204.12,129.27,192.78,526.17,Single-ply,SBD,M
Boys,82.1,3,Christian Darter,Emory Rains,74.93,192.78,136.08,197.31,526.17,Single-ply,SBD,M
Boys,74.84,4,Chris Bradford,Bullard,73.57,181.44,104.33,181.44,467.2,Single-ply,SBD,M
Boys,74.84,5,Brody Price,Jefferson,74.39,163.29,113.4,181.44,458.13,Single-ply,SBD,M
Boys,74.84,6,Justin Willis,Lindale,72.3,165.56,108.86,181.44,455.86,Single-ply,SBD,M
Boys,74.84,7,Daniel García,Kemp,73.39,163.29,102.06,176.9,442.25,Single-ply,SBD,M
Boys,74.84,8,Ryan Taylor #9,Lindale,71.4,161.03,92.99,161.03,415.04,Single-ply,SBD,M
Boys,82.1,9,Omar Gonzalez,Malakoff,75.07,147.42,79.38,181.44,408.23,Single-ply,SBD,M
Boys,74.84,10,Dylan Grim,Malakoff,69.85,145.15,83.91,167.83,396.89,Single-ply,SBD,M
Boys,74.84,11,Jose Garcia #4,Kemp,70.22,136.08,83.91,176.9,396.89,Single-ply,SBD,M
Boys,82.1,12,Anthony Rose,Jefferson,75.07,156.49,83.91,151.95,392.36,Single-ply,SBD,M
Boys,74.84,13,Giovanni Coronado,Kerens,73.03,136.08,86.18,165.56,387.82,Single-ply,SBD,M
Boys,74.84,14,Kyle Alexander #2,Bullard,74.84,142.88,92.99,142.88,378.75,Single-ply,SBD,M
Boys,74.84,15,Josh Lemus,Van,74.84,133.81,92.99,151.95,378.75,Single-ply,SBD,M
Boys,74.84,16,Chris Goforth,Emory Rains,74.03,138.35,79.38,138.35,356.07,Single-ply,SBD,M
Boys,74.84,17,Cleiveland Williams,Jefferson,72.39,104.33,83.91,120.2,308.44,Single-ply,SBD,M
Boys,74.84,18,Joseph Paddock,Wills Point,74.75,102.06,90.72,106.59,299.37,Single-ply,SBD,M
Boys,82.1,19,Taylor Farris,Emory Rains,74.93,115.67,63.5,108.86,288.03,Single-ply,SBD,M
Boys,82.1,DQ,William Steward,Athens,75.02,,,,,Single-ply,SBD,M
Boys,74.84,DQ,Logan Spann,Longview Pine Tree,72.76,,,,,Single-ply,SBD,M
Boys,82.1,1,Aaron Johnson,Bullard,81.1,272.16,133.81,235.87,641.83,Single-ply,SBD,M
Boys,82.1,2,Tavion Hall,Kerens,81.19,192.78,122.47,226.8,542.04,Single-ply,SBD,M
Boys,82.1,3,Tommy Pettigrew,Bullard,77.47,183.7,104.33,215.46,503.49,Single-ply,SBD,M
Boys,82.1,4,Ryan Robison,Lindale,78.47,185.97,111.13,206.38,503.49,Single-ply,SBD,M
Boys,89.81,5,Quay Ward,Longview Pine Tree,82.33,174.63,124.74,181.44,480.81,Single-ply,SBD,M
Boys,82.1,6,Tristan Ford,Van,81.65,181.44,111.13,158.76,451.32,Single-ply,SBD,M
Boys,82.1,7,Justin Blagburn,Emory Rains,79.29,163.29,104.33,181.44,449.06,Single-ply,SBD,M
Boys,82.1,8,Michael Hanson,Lindale,76.29,158.76,106.59,181.44,446.79,Single-ply,SBD,M
Boys,82.1,9,Braylon Cable,Malakoff,77.2,142.88,108.86,183.7,435.45,Single-ply,SBD,M
Boys,82.1,10,Cruz Renteria,Longview Pine Tree,77.56,165.56,92.99,170.1,428.64,Single-ply,SBD,M
Boys,82.1,11,Jacob Moore,Lindale,76.2,158.76,83.91,183.7,426.38,Single-ply,SBD,M
Boys,82.1,12,Dalton Dykes,Van,79.38,149.69,102.06,163.29,415.04,Single-ply,SBD,M
Boys,89.81,13,Gabriel Cuces,Malakoff,82.33,142.88,83.91,163.29,390.09,Single-ply,SBD,M
Boys,82.1,14,Jaun Garcia,Eustace,76.57,129.27,74.84,156.49,360.61,Single-ply,SBD,M
Boys,82.1,15,Gustavo Loredo,Beckville,79.74,136.08,86.18,131.54,353.8,Single-ply,SBD,M
Boys,82.1,16,Garret Self,Longview Spring Hill,78.47,122.47,83.91,136.08,342.46,Single-ply,SBD,M
Boys,82.1,17,Bryce Mayo,Athens,76.48,136.08,70.31,124.74,331.12,Single-ply,SBD,M
Boys,82.1,18,Mitchell Baker,Emory Rains,79.56,92.99,45.36,83.91,222.26,Single-ply,SBD,M
Boys,82.1,DQ,Cal Walton,Beckville,78.65,163.29,,,,Single-ply,SBD,M
Boys,82.1,DQ,Dylan Hunsaker,Eustace,78.93,151.95,,,,Single-ply,SBD,M
Boys,89.81,1,Gannon Brown,Emory Rains,85.37,215.46,147.42,249.48,612.35,Single-ply,SBD,M
Boys,89.81,2,Grant Russell,Emory Rains,84.46,183.7,120.2,251.74,555.65,Single-ply,SBD,M
Boys,89.81,3,Taylor Sipes,Lindale,88.54,183.7,113.4,210.92,508.02,Single-ply,SBD,M
Boys,89.81,4,Jaylon Hardeman,Jefferson,83.46,181.44,102.06,170.1,453.59,Single-ply,SBD,M
Boys,89.81,5,Wally Shrout,Malakoff,86.45,161.03,90.72,172.37,424.11,Single-ply,SBD,M
Boys,89.81,6,Nark Nusbaum,Longview Pine Tree,88.72,158.76,90.72,163.29,412.77,Single-ply,SBD,M
Boys,89.81,7,Noah Bush,Athens,89.63,151.95,115.67,142.88,410.5,Single-ply,SBD,M
Boys,89.81,8,Nick Grace,Lindale,84.91,138.35,81.65,172.37,392.36,Single-ply,SBD,M
Boys,99.79,9,Michael Burran,Beckville,90.04,149.69,90.72,149.69,390.09,Single-ply,SBD,M
Boys,89.81,10,Ridge Reddick,Overton,84.19,156.49,79.38,147.42,383.29,Single-ply,SBD,M
Boys,89.81,11,Dillon Green,Longview Spring Hill,86.18,133.81,90.72,136.08,360.61,Single-ply,SBD,M
Boys,99.79,12,Jacob Bruner,Kemp,90.04,142.88,95.25,113.4,351.53,Single-ply,SBD,M
Boys,89.81,13,Sadarian Paredes,Jefferson,89.27,113.4,77.11,122.47,312.98,Single-ply,SBD,M
Boys,109.77,1,Caleb Hallford,Bullard,99.88,226.8,156.49,206.38,589.67,Single-ply,SBD,M
Boys,99.79,2,Myles Morgan,Lindale,96.71,199.58,124.74,224.53,548.85,Single-ply,SBD,M
Boys,109.77,3,Tyler Segrest,Lindale,100.02,201.85,111.13,235.87,548.85,Single-ply,SBD,M
Boys,99.79,4,Chris Ferguson,Longview Pine Tree,95.25,204.12,129.27,213.19,546.58,Single-ply,SBD,M
Boys,99.79,5,Jacob Smith,Longview Pine Tree,97.25,170.1,102.06,204.12,476.27,Single-ply,SBD,M
Boys,99.79,6,Logan Fuller,Athens,95.89,204.12,108.86,142.88,455.86,Single-ply,SBD,M
Boys,99.79,7,Carter Shelton,Longview Spring Hill,94.08,151.95,104.33,165.56,421.84,Single-ply,SBD,M
Boys,99.79,8,Jakory Sherow,Longview Pine Tree,97.52,170.1,102.06,147.42,419.57,Single-ply,SBD,M
Boys,99.79,9,Casey Clark #3,Lindale,98.7,163.29,90.72,165.56,419.57,Single-ply,SBD,M
Boys,99.79,10,Keontaye Hood,Lindale,99.34,151.95,95.25,163.29,410.5,Single-ply,SBD,M
Boys,99.79,11,Cameron Hawkins,Longview Spring Hill,98.88,151.95,108.86,136.08,396.89,Single-ply,SBD,M
Boys,109.77,12,Corey Rosa,Malakoff,100.02,151.95,97.52,142.88,392.36,Single-ply,SBD,M
Boys,109.77,13,Dexter Mills,Longview Pine Tree,100.02,129.27,92.99,158.76,381.02,Single-ply,SBD,M
Boys,99.79,DQ,Brandon Truemner,Longview Pine Tree,94.44,,,,,Single-ply,SBD,M
Boys,99.79,DQ,William Pugh,Kerens,94.08,136.08,,,,Single-ply,SBD,M
Boys,99.79,DQ,Brandon Gage,Eustace,93.89,151.95,,,,Single-ply,SBD,M
Boys,109.77,1,Stetson Farrell,Lindale,104.14,251.74,172.37,215.46,639.57,Single-ply,SBD,M
Boys,109.77,2,Landon Wright,Lindale,106.59,213.19,124.74,215.46,553.38,Single-ply,SBD,M
Boys,109.77,3,Nelson Ochoa,Malakoff,109.5,204.12,113.4,206.38,523.9,Single-ply,SBD,M
Boys,124.74,4,Landon Simmons,Jefferson,110,188.24,120.2,201.85,510.29,Single-ply,SBD,M
Boys,109.77,5,Jose Ramirez #6,Lindale,106.96,197.31,81.65,181.44,460.4,Single-ply,SBD,M
Boys,109.77,6,Blane Peveler,Longview Spring Hill,101.06,154.22,92.99,192.78,439.98,Single-ply,SBD,M
Boys,109.77,7,Eric Rodriquez,Overton,107.5,176.9,77.11,179.17,433.18,Single-ply,SBD,M
Boys,109.77,8,Trey Payne,Longview Pine Tree,106.87,170.1,104.33,156.49,430.91,Single-ply,SBD,M
Boys,109.77,9,Jacob Adams,Lindale,106.05,167.83,95.25,163.29,426.38,Single-ply,SBD,M
Boys,109.77,10,Triston Morris,Beckville,104.51,147.42,111.13,158.76,417.3,Single-ply,SBD,M
Boys,109.77,11,Nic Odom,Overton,103.69,161.03,74.84,151.95,387.82,Single-ply,SBD,M
Boys,109.77,12,Baltazar Santiago,Quitman,105.41,115.67,97.52,145.15,358.34,Single-ply,SBD,M
Boys,109.77,DQ,Tristan Bishop,Bullard,108.64,192.78,,,,Single-ply,SBD,M
Boys,124.74,1,Dorian Schutt,Bullard,110.68,222.26,129.27,240.4,591.94,Single-ply,SBD,M
Boys,124.74,2,William Mitchell,Longview Pine Tree,111.13,235.87,131.54,206.38,573.79,Single-ply,SBD,M
Boys,124.74,3,Luke Linebaugh,Kemp,119.93,204.12,90.72,197.31,492.15,Single-ply,SBD,M
Boys,124.74,4,Diego Medina,Malakoff,113.76,181.44,115.67,190.51,487.61,Single-ply,SBD,M
Boys,124.74,5,Brandon Brumbelow,Kerens,123.38,199.58,115.67,172.37,487.61,Single-ply,SBD,M
Boys,124.74,6,Emiliano Ramirez,Quitman,122.11,188.24,122.47,174.63,485.34,Single-ply,SBD,M
Boys,124.74,7,Cameron Fleming,Lindale,116.39,183.7,102.06,183.7,469.47,Single-ply,SBD,M
Boys,124.74,8,Hunter Hicks,Longview Spring Hill,115.03,174.63,108.86,170.1,453.59,Single-ply,SBD,M
Boys,124.74,9,Chad Walker #2,Athens,113.4,163.29,113.4,167.83,444.52,Single-ply,SBD,M
Boys,124.74,10,Josh Brittain,Longview Spring Hill,117.93,151.95,108.86,161.03,421.84,Single-ply,SBD,M
Boys,124.74,11,James Carpenter,Jefferson,119.84,158.76,113.4,140.61,412.77,Single-ply,SBD,M
Boys,124.74,12,Michael Croteau,Overton,117.03,167.83,77.11,165.56,410.5,Single-ply,SBD,M
Boys,124.74,13,Caleb Ninemire,Beckville,123.1,156.49,88.45,158.76,403.7,Single-ply,SBD,M
Boys,124.74+,14,Blake Reeves,Lindale,124.96,161.03,86.18,145.15,392.36,Single-ply,SBD,M
Boys,124.74,15,Peter Ramirez,Quitman,122.11,149.69,104.33,136.08,390.09,Single-ply,SBD,M
Boys,124.74,16,CJ Overton,Athens,123.47,136.08,88.45,158.76,383.29,Single-ply,SBD,M
Boys,124.74,17,Isiah Hale,Athens,124.47,138.35,79.38,158.76,376.48,Single-ply,SBD,M
Boys,124.74+,1,Wyatt Santos,Van,142.88,240.4,181.44,233.6,655.44,Single-ply,SBD,M
Boys,124.74+,2,John Arellano,Athens,128.82,254.01,142.88,233.6,630.49,Single-ply,SBD,M
Boys,124.74+,3,Thomas Acol,Malakoff,149.87,226.8,111.13,217.72,555.65,Single-ply,SBD,M
Boys,124.74+,4,Tristan Fritch,Van,173.27,204.12,151.95,192.78,548.85,Single-ply,SBD,M
Boys,124.74+,5,Jesse Luna,Wills Point,156.85,226.8,124.74,165.56,517.1,Single-ply,SBD,M
Boys,124.74+,6,Colton Moore,Lindale,138.98,206.38,113.4,190.51,510.29,Single-ply,SBD,M
Boys,124.74+,7,Israel Chavez,Malakoff,129.5,185.97,115.67,172.37,474,Single-ply,SBD,M
Boys,124.74+,8,Scott Sparks,Longview Spring Hill,143.06,165.56,127.01,181.44,474,Single-ply,SBD,M
Boys,124.74+,9,Ryan Cox,Jefferson,140.8,170.1,120.2,181.44,471.74,Single-ply,SBD,M
Boys,124.74+,10,Joshua West,Athens,133.9,179.17,111.13,163.29,453.59,Single-ply,SBD,M
Boys,124.74+,11,Judson Harkless,Overton,129.27,172.37,99.79,161.03,433.18,Single-ply,SBD,M
