Place,Name,CyrillicName,BirthDate,BodyweightKg,WeightClassKg,Sex,Squat1Kg,Squat2Kg,Squat3Kg,Best3SquatKg,Bench1Kg,Bench2Kg,Bench3Kg,Best3BenchKg,Deadlift1Kg,Deadlift2Kg,Deadlift3Kg,Best3DeadliftKg,TotalKg,Event,Equipment,Division
1,Anna Kurtaeva,Анна Куртаева,1986-10-29,55.3,56,F,50,55,60,60,30,-32.5,-32.5,30,65,75,82.5,82.5,172.5,SBD,Raw,Pro Open
2,Ekaterina Afanaseva,Екатерина Афанасьева,1990-01-11,54.4,56,F,50,55,57.5,57.5,30,32.5,-35,32.5,60,-70,-70,60,150,SBD,Raw,Pro Open
1,Ekaterina Borisova,Екатерина Борисова,1993-08-20,82.5,82.5,F,-60,65,70,70,-35,35,40,40,95,105,-110,105,215,SBD,Raw,Pro Open
1,Denis Maknunov,Денис Макнунов,1984-02-14,67,67.5,M,-110,110,115,115,90,-95,-95,90,150,170,180,180,385,SBD,Raw,Pro Open
2,Aleksandr Nikitash,Александр Никиташ,1988-03-26,65.7,67.5,M,-90,100,-110,100,90,97.5,-102.5,97.5,100,120,-130,120,317.5,SBD,Raw,Pro Open
1,Aleksandr Kozyr,Александр Козырь,1990-04-29,73.4,75,M,150,160,-170,160,100,110,-120,110,190,200,,200,470,SBD,Raw,Pro Open
2,Artur Saakov,Артур Сааков,1984-05-20,71.3,75,M,-120,130,150,150,-95,95,-105,95,120,140,160,160,405,SBD,Raw,Pro Open
3,Dmitriy Pribytov,Дмитрий Прибытов,1997-12-04,75,75,M,90,105,110,110,-75,-80,85,85,120,140,145,145,340,SBD,Raw,Pro Open
4,Roman Koretskiy,Роман Корецкий,1987-12-16,74.1,75,M,80,90,-102.5,90,95,-105,-105,95,95,105,-115,105,290,SBD,Raw,Pro Open
1,Roman Ushkov,Роман Ушков,1983-11-23,82.5,82.5,M,-170,170,-180,170,130,135,140,140,-200,210,220,220,530,SBD,Raw,Pro Open
2,Vitaliy Koltanyuk,Виталий Колтанюк,1990-06-22,78.8,82.5,M,180,195,-202.5,195,120,130,-135,130,200,-220,-227.5,200,525,SBD,Raw,Pro Open
3,Aleksandr Bychkov,Александр Бычков,1997-12-20,80.6,82.5,M,130,145,155,155,90,100,110,110,160,175,190,190,455,SBD,Raw,Pro Open
4,Nikolay Chudinovich,Николай Чудинович,1990-05-28,80.3,82.5,M,115,122.5,127.5,127.5,100,-102.5,-102.5,100,160,170,-175,170,397.5,SBD,Raw,Pro Open
5,Nikolay Mikhaylidi,Николай Михайлиди,1996-12-07,76.8,82.5,M,120,-130,135,135,-85,85,90,90,130,140,145,145,370,SBD,Raw,Pro Open
1,Vladimir Rybalko,Владимир Рыбалко,1987-05-04,84.3,90,M,205,215,-225,215,160,167.5,-172.5,167.5,220,240,-250,240,622.5,SBD,Raw,Pro Open
2,Aleksandr Krivoy,Александр Кривой,1986-08-22,85,90,M,190,200,-205,200,130,-137.5,-137.5,130,220,230,-237.5,230,560,SBD,Raw,Pro Open
3,Aleksandr Kolesnikov,Александр Колесников,1985-06-20,84.3,90,M,-165,175,-182.5,175,155,160,165,165,190,200,210,210,550,SBD,Raw,Pro Open
4,Sergey Baturin,Сергей Батурин,1985-08-20,89.4,90,M,115,122.5,127.5,127.5,120,-125,-125,120,-140,150,155,155,402.5,SBD,Raw,Pro Open
5,Sergey Grekov,Сергей Греков,1996-06-29,85,90,M,-130,130,140,140,80,95,-100,95,150,-165,-165,150,385,SBD,Raw,Pro Open
6,Oleg Breus,Олег Бреус,1971-03-08,87.7,90,M,110,120,-130,120,95,100,102.5,102.5,140,150,-160,150,372.5,SBD,Raw,Pro Open
1,Dmitriy Podgornyy,Дмитрий Подгорный,1981-01-08,99.5,100,M,180,195,-200,195,195,205,,205,230,240,250,250,650,SBD,Raw,Pro Open
2,Stanislav Maslovskiy,Станислав Масловский,1995-06-13,96.3,100,M,-160,-165,165,165,-140,145,-155,145,200,210,230,230,540,SBD,Raw,Pro Open
3,Aleksandr Sidorovskiy,Александр Сидоровский,1985-12-22,98.4,100,M,170,180,190,190,115,120,-125,120,190,210,-230,210,520,SBD,Raw,Pro Open
4,Vladimir Solovev,Владимир Соловьев,1997-01-17,96.4,100,M,-130,130,140,140,90,95,100,100,160,180,-182.5,180,420,SBD,Raw,Pro Open
5,Dmitriy Afanasev,Дмитрий Афанасьев,1981-02-10,96,100,M,120,130,140,140,-120,130,-150,130,140,-180,-180,140,410,SBD,Raw,Pro Open
6,Aleksandr Dedukh,Александр Дедух,1983-10-31,94,100,M,100,-115,125,125,90,100,-105,100,140,160,170,170,395,SBD,Raw,Pro Open
DQ,Viktor Atayan,Виктор Атаян,1991-10-20,95.7,100,M,-155,-160,-160,,,,,,,,,,,SBD,Raw,Pro Open
1,Vladimir Zakharov,Владимир Захаров,1955-07-07,100.1,110,M,205,215,,215,180,187.5,-190,187.5,-210,210,220,220,622.5,SBD,Raw,Pro Open
2,Anton Kozhemyakin,Антон Кожемякин,1981-02-20,101.5,110,M,125,135,142.5,142.5,110,115,-120,115,165,175,-185,175,432.5,SBD,Raw,Pro Open
1,Roman Cherepov,Роман Черепов,1995-05-11,112.5,125,M,170,-190,190,190,120,-130,-130,120,200,220,-235,220,530,SBD,Raw,Pro Open
2,Aleksey Steklov,Алексей Стеклов,1998-08-03,117.5,125,M,80,-100,110,110,60,70,75,75,130,160,,160,345,SBD,Raw,Pro Open
1,Anna Siryak,Анна Сиряк,1983-03-25,59.6,60,F,,,,,47.5,50,-52.5,50,,,,,50,B,Raw,Pro Open
1,Olga Leonova,Ольга Леонова,1974-06-25,62,67.5,F,,,,,50,57.5,62.5,62.5,,,,,62.5,B,Raw,Pro Open
1,Artem Likhman,Артем Лихман,2005-05-16,41.6,52,M,,,,,30,32.5,35,35,,,,,35,B,Raw,Pro Open
1,Andrey Govorov,Андрей Говоров,1992-07-04,66.8,67.5,M,,,,,-120,120,-130,120,,,,,120,B,Raw,Pro Open
2,Aleksandr Nikitash,Александр Никиташ,1988-03-26,65.7,67.5,M,,,,,95,100,-102.5,100,,,,,100,B,Raw,Pro Open
1,Denis Volkov,Денис Волков,1986-12-27,72.7,75,M,,,,,-140,140,-142.5,140,,,,,140,B,Raw,Pro Open
2,Roman Koretskiy,Роман Корецкий,1987-12-16,74,75,M,,,,,-97.5,97.5,102.5,102.5,,,,,102.5,B,Raw,Pro Open
3,Artur Saakov,Артур Сааков,1984-05-20,71.3,75,M,,,,,95,100,-105,100,,,,,100,B,Raw,Pro Open
1,Maksim Kazdoba,Максим Каздоба,1987-11-15,76.1,82.5,M,,,,,140,-145,145,145,,,,,145,B,Raw,Pro Open
2,Aleksandr Rybalko,Александр Рыбалко,1991-06-09,76.8,82.5,M,,,,,125,-130,-135,125,,,,,125,B,Raw,Pro Open
1,Aleksandr Kolesnikov,Александр Колесников,1985-06-20,84.3,90,M,,,,,155,165,-167.5,165,,,,,165,B,Raw,Pro Open
2,Vladimir Rybalko,Владимир Рыбалко,1987-05-04,84.3,90,M,,,,,155,160,-167.5,160,,,,,160,B,Raw,Pro Open
3,Leonid Kovrizhnykh,Леонид Коврижных,1986-05-03,88.9,90,M,,,,,-150,150,-157.5,150,,,,,150,B,Raw,Pro Open
DQ,Igor Datuashvili,Игорь Датуашвили,1986-07-26,89.2,90,M,,,,,-170,-170,-170,,,,,,,B,Raw,Pro Open
DQ,Viktor Zhavoronkov,Виктор Жаворонков,1988-12-12,89.6,90,M,,,,,-115,-115,-115,,,,,,,B,Raw,Pro Open
1,Dmitriy Podgornyy,Дмитрий Подгорный,1981-01-08,99.5,100,M,,,,,190,200,202.5,202.5,,,,,202.5,B,Raw,Pro Open
2,Denis Pashchenko,Денис Пащенко,1978-09-19,100,100,M,,,,,130,135,-140,135,,,,,135,B,Raw,Pro Open
3,Maksim Globa,Максим Глоба,1996-03-07,94.5,100,M,,,,,120,127.5,-130,127.5,,,,,127.5,B,Raw,Pro Open
1,Andrey Likhman,Андрей Лихман,1977-05-01,108.2,110,M,,,,,200,207.5,210,210,,,,,210,B,Raw,Pro Open
2,Vladimir Zakharov,Владимир Захаров,1955-07-07,100.1,110,M,,,,,180,-185,185,185,,,,,185,B,Raw,Pro Open
1,Aleksan Sanosyan,Алексан Саносян,1970-06-19,125,125,M,,,,,135,140,-145,140,,,,,140,B,Raw,Pro Open
1,Igor Tkachenko,Игорь Ткаченко,2001-01-26,116.9,125,M,,,,,65,70,72.5,72.5,,,,,72.5,B,Raw,Pro Open
