Division,WeightClassKg,Place,Name,Team,BodyweightKg,Best3SquatKg,Best3BenchKg,Best3DeadliftKg,TotalKg,Equipment,Event,Sex
Boys,51.71,1,Sonny Simons,Huntington,48.99,81.65,52.16,102.06,235.87,Single-ply,SBD,M
Boys,51.71,2,Terrell Finley,Diboll,51.26,79.38,45.36,97.52,222.26,Single-ply,SBD,M
Boys,51.71,3,CJ Cassar,Huntington,47.63,68.04,43.09,65.77,176.9,Single-ply,SBD,M
Boys,51.71,4,Caleb Wafer,Huntington,43.54,52.16,36.29,63.5,151.95,Single-ply,SBD,M
Boys,51.71,DQ,Paul Smith,Huntington,46.72,61.23,,,,Single-ply,SBD,M
Boys,55.79,1,Jose Garcia #5,Diboll,52.16,113.4,79.38,151.95,344.73,Single-ply,SBD,M
Boys,55.79,2,Juan Garcia,Diboll,55.79,120.2,74.84,142.88,337.93,Single-ply,SBD,M
Boys,55.79,3,Dylan Purvis,Corrigan-Camden,55.79,129.27,54.43,136.08,319.78,Single-ply,SBD,M
Boys,55.79,4,Brenden Stanley,Center,54.43,102.06,56.7,149.69,308.44,Single-ply,SBD,M
Boys,59.87,1,Robert McAdams,Corrigan-Camden,59.87,154.22,77.11,156.49,387.82,Single-ply,SBD,M
Boys,59.87,2,Devin Sanford,Center,57.61,83.91,61.23,92.99,238.14,Single-ply,SBD,M
Boys,67.13,1,Emmanuel Walker,Corrigan-Camden,63.05,167.83,88.45,195.04,451.32,Single-ply,SBD,M
Boys,67.13,2,Cale Hall,Center,66.68,111.13,81.65,136.08,328.85,Single-ply,SBD,M
Boys,67.13,DQ,Christian Lee,Center,64.41,131.54,,,,Single-ply,SBD,M
Boys,67.13,DQ,Dylan Havard,Huntington,65.77,,,,,Single-ply,SBD,M
Boys,74.84,1,LaKendrick Moore,Corrigan-Camden,74.84,226.8,106.59,201.85,535.24,Single-ply,SBD,M
Boys,74.84,2,Preston Bozeman,Huntington,74.84,188.24,104.33,204.12,496.68,Single-ply,SBD,M
Boys,74.84,3,Brennan Burnett,Huntington,68.95,181.44,99.79,199.58,480.81,Single-ply,SBD,M
Boys,74.84,4,Ty Hamilton,Diboll,74.39,181.44,95.25,192.78,469.47,Single-ply,SBD,M
Boys,74.84,5,Trey Lawson,Corrigan-Camden,72.57,161.03,92.99,174.63,428.64,Single-ply,SBD,M
Boys,74.84,6,Jaylon Williams,Corrigan-Camden,68.04,158.76,70.31,195.04,424.11,Single-ply,SBD,M
Boys,74.84,7,Dylan Denby,Center,72.12,170.1,92.99,147.42,410.5,Single-ply,SBD,M
Boys,74.84,8,Terrell Cook,Corrigan-Camden,70.31,138.35,61.23,176.9,376.48,Single-ply,SBD,M
Boys,74.84,9,Jackson Chamblee,Corrigan-Camden,71.67,136.08,70.31,142.88,349.27,Single-ply,SBD,M
Boys,74.84,10,Jacob Bosquez,Pollok Central,73.48,104.33,72.57,158.76,335.66,Single-ply,SBD,M
Boys,74.84,DQ,Tanner Crocker,Huntington,73.48,129.27,,,,Single-ply,SBD,M
Boys,74.84,DQ,Marcus Davis,Diboll,71.21,,,,,Single-ply,SBD,M
Boys,82.1,1,JaCarlos Hall,Center,75.75,215.46,117.93,188.24,521.63,Single-ply,SBD,M
Boys,82.1,2,Jaden Yanez,Center,82.1,163.29,106.59,181.44,451.32,Single-ply,SBD,M
Boys,82.1,3,Hayden Simpson,Pollok Central,78.93,111.13,52.16,142.88,306.17,Single-ply,SBD,M
Boys,82.1,DQ,Dakota Atwell-Asbury,Huntington,79.38,,,,,Single-ply,SBD,M
Boys,89.81,1,Witt Dockens,Center,86.18,226.8,138.35,199.58,564.72,Single-ply,SBD,M
Boys,89.81,2,Jarvoris Brooks,Corrigan-Camden,89.81,213.19,127.01,219.99,560.19,Single-ply,SBD,M
Boys,89.81,3,Brandon Dickerson,Huntington,84.37,188.24,145.15,219.99,553.38,Single-ply,SBD,M
Boys,89.81,4,Alex Vance,Corrigan-Camden,86.18,172.37,90.72,172.37,435.45,Single-ply,SBD,M
Boys,99.79,1,Jeremiah Robertson,Huntington,97.07,226.8,136.08,233.6,596.47,Single-ply,SBD,M
Boys,99.79,2,Chris Hunt,Diboll,99.79,215.46,129.27,199.58,544.31,Single-ply,SBD,M
Boys,99.79,3,Ben Lowther,Diboll,95.25,195.04,117.93,226.8,539.77,Single-ply,SBD,M
Boys,99.79,4,Desmond Henderson,Garrison,94.8,226.8,106.59,174.63,508.02,Single-ply,SBD,M
Boys,99.79,5,Alex Cuevas #2,Corrigan-Camden,92.99,190.51,97.52,156.49,444.52,Single-ply,SBD,M
Boys,99.79,6,Dylan Guthery,Huntington,91.63,149.69,95.25,176.9,421.84,Single-ply,SBD,M
Boys,99.79,7,Brandon Rogers,Huntington,98.88,145.15,86.18,176.9,408.23,Single-ply,SBD,M
Boys,99.79,8,Logan Holloway,Center,92.08,147.42,79.38,147.42,374.21,Single-ply,SBD,M
Boys,99.79,9,King Robert,Center,93.89,147.42,79.38,145.15,371.95,Single-ply,SBD,M
Boys,99.79,10,Camden Cordray,Center,99.34,151.95,74.84,138.35,365.14,Single-ply,SBD,M
Boys,99.79,11,Alex Hooper,Center,92.99,122.47,72.57,127.01,322.05,Single-ply,SBD,M
Boys,99.79,12,Daylon Reece,Pollok Central,99.79,79.38,54.43,113.4,247.21,Single-ply,SBD,M
Boys,109.77,1,Albert Urbina,Diboll,105.69,167.83,115.67,188.24,471.74,Single-ply,SBD,M
Boys,124.74,1,Jeffery Dover,Diboll,119.29,254.01,133.81,235.87,623.69,Single-ply,SBD,M
Boys,124.74,2,Jay Ellis,Huntington,123.83,149.69,95.25,156.49,401.43,Single-ply,SBD,M
Boys,124.74,DQ,DeMarcus Hubert,Diboll,118.39,,,,,Single-ply,SBD,M
Boys,124.74+,DQ,Daniel Zarzoza,Diboll,132,272.16,136.08,,,Single-ply,SBD,M
