Division,WeightClassKg,Place,Name,Team,BodyweightKg,Best3SquatKg,Best3BenchKg,Best3DeadliftKg,TotalKg,Equipment,Event,Sex
Boys,55.79,1,Randy Salinas,Bangs,51.94,129.27,68.04,154.22,351.53,Single-ply,SBD,M
Boys,51.71,2,Azahel Herrera,Glen Rose,51.35,104.33,77.11,115.67,297.1,Single-ply,SBD,M
Boys,51.71,3,Cody Halcom,Glen Rose,50.71,104.33,52.16,115.67,272.16,Single-ply,SBD,M
Boys,51.71,4,Nick Garcia #5,Tolar,51.44,83.91,54.43,111.13,249.48,Single-ply,SBD,M
Boys,51.71,5,Wyatt Ivey,Lometa,50.53,70.31,43.09,95.25,208.65,Single-ply,SBD,M
Boys,51.71,6,Clint Mayo,Stephenville,51.26,68.04,54.43,83.91,206.38,Single-ply,SBD,M
Boys,51.71,7,Payton Johnson,San Saba,47.63,77.11,38.56,74.84,190.51,Single-ply,SBD,M
Boys,51.71,8,Kyle Jaynes,Rising Star,44.63,72.57,43.09,72.57,188.24,Single-ply,SBD,M
Boys,51.71,DQ,Brett Ashley,Sweetwater,42.37,49.9,,,,Single-ply,SBD,M
Boys,55.79,1,Derrick McBee,Brady,53.34,102.06,56.7,117.93,276.69,Single-ply,SBD,M
Boys,55.79,2,Chance Thompson,Cross Plains,54.88,99.79,49.9,117.93,267.62,Single-ply,SBD,M
Boys,55.79,3,Isidro Bahena,Dublin,54.88,95.25,56.7,104.33,256.28,Single-ply,SBD,M
Boys,55.79,DQ,Nike Garcia,Early,54.16,124.74,65.77,,,Single-ply,SBD,M
Boys,55.79,DQ,Quentin Winborn,Early,55.43,124.74,,108.86,,Single-ply,SBD,M
Boys,59.87,DQ,Marcus Griffith,Lometa,55.97,81.65,52.16,,,Single-ply,SBD,M
Boys,67.13,1,Jose Morantes,Dublin,59.96,190.51,111.13,208.65,510.29,Single-ply,SBD,M
Boys,59.87,2,Jay Lomas,Sweetwater,59.69,145.15,77.11,149.69,371.95,Single-ply,SBD,M
Boys,59.87,3,Nimo Vega,San Saba,57.7,129.27,74.84,154.22,358.34,Single-ply,SBD,M
Boys,59.87,4,Justus Alaniz,Lometa,59.87,117.93,83.91,140.61,342.46,Single-ply,SBD,M
Boys,59.87,5,Jonathan Taylor,Stephenville,57.61,127.01,70.31,142.88,340.19,Single-ply,SBD,M
Boys,67.13,6,Brice Sims,Hamilton,60.06,102.06,70.31,120.2,292.57,Single-ply,SBD,M
Boys,59.87,7,Jose Constancia,Early,59.24,102.06,47.63,136.08,285.76,Single-ply,SBD,M
Boys,59.87,8,Preston Garcia,Early,56.06,106.59,61.23,113.4,281.23,Single-ply,SBD,M
Boys,59.87,DQ,Lucas Diaz,Santa Anna,59.87,129.27,,,,Single-ply,SBD,M
Boys,67.13,1,Walker Shelton,Tolar,65.68,192.78,104.33,195.04,492.15,Single-ply,SBD,M
Boys,67.13,2,Dakota Murray,Brady,65.23,197.31,92.99,185.97,476.27,Single-ply,SBD,M
Boys,67.13,3,Donald Baker,Sweetwater,66.32,167.83,102.06,174.63,444.52,Single-ply,SBD,M
Boys,67.13,4,Justin Medrano,Brady,67.13,136.08,113.4,170.1,419.57,Single-ply,SBD,M
Boys,67.13,5,Alex Jackson #3,Cross Plains,66.86,165.56,83.91,158.76,408.23,Single-ply,SBD,M
Boys,67.13,6,Carlin Linnaberry,Glen Rose,61.05,170.1,88.45,145.15,403.7,Single-ply,SBD,M
Boys,67.13,7,Nathan Smith #9,Glen Rose,66.77,136.08,95.25,170.1,401.43,Single-ply,SBD,M
Boys,74.84,8,Cosme Diaz,San Saba,67.22,154.22,77.11,167.83,399.16,Single-ply,SBD,M
Boys,67.13,9,Dakota Martinez,Stephenville,61.51,124.74,83.91,147.42,356.07,Single-ply,SBD,M
Boys,67.13,10,Justin Little,Strawn,60.51,113.4,68.04,136.08,317.51,Single-ply,SBD,M
Boys,67.13,11,Anthony Garcia,Strawn,60.6,117.93,72.57,124.74,315.25,Single-ply,SBD,M
Boys,67.13,12,Stephen Saltus,Cross Plains,66.13,113.4,72.57,127.01,312.98,Single-ply,SBD,M
Boys,67.13,13,Brian Denison,Hamilton,64.86,102.06,65.77,124.74,292.57,Single-ply,SBD,M
Boys,67.13,DQ,Corey Crowell,Bangs,66.86,,,,,Single-ply,SBD,M
Boys,67.13,DQ,Issac Bailey,Rising Star,66.04,,,138.35,,Single-ply,SBD,M
Boys,74.84,1,Hunter Redmond,Glen Rose,74.12,170.1,102.06,197.31,469.47,Single-ply,SBD,M
Boys,74.84,2,Jesse Luker,Comanche,71.67,179.17,99.79,183.7,462.66,Single-ply,SBD,M
Boys,74.84,3,Abel Ledesma,Comanche,68.86,172.37,99.79,185.97,458.13,Single-ply,SBD,M
Boys,74.84,4,Dusty Kimmel,Tolar,70.4,161.03,104.33,176.9,442.25,Single-ply,SBD,M
Boys,74.84,5,Austin Marlett,Sweetwater,74.84,172.37,99.79,167.83,439.98,Single-ply,SBD,M
Boys,74.84,6,Nathan Langston,Tolar,71.58,163.29,92.99,181.44,437.72,Single-ply,SBD,M
Boys,74.84,7,Steven Le,Sweetwater,73.75,165.56,99.79,163.29,428.64,Single-ply,SBD,M
Boys,74.84,8,Logan Mendoza,Santa Anna,74.12,147.42,90.72,170.1,408.23,Single-ply,SBD,M
Boys,74.84,9,Hayden Swearingen,Glen Rose,72.03,142.88,92.99,163.29,399.16,Single-ply,SBD,M
Boys,74.84,10,Charlie Tongate,Early,71.58,149.69,61.23,158.76,369.68,Single-ply,SBD,M
Boys,74.84,11,Zach Gartman,Cross Plains,69.94,136.08,79.38,149.69,365.14,Single-ply,SBD,M
Boys,74.84,12,Dalton Gilliam,Cross Plains,71.94,136.08,77.11,142.88,356.07,Single-ply,SBD,M
Boys,74.84,13,Phoenix Sanders,Cross Plains,73.39,136.08,77.11,142.88,356.07,Single-ply,SBD,M
Boys,74.84,14,Angel Amezcua,Glen Rose,69.49,136.08,81.65,136.08,353.8,Single-ply,SBD,M
Boys,74.84,15,Tristin Peck,Hamilton,73.94,124.74,79.38,142.88,347,Single-ply,SBD,M
Boys,74.84,16,Keifer Steinle,Cross Plains,71.67,117.93,90.72,136.08,344.73,Single-ply,SBD,M
Boys,74.84,17,Jose Zuniga,Comanche,70.58,115.67,88.45,129.27,333.39,Single-ply,SBD,M
Boys,74.84,DQ,Daniel Sánchez,Rising Star,68.49,,,170.1,,Single-ply,SBD,M
Boys,82.1,1,Salvador Marquez,Comanche,80.1,208.65,122.47,215.46,546.58,Single-ply,SBD,M
Boys,82.1,2,Saul Lopez,Comanche,81.74,210.92,124.74,199.58,535.24,Single-ply,SBD,M
Boys,82.1,3,Jake Gravell,Bangs,79.47,192.78,131.54,192.78,517.1,Single-ply,SBD,M
Boys,82.1,4,Jaime Faust,Hamilton,81.65,204.12,92.99,192.78,489.88,Single-ply,SBD,M
Boys,82.1,5,Dylan Rosales,San Saba,81.65,167.83,102.06,185.97,455.86,Single-ply,SBD,M
Boys,82.1,6,Jose Lopez,Gustine,76.2,172.37,108.86,158.76,439.98,Single-ply,SBD,M
Boys,82.1,7,Tavis Hickman,Comanche,76.02,176.9,92.99,167.83,437.72,Single-ply,SBD,M
Boys,82.1,8,Cody Morrison,Early,79.02,183.7,70.31,158.76,412.77,Single-ply,SBD,M
Boys,82.1,9,Micheal Defiore,Brady,75.93,124.74,79.38,181.44,385.55,Single-ply,SBD,M
Boys,82.1,10,Jose Martinez,Rising Star,77.38,124.74,102.06,156.49,383.29,Single-ply,SBD,M
Boys,82.1,11,Isreal Torres,Brady,79.47,127.01,102.06,154.22,383.29,Single-ply,SBD,M
Boys,82.1,12,Zach Garcia,Sweetwater,80.01,136.08,97.52,149.69,383.29,Single-ply,SBD,M
Boys,82.1,13,Garet Vaughn,Glen Rose,78.56,102.06,81.65,124.74,308.44,Single-ply,SBD,M
Boys,82.1,DQ,Michael Foix,Comanche,80.83,,88.45,142.88,,Single-ply,SBD,M
Boys,82.1,DQ,Martin Herrera,Comanche,78.83,106.59,,149.69,,Single-ply,SBD,M
Boys,82.1,DQ,Ismael Ramirez,San Saba,81.47,,108.86,176.9,,Single-ply,SBD,M
Boys,89.81,1,Garrett Tanner,Stephenville,89.18,188.24,115.67,188.24,492.15,Single-ply,SBD,M
Boys,89.81,2,Rudy Rodriguez,Dublin,85.64,181.44,102.06,201.85,485.34,Single-ply,SBD,M
Boys,89.81,3,Braxton Barrios,Glen Rose,88.9,195.04,99.79,174.63,469.47,Single-ply,SBD,M
Boys,89.81,4,Calen Ballesteros,Glen Rose,83.46,199.58,95.25,172.37,467.2,Single-ply,SBD,M
Boys,89.81,5,Damian Hatcher,Dublin,84.37,161.03,115.67,165.56,442.25,Single-ply,SBD,M
Boys,89.81,6,Robert Reeves,Brady,84.28,158.76,108.86,172.37,439.98,Single-ply,SBD,M
Boys,89.81,7,Ryan Baugh,Stephenville,83.91,142.88,113.4,158.76,415.04,Single-ply,SBD,M
Boys,89.81,8,Cj Camarillo,Brady,85.64,149.69,102.06,158.76,410.5,Single-ply,SBD,M
Boys,89.81,9,Daniel Calderon,San Saba,86.91,140.61,92.99,158.76,392.36,Single-ply,SBD,M
Boys,89.81,10,Albert Elizondo,Early,84.46,174.63,79.38,133.81,387.82,Single-ply,SBD,M
Boys,89.81,11,Alejandro Rodriguez,Dublin,87.27,133.81,102.06,147.42,383.29,Single-ply,SBD,M
Boys,89.81,12,Isaiah Regeon,Brady,84.64,131.54,83.91,147.42,362.87,Single-ply,SBD,M
Boys,89.81,13,Tristan Teplicek,Rising Star,87.72,136.08,86.18,138.35,360.61,Single-ply,SBD,M
Boys,89.81,14,Christian Guevara,Hamilton,85.91,142.88,61.23,136.08,340.19,Single-ply,SBD,M
Boys,89.81,15,John Allen,Early,88.9,129.27,65.77,113.4,308.44,Single-ply,SBD,M
Boys,89.81,DQ,Garrett Hight,Gustine,85.64,,68.04,149.69,,Single-ply,SBD,M
Boys,99.79,1,Josh Beckwith,Bangs,91.53,244.94,142.88,226.8,614.62,Single-ply,SBD,M
Boys,99.79,2,Zayne Gumler,Tolar,94.26,233.6,120.2,249.48,603.28,Single-ply,SBD,M
Boys,99.79,3,Sheldon Libey,Cross Plains,92.08,226.8,147.42,226.8,601.01,Single-ply,SBD,M
Boys,99.79,4,Heath Nicholson,Glen Rose,98.25,226.8,108.86,231.33,566.99,Single-ply,SBD,M
Boys,109.77,5,Brian Rogers,San Saba,99.97,204.12,124.74,206.38,535.24,Single-ply,SBD,M
Boys,99.79,6,Aaron Platt,Tolar,94.26,199.58,131.54,195.04,526.17,Single-ply,SBD,M
Boys,99.79,7,Dawson Matheny,Glen Rose,99.16,170.1,136.08,185.97,492.15,Single-ply,SBD,M
Boys,99.79,8,Ambrosio Rodriguez,Dublin,94.08,170.1,108.86,192.78,471.74,Single-ply,SBD,M
Boys,99.79,9,Jacob Martin,Stephenville,93.98,158.76,102.06,181.44,442.25,Single-ply,SBD,M
Boys,99.79,10,Justin Wade,Stephenville,95.44,142.88,92.99,197.31,433.18,Single-ply,SBD,M
Boys,99.79,11,Miguel Barraza,Glen Rose,95.71,170.1,90.72,158.76,419.57,Single-ply,SBD,M
Boys,99.79,12,Drannon Brewer,Glen Rose,98.52,149.69,83.91,145.15,378.75,Single-ply,SBD,M
Boys,99.79,13,Josh Shreeves,Early,90.99,136.08,65.77,129.27,331.12,Single-ply,SBD,M
Boys,99.79,DQ,Zach Thompson,Cross Plains,93.71,147.42,,113.4,,Single-ply,SBD,M
Boys,99.79,DQ,Christian Vargas,Brady,98.88,,72.57,145.15,,Single-ply,SBD,M
Boys,99.79,DQ,Victor Hernandez,Strawn,96.16,,,,,Single-ply,SBD,M
Boys,109.77,1,Preston Posuk,Cross Plains,101.6,188.24,113.4,226.8,528.44,Single-ply,SBD,M
Boys,109.77,2,Marshall Wirtz,Comanche,104.14,183.7,111.13,176.9,471.74,Single-ply,SBD,M
Boys,109.77,3,Dusty Parum,San Saba,106.32,181.44,120.2,163.29,464.93,Single-ply,SBD,M
Boys,109.77,4,Max Jones #2,Stephenville,105.78,174.63,97.52,174.63,446.79,Single-ply,SBD,M
Boys,109.77,5,Ethan Wagner,Hamilton,101.7,172.37,83.91,163.29,419.57,Single-ply,SBD,M
Boys,109.77,6,Trace Boyd,Strawn,101.6,136.08,97.52,142.88,376.48,Single-ply,SBD,M
Boys,109.77,7,Bryce Norris,Tolar,107.59,154.22,74.84,142.88,371.95,Single-ply,SBD,M
Boys,109.77,8,Kyle Waling,Lometa,106.41,124.74,86.18,140.61,351.53,Single-ply,SBD,M
Boys,109.77,9,Gunner Bradley,Lometa,107.41,124.74,79.38,140.61,344.73,Single-ply,SBD,M
Boys,124.74,1,Jared Thames,Glen Rose,121.38,283.5,213.19,258.55,755.23,Single-ply,SBD,M
Boys,124.74,2,Matt Diaz,Stephenville,120.93,240.4,174.63,226.8,641.83,Single-ply,SBD,M
Boys,124.74,3,Michael McKinnerney,San Saba,110.86,226.8,149.69,249.48,625.96,Single-ply,SBD,M
Boys,124.74,4,Jeff King,Cross Plains,118.39,235.87,142.88,201.85,580.6,Single-ply,SBD,M
Boys,124.74,5,Raul Rocha,Stephenville,121.38,192.78,127.01,195.04,514.83,Single-ply,SBD,M
Boys,124.74,6,Dylan Driver,Stephenville,112.85,206.38,115.67,188.24,510.29,Single-ply,SBD,M
Boys,124.74,7,Alonzo Alexander,Stephenville,122.38,147.42,111.13,192.78,451.32,Single-ply,SBD,M
Boys,124.74+,1,Michael Williams,Dublin,130.91,265.35,185.97,256.28,707.6,Single-ply,SBD,M
Boys,124.74+,2,Jordan Kilcrease,Stephenville,139.53,244.94,167.83,179.17,591.94,Single-ply,SBD,M
Boys,124.74+,3,Cameron Reynolds #1,Stephenville,131.63,192.78,145.15,181.44,519.36,Single-ply,SBD,M
Boys,124.74+,4,Dempsey Dorris,Strawn,135.53,204.12,90.72,172.37,467.2,Single-ply,SBD,M
