Place,Sex,Name,CyrillicName,BodyweightKg,Country,Squat1Kg,Squat2Kg,Squat3Kg,Best3SquatKg,Squat4Kg,Bench1Kg,Bench2Kg,Bench3Kg,Best3BenchKg,Bench4Kg,Deadlift1Kg,Deadlift2Kg,Deadlift3Kg,Best3DeadliftKg,Deadlift4Kg,TotalKg,WeightClassKg,Event,Equipment,Tested,Division,Age,BirthDate
1,F,Elvira Kataeva,Эльвира Катаева,54.3,Russia,130,135,-140,135,,65,67.5,-70,67.5,,-165,165,-175,165,,367.5,56,SBD,Raw,No,Open,31,1988-01-07
1,F,Tatyana Mazar,Татьяна Мазар,67.4,Russia,185,192.5,200,200,,120,125,-127.5,125,,190,200,-205,200,,525,67.5,SBD,Raw,No,Open,23,1996-01-23
1,F,Anastasiya Marchenko,Анастасія Марченко,74.3,Russia,-180,180,-190,180,,105,110,-115,110,,190,205,215,215,,505,75,SBD,Raw,No,Open,31,1988-01-13
2,F,Aleksandra Avanesyan,Александра Аванесян,74.8,Russia,160,170,175,175,,105,-115,-115,105,,-170,170,-180,170,,450,75,SBD,Raw,No,Open,24,1995-05-23
3,F,Darya Smirnova,Дарья Смирнова,70.6,Russia,130,140,145,145,,97.5,102.5,-105,102.5,,130,140,-147.5,140,,387.5,75,SBD,Raw,No,Open,28,1991-10-24
1,F,Mariya Klintsova,Мария Клинцова,81.5,Russia,155,165,172.5,172.5,,80,-90,-90,80,,175,-185,185,185,,437.5,82.5,SBD,Raw,No,Open,32,1987-01-31
1,M,Oleg Stirmanov,Олег Стирманов,63.7,Russia,-107.5,110,115,115,,95,100,105,105,,125,135,140,140,,360,67.5,SBD,Raw,No,Juniors 20-23,20,1999-05-08
1,M,Karteq Arora,,70.6,India,-160,160,-165,160,,100,107.5,115,115,,180,-200,200,200,,475,75,SBD,Raw,No,Juniors 20-23,22,1997-08-12
1,M,Dmitriy Kacharmin,Дмитрий Качармин,74.9,Russia,177.5,-190,190,190,,-127.5,135,137.5,137.5,,215,-230,-230,215,,542.5,75,SBD,Raw,No,Open,32,1987-08-09
1,M,Kumar Balvir,,82.5,India,-150,150,160,160,,110,-120,-120,110,,140,150,160,160,,430,82.5,SBD,Raw,No,Open,27,1992-10-20
1,M,Vitaliy Dyga,Виталий Дыга,89.7,Russia,275,-282.5,-285,275,,185,-192.5,195,195,,-295,295,305,305,,775,90,SBD,Raw,No,Open,30,1989-05-11
2,M,Aleksandr Dorzhiev,Александр Доржиев,89.8,Russia,237.5,250,255,255,,-172.5,182.5,185,185,,255,267.5,275,275,,715,90,SBD,Raw,No,Open,35,1984-07-10
3,M,Aleksandr Chestnov,Александр Честнов,88.7,Russia,-230,230,240,240,,160,170,175,175,,230,240,255,255,,670,90,SBD,Raw,No,Open,34,1985-08-08
4,M,Andrey Makushov,Андрей Макушов,89,Russia,200,215,-220,215,,150,157.5,-162.5,157.5,,220,-240,,220,,592.5,90,SBD,Raw,No,Open,28,1991-07-21
1,M,Anton Kashentsev,Антон Кашенцев,89,Russia,190,200,210,210,,130,135,-140,135,,-230,230,240,240,,585,90,SBD,Raw,No,Masters 40-44,43,1976-09-26
1,M,Vladimir Pleshkov,Владимир Плешков,89,Russia,140,150,160,160,,120,127.5,-130,127.5,,160,172.5,180,180,185,467.5,90,SBD,Raw,No,Masters 75-79,75,1944-08-29
1,M,Sergey Surkov,Сергей Сурков,93.8,Russia,227.5,240,250,250,,187.5,200,-205,200,,297.5,312.5,320,320,,770,100,SBD,Raw,No,Open,34,1985-10-14
2,M,Sergey Kachan,Сергей Качан,97.5,Russia,230,245,255,255,,185,195,-202.5,195,,310,-320,-320,310,,760,100,SBD,Raw,No,Open,27,1992-03-21
3,M,Aleksandr Makarov,Александр Макаров,94,Russia,260,275,282.5,282.5,,180,190,-195,190,,-285,285,-292.5,285,,757.5,100,SBD,Raw,No,Open,36,1983-10-08
4,M,Dmitriy Kamynin,Дмитрий Камынин,98.3,Russia,215,225,235,235,,145,155,-160,155,,-240,240,250,250,,640,100,SBD,Raw,No,Open,38,1981-03-14
1,M,Maksim Povorov,Максим Поворов,98.7,Russia,170,180,190,190,,105,115,-120,115,,180,200,210,210,,515,100,SBD,Raw,No,Masters 40-44,41,1978-08-06
2,M,Sunil Kumar,,99.2,India,110,120,-130,120,,120,125,-130,125,,-220,-220,220,220,,465,100,SBD,Raw,No,Masters 40-44,41,1978-09-02
1,M,Vladimir Rzhankov,Владимир Ржанков,104.7,Russia,210,220,230,230,,130,140,150,150,,235,250,-260,250,,630,110,SBD,Raw,No,Masters 55-59,57,1962-05-03
1,M,Sergey Luchenkov,Сергей Лученков,124.5,Russia,270,290,-300,290,,200,-207.5,207.5,207.5,,300,315,320,320,,817.5,125,SBD,Raw,No,Open,42,1977-05-24
2,M,Ilya Grikin,Илья Грикин,119.9,Russia,265,-285,-305,265,,205,-212.5,-215,205,,310,320,-325,320,,790,125,SBD,Raw,No,Open,27,1992-04-08
3,M,Konstantin Lomovtsev,Константин Ломовцев,123.1,Russia,250,260,-270,260,,200,210,-220,210,,-280,290,-310,290,,760,125,SBD,Raw,No,Open,26,1993-04-09
4,M,Roman Kuznetsov #1,Роман Кузнецов,121.4,Russia,240,250,260,260,,-170,180,-190,180,,280,290,-300,290,,730,125,SBD,Raw,No,Open,38,1981-07-15
5,M,Aleksey Makarenko,Алексей Макаренко,113.6,Russia,-180,180,-190,180,,140,-150,-150,140,,180,200,210,210,,530,125,SBD,Raw,No,Open,38,1981-02-22
1,M,Sergey Luchenkov,Сергей Лученков,124.5,Russia,270,290,-300,290,,200,-207.5,207.5,207.5,,300,315,320,320,,817.5,125,SBD,Raw,No,Masters 40-44,42,1977-05-24
1,M,Gaurav Bansal,,138.5,India,-140,140,150,150,,90,100,105,105,,195,210,225,225,,480,140,SBD,Raw,No,Juniors 20-23,22,1997-06-26
1,F,Polina Pecherskaya,Полина Печерская,33.55,Moldova,45,50,-55,50,,25,27.5,-30,27.5,,60,65,70,70,75,147.5,44,SBD,Wraps,No,Teen 13-15,14,2004-12-02
1,M,Rajesh Duhan,,67.5,India,-140,140,-150,140,,110,-117.5,-117.5,110,,190,207.5,215,215,,465,67.5,SBD,Wraps,No,Juniors 20-23,23,1996-02-20
1,M,Sunny Sehrawat,,73.8,India,190,210,-220,210,,117.5,125,130,130,,225,245,-252.5,245,,585,75,SBD,Wraps,No,Juniors 20-23,23,1995-11-18
1,M,Vladimir Fomin,Владимир Фомин,81.7,Russia,-240,-240,240,240,,150,160,-170,160,,240,250,255,255,,655,82.5,SBD,Wraps,No,Open,30,1989-06-01
DQ,M,Saurabh Chaudhary,,82,India,-100,-100,-100,,,55,65,-70,65,,130,140,-150,140,,,82.5,SBD,Wraps,No,Open,34,1984-12-10
DQ,M,Daniil Velichko,Даниил Величко,82.5,Russia,-300,-310,-310,,,-162.5,,,,,-290,,,,,,82.5,SBD,Wraps,No,Open,23,1996-04-05
1,M,Sergey Maksimov,Сергей Максимов,89.4,Russia,260,275,-290,275,,180,190,195,195,,300,315,-322.5,315,,785,90,SBD,Wraps,No,Open,30,1989-07-26
2,M,Konstantin Dremenkov,Константин Дременков,88.8,,230,-250,-250,230,,150,157.5,162.5,162.5,,265,280,-293.5,280,,672.5,90,SBD,Wraps,No,Open,53,1966-07-21
3,M,Shiva Nischal,,83.7,India,-180,200,-230,200,,120,130,-140,130,,215,225,240,240,,570,90,SBD,Wraps,No,Open,28,1991-09-24
1,M,Konstantin Dremenkov,Константин Дременков,88.8,,230,-250,-250,230,,150,157.5,162.5,162.5,,265,280,-293.5,280,,672.5,90,SBD,Wraps,No,Masters 50-54,53,1966-07-21
1,M,Valentin Gusev,Валентин Гусев,90.9,Russia,-185,185,-195,185,,125,-135,-140,125,,220,230,-235,230,,540,100,SBD,Wraps,No,Open,33,1986-06-01
2,M,Singh Gurpreet,,98,India,160,-180,-190,160,,100,105,-107.5,105,,180,-200,200,200,,465,100,SBD,Wraps,No,Open,37,1982-01-10
1,M,Viktor Suvernev,Виктор Сувернев,98.9,Russia,-220,230,245,245,,120,127.5,-130,127.5,,210,227.5,232.5,232.5,,605,100,SBD,Wraps,No,Masters 40-44,42,1977-02-25
1,M,Igor Mezenov,Игорь Мезенов,107.3,Russia,-260,260,-280,260,,190,-200,-200,190,,260,280,-300,280,,730,110,SBD,Wraps,No,Open,31,1988-02-23
1,M,Andrey Apalkov,Андрей Апальков,109.8,Russia,270,285,295,295,,215,220,-225,220,,250,270,285,285,,800,110,SBD,Wraps,No,Masters 40-44,40,1979-06-21
1,M,Vladimir Marchenko,Владимир Марченко,124,Russia,-360,-360,375,375,,-190,200,-205,200,,360,375,385,385,,960,125,SBD,Wraps,No,Open,35,1984-10-19
2,M,Pavel Tsirkov,Павел Цирков,114.6,Russia,210,220,230,230,,110,120,-125,120,,200,220,230,230,,580,125,SBD,Wraps,No,Open,28,1991-01-23
1,M,Sergey Odegov,Сергей Одегов,132.8,Russia,-305,305,-325,305,,200,210,217.5,217.5,,320,340,365,365,,887.5,140,SBD,Wraps,No,Open,43,1976-10-02
1,M,Ruslan Petrushkin,Руслан Петрушкин,157.3,Russia,305,325,342.5,342.5,,187.5,200,-207.5,200,,275,287.5,-295,287.5,,830,140+,SBD,Wraps,No,Open,35,1984-08-24
1,F,Inga Galich,Инга Галич,67.3,Russia,,,,,,102.5,-107.5,,102.5,,150,160,165,165,,267.5,67.5,BD,Raw,No,Open,49,1970-01-18
1,M,Rajesh Duhan,,67.5,India,,,,,,110,-117.5,-117.5,110,,190,207.5,215,215,,325,67.5,BD,Raw,No,Juniors 20-23,23,1996-02-20
1,M,Sunny Sehrawat,,73.8,India,,,,,,117.5,125,130,130,,225,245,-252.5,245,,375,75,BD,Raw,No,Juniors 20-23,23,1995-11-18
2,M,Karteq Arora,,70.6,India,,,,,,100,107.5,115,115,,180,-200,200,200,,315,75,BD,Raw,No,Juniors 20-23,22,1997-08-12
1,M,Rakesh Yadav,,77.7,India,,,,,,130,135,137.5,137.5,,180,-190,190,190,,327.5,82.5,BD,Raw,No,Open,32,1987-09-12
2,M,Saurabh Chaudhary,,82,India,,,,,,55,65,-70,65,,130,140,-150,140,,205,82.5,BD,Raw,No,Open,34,1984-12-10
3,M,Manish Baniwal,,75.4,India,,,,,,-70,70,-80,70,,-100,100,115,115,,185,82.5,BD,Raw,No,Open,26,1992-11-28
1,M,Parth Yadav,,85.3,India,,,,,,30,40,45,45,,-110,110,120,120,,165,90,BD,Raw,No,Teen 13-15,15,2004-08-28
1,M,Shiva Nischal,,83.7,India,,,,,,120,130,-140,130,,215,225,240,240,,370,90,BD,Raw,No,Open,28,1991-09-24
1,M,Konstantin Dremenkov,Константин Дременков,88.8,Belarus,,,,,,150,157.5,162.5,162.5,,265,280,-293.5,280,,442.5,90,BD,Raw,No,Masters 50-54,53,1966-07-21
1,M,Aleksandr Vintenkov,Александр Винтенков,108.4,Russia,,,,,,180,190,-197.5,190,,285,,,285,,475,110,BD,Raw,No,Masters 40-44,43,1976-02-23
1,M,Ilya Grikin,Илья Грикин,119.9,Russia,,,,,,205,-212.5,-215,205,,310,320,-325,320,,525,125,BD,Raw,No,Open,27,1992-04-08
2,M,Maksim Solntsev,Максим Солнцев,112.9,Russia,,,,,,200,210,217.5,217.5,,-250,250,265,265,,482.5,125,BD,Raw,No,Open,33,1986-08-29
1,M,Andrey Kochetov,Андрей Кочетов,129.9,Russia,,,,,,220,230,240,240,,330,350,360,360,,600,140,BD,Raw,No,Open,29,1990-05-21
1,M,Singh Gurpreet,,98,India,,,,,,100,105,-107.5,105,,180,-200,200,200,,305,100,BD,Raw,No,Open,37,1982-01-10
1,M,Karteq Arora,,70.6,India,-160,160,-165,160,,,,,,,,,,,,160,75,S,Raw,No,Juniors 20-23,22,1997-08-12
1,M,Kumar Balvir,,82.5,India,-150,150,160,160,,,,,,,,,,,,160,82.5,S,Raw,No,Open,27,1992-10-20
2,M,Rakesh Yadav,,77.4,India,-140,-140,140,140,,,,,,,,,,,,140,82.5,S,Raw,No,Open,32,1987-09-12
3,M,Manish Baniwal,,75.4,India,-80,80,90,90,,,,,,,,,,,,90,82.5,S,Raw,No,Open,26,1992-11-28
1,M,Deepak Kumar,,85.3,India,130,140,150,150,,,,,,,,,,,,150,90,S,Raw,No,Open,32,1987-07-02
1,M,Singh Gurpreet,,98,India,160,-180,-190,160,,,,,,,,,,,,160,100,S,Raw,No,Open,37,1982-01-10
DQ,M,Saurabh Chaudhary,,82,India,-100,-100,-100,,,,,,,,,,,,,,82.5,S,Wraps,No,Open,34,1984-12-10
1,M,Shiva Nischal,,83.7,India,-180,200,-230,200,,,,,,,,,,,,200,90,S,Wraps,No,Open,28,1991-09-24
1,M,Dmitriy Starov,Дмитрий Старов,123.4,Russia,270,-290,290,290,,,,,,,,,,,,290,125,S,Wraps,No,Masters 45-49,46,1973-02-01
1,F,Alina Kuznetsova,Алина Кузнецова,58.9,Russia,,,,,,67.5,72.5,-77.5,72.5,,,,,,,72.5,60,B,Raw,No,Juniors 20-23,23,1995-12-31
1,F,Lina Zubritskaya,Лина Зубрицкая,58.7,Moldova,,,,,,-125,125,-130,125,,,,,,,125,60,B,Raw,No,Open,31,1988-02-15
2,F,Olga Lomova,Ольга Ломова,59,Russia,,,,,,72.5,77.5,80,80,,,,,,,80,60,B,Raw,No,Open,27,1992-09-10
1,F,Alyona Mukhina,Алёна Мухина,67.4,Russia,,,,,,57.5,60,62.5,62.5,,,,,,,62.5,67.5,B,Raw,No,Teen 16-17,16,2003-11-08
1,F,Natalya Samarina,Наталья Самарина,67.3,Russia,,,,,,142.5,147.5,-152.5,147.5,,,,,,,147.5,67.5,B,Raw,No,Open,35,1984-06-27
2,F,Inga Galich,Инга Галич,67.3,Russia,,,,,,102.5,-107.5,,102.5,,,,,,,102.5,67.5,B,Raw,No,Open,49,1970-01-18
3,F,Alisa Larskaya,Алиса Ларская,67,Russia,,,,,,80,87.5,-90,87.5,,,,,,,87.5,67.5,B,Raw,No,Open,30,1989-04-18
1,F,Inga Galich,Инга Галич,67.3,Russia,,,,,,102.5,-107.5,,102.5,,,,,,,102.5,67.5,B,Raw,No,Masters 45-49,49,1970-01-18
1,M,Anatoliy Gorbunov,Анатолий Горбунов,57.1,Russia,,,,,,55,57.5,-60,57.5,,,,,,,57.5,60,B,Raw,No,Masters 75-79,78,1941-09-07
1,M,Rajesh Duhan,,67.5,India,,,,,,110,-117.5,-117.5,110,,,,,,,110,67.5,B,Raw,No,Juniors 20-23,23,1996-02-20
1,M,Karteq Arora,,70.6,India,,,,,,100,107.5,115,115,,,,,,,115,75,B,Raw,No,Juniors 20-23,22,1997-08-12
1,M,Denis Davydov,Денис Давыдов,72.5,Russia,,,,,,135,-140,-140,135,,,,,,,135,75,B,Raw,No,Open,36,1983-08-24
1,M,Aleksandr Matveev,Александр Матвеев,75,Russia,,,,,,-130,130,,130,,,,,,,130,75,B,Raw,No,Masters 45-49,45,1974-03-14
1,M,Aleksey Goncharenko,Алексей Гончаренко,80.5,Russia,,,,,,190,200,205,205,,,,,,,205,82.5,B,Raw,No,Open,38,1981-03-24
2,M,Ilya Sushiy,Илья Суший,81.5,Russia,,,,,,-170,170,-177.5,170,,,,,,,170,82.5,B,Raw,No,Open,35,1984-08-20
3,M,Rakesh Yadav,,77.7,India,,,,,,130,135,137.5,137.5,,,,,,,137.5,82.5,B,Raw,No,Open,32,1987-09-12
4,M,Kumar Balvir,,82.5,India,,,,,,110,-120,-120,110,,,,,,,110,82.5,B,Raw,No,Open,27,1992-10-20
5,M,Saurabh Chaudhary,,82,India,,,,,,55,65,-70,65,,,,,,,65,82.5,B,Raw,No,Open,34,1984-12-10
1,M,Mikhail Goncharenko,Михаил Гончаренко,81,Russia,,,,,,-180,180,-190,180,,,,,,,180,82.5,B,Raw,No,Masters 40-44,42,1977-08-11
1,M,Maksim Petrichenko,Максим Петриченко,85.5,Russia,,,,,,177.5,182.5,185,185,,,,,,,185,90,B,Raw,No,Open,32,1987-05-31
2,M,Vladislav Mukhin,Владислав Мухин,83.8,Russia,,,,,,150,-160,-160,150,,,,,,,150,90,B,Raw,No,Open,36,1983-03-01
3,M,Shiva Nischal,,83.7,India,,,,,,120,130,-140,130,,,,,,,130,90,B,Raw,No,Open,28,1991-09-24
1,M,Sergey Bugakov,Сергей Бугаков,89.9,Russia,,,,,,175,-180,182.5,182.5,-185,,,,,,182.5,90,B,Raw,No,Masters 40-44,43,1975-12-31
1,M,Konstantin Dremenkov,Константин Дременков,88.8,Belarus,,,,,,150,157.5,162.5,162.5,,,,,,,162.5,90,B,Raw,No,Masters 50-54,53,1966-07-21
1,M,Vladimir Pleshkov,Владимир Плешков,89,Russia,,,,,,120,127.5,-130,127.5,,,,,,,127.5,90,B,Raw,No,Masters 75-79,75,1944-08-29
1,M,Roman Legchaev,Роман Легчаев,98.4,Russia,,,,,,165,172.5,-185,172.5,,,,,,,172.5,100,B,Raw,No,Juniors 20-23,23,1995-12-03
2,M,Yash Sareen,,91.4,India,,,,,,120,-135,140,140,,,,,,,140,100,B,Raw,No,Juniors 20-23,23,1996-10-19
1,M,Sergey Surkov,Сергей Сурков,93.8,Russia,,,,,,187.5,200,-205,200,,,,,,,200,100,B,Raw,No,Open,34,1985-10-14
2,M,Sergey Kachan,Сергей Качан,97.5,Russia,,,,,,185,195,-202.5,195,,,,,,,195,100,B,Raw,No,Open,27,1992-03-21
DQ,M,Esmail Kaeid,,97.4,Iran,,,,,,-165,,,,,,,,,,,100,B,Raw,No,Open,36,1983-09-18
1,M,Natig Aliev,Натиг Алиев,96.1,Russia,,,,,,200,-205,,200,,,,,,,200,100,B,Raw,No,Masters 55-59,55,1964-02-07
1,M,Oleg Krylov,Олег Крылов,101.6,Russia,,,,,,177.5,-180,,177.5,,,,,,,177.5,110,B,Raw,No,Juniors 20-23,23,1996-04-27
1,M,Aleksey Solovev,Алексей Соловьев,108.6,Russia,,,,,,260,-267.5,-267.5,260,,,,,,,260,110,B,Raw,No,Open,29,1990-07-01
2,M,Evgeniy Bondarev,Евгений Бондарев,108.7,Russia,,,,,,220,240,-250,240,,,,,,,240,110,B,Raw,No,Open,34,1985-09-21
3,M,Vasiliy Synkov,Василий Сынков,104.7,Russia,,,,,,195,205,220,220,,,,,,,220,110,B,Raw,No,Open,47,1972-09-07
4,M,Gansukh Batmagnai,,110,Mongolia,,,,,,-220,220,-225,220,,,,,,,220,110,B,Raw,No,Open,31,1988-06-19
5,M,Denis Puzyrev,Денис Пузырев,108.6,Russia,,,,,,185,-190,-190,185,,,,,,,185,110,B,Raw,No,Open,45,1974-03-31
1,M,Maksim Murashov,Максим Мурашов,107.4,Russia,,,,,,200,207.5,212.5,212.5,,,,,,,212.5,110,B,Raw,No,Masters 40-44,40,1979-09-19
2,M,Sergey Savelev,Сергей Савельев,105.3,Russia,,,,,,195,205,-210,205,,,,,,,205,110,B,Raw,No,Masters 40-44,44,1975-03-15
3,M,Aleksey Plotnikov,Алексей Плотников,109.1,Russia,,,,,,205,-212.5,-212.5,205,,,,,,,205,110,B,Raw,No,Masters 40-44,44,1975-06-16
1,M,Vasiliy Synkov,Василий Сынков,104.7,Russia,,,,,,195,205,220,220,,,,,,,220,110,B,Raw,No,Masters 45-49,47,1972-09-07
2,M,Denis Puzyrev,Денис Пузырев,108.6,Russia,,,,,,185,-190,-190,185,,,,,,,185,110,B,Raw,No,Masters 45-49,45,1974-03-31
1,M,Mikhail Likhach,Михаил Лихач,111.6,Russia,,,,,,230,250,-257.5,250,,,,,,,250,125,B,Raw,No,Open,30,1989-04-20
2,M,Maksim Olkhovskiy,Максим Ольховский,110.9,Kazakhstan,,,,,,220,230,240,240,,,,,,,240,125,B,Raw,No,Open,30,1989-06-28
3,M,Aleksandr Tushin,Александр Тушин,115.8,Russia,,,,,,180,192.5,202.5,202.5,,,,,,,202.5,125,B,Raw,No,Open,27,1992-04-30
4,M,Nikhil,,118.1,India,,,,,,120,130,132.5,132.5,,,,,,,132.5,125,B,Raw,No,Open,26,1993-09-08
1,M,Valentin Cherepnin,Валентин Черепнин,119,Russia,,,,,,210,220,225,225,,,,,,,225,125,B,Raw,No,Masters 40-44,42,1976-12-08
1,M,Viktor Vasilev,Виктор Васильев,113.8,Russia,,,,,,155,165,170,170,,,,,,,170,125,B,Raw,No,Masters 65-69,65,1954-02-09
1,M,Yuriy Knyazev,Юрий Князев,67.5,Russia,,,,,,-160,160,-170,160,,,,,,,160,67.5,B,Single-ply,No,Open,35,1983-12-07
1,M,Ivan Semenikhin,Иван Семенихин,81.6,Russia,,,,,,-235,235,-252.5,235,,,,,,,235,82.5,B,Single-ply,No,Open,28,1991-03-30
DQ,M,Sergey Leshkov,Сергей Лешков,81.2,Russia,,,,,,-200,-200,-220,,,,,,,,,82.5,B,Single-ply,No,Open,28,1991-07-14
1,M,Artem Bykhovets,Артем Быховец,94.1,Russia,,,,,,207.5,217.5,227.5,227.5,,,,,,,227.5,100,B,Single-ply,No,Open,36,1983-07-19
2,M,Tuvshinzaya Batkhuu,,98.1,Mongolia,,,,,,175,190,,190,,,,,,,190,100,B,Single-ply,No,Open,35,1984-03-13
1,M,Denis Grigorev,Денис Григорьев,109,Russia,,,,,,215,222.5,230,230,,,,,,,230,110,B,Single-ply,No,Open,37,1982-08-07
1,M,Aleksandr Rystsov,Александр Рысцов,113,Russia,,,,,,265,270,-275,270,,,,,,,270,125,B,Single-ply,No,Open,39,1979-12-02
2,M,Gan-Erdene Davaa,,119.2,Mongolia,,,,,,175,-190,-190,175,,,,,,,175,125,B,Single-ply,No,Open,33,1986-06-22
DQ,M,Oleg Mordvintsev,Олег Мордвинцев,116.1,Russia,,,,,,-220,-220,-220,,,,,,,,,125,B,Single-ply,No,Open,46,1973-03-23
DQ,M,Oleg Mordvintsev,Олег Мордвинцев,116.1,Russia,,,,,,-220,-220,-220,,,,,,,,,125,B,Single-ply,No,Masters 45-49,46,1973-03-23
DQ,M,Dmitriy Shabalin #1,Дмитрий Шабалин,131.5,Russia,,,,,,-310,-310,-310,,,,,,,,,140,B,Single-ply,No,Open,50,1969-01-19
1,M,Lev Bergert,Лев Бергерт,149.8,Russia,,,,,,255,270,280,280,,,,,,,280,140+,B,Single-ply,No,Open,53,1966-06-13
1,M,Lev Bergert,Лев Бергерт,149.8,Russia,,,,,,255,270,280,280,,,,,,,280,140+,B,Single-ply,No,Masters 50-54,53,1966-06-13
1,M,Tuvshinzaya Batkhuu,,98.1,Mongolia,,,,,,175,-190,190,190,,,,,,,190,100,B,Multi-ply,No,Open,35,1984-03-13
1,M,Aleksey Shlykov,Алексей Шлыков,118.3,Russia,,,,,,250,260,,260,,,,,,,260,125,B,Multi-ply,No,Open,35,1984-08-13
2,M,Gan-Erdene Davaa,,119.2,Mongolia,,,,,,175,-190,-190,175,,,,,,,175,125,B,Multi-ply,No,Open,33,1986-06-22
1,F,Elena Doroshina,Елена Дорошина,60,Russia,,,,,,80,85,90,90,,,,,,,90,60,B,Multi-ply,No,Masters 40-44,44,1975-06-01
1,F,Elena Prokopova,Елена Прокопова,67,Russia,,,,,,150,160,,160,,,,,,,160,67.5,B,Multi-ply,No,Open,53,1966-03-07
1,F,Elena Prokopova,Елена Прокопова,67,Russia,,,,,,150,160,,160,,,,,,,160,67.5,B,Multi-ply,No,Masters 50-54,53,1966-03-07
1,M,Lev Berezin,Лев Березин,74,Russia,,,,,,190,200,-217.5,200,,,,,,,200,75,B,Multi-ply,No,Open,44,1975-11-12
1,M,Lev Berezin,Лев Березин,74,Russia,,,,,,190,200,-217.5,200,,,,,,,200,75,B,Multi-ply,No,Masters 40-44,44,1975-11-12
1,M,Aleksey Volkov,Алексей Волков,81.2,Russia,,,,,,230,-242.5,-242.5,230,,,,,,,230,82.5,B,Multi-ply,No,Open,34,1985-05-03
2,M,Pavel Karabanov,Павел Карабанов,81.75,Russia,,,,,,220,230,-237.5,230,,,,,,,230,82.5,B,Multi-ply,No,Open,32,1986-12-30
1,M,Andrey Erokhov,Андрей Ерохов,81.75,Russia,,,,,,230,-240,240,240,,,,,,,240,82.5,B,Multi-ply,No,Masters 45-49,45,1974-08-07
2,M,Anton Morkin,Антон Моркин,81.6,Russia,,,,,,170,180,187.5,187.5,,,,,,,187.5,82.5,B,Multi-ply,No,Masters 40-44,40,1979-10-30
1,M,Vitaliy Boev,Виталий Боев,89.4,Russia,,,,,,255,-260,260,260,,,,,,,260,90,B,Multi-ply,No,Open,35,1984-06-27
2,M,Aleksey Zavadskiy,Алексей Завадский,89.7,Belarus,,,,,,-250,250,-260,250,,,,,,,250,90,B,Multi-ply,No,Open,29,1990-08-30
3,M,Konstantin Reshetnik,Константин Решетник,89.6,Russia,,,,,,-222.5,222.5,-225,222.5,,,,,,,222.5,90,B,Multi-ply,No,Open,32,1987-03-10
1,M,Artem Stasyuk,Артем Стасюк,98.4,Russia,,,,,,280,-292.5,-292.5,280,,,,,,,280,100,B,Multi-ply,No,Open,26,1993-05-30
1,M,Denis Puzyrev,Денис Пузырев,108.55,Russia,,,,,,245,-255,-255,245,,,,,,,245,110,B,Multi-ply,No,Open,45,1974-03-31
1,M,Denis Puzyrev,Денис Пузырев,108.55,Russia,,,,,,245,-255,-255,245,,,,,,,245,110,B,Multi-ply,No,Masters 45-49,45,1974-03-31
1,M,Dmitriy Zhemarkin,Дмитрий Жемаркин,123.2,Russia,,,,,,235,245,255,255,,,,,,,255,125,B,Multi-ply,No,Juniors 20-23,22,1997-01-29
1,F,Elena Prokopova,Елена Прокопова,67,Russia,,,,,,170,180,185,185,,,,,,,185,67.5,B,Multi-ply,No,Open,53,1966-03-07
1,F,Elena Prokopova,Елена Прокопова,67,Russia,,,,,,170,180,185,185,,,,,,,185,67.5,B,Multi-ply,No,Masters 50-54,53,1966-03-07
1,F,Yulia Medvedeva,Юлия Медведева,82.2,Russia,,,,,,232.5,-245,-245,232.5,,,,,,,232.5,82.5,B,Multi-ply,No,Open,40,1979-07-08
1,F,Yulia Medvedeva,Юлия Медведева,82.2,Russia,,,,,,232.5,-245,-245,232.5,,,,,,,232.5,82.5,B,Multi-ply,No,Masters 40-44,40,1979-07-08
1,M,Yuriy Eryomin,Юрий Ерёмин,81.5,Russia,,,,,,-240,-240,240,240,,,,,,,240,82.5,B,Multi-ply,No,Open,35,1983-11-23
1,M,Aleksandr Borshchev,Александр Борщев,97.4,Russia,,,,,,300,315,-330,315,,,,,,,315,100,B,Multi-ply,No,Open,33,1986-03-24
2,M,Esmail Kaeid,,97.4,Iran,,,,,,175,-205,205,205,,,,,,,205,100,B,Multi-ply,No,Open,36,1983-09-18
DQ,M,Oleg Sokolov,Олег Соколов,100,Russia,,,,,,-260,-260,-260,,,,,,,,,100,B,Multi-ply,No,Open,47,1972-08-14
DQ,M,Oleg Sokolov,Олег Соколов,100,Russia,,,,,,-260,-260,-260,,,,,,,,,100,B,Multi-ply,No,Masters 45-49,47,1972-08-14
1,M,Mikhail Likhach,Михаил Лихач,109.5,Russia,,,,,,400,-430,-432.5,400,,,,,,,400,110,B,Multi-ply,No,Open,30,1989-04-20
2,M,Gansukh Batmagnai,,110,Mongolia,,,,,,310,-345,,310,,,,,,,310,110,B,Multi-ply,No,Open,31,1988-06-19
1,M,Andrey Grudkin,Андрей Грудкин,125,Russia,,,,,,300,315,325,325,,,,,,,325,125,B,Multi-ply,No,Open,35,1984-03-30
2,M,Oleg Shlepin,Олег Шлепин,121.25,Russia,,,,,,300,-310,-310,300,,,,,,,300,125,B,Multi-ply,No,Open,44,1975-07-08
1,M,Oleg Shlepin,Олег Шлепин,121.25,Russia,,,,,,300,-310,-310,300,,,,,,,300,125,B,Multi-ply,No,Masters 40-44,44,1975-07-08
1,M,Seyed Ghoreishi,,128.9,Iran,,,,,,260,300,307.5,307.5,,,,,,,307.5,140,B,Multi-ply,No,Open,37,1982-06-22
1,M,Igor Shevtsov,Игорь Шевцов,82.5,Russia,245,260,-270,260,,-160,-160,160,160,,247.5,-267.5,270,270,,690,82.5,SBD,Single-ply,No,Open,35,1983-12-24
1,M,Nikolay Emtsev,Николай Емцев,112.2,Russia,240,255,270,270,,160,-170,-170,160,,240,255,-265,255,,685,125,SBD,Single-ply,No,Masters 50-54,52,1967-05-23
1,F,Galina Sokova,Галина Сокова,43.85,Russia,,,,,,47.5,50,55,55,,,,,,,55,44,B,Raw,No,Juniors 20-23,21,1998-08-21
1,F,Anna Mylnikova,Анна Мыльникова,44.7,Russia,,,,,,57.5,60,62.5,62.5,,,,,,,62.5,48,B,Raw,No,Open,30,1989-03-15
1,F,Natalya Puchkova,Наталья Пучкова,66.4,Russia,,,,,,67.5,72.5,77.5,77.5,,,,,,,77.5,67.5,B,Raw,No,Open,34,1985-03-25
1,F,Evgeniya Eliseeva,Евгения Елисеева,74.9,Russia,,,,,,80,-85,85,85,,,,,,,85,75,B,Raw,No,Open,24,1994-11-19
1,F,Liliya Novikova,Лилия Новикова,68.6,Russia,,,,,,50,55,57.5,57.5,,,,,,,57.5,75,B,Raw,No,Masters 55-59,55,1964-08-20
1,F,Taisya Zaytseva,Таисья Зайцева,75.3,Russia,,,,,,50,55,-60,55,,,,,,,55,82.5,B,Raw,No,Masters 70-74,72,1947-08-30
1,F,Tatyana Maeva,Татьяна Маева,87.6,Russia,,,,,,70,75,80,80,,,,,,,80,90,B,Raw,No,Masters 60-64,61,1958-07-05
1,M,Grigoriy Loshchinin,Григорий Лощинин,55.5,Russia,,,,,,85,92.5,-95,92.5,,,,,,,92.5,56,B,Raw,No,Open,28,1991-05-05
1,M,Pavel Varavin,Павел Варавин,64.75,Russia,,,,,,92.5,100,102.5,102.5,,,,,,,102.5,67.5,B,Raw,No,Open,37,1982-07-11
1,M,Evgeniy Kosarev,Евгений Косарев,64.7,Russia,,,,,,100,-102.5,-102.5,100,,,,,,,100,67.5,B,Raw,No,Masters 55-59,58,1961-03-29
1,M,Aleksey Pachin,Алексей Пачин,72.5,Russia,,,,,,75,80,85,85,,,,,,,85,75,B,Raw,No,Masters 40-44,40,1979-03-02
1,M,Nikita Konstantinov,Никита Константинов,78.5,Russia,,,,,,-92.5,95,-102.5,95,,,,,,,95,82.5,B,Raw,No,Juniors 20-23,22,1996-12-14
DQ,M,Nikolay Petrokovich,Николай Петрокович,82.3,Russia,,,,,,-110,-110,-110,,,,,,,,,82.5,B,Raw,No,Masters 40-44,40,1979-08-17
1,M,Georgiy Gvozdev,Георгий Гвоздев,78.2,Russia,,,,,,112.5,115,117.5,117.5,,,,,,,117.5,82.5,B,Raw,No,Masters 60-64,60,1959-04-26
1,M,Vyacheslav Grunichev,Вячеслав Груничев,79.2,Russia,,,,,,27.5,30,35,35,,,,,,,35,82.5,B,Raw,No,Masters 80+,80,1939-06-26
1,M,Dmitriy Abdalov,Дмитрий Абдалов,86.1,Russia,,,,,,92.5,100,-105,100,,,,,,,100,90,B,Raw,No,Open,30,1989-02-28
1,M,Konstantin Penko,Константин Пенько,84.5,Russia,,,,,,95,-100,-100,95,,,,,,,95,90,B,Raw,No,Masters 55-59,57,1962-05-10
1,M,Sergey Sokolov,Сергей Соколов,88,Russia,,,,,,110,-115,-115,110,,,,,,,110,90,B,Raw,No,Masters 65-69,68,1951-03-12
1,M,Ivan Puryshev,Иван Пурышев,95.2,Russia,,,,,,80,-85,85,85,,,,,,,85,100,B,Raw,No,Open,39,1980-05-03
1,M,Sergey Kovalev,Сергей Ковалев,97,Russia,,,,,,125,130,-132.5,130,,,,,,,130,100,B,Raw,No,Masters 50-54,50,1969-05-22
1,M,Oleg Aristov,Олег Аристов,94.8,Russia,,,,,,112.5,-115,-115,112.5,,,,,,,112.5,100,B,Raw,No,Masters 60-64,64,1955-03-08
1,M,Konstantin Makarenko,Константин Макаренко,104.05,Russia,,,,,,125,127.5,132.5,132.5,,,,,,,132.5,110,B,Raw,No,Masters 45-49,46,1973-02-03
1,F,Elvira Kataeva,Эльвира Катаева,54.3,Russia,,,,,,,,,,,-165,165,-175,165,,165,56,D,Raw,No,Open,31,1988-01-07
1,F,Aleksandra Avanesyan,Александра Аванесян,74.8,Russia,,,,,,,,,,,-170,170,-180,170,,170,75,D,Raw,No,Open,24,1995-05-23
1,M,Jyoti Dahiya,,76.6,India,,,,,,,,,,,-155,155,160,160,,160,82.5,D,Raw,No,Open,33,1986-06-30
1,M,Lati,,47.8,India,,,,,,,,,,,90,-115,-115,90,,90,52,D,Raw,No,Juniors 20-23,23,1996-01-09
1,M,Aleksandr Zhuravlev,Александр Журавлев,59.6,Russia,,,,,,,,,,,130,135,137.5,137.5,,137.5,60,D,Raw,No,Juniors 20-23,22,1997-09-10
1,M,Rajesh Duhan,,67.5,India,,,,,,,,,,,190,207.5,215,215,,215,67.5,D,Raw,No,Juniors 20-23,23,1996-02-20
1,M,Sunny Sehrawat,,73.8,India,,,,,,,,,,,225,245,-252.5,245,,245,75,D,Raw,No,Juniors 20-23,23,1995-11-18
2,M,Karteq Arora,,70.6,India,,,,,,,,,,,180,-200,200,200,,200,75,D,Raw,No,Juniors 20-23,22,1997-08-12
1,M,Aleksandr Likholai,Александр Лихолай,73.8,Russia,,,,,,,,,,,105,115,-120,115,,115,75,D,Raw,No,Masters 80+,80,1939-02-22
1,M,Pavel Zubkov,Павел Зубков,82.4,Russia,,,,,,,,,,,315,327.5,-330,327.5,,327.5,82.5,D,Raw,No,Open,33,1985-12-22
2,M,Saurabh Chaudhary,,82,India,,,,,,,,,,,130,140,-150,140,,140,82.5,D,Raw,No,Open,34,1984-12-10
3,M,Manish Baniwal,,75.4,India,,,,,,,,,,,-100,100,115,115,,115,82.5,D,Raw,No,Open,26,1992-11-28
1,M,Parth Yadav,,85.3,India,,,,,,,,,,,-110,110,120,120,,120,90,D,Raw,No,Teen 13-15,15,2004-08-28
1,M,Shiva Nischal,,83.7,India,,,,,,,,,,,215,225,240,240,,240,90,D,Raw,No,Open,28,1991-09-24
2,M,Deepak Kumar,,85.3,India,,,,,,,,,,,100,140,170,170,,170,90,D,Raw,No,Open,32,1987-07-02
1,M,Konstantin Dremenkov,Константин Дременков,88.8,Belarus,,,,,,,,,,,265,280,-293.5,280,,280,90,D,Raw,No,Masters 50-54,53,1966-07-21
1,M,Vladimir Pleshkov,Владимир Плешков,89,Russia,,,,,,,,,,,160,172.5,180,180,185,180,90,D,Raw,No,Masters 75-79,75,1944-08-29
1,M,Yash Sareen,,91.4,India,,,,,,,,,,,190,200,210,210,,210,100,D,Raw,No,Juniors 20-23,23,1996-10-19
1,M,Sergey Surkov,Сергей Сурков,93.8,Russia,,,,,,,,,,,297.5,312.5,320,320,,320,100,D,Raw,No,Open,34,1985-10-14
2,M,Sergey Kachan,Сергей Качан,97.5,Russia,,,,,,,,,,,310,-320,-320,310,,310,100,D,Raw,No,Open,27,1992-03-21
3,M,Artem Lubinov,Артем Лубинов,90.9,Russia,,,,,,,,,,,-272.5,-272.5,272.5,272.5,,272.5,100,D,Raw,No,Open,27,1992-08-26
4,M,Singh Gurpreet,,98,India,,,,,,,,,,,180,-200,200,200,,200,100,D,Raw,No,Open,37,1982-01-10
1,M,Kamran Khosravi,,99.2,Iran,,,,,,,,,,,260,-280,-280,260,,260,100,D,Raw,No,Masters 40-44,43,1976-03-10
2,M,Sunil Kumar,,99.2,India,,,,,,,,,,,-220,-220,220,220,,220,100,D,Raw,No,Masters 40-44,41,1978-09-02
1,M,Oleg Sokolov,Олег Соколов,100,Russia,,,,,,,,,,,190,210,-220,210,,210,100,D,Raw,No,Masters 45-49,47,1972-08-14
1,M,Vyacheslav Gorbunov,Вячеслав Горбунов,93.4,Russia,,,,,,,,,,,180,200,210,210,,210,100,D,Raw,No,Masters 50-54,51,1967-12-20
1,M,Nikolay Komarov,Николай Комаров,102.7,Russia,,,,,,,,,,,210,220,230,230,,230,110,D,Raw,No,Open,34,1985-04-27
2,M,Singh Kulwinder,,100.5,India,,,,,,,,,,,100,120,140,140,,140,110,D,Raw,No,Open,33,1986-04-02
1,M,Aleksey Fedorenko,Алексей Федоренко,120.8,Russia,,,,,,,,,,,305,315,-322.5,315,,315,125,D,Raw,No,Juniors 20-23,23,1996-06-02
1,M,Maksim Pogas,Максим Погас,121.7,Russia,,,,,,,,,,,315,340,-355,340,,340,125,D,Raw,No,Open,34,1985-03-10
2,M,Roman Kuznetsov #1,Роман Кузнецов,121.4,Russia,,,,,,,,,,,280,290,-300,290,,290,125,D,Raw,No,Open,38,1981-07-15
3,M,Nikhil,,118.1,India,,,,,,,,,,,100,120,130,130,,130,125,D,Raw,No,Open,26,1993-09-08
1,M,Gaurav Bansal,,138.5,India,,,,,,,,,,,195,210,225,225,,225,140,D,Raw,No,Juniors 20-23,22,1997-06-26
1,M,Lev Bergert,Лев Бергерт,149.8,Russia,,,,,,,,,,,270,290,300,300,,300,140+,D,Raw,No,Masters 50-54,53,1966-06-13
1,M,Andrey Sizov,Андрей Сизов,94.5,Russia,,,,,,,,,,,260,280,300,300,,300,100,D,Single-ply,No,Open,51,1968-01-29
1,M,Andrey Sizov,Андрей Сизов,94.5,Russia,,,,,,,,,,,260,280,300,300,,300,100,D,Single-ply,No,Masters 50-54,51,1968-01-29
1,M,Gholamreza Ordikhani,,103.5,Iran,,,,,,,,,,,185,-215,215,215,,215,110,D,Single-ply,No,Open,36,1983-05-09
