Place,Sex,Name,CyrillicName,BodyweightKg,Bench1Kg,Bench2Kg,Bench3Kg,Best3BenchKg,Bench4Kg,Deadlift1Kg,Deadlift2Kg,Deadlift3Kg,Best3DeadliftKg,Deadlift4Kg,TotalKg,WeightClassKg,Event,Equipment,Tested,Squat1Kg,Squat2Kg,Squat3Kg,Best3SquatKg,Squat4Kg,Division,Age,BirthDate
1,M,Sergey Sutormin,Сергей Сутормин,64.2,50,60,-65,60,,90,110,,110,,170,67.5,BD,Raw,Yes,,,,,,Amateur Teen 16-17,16,2002-12-28
1,M,Aleksandr Sidorenko,Александр Сидоренко,76.5,110,-120,-120,110,,130,150,-165,150,,260,82.5,BD,Raw,Yes,,,,,,Amateur Open,25,1993-11-24
1,M,Sergey Zhirnov,Сергей Жирнов,89.6,,,,,,,,,,,222.5,90,S,Raw,Yes,222.5,,,222.5,,Amateur Masters 40-44,44,1974-11-24
1,M,Sergey Alampiev,Сергей Алампиев,67.45,,,,,,160,170,190,190,,190,67.5,D,Raw,No,,,,,,Pro Masters 60-64,61,1957-04-07
DQ,F,Marina Cherkashina,Марина Черкашина,42.9,,,,,,-87.5,-87.5,-90,,,,44,D,Raw,Yes,,,,,,Amateur Open,23,1995-10-08
1,F,Elena Sidorenko,Елена Сидоренко,51.95,,,,,,100,110,-120,110,,110,52,D,Raw,Yes,,,,,,Amateur Juniors 20-23,23,1995-05-06
1,F,Svetlana Aleksandrova,Светлана Александрова,55.1,,,,,,125,135,-145,135,,135,56,D,Raw,Yes,,,,,,Amateur Open,38,1981-01-16
2,F,Bozhena Lavrinenko,Божена Лавриненко,55.25,,,,,,115,125,-130,125,,125,56,D,Raw,Yes,,,,,,Amateur Open,35,1983-07-26
1,F,Vera Popkova,Вера Попкова,57,,,,,,90,-100,100,100,,100,60,D,Raw,Yes,,,,,,Amateur Open,39,1979-10-08
1,F,Ekaterina Budakovskaya,Екатерина Будаковская,61.6,,,,,,145,155,-160,155,,155,67.5,D,Raw,Yes,,,,,,Amateur Open,37,1982-02-05
1,F,Viktoriya Dimitrazh,Виктория Димитраж,74.95,,,,,,150,-157.5,-157.5,150,,150,75,D,Raw,Yes,,,,,,Amateur Open,34,1984-03-23
1,F,Elena Rudenko,Елена Руденко,79.2,,,,,,167.5,172.5,180,180,,180,82.5,D,Raw,Yes,,,,,,Amateur Open,48,1970-05-19
1,M,Evgeniy Maksimov,Евгений Максимов,41.45,,,,,,80,-90,90,90,,90,44,D,Raw,Yes,,,,,,Amateur Teen 13,12,2006-08-06
1,M,Evgeniy Shangin,Евгений Шангин,59.95,,,,,,-90,107.5,110,110,,110,60,D,Raw,Yes,,,,,,Amateur Teen 14-15,15,2003-12-13
1,M,Vladislav Alferov,Владислав Алферов,67.45,,,,,,100,-112.5,112.5,112.5,,112.5,67.5,D,Raw,Yes,,,,,,Amateur Teen 14-15,15,2003-09-23
1,M,Nikita Kulichenko,Никита Куличенко,66.55,,,,,,207.5,-222.5,-222.5,207.5,,207.5,67.5,D,Raw,Yes,,,,,,Amateur Teen 16-17,16,2002-05-08
1,M,Nikita Kulichenko,Никита Куличенко,66.55,,,,,,207.5,-222.5,-222.5,207.5,,207.5,67.5,D,Raw,Yes,,,,,,Amateur Open,16,2002-05-08
DQ,M,Kirill Makarenko,Кирилл Макаренко,74.9,,,,,,-160,-165,-165,,,,75,D,Raw,Yes,,,,,,Amateur Teen 14-15,15,2003-03-29
1,M,Andrey Katretskiy,Андрей Катрецкий,73.65,,,,,,185,192.5,197.5,197.5,,197.5,75,D,Raw,Yes,,,,,,Amateur Open,37,1981-07-25
2,M,Roman Kochetkov,Роман Кочетков,72.35,,,,,,-185,185,-195,185,,185,75,D,Raw,Yes,,,,,,Amateur Open,23,1995-04-14
1,M,Nikita Maksimov,Никита Максимов,77.25,,,,,,135,145,-155,145,,145,82.5,D,Raw,Yes,,,,,,Amateur Teen 16-17,16,2002-05-18
1,M,Anton Sokolov,Антон Соколов,80.3,,,,,,170,187.5,197.5,197.5,,197.5,82.5,D,Raw,Yes,,,,,,Amateur Juniors 20-23,22,1996-11-29
1,M,Sergey Bulgakov,Сергей Булгаков,81.4,,,,,,217.5,232.5,240,240,,240,82.5,D,Raw,Yes,,,,,,Amateur Open,26,1993-02-15
2,M,Evgeniy Duravkin,Евгений Дуравкин,78.65,,,,,,-190,200,217.5,217.5,,217.5,82.5,D,Raw,Yes,,,,,,Amateur Open,38,1980-08-10
3,M,Sergey Plaksunov,Сергей Плаксунов,80.5,,,,,,170,190,-200,190,,190,82.5,D,Raw,Yes,,,,,,Amateur Open,35,1984-02-06
4,M,Valeriy Andreev,Валерий Андреев,79.7,,,,,,-165,170,-187.5,170,,170,82.5,D,Raw,Yes,,,,,,Amateur Open,26,1992-07-22
1,M,Sergey Solovev #4,Сергей Соловьев,81.9,,,,,,190,195,-200,195,,195,82.5,D,Raw,Yes,,,,,,Amateur Masters 50-54,50,1968-11-04
1,M,Yuriy Chertov,Юрий Чертов,89.8,,,,,,160,172.5,-180,172.5,,172.5,90,D,Raw,Yes,,,,,,Amateur Teen 14-15,15,2003-07-12
1,M,Aleksey Nesterenko,Алексей Нестеренко,86.9,,,,,,-215,225,-230,225,,225,90,D,Raw,Yes,,,,,,Amateur Open,25,1993-11-16
2,M,Aleksandr Omelchenko,Александр Омельченко,86.95,,,,,,215,-225,-225,215,,215,90,D,Raw,Yes,,,,,,Amateur Open,32,1986-07-06
1,M,Evgeniy Shelestyuk,Евгений Шелестюк,96.35,,,,,,230,250,-260,250,,250,100,D,Raw,Yes,,,,,,Amateur Open,19,1999-08-02
2,M,Sergey Nikolenko,Сергей Николенко,98.2,,,,,,205,220,-235,220,,220,100,D,Raw,Yes,,,,,,Amateur Open,33,1985-06-29
1,M,Oleg Shcherbachenko,Олег Щербаченко,115.1,,,,,,250,-260,-260,250,,250,125,D,Raw,Yes,,,,,,Amateur Open,29,1990-02-25
1,M,Denis Oleynik,Денис Олейник,88.6,,,,,,210,220,-235,220,,220,90,D,Single-ply,Yes,,,,,,Amateur Open,34,1984-05-03
1,M,Arkadiy Osaulenko,Аркадий Осауленко,81.65,195,202.5,-207.5,202.5,,,,,,,202.5,82.5,B,Multi-ply,No,,,,,,Pro Open,31,1987-04-30
1,M,Evgeniy Dorokhov,Евгений Дорохов,80.5,-160,175,-180,175,,,,,,,175,82.5,B,Multi-ply,Yes,,,,,,Amateur Open,33,1985-09-17
1,M,Ruslan Albershteyn,Руслан Альберштейн,89.65,212.5,222.5,225,225,,,,,,,225,90,B,Multi-ply,Yes,,,,,,Amateur Masters 45-49,46,1973-01-09
1,M,Egor Taletskiy,Егор Талецкий,107.3,220,245,,245,,,,,,,245,110,B,Multi-ply,Yes,,,,,,Amateur Teen 18-19,19,1999-08-29
1,M,Maksim Uchaev,Максим Учаев,109.5,240,245,250,250,,,,,,,250,110,B,Multi-ply,Yes,,,,,,Amateur Open,33,1986-02-05
1,F,Oksana Churikova,Оксана Чурикова,55.9,57.5,-62.5,-62.5,57.5,,,,,,,57.5,56,B,Raw,No,,,,,,Pro Open,35,1984-02-15
1,M,Dmitriy Ermolaev,Дмитрий Ермолаев,67.05,150,155,-157.5,155,,,,,,,155,67.5,B,Raw,No,,,,,,Pro Open,23,1995-08-31
1,M,Mikhail Goncharenko,Михаил Гончаренко,79.95,160,170,175,175,,,,,,,175,82.5,B,Raw,No,,,,,,Pro Open,41,1977-08-11
DQ,M,Vitaliy Samoylichenko,Виталий Самойличенко,78.3,-180,-180,-185,,,,,,,,,82.5,B,Raw,No,,,,,,Pro Open,43,1975-05-04
1,M,Tigran Arutyunov,Тигран Арутюнов,87.9,215,220,-222.5,220,,,,,,,220,90,B,Raw,No,,,,,,Pro Open,25,1993-07-02
1,M,Evgeniy Lyapichev,Евгений Ляпичев,97,-160,160,-170,160,,,,,,,160,100,B,Raw,No,,,,,,Pro Open,34,1984-12-23
1,M,Rodion Dubenko,Родион Дубенко,103,230,235,,235,,,,,,,235,110,B,Raw,No,,,,,,Pro Open,30,1989-01-02
2,M,Said Gamzabekov,Саид Гамзабеков,105.55,205,210,215,215,,,,,,,215,110,B,Raw,No,,,,,,Pro Open,27,1991-10-15
1,M,Dmitriy Kovalev,Дмитрий Ковалев,113.5,185,190,195,195,,,,,,,195,125,B,Raw,No,,,,,,Pro Open,23,1995-11-15
1,M,Denis Grebenchenko,Денис Гребенченко,138,250,260,270,270,,,,,,,270,140,B,Raw,No,,,,,,Pro Open,28,1990-11-08
1,F,Marina Vishnyakova,Марина Вишнякова,51.8,65,67.5,-70,67.5,,,,,,,67.5,52,B,Raw,Yes,,,,,,Amateur Open,39,1980-01-02
2,F,Galina Lebedkova,Галина Лебедькова,51.4,55,57.5,-60,57.5,,,,,,,57.5,52,B,Raw,Yes,,,,,,Amateur Open,46,1972-03-20
1,F,Marina Bazykina,Марина Базыкина,61.4,47.5,-50,-50,47.5,,,,,,,47.5,67.5,B,Raw,Yes,,,,,,Amateur Masters 50-54,50,1968-03-31
1,M,Evdokim Marshalkin,Евдоким Маршалкин,53.2,-50,50,-70,50,,,,,,,50,56,B,Raw,Yes,,,,,,Amateur Teen 16-17,16,2003-01-13
1,M,Ilya Rozhkov,Илья Рожков,64.05,120,125,127.5,127.5,,,,,,,127.5,67.5,B,Raw,Yes,,,,,,Amateur Teen 18-19,18,2000-12-17
1,M,Igor Donchenko,Игорь Донченко,67.45,-135,-135,135,135,,,,,,,135,67.5,B,Raw,Yes,,,,,,Amateur Juniors 20-23,20,1998-09-07
1,M,Aleksey Soloshchenko,Алексей Солощенко,66.4,-90,90,-100,90,,,,,,,90,67.5,B,Raw,Yes,,,,,,Amateur Open,30,1988-09-05
1,M,Yuriy Aleksandrov,Юрий Александров,72.3,125,130,-135,130,,,,,,,130,75,B,Raw,Yes,,,,,,Amateur Open,28,1990-12-03
2,M,Dmitriy Aleksandrov,Дмитрий Александров,71.65,115,122.5,127.5,127.5,,,,,,,127.5,75,B,Raw,Yes,,,,,,Amateur Open,24,1994-05-11
3,M,Dmitriy Ryabykin,Дмитрий Рябыкин,73.8,115,120,122.5,122.5,,,,,,,122.5,75,B,Raw,Yes,,,,,,Amateur Open,34,1984-06-08
4,M,Artem Borisov,Артем Борисов,75,115,-120,120,120,,,,,,,120,75,B,Raw,Yes,,,,,,Amateur Open,35,1983-03-23
1,M,Aleksandr Votchenko,Александр Вотченко,81.6,142.5,-147.5,-147.5,142.5,,,,,,,142.5,82.5,B,Raw,Yes,,,,,,Amateur Juniors 20-23,23,1996-01-09
2,M,Klim Bukhmiller,Клим Бухмиллер,82.15,-120,130,-135,130,,,,,,,130,82.5,B,Raw,Yes,,,,,,Amateur Juniors 20-23,21,1997-08-07
3,M,Manvel Galechyan,Манвел Галечян,81,110,120,-130,120,,,,,,,120,82.5,B,Raw,Yes,,,,,,Amateur Juniors 20-23,22,1996-03-30
4,M,Oleg Chekanov,Олег Чеканов,79.5,110,-120,-120,110,,,,,,,110,82.5,B,Raw,Yes,,,,,,Amateur Juniors 20-23,22,1996-08-11
1,M,Sergey Zubko,Сергей Зубко,82,-160,167.5,175,175,,,,,,,175,82.5,B,Raw,Yes,,,,,,Amateur Open,24,1994-12-10
2,M,Pavel Muzychenko,Павел Музыченко,80.9,150,-160,167.5,167.5,,,,,,,167.5,82.5,B,Raw,Yes,,,,,,Amateur Open,38,1980-05-30
3,M,Aleksandr Prokopenko,Александр Прокопенко,80.55,160,-165,-165,160,,,,,,,160,82.5,B,Raw,Yes,,,,,,Amateur Open,30,1988-11-18
4,M,Dmitriy Priyma,Дмитрий Прийма,80.85,137.5,147.5,-152.5,147.5,,,,,,,147.5,82.5,B,Raw,Yes,,,,,,Amateur Open,38,1981-01-04
5,M,Nikolay Ocherednichenko,Николай Очередниченко,81.5,125,135,145,145,,,,,,,145,82.5,B,Raw,Yes,,,,,,Amateur Open,30,1988-06-18
6,M,Artem Pozdnyakov,Артем Поздняков,81.6,130,-135,-135,130,,,,,,,130,82.5,B,Raw,Yes,,,,,,Amateur Open,28,1990-04-09
1,M,Denis Andryukhin,Денис Андрюхин,85.35,115,-122.5,122.5,122.5,,,,,,,122.5,90,B,Raw,Yes,,,,,,Amateur Teen 18-19,18,2000-10-16
1,M,Anton Shevchenko,Антон Шевченко,86.75,150,-155,-155,150,,,,,,,150,90,B,Raw,Yes,,,,,,Amateur Juniors 20-23,21,1997-04-29
1,M,Andrey Shifanov,Андрей Шифанов,89.7,192.5,197.5,-200,197.5,,,,,,,197.5,90,B,Raw,Yes,,,,,,Amateur Open,36,1982-12-09
2,M,Denis Borisenko,Денис Борисенко,88,135,-145,145,145,,,,,,,145,90,B,Raw,Yes,,,,,,Amateur Open,38,1981-03-03
3,M,Mikhail Khoruzhiy,Михаил Хоружий,85.2,-130,135,140,140,,,,,,,140,90,B,Raw,Yes,,,,,,Amateur Open,22,1996-10-20
4,M,Aleksandr Omelchenko,Александр Омельченко,86.95,130,135,-140,135,,,,,,,135,90,B,Raw,Yes,,,,,,Amateur Open,32,1986-07-06
5,M,Ivan Romanov,Иван Романов,88.4,135,-140,-140,135,,,,,,,135,90,B,Raw,Yes,,,,,,Amateur Open,30,1988-03-26
6,M,Andrey Makienko,Андрей Макиенко,89.55,130,135,-140,135,,,,,,,135,90,B,Raw,Yes,,,,,,Amateur Open,29,1989-10-16
7,M,Nikolay Golikov,Николай Голиков,87.6,120,-125,-125,120,,,,,,,120,90,B,Raw,Yes,,,,,,Amateur Open,35,1983-05-10
1,M,Evgeniy Kupriyanov,Евгений Куприянов,87.6,120,125,130,130,,,,,,,130,90,B,Raw,Yes,,,,,,Amateur Masters 45-49,47,1972-02-04
1,M,Sergey Osipov,Сергей Осипов,99.15,145,-147.5,147.5,147.5,,,,,,,147.5,100,B,Raw,Yes,,,,,,Amateur Juniors 20-23,23,1995-11-20
1,M,Demyan Kobilinskiy,Демьян Кобилинский,98,170,180,182.5,182.5,,,,,,,182.5,100,B,Raw,Yes,,,,,,Amateur Open,28,1991-03-12
2,M,Denis Radimushkin,Денис Радимушкин,98.65,155,162.5,170,170,,,,,,,170,100,B,Raw,Yes,,,,,,Amateur Open,35,1984-01-25
3,M,Sergey Moskvikin,Сергей Москвикин,97,155,165,-170,165,,,,,,,165,100,B,Raw,Yes,,,,,,Amateur Open,30,1989-02-13
1,M,Aleksandr Shalamov,Александр Шаламов,99.55,115,125,-130,125,,,,,,,125,100,B,Raw,Yes,,,,,,Amateur Masters 55-59,55,1963-10-11
1,M,Georgiy Nikitin,Георгий Никитин,102.4,-180,-180,180,180,,,,,,,180,110,B,Raw,Yes,,,,,,Amateur Open,27,1991-05-24
2,M,Roman Krasnoshtan,Роман Красноштан,107.6,160,-167.5,-167.5,160,,,,,,,160,110,B,Raw,Yes,,,,,,Amateur Open,29,1989-04-02
3,M,Denis Khoroshaev,Денис Хорошаев,101.65,-125,125,-130,125,,,,,,,125,110,B,Raw,Yes,,,,,,Amateur Open,34,1984-11-28
1,M,Dzhapar Arslangereev,Джапар Арслангереев,117.65,-175,175,-180,175,,,,,,,175,125,B,Raw,Yes,,,,,,Amateur Open,32,1986-08-31
1,M,Gennadiy Khoroshaev,Геннадий Хорошаев,119.8,140,147.5,150,150,,,,,,,150,125,B,Raw,Yes,,,,,,Amateur Masters 55-59,56,1963-03-07
1,M,Sergey Alampiev,Сергей Алампиев,67.45,70,-75,,70,,150,170,190,190,,400,67.5,SBD,Wraps,No,130,140,,140,,Pro Masters 60-64,61,1957-04-07
1,F,Galina Lebedkova,Галина Лебедькова,51.4,55,57.5,-60,57.5,,105,110,115,115,,260,52,SBD,Wraps,No,87.5,-92.5,-92.5,87.5,,Pro Open,46,1972-03-20
2,F,Darya Duvanskaya,Дарья Дуванская,51.15,42.5,45,-47.5,45,,80,90,95,95,,212.5,52,SBD,Wraps,Yes,72.5,-75,-75,72.5,,Amateur Open,21,1997-06-03
1,F,Ekaterina Korzun,Екатерина Корзун,55,55,57.5,60,60,,130,140,-150,140,,300,56,SBD,Wraps,Yes,90,95,100,100,,Amateur Open,35,1983-06-17
1,M,Ilya Lebedkov,Илья Лебедьков,80,105,-110,110,110,,160,170,-180,170,,440,82.5,SBD,Wraps,Yes,150,160,-170,160,,Amateur Open,24,1994-04-05
2,M,Aleksandr Denisenko,Александр Денисенко,77.3,95,100,-102.5,100,,150,157.5,165,165,,410,82.5,SBD,Wraps,Yes,145,-150,-150,145,,Amateur Open,25,1993-10-01
