Place,Name,BirthYear,BirthDate,Country,Division,BodyweightKg,WeightClassKg,Squat1Kg,Squat2Kg,Squat3Kg,Best3SquatKg,Bench1Kg,Bench2Kg,Bench3Kg,Best3BenchKg,Deadlift1Kg,Deadlift2Kg,Deadlift3Kg,Best3DeadliftKg,TotalKg,Event,Equipment,Sex
1,Elnur Khailyamov,1994,,Kazakhstan,Open,58,59,162.5,170,-175,170,122.5,130,135,135,-187.5,187.5,192.5,192.5,497.5,SBD,Raw,M
2,Turar Tenelov,1984,,Kazakhstan,Open,58.55,59,160,170,-180,170,110,115,117.5,117.5,180,197.5,-202.5,197.5,485,SBD,Raw,M
3,Shota Koga,1990,,Japan,Open,58.55,59,175,186,190,190,100,-110,110,110,180,-190,-195,180,480,SBD,Raw,M
1,John Paul Cauchi,1992,,Australia,Open,65.95,66,207.5,217.5,-222.5,217.5,112.5,117.5,120,120,257.5,275,277.5,277.5,615,SBD,Raw,M
2,Alexandr Kuramshin,1986,,Kazakhstan,Open,65.6,66,215,222.5,226.5,226.5,135,140,-145,140,235,245,247.5,247.5,614,SBD,Raw,M
3,Uktam Mamaradjabov,1980,,Uzbekistan,Open,65.45,66,160,165,170,170,115,120,122.5,122.5,200,210,-215,210,502.5,SBD,Raw,M
4,Azamat Asanov,1991,,Kyrgyzstan,Open,65.2,66,150,160,165,165,100,102.5,,102.5,180,185,-187.5,185,452.5,SBD,Raw,M
1,Pavel Marda,1990,,Kazakhstan,Open,73.5,74,225,-235,235,235,167.5,172.5,177.5,177.5,260,270,-280,270,682.5,SBD,Raw,M
2,Yakov Ionin,1986,,Kazakhstan,Open,71.65,74,240,247.5,,247.5,-160,160,-162.5,160,-247.5,250,265,265,672.5,SBD,Raw,M
3,Derrick Kim Guoguang,1983,,Singapore,Open,72.3,74,230,-237.5,-245,230,130,137.5,140,140,255,275,-305,275,645,SBD,Raw,M
4,Alvin Lim,1990,,Australia,Open,72.3,74,200,212.5,217.5,217.5,150,157.5,-160,157.5,232.5,242.5,250,250,625,SBD,Raw,M
1,Aman Kapyshev,1987,,Kazakhstan,Open,82.45,83,250,260,265,265,160,165,167.5,167.5,250,260,265,265,697.5,SBD,Raw,M
2,Andrey Prokopenko,1988,,Kazakhstan,Open,78.6,83,235,245,-252.5,245,157.5,-162.5,162.5,162.5,265,275,-290,275,682.5,SBD,Raw,M
3,Eldar Saydaliev,1989,,Uzbekistan,Open,78.9,83,230,240,-250,240,120,130,-135,130,280,290,,290,660,SBD,Raw,M
4,Yuriy Antonov,1991,,Uzbekistan,Open,82.1,83,200,210,217.5,217.5,155,162.5,165,165,210,220,,220,602.5,SBD,Raw,M
5,Pavel Korshunov,1989,,Uzbekistan,Open,82.1,83,-180,180,195,195,125,132.5,-137.5,132.5,240,260,265,265,592.5,SBD,Raw,M
6,Simon Bergner,1987,,Australia,Open,82.6,83,190,200,-205,200,132.5,140,145,145,215,230,-237.5,230,575,SBD,Raw,M
7,Faisal Alzaabi,1978,,UAE,Open,82.35,83,100,102.5,140,140,150,160,165,165,100,140,-142.5,140,445,SBD,Raw,M
1,Sasan Mosayebi,1987,,Iran,Open,92.15,93,252.5,262.5,272.5,272.5,180,190,197.5,197.5,270,277.5,287.5,287.5,757.5,SBD,Raw,M
2,Aslan Korigov,1984,,Kazakhstan,Open,91.9,93,260,270,275,275,150,160,167.5,167.5,260,272.5,-285,272.5,715,SBD,Raw,M
1,Alireza Rezaei,1989,,Iran,Open,104.6,105,280,292.5,-302.5,292.5,190,-197.5,-197.5,190,265,-272.5,-272.5,265,747.5,SBD,Raw,M
2,Evgeniy Krasnovskiy,1990,,Kazakhstan,Open,104.85,105,230,240,-247.5,240,180,-185,185,185,280,-290,-290,280,705,SBD,Raw,M
3,Shingi Mareya,1984,,Australia,Open,101.6,105,235,245,250,250,-135,135,142.5,142.5,270,282.5,292.5,292.5,685,SBD,Raw,M
4,Yuki Hirai,1984,,Japan,Open,102.9,105,220,230,240,240,160,170,-175,170,240,265,-275,265,675,SBD,Raw,M
1,Hamidreza Kazemi,,,Iran,Open,118.7,120,292.5,300,307.5,307.5,200,207.5,-212.5,207.5,275,282.5,300,300,815,SBD,Raw,M
2,Yuriy Zakharov,1972,,Kazakhstan,Open,118.7,120,285,295,302.5,302.5,185,-190,-190,185,275,282.5,290,290,777.5,SBD,Raw,M
3,Robert Murrell,1981,,Australia,Open,117.05,120,270,285,-295,285,165,-170,-170,165,270,-290,-292.5,270,720,SBD,Raw,M
G,Ray Williams #1,1986,1986-09-16,USA,Open,169.3,120+,387.5,415,426,426,220,230,-237.5,230,325,347.5,352.5,352.5,1008.5,SBD,Raw,M
1,Shokirjon Rajabov,1985,,Tajikistan,Open,136.15,120+,200,245,262.5,262.5,-180,185,-200,185,-290,290,-315,290,737.5,SBD,Raw,M
2,Bashim Amanmyradov,1973,,Turkmenistan,Open,123.25,120+,230,245,255,255,140,150,,150,240,260,-270,260,665,SBD,Raw,M
3,Hamad Al Ajmi,1977,,UAE,Open,123.6,120+,230,250,-252.5,250,165,175,-177.5,175,220,240,-250,240,665,SBD,Raw,M
1,Zhandarbek Nizamadinov,1998,,Kazakhstan,Sub-Juniors,52.6,53,140,-145,147.5,147.5,75,80,-85,80,150,155,-165,155,382.5,SBD,Raw,M
1,Ispandiyar Kairzhan,1997,,Kazakhstan,Sub-Juniors,58.4,59,147.5,157.5,165,165,105,115,120,120,170,182.5,192.5,192.5,477.5,SBD,Raw,M
2,Saydullo Gaybullaev,1997,,Uzbekistan,Sub-Juniors,58.7,59,130,140,145,145,85,90,-97.5,90,180,190,195,195,430,SBD,Raw,M
3,Ovezberdi Yovyyev,1997,,Turkmenistan,Sub-Juniors,58.05,59,135,-147.5,147.5,147.5,90,-105,-105,90,170,180,-195,180,417.5,SBD,Raw,M
1,Anuar Amirtaev,1998,,Kazakhstan,Sub-Juniors,65.35,66,170,185,196,196,100,107.5,-112.5,107.5,200,210,217.5,217.5,521,SBD,Raw,M
2,Kemron Shirinov,1997,,Uzbekistan,Sub-Juniors,65.35,66,130,140,145,145,95,102.5,110,110,-155,155,170,170,425,SBD,Raw,M
3,Sergey Petin,2000,,Uzbekistan,Sub-Juniors,63.75,66,115,125,135,135,90,100,-105,100,-130,130,160,160,395,SBD,Raw,M
4,Temur Yunuskhodzhayev,1998,,Kazakhstan,Sub-Juniors,63.7,66,100,115,120,120,75,85,-87.5,85,155,162.5,-170,162.5,367.5,SBD,Raw,M
1,Bakhtiyor Ashurkulov,1998,,Uzbekistan,Sub-Juniors,72.2,74,160,170,180,180,110,120,122.5,122.5,180,195,200,200,502.5,SBD,Raw,M
2,Mahdi Torkaman,1999,,Iran,Sub-Juniors,70,74,120,130,137.5,137.5,75,87.5,90,90,150,175,185,185,412.5,SBD,Raw,M
3,Marwan Alawadhi,1998,,UAE,Sub-Juniors,71.8,74,-110,110,-130,110,110,-120,-120,110,140,160,-180,160,380,SBD,Raw,M
1,Ben Senden,1997,,Australia,Sub-Juniors,81.85,83,205,217.5,225.5,225.5,132.5,137.5,-142.5,137.5,235,250,260,260,623,SBD,Raw,M
2,Ilya Kotenev,1998,,Kazakhstan,Sub-Juniors,77.4,83,195,207.5,-210,207.5,125,132.5,-135,132.5,200,215,-225,215,555,SBD,Raw,M
3,Aleksandr Parshin,1998,,Uzbekistan,Sub-Juniors,79.8,83,140,150,155,155,100,105,107.5,107.5,160,170,180,180,442.5,SBD,Raw,M
1,Rozmatbek Bakhtiyarov,1999,,Kazakhstan,Sub-Juniors,86.85,93,115,125,-132.5,125,75,85,92.5,92.5,150,-165,-175,150,367.5,SBD,Raw,M
1,Ahmad Mahmoodi,1998,,Iran,Sub-Juniors,99,105,190,205,217.5,217.5,110,122.5,130,130,220,230,240,240,587.5,SBD,Raw,M
2,Alexandr Bilevskiy,1998,,Kazakhstan,Sub-Juniors,96.15,105,195,207.5,212.5,212.5,130,140,-145,140,195,-215,-225,195,547.5,SBD,Raw,M
3,Zhasurbek Akhmetov,1998,,Kazakhstan,Sub-Juniors,98.45,105,125,155,170,170,90,100,110,110,150,170,-197.5,170,450,SBD,Raw,M
1,Daniel Nobel,1997,,Singapore,Sub-Juniors,117.75,120,225,240,,240,135,-143,145.5,145.5,275,303.5,305,305,690.5,SBD,Raw,M
2,Alexandr Zagrevskiy,1998,,Kazakhstan,Sub-Juniors,118.6,120,250,266,-272.5,266,125,135,140,140,220,240,250,250,656,SBD,Raw,M
3,Moses Mautama,2000,,Niue,Sub-Juniors,115.2,120,180,-200,210,210,85,100,-110,100,180,-210,210,210,520,SBD,Raw,M
4,Vladimir Yashenko,1997,,Kazakhstan,Sub-Juniors,105.55,120,160,170,180,180,140,145,152.5,152.5,160,-170,170,170,502.5,SBD,Raw,M
5,Avazjon Khaydarov,1997,,Uzbekistan,Sub-Juniors,111.1,120,145,155,160,160,95,105,107.5,107.5,175,185,190,190,457.5,SBD,Raw,M
1,Yuriy Abushakhmanov,1997,,Kazakhstan,Sub-Juniors,131.05,120+,220,230,-250,230,100,110,117.5,117.5,220,240,-252.5,240,587.5,SBD,Raw,M
2,Roman Panin,1997,,Kazakhstan,Sub-Juniors,125.5,120+,210,220,-225,220,90,100,110,110,210,220,-240,220,550,SBD,Raw,M
1,Nicholas Viet,1995,,Australia,Juniors,52.25,53,137.5,147.5,-155,147.5,92.5,100,-102.5,100,167.5,180,190,190,437.5,SBD,Raw,M
1,Husniddin Buriev,1994,,Uzbekistan,Juniors,58.55,59,160,170,175,175,115,117.5,120,120,160,170,172.5,172.5,467.5,SBD,Raw,M
2,Naoki Tanizawa,1995,,Japan,Juniors,57.3,59,125,132.5,142.5,142.5,92.5,97.5,-105,97.5,150,160,-172.5,160,400,SBD,Raw,M
1,Dzhavid Garashov,1994,,Kazakhstan,Juniors,65.5,66,180,195,200,200,147.5,-156,-156,147.5,220,-230,232.5,232.5,580,SBD,Raw,M
2,Brandon Choo,1992,,Australia,Juniors,65.85,66,172.5,180,182.5,182.5,117.5,120,122.5,122.5,200,-210,-212.5,200,505,SBD,Raw,M
3,Doston Rahmonov,1995,,Uzbekistan,Juniors,65.25,66,135,142.5,147.5,147.5,90,95,-100,95,185,192.5,202.5,202.5,445,SBD,Raw,M
DQ,Koichiro Hayashi,1994,,Japan,Juniors,65.25,66,-160,-160,-160,,105,112.5,-120,112.5,210,220,230,230,,SBD,Raw,M
1,Christophe Ang,1995,,Singapore,Juniors,71.85,74,185,-195,197.5,197.5,137.5,145,150,150,230,-240,240,240,587.5,SBD,Raw,M
2,Ikki Oshima,1992,,Japan,Juniors,72.1,74,180,190,200,200,135,-140,140,140,225,-235,242.5,242.5,582.5,SBD,Raw,M
3,Sultan Satibaldiyev,1993,,Kazakhstan,Juniors,73.8,74,192.5,202.5,-207.5,202.5,132.5,-137.5,137.5,137.5,235,242.5,-250,242.5,582.5,SBD,Raw,M
4,Alexander Hayes,1992,,Australia,Juniors,72.85,74,200,-212.5,-212.5,200,115,120,122.5,122.5,235,250,-262.5,250,572.5,SBD,Raw,M
1,Clinton Lee #1,1993,,Singapore,Juniors,80.9,83,230,245,257.5,257.5,142.5,150,155,155,240,255,265,265,677.5,SBD,Raw,M
2,Douglas Gough,1992,,Australia,Juniors,81.5,83,220,232.5,240,240,132.5,137.5,-142.5,137.5,245,257.5,270,270,647.5,SBD,Raw,M
3,Anatoliy Zhavoronkov,1995,,Kazakhstan,Juniors,81.9,83,220,232.5,-242.5,232.5,150,157.5,162.5,162.5,220,232.5,-237.5,232.5,627.5,SBD,Raw,M
4,Abdalla Almaazmi,1992,,UAE,Juniors,82.05,83,170,185,200,200,130,140,-142.5,140,250,265,-275,265,605,SBD,Raw,M
5,Jason Pan,1992,,Australia,Juniors,81.6,83,197.5,207.5,-212.5,207.5,122.5,127.5,130,130,205,217.5,-220,217.5,555,SBD,Raw,M
6,Temur Shodiev,1996,,Uzbekistan,Juniors,78.15,83,150,165,-175,165,120,125,127.5,127.5,190,200,210,210,502.5,SBD,Raw,M
DQ,Mansoor Alsuwaidi,1995,,UAE,Juniors,81.3,83,150,170,-180,170,-100,-100,,,,,,,,SBD,Raw,M
1,Rustam Khamdamov,1993,,Uzbekistan,Juniors,90.4,93,190,205,-210,205,150,162.5,170,170,225,235,242.5,242.5,617.5,SBD,Raw,M
2,Timothy Davies #2,1992,,Australia,Juniors,92.55,93,200,212.5,,212.5,115,122.5,-127.5,122.5,235,250,-285,250,585,SBD,Raw,M
3,Sheldon Lobo,1993,,Australia,Juniors,92.9,93,182.5,190,197.5,197.5,122.5,127.5,130,130,222.5,235,242.5,242.5,570,SBD,Raw,M
1,Evgeniy Kapralov,1993,,Uzbekistan,Juniors,103.3,105,220,235,242.5,242.5,150,170,,170,240,260,-300,260,672.5,SBD,Raw,M
2,Farkhat Usmanov,1994,,Kazakhstan,Juniors,103.75,105,225,240,250,250,115,120,125,125,225,-242.5,-262.5,225,600,SBD,Raw,M
1,Moosa Alzaabi,1996,,UAE,Juniors,147.9,120+,50,,,50,50,52.5,,52.5,50,,,50,152.5,SBD,Raw,M
1,Tsutomu Imai,1970,,Japan,Masters 1,72.5,74,180,-190,190,190,130,-135,-135,130,200,220,225,225,545,SBD,Raw,M
2,Vadim Filimonenko,1974,,Kazakhstan,Masters 1,72.7,74,170,177.5,185,185,-120,120,127.5,127.5,190,205,-212.5,205,517.5,SBD,Raw,M
3,Ali Hashemi,1975,,Iran,Masters 1,71.8,74,145,155,167.5,167.5,102.5,110,117.5,117.5,160,177.5,185,185,470,SBD,Raw,M
4,Adaibek Nurgaliev,1968,,Kazakhstan,Masters 1,72.25,74,140,150,160,160,120,125,127.5,127.5,160,167.5,-185,167.5,455,SBD,Raw,M
1,Davranbek Turakhanov,1974,,Kazakhstan,Masters 1,78.35,83,185,205,225,225,125,135,140,140,225,250,-265,250,615,SBD,Raw,M
2,Tadahide Tominaga,1970,,Japan,Masters 1,78.9,83,215,225,-230,225,145,150,155,155,215,225,-237.5,225,605,SBD,Raw,M
3,Esmaeil Nazari,1973,,Iran,Masters 1,80.25,83,105,117.5,122.5,122.5,60,80,-95,80,120,,175,175,377.5,SBD,Raw,M
1,Gennadiy Melnik,1967,,Kazakhstan,Masters 1,91.8,93,220,-235,-240,220,140,150,152.5,152.5,255,265,-272.5,265,637.5,SBD,Raw,M
2,Konstantin Khardin,1968,,Uzbekistan,Masters 1,84,93,150,165,180,180,105,115,-120,115,200,220,-230,220,515,SBD,Raw,M
1,Mirgofur Khaydarov,1974,,Uzbekistan,Masters 1,108.35,120,170,180,-190,180,150,155,160,160,180,190,200,200,540,SBD,Raw,M
1,Sergey Deyneka,1975,,Kazakhstan,Masters 1,131.05,120+,240,250,,250,160,170,,170,-250,250,-270,250,670,SBD,Raw,M
2,Omar Jumaa Al Dhareri,1971,,UAE,Masters 1,179.5,120+,130,,,130,155,-165,-165,155,100,,,100,385,SBD,Raw,M
1,Serik Gusmanov,1956,,Kazakhstan,Masters 2,73,74,150,160,165,165,100,105,110,110,170,180,190,190,465,SBD,Raw,M
2,Rustamkhan Turdibaev,1959,,Kazakhstan,Masters 2,73.7,74,130,140,147.5,147.5,90,97.5,102.5,102.5,180,190,192.5,192.5,442.5,SBD,Raw,M
1,Vladimir Shkirman,1964,,Kazakhstan,Masters 2,81.15,83,100,,,100,100,,,100,100,,,100,300,SBD,Raw,M
1,Eric Dumas,1964,,Australia,Masters 2,91.3,93,237.5,253,-260,253,137.5,145,-147.5,145,232.5,246,260,260,658,SBD,Raw,M
1,Sergey Shuklin,1964,,Kazakhstan,Masters 2,102.2,105,160,180,200,200,110,120,130,130,200,220,240,240,570,SBD,Raw,M
2,Alan Tano Puleosi,1957,,Niue,Masters 2,93.95,105,90,115,-125,115,65,80,100,100,130,150,-160,150,365,SBD,Raw,M
1,Ulugbek Ermetov,1959,,Kazakhstan,Masters 2,106.6,120,140,155,170,170,140,150,-156,150,140,150,,150,470,SBD,Raw,M
1,Hassan Erfanijazi,1958,,Iran,Masters 2,120.7,120+,200,220,230,230,140,150,155,155,200,220,230,230,615,SBD,Raw,M
1,Akbar Rashedipoor,1955,,Iran,Masters 3,57.6,59,120,127.5,-130,127.5,62.5,67.5,-70,67.5,132.5,140,152.5,152.5,347.5,SBD,Raw,M
2,Taiichi Horibata,1954,,Japan,Masters 3,57.85,59,105,115,120,120,82.5,87.5,-90,87.5,125,135,140,140,347.5,SBD,Raw,M
1,Khabibullo Kodirov,1955,,Uzbekistan,Masters 3,71.7,74,135,145,152.5,152.5,100,110,112.5,112.5,160,180,200,200,465,SBD,Raw,M
2,Kadyrzhan Izgarin,1946,,Kazakhstan,Masters 3,72.85,74,130,140,150,150,90,95,100,100,140,-160,,140,390,SBD,Raw,M
1,Jabarali Hajigholizadeh,1953,,Iran,Masters 3,87.95,93,165,175,182.5,182.5,115,125,-127.5,125,200,217.5,227.5,227.5,535,SBD,Raw,M
2,Yuriy Samusev,1950,,Kazakhstan,Masters 3,91.05,93,130,137.5,142.5,142.5,100,107.5,112.5,112.5,165,175,182.5,182.5,437.5,SBD,Raw,M
3,Kairat Turlybekov,1948,,Kazakhstan,Masters 3,88.7,93,120,135,-145,135,-100,-105,105,105,160,170,,170,410,SBD,Raw,M
1,Rahman Aboubakri,1952,,Iran,Masters 3,131.75,120+,80,100,-120,100,90,110,-112.5,110,120,150,165,165,375,SBD,Raw,M
1,Akiyoshi Kawanaka,1942,,Japan,Masters 4,57.45,59,80,90,97.5,97.5,75,80,-85,80,90,110,-117.5,110,287.5,SBD,Raw,M
1,Suguru Inoue,1985,,Japan,Open,58.57,59,,,,,130,140,142.5,142.5,,,,,142.5,B,Raw,M
2,Elnur Khailyamov,1994,,Kazakhstan,Open,57.92,59,,,,,120,130,-140,130,,,,,130,B,Raw,M
1,Eldos Ermakhanov,1990,,Kazakhstan,Open,65.81,66,,,,,160,167.5,-176,167.5,,,,,167.5,B,Raw,M
2,Pedram Babakhani,1990,,Iran,Open,65.99,66,,,,,147.5,160,-170,160,,,,,160,B,Raw,M
3,Keita Saito,1982,,Japan,Open,65.56,66,,,,,155,-165,-167.5,155,,,,,155,B,Raw,M
1,Yusuke Suzuki,1984,,Japan,Open,71.3,74,,,,,190,200,-213,200,,,,,200,B,Raw,M
2,Pavel Marda,1990,,Kazakhstan,Open,73.93,74,,,,,170,175,-180,175,,,,,175,B,Raw,M
3,Valeriy Kuzhakhmetov,1988,,Kazakhstan,Open,73.46,74,,,,,165,172.5,-175,172.5,,,,,172.5,B,Raw,M
1,Merdan Nursahedov,1976,,Turkmenistan,Open,81.5,83,,,,,190,-200,-200,190,,,,,190,B,Raw,M
2,Faisal Alzaabi,1978,,UAE,Open,82.4,83,,,,,-140,140,-180,140,,,,,140,B,Raw,M
1,Seiji Takatori,1975,,Japan,Open,92.3,93,,,,,190,-200,-200,190,,,,,190,B,Raw,M
2,Hurshedhon Atamov,1976,,Tajikistan,Open,87.75,93,,,,,-110,110,130,130,,,,,130,B,Raw,M
3,Abdul Wadood Rahimi,1973,,Afghanistan,Open,89.25,93,,,,,90,100,-102.5,100,,,,,100,B,Raw,M
1,Denis Rybka,1985,,Kazakhstan,Open,100.7,105,,,,,207.5,215,-221,215,,,,,215,B,Raw,M
2,Hamed Nasiritaghizadeh,1983,,Iran,Open,94.15,105,,,,,200,210,-220,210,,,,,210,B,Raw,M
1,Shuji Goto,1968,,Japan,Open,107,120,,,,,195,200,-207.5,200,,,,,200,B,Raw,M
2,Yoshiyuki Miyamoto,1978,,Japan,Open,117.05,120,,,,,195,-205,-205,195,,,,,195,B,Raw,M
3,Ahror Djabarov,1989,,Uzbekistan,Open,113.85,120,,,,,190,-200,-207.5,190,,,,,190,B,Raw,M
1,Shokirjon Rajabov,1985,,Tajikistan,Open,136.3,120+,,,,,170,-172.5,185,185,,,,,185,B,Raw,M
2,Hamad Al Ajmi,1977,,UAE,Open,123.25,120+,,,,,170,175,-180,175,,,,,175,B,Raw,M
3,Bashim Amanmyradov,1973,,Turkmenistan,Open,121.5,120+,,,,,140,-170,,140,,,,,140,B,Raw,M
1,Sultan Bexeit,1998,,Kazakhstan,Sub-Juniors,52.59,53,,,,,100,107.5,-112.5,107.5,,,,,107.5,B,Raw,M
1,Kai Hanari,1997,,Japan,Sub-Juniors,56.7,59,,,,,85,90,-95,90,,,,,90,B,Raw,M
1,Anuar Amirtaev,1998,,Kazakhstan,Sub-Juniors,65.5,66,,,,,90,97.5,105,105,,,,,105,B,Raw,M
2,Hamad Ghuloom,1999,,UAE,Sub-Juniors,63.44,66,,,,,50,-65,-80,50,,,,,50,B,Raw,M
1,Zhavlan Shaukatov,1998,,Kazakhstan,Sub-Juniors,73.22,74,,,,,125,135,-145.5,135,,,,,135,B,Raw,M
2,Ahmet Dadabayev,1998,,Turkmenistan,Sub-Juniors,71.35,74,,,,,90,100,107.5,107.5,,,,,107.5,B,Raw,M
1,Kirill Tezichev,1997,,Kazakhstan,Sub-Juniors,81.9,83,,,,,165,175,-180,175,,,,,175,B,Raw,M
2,Danil Smirnov,1997,,Kyrgyzstan,Sub-Juniors,80.6,83,,,,,140,-145,-145,140,,,,,140,B,Raw,M
1,Rozmatbek Bakhtiyarov,1999,,Kazakhstan,Sub-Juniors,86.3,93,,,,,75,85,-92.5,85,,,,,85,B,Raw,M
1,Alexandr Bilevskiy,1998,,Kazakhstan,Sub-Juniors,95.85,105,,,,,132.5,140,-152.5,140,,,,,140,B,Raw,M
2,Vladimir Yashenko,1997,,Kazakhstan,Sub-Juniors,101.85,105,,,,,130,140,-152.5,140,,,,,140,B,Raw,M
1,Islam Karabaev,1998,,Kazakhstan,Sub-Juniors,115.7,120,,,,,105,115,-125,115,,,,,115,B,Raw,M
1,Eldar Iristaev,1995,,Kazakhstan,Juniors,52,53,,,,,70,80,85,85,,,,,85,B,Raw,M
1,Alisher Makhmudov,1995,,Kazakhstan,Juniors,58.54,59,,,,,110,122.5,132.5,132.5,,,,,132.5,B,Raw,M
2,Khamid Rajabova,1995,,Uzbekistan,Juniors,57.77,59,,,,,115,125,-132.5,125,,,,,125,B,Raw,M
3,Toirzhan Marif,1996,,Kazakhstan,Juniors,58.84,59,,,,,110,120,-127.5,120,,,,,120,B,Raw,M
4,Yuto Suzuki,1992,,Japan,Juniors,57.5,59,,,,,95,105,-110,105,,,,,105,B,Raw,M
1,Dzhavid Garashov,1994,,Kazakhstan,Juniors,65.86,66,,,,,145,150,-156,150,,,,,150,B,Raw,M
2,Takuma Furukawa,1993,,Japan,Juniors,65.45,66,,,,,-142.5,142.5,-152.5,142.5,,,,,142.5,B,Raw,M
1,Akhror Bozorov,1994,,Uzbekistan,Juniors,73.28,74,,,,,162.5,170,175,175,,,,,175,B,Raw,M
2,Masatatsu Hondo,1995,,Japan,Juniors,73.38,74,,,,,-162.5,162.5,170.5,170.5,,,,,170.5,B,Raw,M
1,Anatoliy Zhavoronkov,1995,,Kazakhstan,Juniors,81.5,83,,,,,150,155,,155,,,,,155,B,Raw,M
2,Atabek Mukhiddinov,1996,,Kazakhstan,Juniors,81.7,83,,,,,130,135,142.5,142.5,,,,,142.5,B,Raw,M
3,Azizahmad Hamas,1993,,Afghanistan,Juniors,82.5,83,,,,,-130,130,142.5,142.5,,,,,142.5,B,Raw,M
4,Temur Shodiev,1996,,Uzbekistan,Juniors,79.6,83,,,,,120,127.5,-130,127.5,,,,,127.5,B,Raw,M
5,Will Berkman,1992,,Australia,Juniors,82.1,83,,,,,115,120,-122.5,120,,,,,120,B,Raw,M
1,Doston Abdusattarov,1995,,Uzbekistan,Juniors,83.3,93,,,,,135,140,-142.5,140,,,,,140,B,Raw,M
1,Mohammed Sharif Aram,1994,,Afghanistan,Juniors,102.9,105,,,,,160,170,180,180,,,,,180,B,Raw,M
2,Shukhrat Muzapparov,1992,,Uzbekistan,Juniors,93.5,105,,,,,110,120,127.5,127.5,,,,,127.5,B,Raw,M
3,Farkhat Usmanov,1994,,Kazakhstan,Juniors,104.5,105,,,,,110,120,-127.5,120,,,,,120,B,Raw,M
1,Atabak Rahmani,1992,,Iran,Juniors,154.1,120+,,,,,150,172.5,-180,172.5,,,,,172.5,B,Raw,M
2,Moosa Alzaabi,1996,,UAE,Juniors,148.6,120+,,,,,-50,50,70,70,,,,,70,B,Raw,M
1,Mitsuo Kametani,1971,,Japan,Masters 1,65.77,66,,,,,132.5,142.5,150,150,,,,,150,B,Raw,M
1,Katsunori Kawahata,1972,,Japan,Masters 1,72.09,74,,,,,150,155,-160.5,155,,,,,155,B,Raw,M
2,Adaibek Nurgaliev,1968,,Kazakhstan,Masters 1,73.01,74,,,,,115,120,127.5,127.5,,,,,127.5,B,Raw,M
1,Davranbek Turakhanov,1974,,Kazakhstan,Masters 1,79,83,,,,,125,135,-142.5,135,,,,,135,B,Raw,M
2,Konstantin Khardin,1968,,Uzbekistan,Masters 1,80,83,,,,,100,110,115,115,,,,,115,B,Raw,M
3,Davronzhon Nabiev,1973,,Tajikistan,Masters 1,82.7,83,,,,,80,100,112.5,112.5,,,,,112.5,B,Raw,M
1,Masao Inoue,1969,,Japan,Masters 1,91.35,93,,,,,170,-180,180,180,,,,,180,B,Raw,M
2,Bakhyt Kaukakov,1967,,Kazakhstan,Masters 1,91.8,93,,,,,120,130,-135,130,,,,,130,B,Raw,M
DQ,Mitsunori Matsunuma,1971,,Japan,Masters 1,90.55,93,,,,,-157.5,-157.5,-157.5,,,,,,,B,Raw,M
1,Ulugbek Pashahujaev,1971,,Uzbekistan,Masters 1,96.5,105,,,,,150,160,170,170,,,,,170,B,Raw,M
2,Toshio Nakamura,1970,,Japan,Masters 1,100.4,105,,,,,140,157.5,-170,157.5,,,,,157.5,B,Raw,M
1,Yuriy Zakharov,1972,,Kazakhstan,Masters 1,119.15,120,,,,,180,185,-187.5,185,,,,,185,B,Raw,M
2,Andrey Altaybaev,1972,,Kazakhstan,Masters 1,112.5,120,,,,,170,-177.5,-177.5,170,,,,,170,B,Raw,M
3,Hiroshi Saiko,1972,,Japan,Masters 1,109.8,120,,,,,160,-165,-170,160,,,,,160,B,Raw,M
1,Omar Jumaa Al Dhareri,1971,,UAE,Masters 1,185,120+,,,,,-170,170,-172.5,170,,,,,170,B,Raw,M
1,Serik Gusmanov,1956,,Kazakhstan,Masters 2,72.88,74,,,,,105,-110,110,110,,,,,110,B,Raw,M
1,Mohammad Bahaeddin Azizibaneh,1958,,Iran,Masters 2,80.5,83,,,,,120,135,142.5,142.5,,,,,142.5,B,Raw,M
2,Serikkazi Azilkhanov,1963,,Kazakhstan,Masters 2,80.7,83,,,,,105,112.5,117.5,117.5,,,,,117.5,B,Raw,M
3,Vladimir Shkirman,1964,,Kazakhstan,Masters 2,81.4,83,,,,,100,107.5,115,115,,,,,115,B,Raw,M
1,German Kagagodin,1964,,Kazakhstan,Masters 2,90.35,93,,,,,150,155,-160,155,,,,,155,B,Raw,M
2,Yukihiko Oguro,1960,,Japan,Masters 2,88.8,93,,,,,135,145,-155,145,,,,,145,B,Raw,M
3,Osamu Sano,1963,,Japan,Masters 2,89.3,93,,,,,145,-155,-155,145,,,,,145,B,Raw,M
1,Kazuhisa Ono,1962,,Japan,Masters 2,99.8,105,,,,,170,-180,-180,170,,,,,170,B,Raw,M
2,Sergey Shuklin,1964,,Kazakhstan,Masters 2,101.85,105,,,,,110,120,125,125,,,,,125,B,Raw,M
1,Ulugbek Ermetov,1959,,Kazakhstan,Masters 2,106.6,120,,,,,140,145,150,150,,,,,150,B,Raw,M
2,Valeriy Zverev,1958,,Kazakhstan,Masters 2,105.4,120,,,,,-130,137.5,-145,137.5,,,,,137.5,B,Raw,M
3,Mohammadullah Katwazi,1962,,Afghanistan,Masters 2,108.5,120,,,,,-110,110,-120,110,,,,,110,B,Raw,M
1,Takeshi Shirakawa,1948,,Japan,Masters 3,57.34,59,,,,,110,125,-130.5,125,,,,,125,B,Raw,M
1,Kadyrzhan Izgarin,1946,,Kazakhstan,Masters 3,73.32,74,,,,,80,97.5,100,100,,,,,100,B,Raw,M
1,Yuriy Samusev,1950,,Kazakhstan,Masters 3,91.4,93,,,,,90,100,107.5,107.5,,,,,107.5,B,Raw,M
2,Sergaly Khairbayev,1954,,Kazakhstan,Masters 3,87.8,93,,,,,70,75,77.5,77.5,,,,,77.5,B,Raw,M
1,Masami Otaki,1942,,Japan,Masters 4,53.92,59,,,,,80,-82.5,85,85,,,,,85,B,Raw,M
2,Akiyoshi Kawanaka,1942,,Japan,Masters 4,58.36,59,,,,,80,85,-87.5,85,,,,,85,B,Raw,M
1,Yasushi Iida,1943,,Japan,Masters 4,79.5,83,,,,,-117.5,126,-127.5,126,,,,,126,B,Raw,M
1,Lal Aqaa Noor,1942,,Afghanistan,Masters 4,85.35,93,,,,,100,110,-112.5,110,,,,,110,B,Raw,M
1,Vladimir Babichev,1949,,Kazakhstan,Masters 3,124.85,120+,,,,,-110,110,122.5,122.5,,,,,122.5,B,Raw,M
1,Natalya Tskhay,1975,,Kazakhstan,Open,46.2,47,90,95,97.5,97.5,50,52.5,-55,52.5,95,102.5,105,105,255,SBD,Raw,F
2,Asiya Orazbekova,1987,,Kazakhstan,Open,44.55,47,80,-87.5,-87.5,80,62.5,65,-67.5,65,100,107.5,-110,107.5,252.5,SBD,Raw,F
1,Bibijan Gulmurzayeva,1988,,Turkmenistan,Open,50.85,52,100,110,120,120,70,80,-85,80,120,130,-140,130,330,SBD,Raw,F
2,Olga Kurisheva,1967,,Kazakhstan,Open,51.5,52,65,75,80,80,45,50,-52.5,50,100,105,110,110,240,SBD,Raw,F
1,Yuliya Porunova,1991,,Kazakhstan,Open,56.85,57,95,100,102.5,102.5,65,72.5,-77.5,72.5,110,120,125,125,300,SBD,Raw,F
2,Nina Sokolova,1977,,Kazakhstan,Open,56.15,57,60,65,70,70,50,55,57.5,57.5,70,80,90,90,217.5,SBD,Raw,F
3,Damira Alimbaeva,1990,,Uzbekistan,Open,52.1,57,50,60,65,65,30,35,40,40,70,80,-90,80,185,SBD,Raw,F
1,Maer Jiminez,1981,,Australia,Open,62.6,63,130,137.5,-140,137.5,65,-67.5,67.5,67.5,170,180,-191,180,385,SBD,Raw,F
2,Malika Babaniyazova,1983,,Uzbekistan,Open,61.8,63,80,90,-95,90,40,45,-50,45,90,100,105,105,240,SBD,Raw,F
3,Marina Sirkizyuk,1985,,Kazakhstan,Open,60.2,63,70,75,77.5,77.5,45,47.5,-50,47.5,80,90,100,100,225,SBD,Raw,F
1,Ekaterina Kryukova,1985,,Kazakhstan,Open,71.8,72,130,140,,140,95,102.5,110,110,150,,,150,400,SBD,Raw,F
2,Venera Rajabova,1980,,Uzbekistan,Open,68.4,72,75,85,90,90,55,60,-62.5,60,90,105,117.5,117.5,267.5,SBD,Raw,F
1,Mahriban Zhumaniyazova,1988,,Turkmenistan,Open,75.05,84,120,130,-140,130,90,95,-100,95,120,130,135,135,360,SBD,Raw,F
2,Olesya Gureeva,1980,,Uzbekistan,Open,76.55,84,-120,120,-132.5,120,65,70,-72.5,70,120,130,137.5,137.5,327.5,SBD,Raw,F
DQ,Zoya Kuznetsova,1989,,Kazakhstan,Open,81.7,84,-105,-112.5,-112.5,,62.5,67.5,-72.5,67.5,110,122.5,137.5,137.5,,SBD,Raw,F
1,Kseniya Okatenko,1994,,Kazakhstan,Open,103,84+,150,160,170,170,100,107.5,-110,107.5,140,155,-172.5,155,432.5,SBD,Raw,F
2,Olga Maksimova,1980,,Uzbekistan,Open,105.9,84+,-115,115,-120,115,80,90,-95,90,-115,120,-125,120,325,SBD,Raw,F
1,Mariya Bovkun,2001,,Kazakhstan,Sub-Juniors,42.65,43,55,62.5,-67.5,62.5,35,40,42.5,42.5,70,80,90,90,195,SBD,Raw,F
1,Vlada Stazayeva,1998,,Kazakhstan,Sub-Juniors,46.9,47,70,80,-85,80,45,50,-55,50,80,87.5,,87.5,217.5,SBD,Raw,F
1,Dilyara Karimova,1998,,Kazakhstan,Sub-Juniors,51.3,52,105,112.5,115,115,65,72.5,77.5,77.5,110,120,122.5,122.5,315,SBD,Raw,F
1,Anastasiya Guleeva,1999,,Kazakhstan,Sub-Juniors,54.85,57,70,77.5,-82.5,77.5,37.5,40,-42.5,40,87.5,95,-100,95,212.5,SBD,Raw,F
2,Kamila Krakova,1998,,Kazakhstan,Sub-Juniors,53.6,57,62.5,-65,-65,62.5,32.5,35,37.5,37.5,60,65,70,70,170,SBD,Raw,F
1,Kseniya Varshuk,1998,,Kazakhstan,Sub-Juniors,60.4,63,100,107.5,-115,107.5,60,-65,65,65,-110,110,-120,110,282.5,SBD,Raw,F
1,Anastassiya Grishnyaeva,2000,,Kazakhstan,Sub-Juniors,67.75,72,80,-90,90,90,45,50,52.5,52.5,100,110,120,120,262.5,SBD,Raw,F
2,Sugdiona Hamzaeva,2000,,Uzbekistan,Sub-Juniors,70.15,72,60,70,80,80,30,45,-47.5,45,100,115,122.5,122.5,247.5,SBD,Raw,F
1,Bethany Parker,1999,,Australia,Sub-Juniors,82.35,84,147.5,155,165.5,165.5,90,95,-100,95,172.5,182.5,-195.5,182.5,443,SBD,Raw,F
2,Natalya Beresneva,1997,,Kazakhstan,Sub-Juniors,80.1,84,105,112.5,120,120,45,50,55,55,110,122.5,130,130,305,SBD,Raw,F
1,Regina Meier,1999,,Kazakhstan,Sub-Juniors,91,84+,130,140,150,150,-55,57.5,62.5,62.5,115,127.5,135,135,347.5,SBD,Raw,F
2,Tatyana Skidan,2000,,Kazakhstan,Sub-Juniors,90.4,84+,110,117.5,122.5,122.5,47.5,52.5,-57.5,52.5,100,110,-115,110,285,SBD,Raw,F
3,Malia Vea,1997,,Niue,Sub-Juniors,87.35,84+,70,-100,-110,70,45,52.5,57.5,57.5,100,120,-125,120,247.5,SBD,Raw,F
1,Hannah Tan,1993,,Australia,Juniors,51.05,52,100,-105,-105,100,47.5,52.5,-55,52.5,112.5,120,122.5,122.5,275,SBD,Raw,F
1,Giuliana Nannetti,1993,,Australia,Juniors,56.2,57,120,127.5,-130,127.5,70,-75,-75,70,152.5,162.5,165.5,165.5,363,SBD,Raw,F
2,Sultanie Useinova,1993,,Uzbekistan,Juniors,55.7,57,80,90,92.5,92.5,55,60,65,65,120,130,-135,130,287.5,SBD,Raw,F
3,Yuliya Tomazova,1993,,Kazakhstan,Juniors,56.25,57,80,85,90,90,45,50,55,55,90,105,117.5,117.5,262.5,SBD,Raw,F
1,Billie Asprey,1993,,Australia,Juniors,62.35,63,115,122.5,-127.5,122.5,65,-70,-70,65,145,153,-158,153,340.5,SBD,Raw,F
2,Ekaterina Merkel,1992,,Kazakhstan,Juniors,61.3,63,95,100,105,105,52.5,-57.5,57.5,57.5,115,120,125,125,287.5,SBD,Raw,F
3,Milena Glazunova,1993,,Uzbekistan,Juniors,61.4,63,90,105,-110,105,45,52.5,-55,52.5,115,120,127.5,127.5,285,SBD,Raw,F
4,Dinara Abduraimova,1993,,Kazakhstan,Juniors,62.1,63,95,100,-105,100,55,60,-62.5,60,110,115,-120,115,275,SBD,Raw,F
5,Alina Choo,1994,,Singapore,Juniors,62.35,63,85,92.5,97.5,97.5,52.5,57.5,60,60,65,95,-122.5,95,252.5,SBD,Raw,F
1,Charlene Lee,1992,,Australia,Juniors,69.45,72,150,157.5,-162.5,157.5,62.5,65,67.5,67.5,150,160,166,166,391,SBD,Raw,F
2,Alesya Lishiskaya,1995,,Uzbekistan,Juniors,67.3,72,120,135,140,140,70,72.5,80,80,120,135,142.5,142.5,362.5,SBD,Raw,F
3,Zarina Batyrzhanova,1996,,Kazakhstan,Juniors,70.7,72,80,90,-100,90,45,50,-52.5,50,100,-112.5,-122.5,100,240,SBD,Raw,F
1,Yan-Fei Zhao,1995,,Australia,Juniors,83.7,84,180,190,195,195,85,90,92.5,92.5,170,180,185,185,472.5,SBD,Raw,F
2,Anastasiya Kudryavceva,1994,,Uzbekistan,Juniors,78.75,84,110,115,120,120,50,55,-57.5,55,100,110,115,115,290,SBD,Raw,F
1,Mirelle Khoury Geagea,1993,,Australia,Juniors,115.5,84+,130,137.5,-142.5,137.5,72.5,77.5,80,80,165,175,187.5,187.5,405,SBD,Raw,F
2,Tiarne Augustine,1994,,Australia,Juniors,118.5,84+,155,-162.5,-162.5,155,95,-102.5,-102.5,95,125,-135,-135,125,375,SBD,Raw,F
1,Fatima Kotlyarova,1970,,Kazakhstan,Masters 1,62.4,63,55,60,65,65,45,50,-52.5,50,85,90,95,95,210,SBD,Raw,F
1,Mika Teramura,1962,,Japan,Masters 2,52.35,57,85,90.5,-100,90.5,65,-70,-70,65,120,130.5,132.5,132.5,288,SBD,Raw,F
1,Susan Maguire,1962,,Australia,Masters 2,71.3,72,100,105,-110,105,60,65,-67.5,65,115,-122.5,125,125,295,SBD,Raw,F
1,Asiya Orazbekova,1987,,Kazakhstan,Open,44.91,47,,,,,62.5,-65,,62.5,,,,,62.5,B,Raw,F
2,Anastassiya Kolesnikova,1987,,Kazakhstan,Open,47,47,,,,,45,50,-52.5,50,,,,,50,B,Raw,F
1,Olga Cheremisina,1988,,Kazakhstan,Open,51.28,52,,,,,50,60,62.5,62.5,,,,,62.5,B,Raw,F
1,Yuliya Porunova,1991,,Kazakhstan,Open,,57,,,,,65,70,,70,,,,,70,B,Raw,F
1,Mariya Timoshina,1984,,Kazakhstan,Open,62.19,63,,,,,-95,95,-102.5,95,,,,,95,B,Raw,F
2,Nina Sokolova,1977,,Kazakhstan,Open,57.37,63,,,,,55,57.5,-60,57.5,,,,,57.5,B,Raw,F
1,Ekaterina Kryukova,1985,,Kazakhstan,Open,71.63,72,,,,,100,105,,105,,,,,105,B,Raw,F
1,Mahriban Zhumaniyazova,1988,,Turkmenistan,Open,75.33,84,,,,,90,95,-107.5,95,,,,,95,B,Raw,F
2,Olesya Gureeva,1980,,Uzbekistan,Open,76.93,84,,,,,65,72.5,75,75,,,,,75,B,Raw,F
3,Zoya Kuznetsova,1989,,Kazakhstan,Open,81.78,84,,,,,60,65,-75,65,,,,,65,B,Raw,F
1,Kseniya Okatenko,1994,,Kazakhstan,Open,104.3,84+,,,,,90,100,107.5,107.5,,,,,107.5,B,Raw,F
2,Olga Maksimova,1980,,Uzbekistan,Open,107.27,84+,,,,,-80,80,-90,80,,,,,80,B,Raw,F
1,Mariya Bovkun,2001,,Kazakhstan,Sub-Juniors,42.71,43,,,,,35,40,-45,40,,,,,40,B,Raw,F
1,Vlada Stazayeva,1998,,Kazakhstan,Sub-Juniors,46.49,47,,,,,45,50,,50,,,,,50,B,Raw,F
1,Dilyara Karimova,1998,,Kazakhstan,Sub-Juniors,51.69,52,,,,,65,72.5,75,75,,,,,75,B,Raw,F
1,Taisiya Dyachenko,2000,,Kazakhstan,Sub-Juniors,56.52,57,,,,,65,70,72.5,72.5,,,,,72.5,B,Raw,F
2,Saniya Omarkhanova,1999,,Kazakhstan,Sub-Juniors,54.52,57,,,,,60,-65,-65,60,,,,,60,B,Raw,F
3,Kamila Krakova,1998,,Kazakhstan,Sub-Juniors,54.76,57,,,,,35,-37.5,-37.5,35,,,,,35,B,Raw,F
1,Anastasiya Nesterova,1998,,Kazakhstan,Sub-Juniors,71.42,72,,,,,45,50,-52.5,50,,,,,50,B,Raw,F
1,Natalya Beresneva,1997,,Kazakhstan,Sub-Juniors,80.5,84,,,,,45,-52.5,-52.5,45,,,,,45,B,Raw,F
1,Regina Meier,1999,,Kazakhstan,Sub-Juniors,91.64,84+,,,,,55,60,65,65,,,,,65,B,Raw,F
2,Tatyana Skidan,2000,,Kazakhstan,Sub-Juniors,92.56,84+,,,,,47.5,52.5,55,55,,,,,55,B,Raw,F
1,Kudratoy Toshpulatova,1995,,Uzbekistan,Juniors,51.13,52,,,,,-60,60,-70,60,,,,,60,B,Raw,F
1,Yuliya Tomazova,1993,,Kazakhstan,Juniors,55.87,57,,,,,45,50,-55,50,,,,,50,B,Raw,F
1,Aliya Tolegenova,1996,,Kazakhstan,Juniors,62.18,63,,,,,75,82.5,90,90,,,,,90,B,Raw,F
2,Dinara Abduraimova,1993,,Kazakhstan,Juniors,62.59,63,,,,,55,60,-62.5,60,,,,,60,B,Raw,F
1,Mokhira Kholmuminova,1993,,Uzbekistan,Juniors,69.52,72,,,,,65,67.5,-75,67.5,,,,,67.5,B,Raw,F
2,Zarina Batyrzhanova,1996,,Kazakhstan,Juniors,71.84,72,,,,,42.5,-50,-52.5,42.5,,,,,42.5,B,Raw,F
1,Tiarne Augustine,1994,,Australia,Juniors,120.16,84+,,,,,97.5,-100,,97.5,,,,,97.5,B,Raw,F
1,Olga Kurisheva,1967,,Kazakhstan,Masters 1,51.69,52,,,,,45,47.5,50,50,,,,,50,B,Raw,F
1,Valida Iskandarova,1974,,Kazakhstan,Masters 1,61,63,,,,,70,75,-77.5,75,,,,,75,B,Raw,F
1,Miyuki Sakurai,1969,,Japan,Masters 1,70.45,72,,,,,65,-70,-70,65,,,,,65,B,Raw,F
1,Marina Altaybayeva,1973,,Kazakhstan,Masters 1,94.47,84+,,,,,30,35,40,40,,,,,40,B,Raw,F
