Place,Name,CyrillicName,Sex,WeightClassKg,BodyweightKg,Country,Squat1Kg,Squat2Kg,Squat3Kg,Best3SquatKg,Squat4Kg,Bench1Kg,Bench2Kg,Bench3Kg,Best3BenchKg,Bench4Kg,Deadlift1Kg,Deadlift2Kg,Deadlift3Kg,Best3DeadliftKg,Deadlift4Kg,TotalKg,Event,Equipment,Tested,Division,Age
1,Maksim Talagaev,Максим Талагаев,M,75,73.9,Russia,-175,185,-192.5,185,,110,117.5,-125,117.5,,205,215,225,225,,527.5,SBD,Raw,No,Pro Open,20
DQ,Maksim Samoylov,Максим Самойлов,M,82.5,81.8,Russia,-220,-220,-220,,,,,,,,,,,,,,SBD,Raw,No,Pro Juniors 20-23,21
1,Marat Sagitov,Марат Сагитов,M,82.5,82,Russia,190,200,-210,200,,125,135,-147.5,135,,110,130,150,150,,485,SBD,Raw,No,Pro Masters 45-49,46
1,Aleksey Molochkov,Алексей Молочков,M,82.5,82.4,Russia,177.5,185,190,190,,142.5,147.5,152.5,152.5,,200,-220,-225,200,,542.5,SBD,Raw,No,Pro Masters 50-54,54
1,Yaroslav Feskov,Ярослав Феськов,M,90,89,Russia,170,180,-195,180,,145,150,-155,150,,235,250,-255,250,,580,SBD,Raw,No,Pro Juniors 20-23,21
1,Timur Mamedov,Тимур Мамедов,M,90,90,Russia,220,235,245,245,,145,155,160,160,,250,260,-267.5,260,,665,SBD,Raw,No,Pro Open,34
2,Aleksey Shchekunov,Алексей Щекунов,M,90,87.8,Russia,190,205,-215,205,,160,170,175,175,,240,255,-267.5,255,,635,SBD,Raw,No,Pro Open,32
3,Nikolay Afanasov,Николай Афанасов,M,90,87.9,Russia,190,200,210,210,,162.5,167.5,-170,167.5,,250,-270,-270,250,,627.5,SBD,Raw,No,Pro Open,28
1,Nikolay Dubrovin,Николай Дубровин,M,100,98.1,Russia,230,-240,240,240,,170,180,185,185,,260,275,285,285,,710,SBD,Raw,No,Pro Open,29
2,Roman Kroshkin,Роман Крошкин,M,100,92.1,Russia,230,245,-250,245,,140,147.5,150,150,,250,265,272.5,272.5,,667.5,SBD,Raw,No,Pro Open,36
1,Sergey Savelev,Сергей Савельев,M,100,99.4,Russia,220,240,-255,240,,180,190,-200,190,,240,252.5,-260,252.5,,682.5,SBD,Raw,No,Pro Masters 40-44,42
1,Evgeniy Solopov,Евгений Солопов,M,110,107,Russia,-240,245,255,255,,180,185,190,190,,285,290,300,300,,745,SBD,Raw,No,Pro Open,27
1,Dmitriy Antonov,Дмитрий Антонов,M,110,107.2,Russia,235,255,262.5,262.5,,145,155,-162.5,155,,250,,,250,,667.5,SBD,Raw,No,Pro Masters 40-44,41
1,Anton Laguta,Антон Лагута,M,125,123.5,Russia,-250,-250,250,250,,150,160,170,170,,240,260,-280,260,,680,SBD,Raw,No,Pro Juniors 20-23,23
1,Viktoriya Ablaeva,Виктория Аблаева,F,67.5,65.7,Russia,-160,160,170,170,,85,90,95,95,,190,-202.5,-202.5,190,,455,SBD,Wraps,No,Pro Open,34
2,Nadezhda Kazakova,Надежда Казакова,F,67.5,65.85,Russia,105,110,115,115,,55,60,65,65,,110,115,120,120,,300,SBD,Wraps,No,Pro Open,31
1,Nikolay Altunin,Николай Алтунин,M,82.5,75.3,Russia,-200,200,-220,200,,125,132.5,140,140,,210,220,230,230,,570,SBD,Wraps,No,Pro Open,39
1,Sergey Mishchenko,Сергей Мищенко,M,100,98.9,Russia,260,275,,275,,150,160,-165,160,,260,-275,-275,260,,695,SBD,Wraps,No,Pro Open,28
DQ,Aleksandr Kuznetsov #2,Александр Кузнецов,M,100,97.9,Russia,-270,-270,-270,,,,,,,,,,,,,,SBD,Wraps,No,Pro Open,39
1,Nikolay Kotov,Николай Котов,M,110,103.85,Russia,200,207.5,-212.5,207.5,,142.5,147.5,152.5,152.5,,210,230,,230,,590,SBD,Wraps,No,Pro Masters 40-44,41
1,Marat Savosin,Марат Савосин,M,125,110.35,Russia,-330,330,343,343,,205,-210,210,210,,300,-310,-310,300,,852.5,SBD,Wraps,No,Pro Open,26
2,Dmitriy Grishin,Дмитрий Гришин,M,125,117.6,Russia,-270,270,300,300,,150,170,-180,170,,230,260,,260,,730,SBD,Wraps,No,Pro Open,30
1,Aleksandr Isaev,Александр Исаев,M,75,74.7,Russia,250,-265,265,265,,200,-212.5,-212.5,200,,210,230,-247.5,230,,695,SBD,Single-ply,No,Pro Open,29
1,Stepan Spiridonov,Степан Спиридонов,M,90,87.5,Russia,290,-300,300,300,,225,-230,230,230,,260,-272.5,-272.5,260,,790,SBD,Single-ply,No,Pro Juniors 20-23,23
1,Aleksandr Shabrov,Александр Шабров,M,100,100,Russia,350,-370,-370,350,,230,240,250,250,,310,325,-340,325,,925,SBD,Single-ply,No,Pro Open,26
2,Kirill Elizarov,Кирилл Елизаров,M,100,97.8,Russia,280,290,300,300,,165,-170,,165,,270,285,-300,285,,750,SBD,Single-ply,No,Pro Open,27
1,Ruslan Magomadov,Руслан Магомадов,M,100,98,Russia,195,207.5,215,215,,155,-165,-175,155,,195,205,,205,,575,SBD,Single-ply,No,Pro Masters 50-54,53
1,Dmitriy Bakharev,Дмитрий Бахарев,M,110,107.5,Russia,270,282.5,290,290,,205,215,222.5,222.5,,260,272.5,282.5,282.5,,795,SBD,Single-ply,No,Pro Juniors 20-23,22
1,Andrey Drozhzhin,Андрей Дрожжин,M,110,110,Russia,340,360,-380,360,,210,230,-240,230,,290,-300,-300,290,,880,SBD,Single-ply,No,Pro Open,39
2,Stanislav Arutyunov,Станислав Арутюнов,M,110,108.4,Russia,275,-282.5,-282.5,275,,182.5,-187.5,-187.5,182.5,,232.5,242.5,-245,242.5,,700,SBD,Single-ply,No,Pro Open,36
1,Dmitriy Kochevatkin,Дмитрий Кочеваткин,M,90,87.7,Russia,-290,290,300,300,,200,210,215,215,,215,230,-240,230,,745,SBD,Multi-ply,No,Pro Open,41
1,Dmitriy Kochevatkin,Дмитрий Кочеваткин,M,90,87.7,Russia,-290,290,300,300,,200,210,215,215,,215,230,-240,230,,745,SBD,Multi-ply,No,Pro Masters 40-44,41
1,Aleksandr Nosov,Александр Носов,M,100,98.4,Russia,262.5,-275,-282.5,262.5,,200,-205,207.5,207.5,,277.5,295,-310,295,,765,SBD,Multi-ply,No,Pro Open,32
1,Kristina Chudnova,Кристина Чуднова,F,60,57.8,Russia,,,,,,,,,,,177.5,187.5,195,195,-200,195,D,Multi-ply,No,Pro Juniors 20-23,22
1,Evgeniy Kuznetsov,Евгений Кузнецов,M,110,108,Russia,,,,,,,,,,,250,270,-285,270,,270,D,Multi-ply,No,Pro Open,26
1,Khosrow Rostami,,M,67.5,67.4,Iran,,,,,,,,,,,160,165,185,185,,185,D,Single-ply,No,Pro Open,37
1,Vyacheslav Stankevich,Вячеслав Станкевич,M,82.5,81.5,Russia,,,,,,,,,,,220,230,-240,230,,230,D,Single-ply,No,Pro Masters 65-69,67
1,Aleksey Nikolaev,Алексей Николаев,M,90,87.9,Russia,,,,,,,,,,,270,290,300,300,,300,D,Single-ply,No,Pro Open,32
1,Dmitriy Yakovlev,Дмитрий Яковлев,M,100,98,Russia,,,,,,,,,,,285,-300,,285,,285,D,Single-ply,No,Pro Open,32
2,Evgeniy Chuykin,Евгений Чуйкин,M,100,99.5,Russia,,,,,,,,,,,270,285,,285,,285,D,Single-ply,No,Pro Open,25
3,Sergey Mishchenko,Сергей Мищенко,M,100,98.9,Russia,,,,,,,,,,,260,-275,,260,,260,D,Single-ply,No,Pro Open,28
DQ,Elena Rydkina,Елена Рыдкина,F,56,55.4,Russia,,,,,,,,,,,,,,,,,D,Raw,No,Pro Open,36
2,Kseniya Semenova,Ксения Семенова,F,56,54,Russia,,,,,,,,,,,-90,90,95,95,,95,D,Raw,No,Pro Open,30
1,Irina Asabina,Ирина Асабина,F,60,57.5,Russia,,,,,,,,,,,120,-130,-135,120,,120,D,Raw,No,Pro Open,34
2,Irina Mikhaylova,Ирина Михайлова,F,60,58.1,Russia,,,,,,,,,,,100,110,117.5,117.5,,117.5,D,Raw,No,Pro Open,34
1,Galina Netrebina,Галина Нетребина,F,67.5,66.7,Russia,,,,,,,,,,,130,140,145,145,,145,D,Raw,No,Pro Open,38
2,Veronika Kozhevnikova,Вероника Кожевникова,F,67.5,64.8,Russia,,,,,,,,,,,100,110,115,115,,115,D,Raw,No,Pro Open,29
1,Sofya Krylova,Софья Крылова,F,75,72.6,Russia,,,,,,,,,,,100,110,-120,110,,110,D,Raw,No,Pro Teen 13-15,14
1,Ekaterina Selina,Екатерина Селина,F,75,72.5,Russia,,,,,,,,,,,130,140,-147.5,140,,140,D,Raw,No,Pro Open,25
1,Elena Darkova,Елена Даркова,F,90,86.9,Russia,,,,,,,,,,,170,180,-190,180,,180,D,Raw,No,Pro Open,36
1,Ivan Kopyrin,Иван Копырин,M,75,74.4,Russia,,,,,,,,,,,150,170,-180,170,,170,D,Raw,No,Pro Masters 45-49,49
1,Nikolay Vetrov,Николай Ветров,M,75,74.2,Russia,,,,,,,,,,,-150,150,155,155,,155,D,Raw,No,Pro Masters 70-74,71
1,Andrey Denisov,Андрей Денисов,M,82.5,80.5,Russia,,,,,,,,,,,200,210,-220,210,,210,D,Raw,No,Pro Open,36
1,Yaroslav Feskov,Ярослав Феськов,M,90,89,Russia,,,,,,,,,,,230,240,-245,240,,240,D,Raw,No,Pro Juniors 20-23,21
1,Artem Kochenyuk,Артем Коченюк,M,90,88.8,Russia,,,,,,,,,,,285,-295,305,305,312.5,305,D,Raw,No,Pro Open,28
2,Reza Mirhosseini Chahardeh Seyed,,M,90,89.8,Iran,,,,,,,,,,,220,240,-250,240,,240,D,Raw,No,Pro Open,31
3,Nikita Romanov,Никита Романов,M,90,87.9,Russia,,,,,,,,,,,210,225,235,235,,235,D,Raw,No,Pro Open,25
1,Sergey Vinogradov,Сергей Виноградов,M,100,92.8,Russia,,,,,,,,,,,200,-215,215,215,,215,D,Raw,No,Pro Masters 45-49,46
1,Aleksey Gorbonosov,Алексей Горбоносов,M,110,105.5,Russia,,,,,,,,,,,310,-327.5,-327.5,310,,310,D,Raw,No,Pro Open,31
2,Ali Behaein,,M,110,106.5,Iran,,,,,,,,,,,260,275,-312.5,275,,275,D,Raw,No,Pro Open,33
3,Vladimir Rozhdestvin,Владимир Рождествин,M,110,107,Russia,,,,,,,,,,,220,240,250,250,,250,D,Raw,No,Pro Open,33
4,Vladimir Lazarev,Владимир Лазарев,M,110,101.3,Russia,,,,,,,,,,,-220,230,-235,230,,230,D,Raw,No,Pro Open,37
1,Georgiy Dyachenko,Георгий Дьяченко,M,125,111,Russia,,,,,,,,,,,-140,-140,140,140,,140,D,Raw,No,Pro Masters 45-49,45
1,Viktoriya Klementeva,Виктория Клементьева,F,48,47.9,Russia,,,,,,50,52.5,-55,52.5,,,,,,,52.5,B,Raw,No,Pro Juniors 20-23,23
1,Olga Bachmaga,Ольга Бачмага,F,52,49.9,Russia,,,,,,62.5,67.5,-70,67.5,,,,,,,67.5,B,Raw,No,Pro Open,31
1,Viktoriya Zharova,Виктория Жарова,F,60,60,Russia,,,,,,77.5,82.5,85,85,,,,,,,85,B,Raw,No,Pro Open,26
1,Svetlana Rumyantseva,Светлана Румянцева,F,67.5,66.95,Russia,,,,,,95,102.5,107.5,107.5,,,,,,,107.5,B,Raw,No,Pro Open,29
2,Ekaterina Shchadrina,Екатерина Щадрина,F,67.5,67.3,Russia,,,,,,70,75,-77.5,75,,,,,,,75,B,Raw,No,Pro Open,32
1,Ekaterina Selina,Екатерина Селина,F,75,72.5,Russia,,,,,,85,90,-95,90,,,,,,,90,B,Raw,No,Pro Open,25
1,Tatyana Akimova,Татьяна Акимова,F,82.5,75.2,Russia,,,,,,52.5,-57.5,57.5,57.5,,,,,,,57.5,B,Raw,No,Pro Masters 40-44,42
1,Anton Krutikov,Антон Крутиков,M,75,74.8,Russia,,,,,,-155,155,-160,155,,,,,,,155,B,Raw,No,Pro Juniors 20-23,22
1,Kakhaber Tarimanashvili,Кахабер Тариманашвили,M,75,71.8,Russia,,,,,,-150,160,-165,160,,,,,,,160,B,Raw,No,Pro Open,33
1,Yuriy Ermolin,Юрий Ермолин,M,75,72.6,Russia,,,,,,90,100,-105,100,,,,,,,100,B,Raw,No,Pro Masters 60-64,64
1,Nikolay Ionov,Николай Ионов,M,75,74.2,Russia,,,,,,100,107.5,110,110,,,,,,,110,B,Raw,No,Pro Masters 65-69,68
1,Nikolay Vetrov,Николай Ветров,M,75,74.2,Russia,,,,,,80,82.5,85,85,,,,,,,85,B,Raw,No,Pro Masters 70-74,71
1,Ilya Novikov,Илья Новиков,M,82.5,81.1,Russia,,,,,,145,150,155,155,,,,,,,155,B,Raw,No,Pro Teen 18-19,18
1,Timur Abrosimov,Тимур Абросимов,M,82.5,82,Russia,,,,,,160,170,-172.5,170,,,,,,,170,B,Raw,No,Pro Juniors 20-23,23
2,Maksim Samoylov,Максим Самойлов,M,82.5,81.8,Russia,,,,,,130,140,-147.5,140,,,,,,,140,B,Raw,No,Pro Juniors 20-23,21
1,Yuriy Raspopov,Юрий Распопов,M,82.5,80.6,Russia,,,,,,165,170,175,175,,,,,,,175,B,Raw,No,Pro Open,24
2,Maksim Maksimov,Максим Максимов,M,82.5,80.3,Russia,,,,,,-160,170,-175,170,,,,,,,170,B,Raw,No,Pro Open,24
1,Vladislav Sannikov,Владислав Санников,M,82.5,77.1,Russia,,,,,,80,85,-87.5,85,,,,,,,85,B,Raw,No,Pro Masters,78
1,Sergey Timchenko,Сергей Тимченко,M,90,87,Russia,,,,,,200,207.5,-215,207.5,,,,,,,207.5,B,Raw,No,Pro Open,37
2,Ilya Snezhkov,Илья Снежков,M,90,88.6,Russia,,,,,,185,195,-200,195,,,,,,,195,B,Raw,No,Pro Open,27
3,Reza Mirhosseini Chahardeh Seyed,,M,90,89.8,Iran,,,,,,170,187.5,190,190,,,,,,,190,B,Raw,No,Pro Open,31
4,Eduard Baymeshev,Эдуард Баймешев,M,90,86.8,Russia,,,,,,180,-185,-187.5,180,,,,,,,180,B,Raw,No,Pro Open,25
5,Maksim Belov,Максим Белов,M,90,88.4,Russia,,,,,,170,180,-187.5,180,,,,,,,180,B,Raw,No,Pro Open,29
6,Stanislav Smirnov,Станислав Смирнов,M,90,85.6,Russia,,,,,,160,165,170,170,,,,,,,170,B,Raw,No,Pro Open,39
7,Edgar Gelvikh,Эдгар Гельвих,M,90,86.65,Russia,,,,,,160,-165,-165,160,,,,,,,160,B,Raw,No,Pro Open,26
DQ,Pavel Kopaev,Павел Копаев,M,90,87.5,Russia,,,,,,-170,,,,,,,,,,,B,Raw,No,Pro Open,29
1,Aleksey Bartenev,Алексей Бартенев,M,90,84.9,Russia,,,,,,190,200,207.5,207.5,,,,,,,207.5,B,Raw,No,Pro Masters 40-44,42
1,Amir Khusnetdinov,Амир Хуснетдинов,M,90,83.9,Russia,,,,,,120,130,135,135,,,,,,,135,B,Raw,No,Pro Masters 65-69,69
1,Dmitriy Rukavishnikov,Дмитрий Рукавишников,M,100,97.1,Russia,,,,,,122.5,-127.5,-127.5,122.5,,,,,,,122.5,B,Raw,No,Pro Teen 16-17,16
1,Sergey Rukavishnikov,Сергей Рукавишников,M,100,98.6,Russia,,,,,,-190,190,200,200,,,,,,,200,B,Raw,No,Pro Open,29
2,Sergey Rumyantsev,Сергей Румянцев,M,100,99.3,Russia,,,,,,185,190,200,200,,,,,,,200,B,Raw,No,Pro Open,26
3,Evgeniy Zaytsev,Евгений Зайцев,M,100,99.9,Russia,,,,,,180,187.5,-192.5,187.5,,,,,,,187.5,B,Raw,No,Pro Open,27
4,Andrey Gorelikov,Андрей Гореликов,M,100,97,Russia,,,,,,180,-190,-190,180,,,,,,,180,B,Raw,No,Pro Open,31
DQ,Ilya Korobov,Илья Коробов,M,100,96.8,Russia,,,,,,-180,-180,-190,,,,,,,,,B,Raw,No,Pro Open,24
DQ,Vladislav Kolesnikov,Владислав Колесников,M,100,98.5,Russia,,,,,,-200,-200,-200,,,,,,,,,B,Raw,No,Pro Open,32
1,Sergey Maksimov,Сергей Максимов,M,100,98.9,Russia,,,,,,175,-180,180,180,,,,,,,180,B,Raw,No,Pro Masters 40-44,41
1,Mikhail Egorov,Михаил Егоров,M,100,91.6,Russia,,,,,,-125,130,-140,130,,,,,,,130,B,Raw,No,Pro Masters 45-49,49
1,Sergey Prudnikov,Сергей Прудников,M,110,107.6,Russia,,,,,,210,220,,220,,,,,,,220,B,Raw,No,Pro Open,36
2,Vladimir Rykov,Владимир Рыков,M,110,107.2,Russia,,,,,,200,205,-210,205,,,,,,,205,B,Raw,No,Pro Open,28
3,Viktor Eliseev,Виктор Елисеев,M,110,105.8,Russia,,,,,,190,202.5,-212.5,202.5,,,,,,,202.5,B,Raw,No,Pro Open,30
4,Konstantin Zadkov,Константин Задков,M,110,107.3,Russia,,,,,,175,185,-190,185,,,,,,,185,B,Raw,No,Pro Open,34
5,Yuriy Kondratenko,Юрий Кондратенко,M,110,108.9,Russia,,,,,,165,175,180,180,,,,,,,180,B,Raw,No,Pro Open,31
1,Aleksandr Kiryanov,Александр Кирьянов,M,110,106.8,Russia,,,,,,230,-240,-240,230,,,,,,,230,B,Raw,No,Pro Masters 40-44,42
1,Vyacheslav Filin,Вячеслав Филин,M,110,104,Russia,,,,,,190,197.5,200,200,,,,,,,200,B,Raw,No,Pro Masters 55-59,55
1,Igor Karpunin,Игорь Карпунин,M,125,119.75,Russia,,,,,,200,210,-215,210,,,,,,,210,B,Raw,No,Pro Open,39
1,Yuriy Mishta,Юрий Мишта,M,125,122.9,Russia,,,,,,180,187.5,-192.5,187.5,,,,,,,187.5,B,Raw,No,Pro Masters 55-59,58
1,Ekaterina Taskaeva,Екатерина Таскаева,F,60,59,Russia,,,,,,110,115,-117.5,115,,,,,,,115,B,Single-ply,No,Pro Juniors 20-23,23
1,Mariya Pustovit,Мария Пустовит,F,60,60,Russia,,,,,,110,115,-117.5,115,,,,,,,115,B,Single-ply,No,Pro Open,31
DQ,Irina Smolentseva,Ирина Смоленцева,F,75,73.3,Russia,,,,,,-105,-105,-105,,,,,,,,,B,Single-ply,No,Pro Open,29
1,Vladislav Sannikov,Владислав Санников,M,82.5,77.1,Russia,,,,,,85,90,92.5,92.5,,,,,,,92.5,B,Single-ply,No,Pro Open,78
DQ,Yuriy Tikhov,Юрий Тихов,M,82.5,80.5,Russia,,,,,,-190,-190,-190,,,,,,,,,B,Single-ply,No,Pro Open,33
1,Vladislav Sannikov,Владислав Санников,M,82.5,77.1,Russia,,,,,,85,90,92.5,92.5,,,,,,,92.5,B,Single-ply,No,Pro Masters,78
1,Ilya Uglichin,Илья Угличин,M,90,89,Russia,,,,,,230,235,-242.5,235,,,,,,,235,B,Single-ply,No,Pro Open,30
1,Ravil Nafikov,Равиль Нафиков,M,90,89.1,Russia,,,,,,185,195,205,205,,,,,,,205,B,Single-ply,No,Pro Masters 45-49,46
1,Denis Karpov,Денис Карпов,M,100,99.2,Russia,,,,,,210,220,-230,220,,,,,,,220,B,Single-ply,No,Pro Open,36
1,Nikolay Alyshev,Николай Алышев,M,110,108.7,Russia,,,,,,292.5,302.5,310.5,310.5,,,,,,,310.5,B,Single-ply,No,Pro Open,31
2,Kirill Filippov,Кирилл Филиппов,M,110,100.75,Russia,,,,,,-240,240,260,260,,,,,,,260,B,Single-ply,No,Pro Open,28
3,Hossein Seifouri,,M,110,106.5,Iran,,,,,,160,-220,220,220,,,,,,,220,B,Single-ply,No,Pro Open,34
1,Vladimir Peshko,Владимир Пешко,M,110,105.6,Russia,,,,,,230,-240,-240,230,,,,,,,230,B,Single-ply,No,Pro Masters 45-49,47
1,Dmitriy Gorbachev,Дмитрий Горбачев,M,125,111.5,Russia,,,,,,260,280,300.5,300.5,,,,,,,300,B,Single-ply,No,Pro Open,47
1,Dmitriy Gorbachev,Дмитрий Горбачев,M,125,111.5,Russia,,,,,,260,280,300.5,300.5,,,,,,,300.5,B,Single-ply,No,Pro Masters 45-49,47
1,Vasiliy Filatov,Василий Филатов,M,140,132,Russia,,,,,,-335,335,-345.5,335,,,,,,,335,B,Single-ply,No,Pro Open,30
1,Dmitriy Shabalin #1,Дмитрий Шабалин,M,140,135.6,Russia,,,,,,295,-300,,295,,,,,,,295,B,Single-ply,No,Pro Masters 45-49,48
1,Roman Brekhov,Роман Брехов,M,110,109.3,Russia,,,,,,275,282.5,-290,282.5,,,,,,,282.5,B,Multi-ply,No,Pro Open,27
2,Sergey Mavrenkov,Сергей Мавренков,M,110,105.6,Russia,,,,,,250,260,-270,260,,,,,,,260,B,Multi-ply,No,Pro Open,50
1,Sergey Mavrenkov,Сергей Мавренков,M,110,105.6,Russia,,,,,,250,260,-270,260,,,,,,,260,B,Multi-ply,No,Pro Masters 50-54,50
1,Roman Terekhov,Роман Терехов,M,125,117.6,Russia,,,,,,235,-250,-250,235,,,,,,,235,B,Multi-ply,No,Pro Open,35
1,Alexey Brazhkin,Алексей Бражкин,M,125,123.8,Russia,,,,,,230,240,-250,240,,,,,,,240,B,Multi-ply,No,Pro Masters 45-49,46
1,Karina Usmanova,Карина Усманова,F,44,42,Russia,75,80,-85,80,,-47.5,50,-52.5,50,,85,92.5,,92.5,,222.5,SBD,Raw,Yes,Amateur Teen 18-19,18
1,Zarina Chikina,Зарина Чикина,F,48,47.9,Russia,75,80,-82.5,80,,45,50,-52.5,50,,110,115,,115,,245,SBD,Raw,Yes,Amateur Open,31
1,Galina Vavilkina,Галина Вавилкина,F,48,47.6,Russia,65,70,75,75,,42.5,45,-47.5,45,,100,,,100,,220,SBD,Raw,Yes,Amateur Masters 45-49,46
1,Mariya Sukhareva,Мария Сухарева,F,52,51.9,Russia,97.5,-105,-105,97.5,,40,-45,45,45,,112.5,117.5,122.5,122.5,,265,SBD,Raw,Yes,Amateur Juniors 20-23,20
1,Mariya Nekrasova,Мария Некрасова,F,52,52,Russia,90,-95,97.5,97.5,,50,55,-57.5,55,,115,-125,-125,115,,267.5,SBD,Raw,Yes,Amateur Open,28
2,Aleksandra Krivoshapova,Александра Кривошапова,F,52,51.1,Russia,90,95,97.5,97.5,,52.5,55,-57.5,55,,95,-97.5,,95,,247.5,SBD,Raw,Yes,Amateur Open,27
3,Irina Zemtsova,Ирина Земцова,F,52,51.2,Russia,85,90,-95,90,,45,47.5,-52.5,47.5,,102.5,105,110,110,,247.5,SBD,Raw,Yes,Amateur Open,35
1,Anastasiya Yarmak,Анастасия Ярмак,F,56,52.7,Russia,-65,-65,70,70,,-45,45,47.5,47.5,,-80,80,82.5,82.5,,200,SBD,Raw,Yes,Amateur Teen 13-15,14
1,Natalya Levenkova,Наталья Левенкова,F,56,54.5,Russia,95,102.5,-107.5,102.5,,57.5,60,62.5,62.5,,130,137.5,-142.5,137.5,,302.5,SBD,Raw,Yes,Amateur Open,28
2,Elena Produbnova,Елена Продубнова,F,56,56,Russia,-100,100,105,105,,55,-60,-60,55,,120,125,-130,125,,285,SBD,Raw,Yes,Amateur Open,33
3,Evgeniya Shuychikova,Евгения Шуйчикова,F,56,55.6,Russia,90,95,-100,95,,57.5,60,65,65,,100,105,110,110,,270,SBD,Raw,Yes,Amateur Open,36
1,Natalya Dobrova,Наталья Доброва,F,56,52.6,Russia,70,72.5,75,75,,-60,60,62.5,62.5,,110,115,120,120,,257.5,SBD,Raw,Yes,Amateur Masters 45-49,46
1,Kseniya Korzhova,Ксения Коржова,F,60,59.7,Russia,105,110,115,115,-117.5,65,-67.5,-67.5,65,,125,130,135,135,,315,SBD,Raw,Yes,Amateur Juniors 20-23,21
1,Irina Strukova,Ирина Струкова,F,60,58.7,Russia,-100,100,110,110,,55,60,62.5,62.5,,130,140,145,145,,317.5,SBD,Raw,Yes,Amateur Open,32
2,Ekaterina Chuprakova,Екатерина Чупракова,F,60,59.5,Russia,-105,105,-110,105,,55,57.5,-60,57.5,,110,115,-120,115,,277.5,SBD,Raw,Yes,Amateur Open,35
3,Aleksandra Vuller,Александра Вуллер,F,60,59.2,Russia,80,85,-90,85,,50,52.5,-55,52.5,,105,-115,115,115,,252.5,SBD,Raw,Yes,Amateur Open,26
4,Mariya Kozlova,Мария Козлова,F,60,58.7,Russia,85,-95,-95,85,,55,60,-65,60,,85,95,105,105,,250,SBD,Raw,Yes,Amateur Open,29
5,Tatyana Romanova,Татьяна Романова,F,60,58.9,Russia,80,85,92.5,92.5,,50,-55,-55,50,,95,100,-105,100,,242.5,SBD,Raw,Yes,Amateur Open,28
DQ,Svetlana Grigoreva,Светлана Григорьева,F,60,59.3,Russia,90,-100,-100,90,,,,,,,,,,,,,SBD,Raw,Yes,Amateur Open,34
1,Polina Penkova,Полина Пенькова,F,67.5,66.4,Russia,75,80,85,85,,40,45,50,50,,75,90,,90,,225,SBD,Raw,Yes,Amateur Teen 13-15,14
1,Yana Doroshina,Яна Дорошина,F,67.5,66.9,Russia,100,105,-107.5,105,,60,-65,65,65,,140,-145,-145,140,,310,SBD,Raw,Yes,Amateur Teen 16-17,16
1,Mariya Volkova,Мария Волкова,F,67.5,66.3,Russia,130,140,-150,140,,80,90,92.5,92.5,,142.5,152.5,160,160,,392.5,SBD,Raw,Yes,Amateur Juniors 20-23,22
1,Viktoriya Epikhina,Виктория Епихина,F,67.5,63.3,Russia,115,-120,-122.5,115,,-75,75,-80,75,,-140,-147.5,150,150,,340,SBD,Raw,Yes,Amateur Open,26
2,Darya Pokazaneva,Дарья Показаньева,F,67.5,67.2,Russia,-110,110,115,115,,70,-72.5,-72.5,70,,140,147.5,150,150,,335,SBD,Raw,Yes,Amateur Open,27
1,Anastasiya Pykhova,Анастасия Пыхова,F,75,74.3,Russia,110,117.5,122.5,122.5,,67.5,72.5,75,75,,165,-175,175,175,,372.5,SBD,Raw,Yes,Amateur Open,27
2,Lucinda Lorne,,F,75,69,UK,100,110,120,120,,52.5,55,-57.5,55,,120,130,145,145,,320,SBD,Raw,Yes,Amateur Open,28
3,Samantha Vickers,,F,75,68,UK,85,95,105,105,,55,-60,60,60,,130,132.5,-142.5,132.5,,297.5,SBD,Raw,Yes,Amateur Open,31
4,Elena Nikitina,Елена Никитина,F,75,74.6,Russia,85,90,-95,90,,-45,45,50,50,,95,110,,110,,250,SBD,Raw,Yes,Amateur Open,32
1,Anna Chefranova,Анна Чефранова,F,75,75,Russia,65,70,-75,70,,42.5,45,47.5,47.5,,80,90,95,95,,212.5,SBD,Raw,Yes,Amateur Masters 45-49,48
1,Mariya Khandokhina,Мария Хандохина,F,82.5,78,Russia,-80,-80,80,80,,47.5,50,-55,50,,95,102.5,107.5,107.5,,237.5,SBD,Raw,Yes,Amateur Juniors 20-23,20
1,Ekaterina Mamicheva,Екатерина Мамичева,F,82.5,81.5,Russia,110,120,130,130,,60,65,70,70,,140,150,160,160,,360,SBD,Raw,Yes,Amateur Open,38
2,Nicola Carthy,,F,82.5,79.3,UK,80,90,105,105,,-65,-70,70,70,,155,-160,-160,155,,330,SBD,Raw,Yes,Amateur Open,37
3,Hannah Venn-Munns,,F,82.5,79.7,UK,90,-97.5,-97.5,90,,65,-70,-70,65,,125,132.5,-137.5,132.5,,287.5,SBD,Raw,Yes,Amateur Open,30
1,Laura Parker,,F,90+,103.8,UK,145,155,162.5,162.5,,82.5,90,-95,90,,160,170,-180,170,,422.5,SBD,Raw,Yes,Amateur Open,29
1,Aleksey Tsygankov,Алексей Цыганков,M,60,59,Russia,140,150,-160,150,,95,102.5,-105,102.5,,180,200,210,210,,462.5,SBD,Raw,Yes,Amateur Open,27
1,Ivan Burmistrov,Иван Бурмистров,M,67.5,63.8,Russia,70,75,77.5,77.5,,67.5,72.5,,72.5,,95,105,,105,,255,SBD,Raw,Yes,Amateur Teen 13-15,15
1,Vladislav Sychev,Владислав Сычев,M,67.5,66.2,Russia,105,115,120,120,,82.5,-87.5,-87.5,82.5,,120,130,135,135,,337.5,SBD,Raw,Yes,Amateur Teen 16-17,17
1,Mikhail Shershakov,Михаил Шершаков,M,67.5,66.4,Russia,85,92.5,102.5,102.5,,75,80,-85,80,,102.5,110,125,125,,307.5,SBD,Raw,Yes,Amateur Juniors 20-23,23
1,Leontiy Sanin,Леонтий Санин,M,67.5,66.3,Russia,105,115,-122.5,115,,-90,90,-92.5,90,,150,160,165,165,,370,SBD,Raw,Yes,Amateur Open,24
1,Danila Chekmazov,Данила Чекмазов,M,75,71,Russia,90,100,-110,100,,85,92.5,-97.5,92.5,,110,122.5,130,130,,322.5,SBD,Raw,Yes,Amateur Teen 13-15,15
2,Daniil Voronov,Даниил Воронов,M,75,72.6,Russia,100,-110,110,110,,80,85,-90,85,,110,120,127.5,127.5,,322.5,SBD,Raw,Yes,Amateur Teen 13-15,15
1,Vladimir Bakaysa,Владимир Бакайса,M,75,74.5,Russia,155,165,170,170,,110,122.5,132.5,132.5,,-225,225,232.5,232.5,,535,SBD,Raw,Yes,Amateur Open,32
2,Dmitriy Baranov,Дмитрий Баранов,M,75,72.3,Russia,170,180,190,190,,110,-125,125,125,,190,205,217.5,217.5,,532.5,SBD,Raw,Yes,Amateur Open,34
3,Dmitriy Lukyanov,Дмитрий Лукьянов,M,75,73.5,Russia,155,-160,-160,155,,110,115,-120,115,,170,175,180,180,,450,SBD,Raw,Yes,Amateur Open,36
DQ,Aleksandr Dambinov,Александр Дамбинов,M,75,69.1,Russia,-80,-80,,,,,,,,,,,,,,,SBD,Raw,Yes,Amateur Masters,81
1,Roman Cherevan,Роман Черевань,M,82.5,80.9,Russia,175,-185,-185,175,,-145,145,-147.5,145,,200,205,210,210,,530,SBD,Raw,Yes,Amateur Teen 16-17,17
DQ,Ivan Polyakov,Иван Поляков,M,82.5,80.5,Russia,-160,-170,-170,,,,,,,,,,,,,,SBD,Raw,Yes,Amateur Teen 18-19,19
1,Dmitriy Troshin,Дмитрий Трошин,M,82.5,81.7,Russia,-182.5,182.5,-190,182.5,,132.5,140,-145,140,,215,225,230,230,,552.5,SBD,Raw,Yes,Amateur Juniors 20-23,23
1,Vasiliy Perov,Василий Перов,M,82.5,82.2,Russia,215,-225,225,225,,150,160,-165,160,,240,255,-260,255,,640,SBD,Raw,Yes,Amateur Open,38
2,Dmitriy Lyanguzov,Дмитрий Лянгузов,M,82.5,81.5,Russia,175,185,-192.5,185,,-135,135,142.5,142.5,,200,220,-240,220,,547.5,SBD,Raw,Yes,Amateur Open,28
1,Aleksey Gvozdev,Алексей Гвоздев,M,82.5,81.3,Russia,170,180,-190,180,,112.5,115,-120,115,,195,200,202.5,202.5,,497.5,SBD,Raw,Yes,Amateur Masters 45-49,45
1,Igor Startsev,Игорь Старцев,M,90,89.5,Russia,205,215,222.5,222.5,,155,165,170,170,,245,255,265,265,,657.5,SBD,Raw,Yes,Amateur Open,34
2,Ivan Moskalev,Иван Москалев,M,90,89.8,Russia,150,160,175,175,,120,127.5,130,130,,170,185,200,200,,505,SBD,Raw,Yes,Amateur Open,27
3,Aleksandr Morozov,Александр Морозов,M,90,87.8,Russia,150,160,-170,160,,132.5,135,-137.5,135,,182.5,195,200,200,,495,SBD,Raw,Yes,Amateur Open,30
4,Albert Kapitanov,Альберт Капитанов,M,90,87.6,Russia,140,155,160,160,,100,105,-107.5,105,,165,175,-177.5,175,,440,SBD,Raw,Yes,Amateur Open,29
1,Viktor Kovalenko,Виктор Коваленко,M,90,88.5,Russia,140,147.5,152.5,152.5,,85,-90,-90,85,,150,155,162.5,162.5,,400,SBD,Raw,Yes,Amateur Masters 55-59,57
1,Vyacheslav Chevordaev,Вячеслав Чевордаев,M,90,83.5,Russia,170,-175,,170,,75,80,82.5,82.5,,-190,190,202.5,202.5,,455,SBD,Raw,Yes,Amateur Masters 65-69,69
1,Nikolay Novikov,Николай Новиков,M,90,88.4,Russia,110,120,130,130,,110,120,,120,,150,160,165,165,,415,SBD,Raw,Yes,Amateur Masters,79
1,Saveliy Bokarev,Савелий Бокарев,M,100,94.1,Russia,190,200,-210,200,,135,140,-145,140,,225,235,-240,235,,575,SBD,Raw,Yes,Amateur Teen 18-19,18
DQ,Nikita Dovgan,Никита Довгань,M,100,96.9,Russia,-200,-200,-215,,,,,,,,,,,,,,SBD,Raw,Yes,Amateur Teen 18-19,19
1,Roman Evseev,Роман Евсеев,M,100,96.1,Russia,172.5,-180,185,185,,120,127.5,-132.5,127.5,,200,210,-220,210,,522.5,SBD,Raw,Yes,Amateur Juniors 20-23,23
1,Anton Sgibnev,Антон Сгибнев,M,100,97.9,Russia,240,255,265,265,,175,185,-195,185,,240,250,-260,250,,700,SBD,Raw,Yes,Amateur Open,31
2,Yanek Martin,Янек Мартин,M,100,99.2,Russia,200,210,220,220,,160,167.5,-172.5,167.5,,230,245,255,255,,642.5,SBD,Raw,Yes,Amateur Open,31
3,Yuriy Kolesnikov,Юрий Колесников,M,100,99.2,Russia,-192.5,195,200,200,,155,-165,-165,155,,252.5,265,-275,265,,620,SBD,Raw,Yes,Amateur Open,33
4,Andrey Ansimov,Андрей Ансимов,M,100,94.6,Russia,190,200,205,205,,145,150,155,155,,220,235,250,250,,610,SBD,Raw,Yes,Amateur Open,29
5,Sergey Gulidov,Сергей Гулидов,M,100,96.8,Russia,185,195,205,205,,145,155,-162.5,155,,220,235,-242.5,235,,595,SBD,Raw,Yes,Amateur Open,31
6,Konstantin Seregin,Константин Серегин,M,100,97.9,Russia,-200,205,210,210,,120,-130,130,130,,240,250,-260,250,,590,SBD,Raw,Yes,Amateur Open,39
7,Oleg Shutov,Олег Шутов,M,100,97.5,Russia,145,150,-160,150,,125,-130,135,135,,170,175,-180,175,,460,SBD,Raw,Yes,Amateur Open,27
8,Oleg Aksenov,Олег Аксенов,M,100,92.6,Russia,-135,140,-150,140,,115,120,-125,120,,150,160,170,170,,430,SBD,Raw,Yes,Amateur Open,31
1,Pavel Kriulenko,Павел Криуленко,M,110,106,Russia,210,220,-225,220,,150,155,-160,155,,230,240,250,250,,625,SBD,Raw,Yes,Amateur Teen 18-19,19
1,Aleksandr Demichev,Александр Демичев,M,110,103.9,Russia,180,190,-210,190,,150,160,,160,,230,250,-260,250,,600,SBD,Raw,Yes,Amateur Juniors 20-23,23
1,Evgeniy Monakhov,Евгений Монахов,M,110,107.1,Russia,230,245,255,255,,140,165,-170,165,,275,280,-290,280,,700,SBD,Raw,Yes,Amateur Open,44
2,Artem Krivonosov,Артем Кривоносов,M,110,103.9,Russia,200,-220,220,220,,160,170,180,180,,250,260,-270,260,,660,SBD,Raw,Yes,Amateur Open,24
3,Roman Klimov,Роман Климов,M,110,107.4,Russia,-210,210,220,220,,150,157.5,-162.5,157.5,,260,265,,265,,642.5,SBD,Raw,Yes,Amateur Open,35
1,Evgeniy Monakhov,Евгений Монахов,M,110,107.1,Russia,230,245,255,255,,140,165,-170,165,,275,280,-290,280,,700,SBD,Raw,Yes,Amateur Masters 40-44,44
2,Steve Thresher,,M,110,103.2,UK,-190,190,-210,190,,135,140,142.5,142.5,,275,287.5,-292.5,287.5,,620,SBD,Raw,Yes,Amateur Masters 40-44,40
3,Mikhail Stroilov,Михаил Строилов,M,110,108.4,Russia,200,210,220,220,,140,-150,150,150,,220,230,240,240,,610,SBD,Raw,Yes,Amateur Masters 40-44,41
1,Anton Vildanov,Антон Вильданов,M,125,118,Russia,220,230,237.5,237.5,,200,205,210,210,,250,-260,260,260,,707.5,SBD,Raw,Yes,Amateur Open,37
2,Pavel Zhdanov,Павел Жданов,M,125,121.5,Russia,220,230,240,240,,190,195,-200,195,,230,250,265,265,,700,SBD,Raw,Yes,Amateur Open,36
3,Vasiliy Zakharchuk,Василий Захарчук,M,125,121,Russia,-240,250,265,265,,150,-162.5,-162.5,150,,240,260,-285,260,,675,SBD,Raw,Yes,Amateur Open,27
1,Sergey Ushakov,Сергей Ушаков,M,125,110.2,Russia,-160,170,180,180,,120,127.5,132.5,132.5,,185,200,210,210,,522.5,SBD,Raw,Yes,Amateur Masters 45-49,46
1,Amy Lawrence,,F,67.5,65.5,UK,100,110,-115,110,,55,57.5,-60,57.5,,120,127.5,132.5,132.5,,300,SBD,Wraps,Yes,Amateur Juniors 20-23,23
1,Oksana Snetkova,Оксана Снеткова,F,67.5,67,Russia,90,-105,-105,90,,45,-50,50,50,,125,135,-140,135,,275,SBD,Wraps,Yes,Amateur Open,38
2,Alena Batkova,Алена Батькова,F,67.5,67.2,Russia,80,90,95,95,,50,55,-57.5,55,,90,95,100,100,,250,SBD,Wraps,Yes,Amateur Open,27
1,Eleanor Dodd,,F,75,73.9,UK,-120,120,130,130,,55,62.5,-65,62.5,,130,-140,140,140,,332.5,SBD,Wraps,Yes,Amateur Open,25
1,Meftah Ramazani,,M,60,59.5,Iran,150,165,175,175,,110,120,-125,120,,160,175,-180,175,,470,SBD,Wraps,Yes,Amateur Juniors 20-23,23
1,Abdolreza Rabiei,,M,60,60,Iran,140,150,170,170,,80,90,,90,,150,160,165,165,,425,SBD,Wraps,Yes,Amateur Masters 40-44,42
1,Amir Noorhosseini,,M,67.5,66.3,Iran,140,170,190,190,,95,105,110,110,,180,190,200,200,,500,SBD,Wraps,Yes,Amateur Teen 18-19,19
1,Alireza Hamzehzarghani,,M,67.5,67.5,Iran,190,210,225,225,,115,127.5,135,135,,190,-210,-210,190,,550,SBD,Wraps,Yes,Amateur Open,27
1,Ben Legg,,M,75,74.9,UK,190,200,-207.5,200,,145,152.5,-157.5,152.5,,215,235,-237.5,235,,587.5,SBD,Wraps,Yes,Amateur Juniors 20-23,22
1,Ruzbeh Jafarinamin,,M,75,75,Iran,190,225,-245.5,225,,130,140,-150,140,,200,220,-230,220,,585,SBD,Wraps,Yes,Amateur Open,31
1,Ali Najafi,,M,82.5,82.3,Iran,180,210,-220,210,,130,142.5,-150,142.5,,200,215,-225,215,,567.5,SBD,Wraps,Yes,Amateur Teen 18-19,19
1,Mohammad Raeisi,,M,82.5,82.3,Iran,220,-245,-250,220,,100,115,-120,115,,210,230,240,240,,575,SBD,Wraps,Yes,Amateur Juniors 20-23,20
DQ,Jin-Seok Kim,,M,82.5,82.5,South Korea,175,185,195,195,,-140,-140,-140,,,190,205,-215,205,,,SBD,Wraps,Yes,Amateur Juniors 20-23,22
1,Farshid Jafari,,M,82.5,80.2,Iran,200,245,270,270,,140,155,-160,155,,250,265,-275,265,,690,SBD,Wraps,Yes,Amateur Open,29
1,Yong-Soo Lee,,M,90,85.9,South Korea,220,240,250,250,,140,150,-155,150,,200,210,-220,210,,610,SBD,Wraps,Yes,Amateur Open,55
2,Luther Nzinga,,M,90,89.2,UK,190,210,220,220,,127.5,-140,-150,127.5,,220,250,-260,250,,597.5,SBD,Wraps,Yes,Amateur Open,26
2,Vyacheslav Khorkov,Вячеслав Хорьков,M,90,89.7,Russia,200,210,-220,210,,140,150,-152.5,150,,220,230,-245,230,,590,SBD,Wraps,Yes,Amateur Open,37
3,Majid Nazarkhani,,M,90,89.6,Iran,185,-210,-220,185,,140,-152.5,152.5,152.5,,170,-200,-200,170,,507.5,SBD,Wraps,Yes,Amateur Open,36
1,Yong-Soo Lee,,M,90,85.9,South Korea,220,240,250,250,,140,150,-155,150,,200,210,-220,210,,610,SBD,Wraps,Yes,Amateur Masters 55-59,55
2,Jafar Sohrabizadeh,,M,90,89.1,Iran,190,195,210,210,,120,-130,-130,120,,170,190,-200,190,,520,SBD,Wraps,Yes,Amateur Masters 55-59,56
1,Mohammad Khalesihaghighi,,M,100,99.8,Iran,220,240,-245,240,,130,-145,145,145,,220,240,-247.5,240,,625,SBD,Wraps,Yes,Amateur Juniors 20-23,22
1,Austin Hickey,,M,100,100,Ireland,250,271,-275,271,,180,185,,185,,250,273,-280,273,,729,SBD,Wraps,Yes,Amateur Open,37
2,Hamid Karamivarnakhasti,,M,100,93.5,Iran,230,250,-272.5,250,,130,150,-160,150,,210,250,-260,250,,650,SBD,Wraps,Yes,Amateur Open,27
1,Rustem Nigmatullin,Рустем Нигматуллин,M,100,98.1,Russia,165,180,190,190,,117.5,127.5,-132.5,127.5,,185,202.5,212.5,212.5,,530,SBD,Wraps,Yes,Amateur Masters 40-44,42
1,Aleksandr Gezhenko,Александр Геженко,M,100,99.3,Russia,120,130,135,135,,105,110,-112.5,110,,150,-162.5,170,170,,415,SBD,Wraps,Yes,Amateur Masters 60-64,64
1,Ji-Yun Jeong,,M,110,107,South Korea,210,220,230,230,,140,155,-165,155,,200,210,220,220,,605,SBD,Wraps,Yes,Amateur Juniors 20-23,21
1,Abbas Varehzardi,,M,110,108.5,Iran,250,-275,275,275,,150,180,-200,180,,240,260,-270,260,,715,SBD,Wraps,Yes,Amateur Open,33
2,Aleksandr Rodionov,Александр Родионов,M,110,109.7,Russia,220,-240,255,255,,150,-160,-160,150,,230,250,-260,250,,655,SBD,Wraps,Yes,Amateur Open,33
1,Milad Abbasabadi,,M,125,112.3,Iran,290,-330,-330,290,,175,190,-195,190,,260,285,-315,285,,765,SBD,Wraps,Yes,Amateur Juniors 20-23,21
2,Sam-Jung Oh,,M,125,123,South Korea,275,290,295,295,,140,150,-160,150,,260,-280,280,280,,725,SBD,Wraps,Yes,Amateur Juniors 20-23,22
1,Nikita Tulyakov,Никита Туляков,M,125,111.7,Russia,200,215,230,230,,150,157.5,162.5,162.5,,220,230,240,240,,632.5,SBD,Wraps,Yes,Amateur Open,29
2,Elyasi Eshagh,,M,125,115.7,Iran,100,130,-140,130,,100,110,,110,,120,150,180,180,,420,SBD,Wraps,Yes,Amateur Open,31
1,Yuriy Suvorov,Юрий Суворов,M,125,117.7,Russia,190,205,220,220,,157.5,165,-172.5,165,,205,215,225,225,,610,SBD,Wraps,Yes,Amateur Masters 50-54,51
1,Pooria Jamshidi,,M,140,129,Iran,250,-290,300,300,,160,185,200,200,,230,270,300,300,,800,SBD,Wraps,Yes,Amateur Open,25
1,Ehsan Ranjbarali,,M,140+,156.3,Iran,200,220,-245,220,,100,110,-115,110,,200,220,,220,,550,SBD,Wraps,Yes,Amateur Teen 16-17,17
1,Shahram Saki,,M,140+,152,Iran,370,390,-400,390,,170,185,192.5,192.5,,300,315,320,320,,902.5,SBD,Wraps,Yes,Amateur Open,28
1,Marina Kamyshnikova,Марина Камышникова,F,52,52,Russia,135,140,145,145,,60,65,67.5,67.5,,150,160,,160,,372.5,SBD,Single-ply,Yes,Amateur Open,38
1,Denis Sevostyanov,Денис Севостьянов,M,67.5,66.1,Russia,160,172.5,-180,172.5,,90,100,107.5,107.5,,172.5,182.5,-192.5,182.5,,462.5,SBD,Single-ply,Yes,Amateur Juniors 20-23,20
1,Mikhail Zhuravlev,Михаил Журавлев,M,75,73.2,Russia,170,190,200,200,,140,150,-155,150,,200,225,,225,,575,SBD,Single-ply,Yes,Amateur Open,28
1,Yahya Nazarkhani,,M,90,89.9,Iran,180,190,200,200,,120,140,,140,,180,-200,200,200,,540,SBD,Single-ply,Yes,Amateur Open,26
DQ,Anatoliy Kirillov,Анатолий Кириллов,M,90,85.3,Russia,-190,-190,-190,,,,,,,,,,,,,,SBD,Single-ply,Yes,Amateur Open,35
DQ,Vitaliy Kulikov,Виталий Куликов,M,90,88.7,Russia,260,275,290,290,,180,-190,,180,,-240,-240,-240,,,,SBD,Single-ply,Yes,Amateur Open,27
DQ,Sergey Polyakov,Сергей Поляков,M,90,86,Russia,180,190,200,200,,-140,-140,-140,,,,,,,,,SBD,Single-ply,Yes,Amateur Masters 45-49,45
1,Maksim Derezhovskiy,Максим Дережовский,M,100,96,Russia,-270,270,-285,270,,175,185,-192.5,185,,270,-285,-290,270,,725,SBD,Single-ply,Yes,Amateur Open,33
2,Mohammadreza Yusef Tizhoush,,M,100,91.9,Iran,200,230,250,250,,90,120,-130,120,,240,260,270,270,,640,SBD,Single-ply,Yes,Amateur Open,38
DQ,Evgeniy Sidorov,Евгений Сидоров,M,100,95,Russia,-250,-250,-250,,,,,,,,,,,,,,SBD,Single-ply,Yes,Amateur Open,27
DQ,Gun-Hoi Koo,,M,67.5,61.5,South Korea,-150,-150,150,150,,50,60,65,65,,-160,-170,-170,,,,SBD,Multi-ply,Yes,Amateur Masters 70-74,71
1,Ilya Lebedev,Илья Лебедев,M,90,88,Russia,265,292.5,300,300,,170,182.5,-190,182.5,,260,-282.5,-282.5,260,,742.5,SBD,Multi-ply,Yes,Amateur Open,45
2,Milad Yusefinejad,,M,90,84.5,Iran,180,210,225,225,,130,145,,145,,-200,210,-250,210,,580,SBD,Multi-ply,Yes,Amateur Open,27
3,Sergey Nikolaev,Сергей Николаев,M,90,88.7,Russia,200,-210,-210,200,,150,160,165,165,,180,195,-205,195,,560,SBD,Multi-ply,Yes,Amateur Open,38
1,Mirahmad Sattarzadeh,,M,100,90.6,Iran,150,,,150,,130,150,,150,,170,,,170,,470,SBD,Multi-ply,Yes,Amateur Open,33
2,Aleksandr Kosarev-Volodko,Александр Косарев-Володько,M,100,95.5,Russia,-160,160,-170,160,,140,-155,-155,140,,160,180,-200,180,,480,SBD,Multi-ply,Yes,Amateur Masters 40-44,43
3,Aleksandr Krovikov,Александр Кровиков,M,100,94.8,Russia,-220,220,240,240,,160,-180,180,180,,200,230,250,250,,670,SBD,Multi-ply,Yes,Amateur Masters 55-59,55
1,Sabina Mansurova,Сабина Мансурова,F,44,40,Russia,,,,,,25,-27.5,-27.5,25,,,,,,,25,B,Raw,Yes,Amateur Youth,11
1,Olga Lvova,Ольга Львова,F,44,40.7,Russia,,,,,,32.5,35,-37.5,35,,,,,,,35,B,Raw,Yes,Amateur Juniors 20-23,20
2,Viktoriya Dobriyan,Виктория Добриян,F,44,41.5,Russia,,,,,,27.5,-32.5,,27.5,,,,,,,27.5,B,Raw,Yes,Amateur Juniors 20-23,22
1,Anna Savchuk,Анна Савчук,F,44,43.2,Russia,,,,,,50,55,-57.5,55,,,,,,,55,B,Raw,Yes,Amateur Open,32
1,Olga Ivanova,Ольга Иванова,F,48,46.6,Russia,,,,,,67.5,70,70.5,70.5,,,,,,,70,B,Raw,Yes,Amateur Juniors 20-23,20
1,Kseniya Kuznetsova,Ксения Кузнецова,F,48,47.7,Russia,,,,,,65,-70,-70,65,,,,,,,65,B,Raw,Yes,Amateur Open,27
2,Ekaterina Bessilina,Екатерина Бессилина,F,48,47,Russia,,,,,,35,40,-45,40,,,,,,,40,B,Raw,Yes,Amateur Open,33
DQ,Irina Utkina,Ирина Уткина,F,48,48,Russia,,,,,,-35,-35,-35,,,,,,,,,B,Raw,Yes,Amateur Open,52
1,Irina Karnaushkina,Ирина Карнаушкина,F,48,48,Russia,,,,,,60,-62.5,-62.5,60,,,,,,,60,B,Raw,Yes,Amateur Masters 40-44,44
1,Lyudmila Anisimova,Людмила Анисимова,F,48,48,Russia,,,,,,60,65,-67.5,65,,,,,,,65,B,Raw,Yes,Amateur Masters 50-54,51
1,Gulnara Garifullina,Гульнара Гарифуллина,F,52,50.6,Russia,,,,,,60,62.5,-65,62.5,,,,,,,62.5,B,Raw,Yes,Amateur Open,42
2,Elena Baeva,Елена Баева,F,52,49.7,Russia,,,,,,50,55,-57.5,55,,,,,,,55,B,Raw,Yes,Amateur Open,33
3,Mariya Fedoseeva,Мария Федосеева,F,52,51.3,Russia,,,,,,45,47.5,-50,47.5,,,,,,,47.5,B,Raw,Yes,Amateur Open,34
4,Kristina Maksimova,Кристина Максимова,F,52,50,Russia,,,,,,42.5,-47.5,-47.5,42.5,,,,,,,42.5,B,Raw,Yes,Amateur Open,34
DQ,Tatyana Arintseva,Татьяна Аринцева,F,52,51.6,Russia,,,,,,-67.5,-67.5,-67.5,,,,,,,,,B,Raw,Yes,Amateur Open,34
DQ,Elena Evdokimova,Елена Евдокимова,F,52,51.4,Russia,,,,,,-42.5,-45,-45,,,,,,,,,B,Raw,Yes,Amateur Masters 45-49,47
1,Anastasiya Vinokhodova,Анастасия Виноходова,F,56,54.4,Russia,,,,,,-55,55,-60,55,,,,,,,55,B,Raw,Yes,Amateur Juniors 20-23,22
2,Yuliya Tatarintseva,Юлия Татаринцева,F,56,55.6,Russia,,,,,,42.5,47.5,50,50,,,,,,,50,B,Raw,Yes,Amateur Juniors 20-23,23
1,Viktoriya Trefilkina,Виктория Трефилкина,F,56,55.5,Russia,,,,,,57.5,62.5,-65,62.5,,,,,,,62.5,B,Raw,Yes,Amateur Open,39
2,Elena Korovkina,Елена Коровкина,F,56,55.6,Russia,,,,,,52.5,57.5,-62.5,57.5,,,,,,,57.5,B,Raw,Yes,Amateur Open,25
3,Ekaterina Smirnova,Екатерина Смирнова,F,56,55.3,Russia,,,,,,-42.5,47.5,-52.5,47.5,,,,,,,47.5,B,Raw,Yes,Amateur Open,29
4,Ekaterina Chernyshina,Екатерина Чернышина,F,56,54.5,Russia,,,,,,42.5,-47.5,-47.5,42.5,,,,,,,42.5,B,Raw,Yes,Amateur Open,27
1,Olga Khisamova,Ольга Хисамова,F,56,53.7,Russia,,,,,,55,60,62.5,62.5,,,,,,,62.5,B,Raw,Yes,Amateur Masters 45-49,45
1,Galina Kondrateva,Галина Кондратьева,F,56,54.9,Russia,,,,,,45,-47.5,-47.5,45,,,,,,,45,B,Raw,Yes,Amateur Masters 65-69,65
1,Viktoriya Yultsova,Виктория Юльцова,F,60,59.9,Russia,,,,,,90,95,97.5,97.5,-100,,,,,,97.5,B,Raw,Yes,Amateur Teen 13-15,15
1,Anastasiya Melnik,Анастасия Мельник,F,60,59.2,Russia,,,,,,47.5,-52.5,-52.5,47.5,,,,,,,47.5,B,Raw,Yes,Amateur Juniors 20-23,20
1,Viktoriya Yultsova,Виктория Юльцова,F,60,59.9,Russia,,,,,,90,95,97.5,97.5,-100,,,,,,97.5,B,Raw,Yes,Amateur Open,15
2,Olesya Shishkina,Олеся Шишкина,F,60,59.7,Russia,,,,,,80,-85,-85,80,,,,,,,80,B,Raw,Yes,Amateur Open,22
3,Ekaterina Sergunina,Екатерина Сергунина,F,60,58.4,Russia,,,,,,60,67.5,-70,67.5,,,,,,,67.5,B,Raw,Yes,Amateur Open,30
4,Anna Markina,Анна Маркина,F,60,59.6,Russia,,,,,,62.5,65,67.5,67.5,,,,,,,67.5,B,Raw,Yes,Amateur Open,29
5,Viktoriya Buldakova,Виктория Булдакова,F,60,59,Russia,,,,,,57.5,-67.5,-67.5,57.5,,,,,,,57.5,B,Raw,Yes,Amateur Open,25
6,Natalya Voronova,Наталья Воронова,F,60,59.6,Russia,,,,,,55,57.5,-60,57.5,,,,,,,57.5,B,Raw,Yes,Amateur Open,37
DQ,Svetlana Grigoreva,Светлана Григорьева,F,60,59.3,Russia,,,,,,-70,-70,,,,,,,,,,B,Raw,Yes,Amateur Open,34
1,Veronika Khitraya,Вероника Хитрая,F,67.5,63.3,Russia,,,,,,47.5,52.5,-55,52.5,,,,,,,52.5,B,Raw,Yes,Amateur Juniors 20-23,22
1,Yuliya Kuznetsova,Юлия Кузнецова,F,67.5,63.2,Russia,,,,,,102.5,107.5,110,110,,,,,,,110,B,Raw,Yes,Amateur Open,44
2,Olga Garanova,Ольга Гаранова,F,67.5,65.4,Russia,,,,,,-60,65,-70,65,,,,,,,65,B,Raw,Yes,Amateur Open,38
1,Yuliya Makarova,Юлия Макарова,F,67.5,65.9,Russia,,,,,,67.5,70,-75,70,,,,,,,70,B,Raw,Yes,Amateur Masters 45-49,47
1,Aurika Kovalchuk,Аурика Ковальчук,F,67.5,67.3,Russia,,,,,,-45,52.5,-55,52.5,,,,,,,52.5,B,Raw,Yes,Amateur Masters 55-59,58
1,Anastasiya Andreeva,Анастасия Андреева,F,75,74,Russia,,,,,,70,-75,-75,70,,,,,,,70,B,Raw,Yes,Amateur Juniors 20-23,21
1,Olga Kurbatova,Ольга Курбатова,F,82.5,79.6,Russia,,,,,,50,-55,,50,,,,,,,50,B,Raw,Yes,Amateur Open,34
1,Tatyana Sivkovich,Татьяна Сивкович,F,90+,94.9,Russia,,,,,,87.5,90,92.5,92.5,,,,,,,92.5,B,Raw,Yes,Amateur Masters 50-54,51
1,Aleksey Kolisnichenko,Алексей Колисниченко,M,52,49.3,Russia,,,,,,95,97.5,100,100,,,,,,,100,B,Raw,Yes,Amateur Juniors 20-23,22
1,Mohammad Zamaniamirabad,,M,56,55.3,Iran,,,,,,-107.5,107.5,120,120,,,,,,,120,B,Raw,Yes,Amateur Open,35
1,Ilya Pankov,Илья Панков,M,60,59.5,Russia,,,,,,70,-75,-77.5,70,,,,,,,70,B,Raw,Yes,Amateur Teen 13-15,14
2,Kirill Kulikov,Кирилл Куликов,M,60,58.55,Russia,,,,,,55,60,62.5,62.5,,,,,,,62.5,B,Raw,Yes,Amateur Teen 13-15,14
1,Sergey Salosalov,Сергей Салосалов,M,67.5,64.8,Russia,,,,,,85,90,92.5,92.5,,,,,,,92.5,B,Raw,Yes,Amateur Youth,12
2,Oleg Shimanovskiy,Олег Шимановский,M,67.5,65.95,Russia,,,,,,57.5,62.5,-65,62.5,,,,,,,62.5,B,Raw,Yes,Amateur Teen 13-15,13
1,Aleksandr Agapov,Александр Агапов,M,67.5,65.9,Russia,,,,,,-107.5,-107.5,107.5,107.5,,,,,,,107.5,B,Raw,Yes,Amateur Teen 16-17,17
2,Denis Netochaev,Денис Неточаев,M,67.5,65.2,Russia,,,,,,82.5,-87.5,87.5,87.5,,,,,,,87.5,B,Raw,Yes,Amateur Teen 16-17,16
1,Egor Arkharov,Егор Архаров,M,67.5,65.3,Russia,,,,,,95,-107.5,-107.5,95,,,,,,,95,B,Raw,Yes,Amateur Teen 18-19,18
1,Linar Khabibulin,Линар Хабибулин,M,67.5,65.5,Russia,,,,,,-142.5,142.5,-145,142.5,,,,,,,142.5,B,Raw,Yes,Amateur Open,24
2,Ulugbek Anvarzhanov,Улугбек Анваржанов,M,67.5,64.3,Russia,,,,,,120,-125,-125,120,,,,,,,120,B,Raw,Yes,Amateur Open,25
3,Dmitriy Spasskiy,Дмитрий Спасский,M,67.5,65.2,Russia,,,,,,100,107.5,-112.5,107.5,,,,,,,107.5,B,Raw,Yes,Amateur Open,33
4,Ivan Makarkin,Иван Макаркин,M,67.5,66.8,Russia,,,,,,100,-107.5,107.5,107.5,,,,,,,107.5,B,Raw,Yes,Amateur Open,36
5,Aleksandr Rumyantsev,Александр Румянцев,M,67.5,64.8,Russia,,,,,,75,85,-90,85,,,,,,,85,B,Raw,Yes,Amateur Open,25
DQ,Denis Tishkov,Денис Тишков,M,67.5,66.1,Russia,,,,,,-125,-125,-125,,,,,,,,,B,Raw,Yes,Amateur Open,28
1,Igor Chistyakov,Игорь Чистяков,M,67.5,66,Russia,,,,,,105,112.5,118,118,,,,,,,118,B,Raw,Yes,Amateur Masters 50-54,52
1,Ivan Moldavanov,Иван Молдаванов,M,75,72.8,Russia,,,,,,67.5,72.5,75,75,,,,,,,75,B,Raw,Yes,Amateur Teen 13-15,15
1,Maksim Karplyuk,Максим Карплюк,M,75,74.4,Russia,,,,,,140,145,150,150,,,,,,,150,B,Raw,Yes,Amateur Teen 16-17,17
2,Evgeniy Solomin,Евгений Соломин,M,75,71.95,Russia,,,,,,-95,95,-100,95,,,,,,,95,B,Raw,Yes,Amateur Teen 16-17,16
1,Ivan Dyatlov,Иван Дятлов,M,75,73.4,Russia,,,,,,-150,150,-152.5,150,,,,,,,150,B,Raw,Yes,Amateur Juniors 20-23,22
2,Aleksandr Reutov,Александр Реутов,M,75,72.9,Russia,,,,,,130,-135,135,135,,,,,,,135,B,Raw,Yes,Amateur Juniors 20-23,22
3,Evgeniy Efanov,Евгений Ефанов,M,75,74.8,Russia,,,,,,-125,-125,125,125,,,,,,,125,B,Raw,Yes,Amateur Juniors 20-23,21
4,Denis Zalunin,Денис Залунин,M,75,73.4,Russia,,,,,,110,-117.5,-117.5,110,,,,,,,110,B,Raw,Yes,Amateur Juniors 20-23,20
DQ,Sergey Mikryukov,Сергей Микрюков,M,75,73.5,Russia,,,,,,-135,-135,-135,,,,,,,,,B,Raw,Yes,Amateur Juniors 20-23,20
1,Artur Abdyushev,Артур Абдюшев,M,75,71.9,Russia,,,,,,155,165,-170,165,,,,,,,165,B,Raw,Yes,Amateur Open,24
2,Artem Larionov,Артем Ларионов,M,75,74.4,Russia,,,,,,160,165,-170,165,,,,,,,165,B,Raw,Yes,Amateur Open,39
3,Roman Dubinkin,Роман Дубинкин,M,75,71.7,Russia,,,,,,142.5,147.5,150,150,,,,,,,150,B,Raw,Yes,Amateur Open,29
4,Vladislav Atlashkin,Владислав Атлашкин,M,75,74.15,Russia,,,,,,150,-155,-155,150,,,,,,,150,B,Raw,Yes,Amateur Open,31
5,Vladimir Erokhanov,Владимир Ероханов,M,75,75,Russia,,,,,,140,150,-155,150,,,,,,,150,B,Raw,Yes,Amateur Open,28
6,Roman Petrakov,Роман Петраков,M,75,75,Russia,,,,,,-150,150,-155,150,,,,,,,150,B,Raw,Yes,Amateur Open,35
7,Magomedsalikh Usmanov,Магомедсалих Усманов,M,75,74.6,Russia,,,,,,130,135,137.5,137.5,,,,,,,137.5,B,Raw,Yes,Amateur Open,28
8,Aleksandr Batishchev,Александр Батищев,M,75,73.8,Russia,,,,,,125,130,-135,130,,,,,,,130,B,Raw,Yes,Amateur Open,27
9,Ivan Vasilev,Иван Васильев,M,75,75,Russia,,,,,,117.5,127.5,-135,127.5,,,,,,,127.5,B,Raw,Yes,Amateur Open,26
10,Kirill Selukov,Кирилл Селуков,M,75,74.4,Russia,,,,,,117.5,120,-122.5,120,,,,,,,120,B,Raw,Yes,Amateur Open,32
11,Oleg Volkov,Олег Волков,M,75,73,Russia,,,,,,100,-110,-110,100,,,,,,,100,B,Raw,Yes,Amateur Open,27
DQ,Mikhail Oskorbin,Михаил Оскорбин,M,75,74.8,Russia,,,,,,-135,-135,,,,,,,,,,B,Raw,Yes,Amateur Open,26
1,Pavel Kungurtsev,Павел Кунгурцев,M,75,74.4,Russia,,,,,,135,-145,145,145,,,,,,,145,B,Raw,Yes,Amateur Masters 40-44,40
2,Aleksandr Metelkin,Александр Метелкин,M,75,73.4,Russia,,,,,,115,117.5,120,120,,,,,,,120,B,Raw,Yes,Amateur Masters 40-44,44
1,Sergey Zuykov,Сергей Зуйков,M,75,73.5,Russia,,,,,,145,150,,150,,,,,,,150,B,Raw,Yes,Amateur Masters 45-49,47
2,Aleksey Shalunov,Алексей Шалунов,M,75,73.7,Russia,,,,,,117.5,122.5,127.5,127.5,,,,,,,127.5,B,Raw,Yes,Amateur Masters 45-49,47
1,Oleg Novikov,Олег Новиков,M,75,74.65,Russia,,,,,,137.5,-142.5,-142.5,137.5,,,,,,,137.5,B,Raw,Yes,Amateur Masters 60-64,60
2,Yuriy Rybkin,Юрий Рыбкин,M,75,74.6,Russia,,,,,,-115,115,-117.5,115,,,,,,,115,B,Raw,Yes,Amateur Masters 60-64,61
DQ,Yuriy Dvizov,Юрий Двизов,M,75,74.2,Russia,,,,,,-110,-115,-115,,,,,,,,,B,Raw,Yes,Amateur Masters 70-74,70
1,Mohammad Ahmadi,,M,82.5,79.6,Iran,,,,,,125,132.5,-135,132.5,,,,,,,132.5,B,Raw,Yes,Amateur Teen 16-17,17
1,Vladislav Povetev,Владислав Поветьев,M,82.5,79.8,Russia,,,,,,-130,130,-135,130,,,,,,,130,B,Raw,Yes,Amateur Teen 18-19,19
2,Nikita Vernidub,Никита Вернидуб,M,82.5,82.2,Russia,,,,,,105,112.5,-120,112.5,,,,,,,112.5,B,Raw,Yes,Amateur Teen 18-19,19
DQ,Vadim Tretyak,Вадим Третьяк,M,82.5,81.65,Russia,,,,,,-115,-115,-115,,,,,,,,,B,Raw,Yes,Amateur Teen 18-19,19
1,Maksim Yudin,Максим Юдин,M,82.5,81.5,Russia,,,,,,167.5,180,,180,,,,,,,180,B,Raw,Yes,Amateur Open,24
2,Gennadiy Lapin,Геннадий Лапин,M,82.5,82.05,Russia,,,,,,140,145,150,150,,,,,,,150,B,Raw,Yes,Amateur Juniors 20-23,21
3,Mark Sadchikov,Марк Садчиков,M,82.5,79.4,Russia,,,,,,-125,130,137.5,137.5,,,,,,,137.5,B,Raw,Yes,Amateur Juniors 20-23,21
4,Aleksandr Kurukin,Александр Курукин,M,82.5,79.9,Russia,,,,,,102.5,127.5,132.5,132.5,,,,,,,132.5,B,Raw,Yes,Amateur Juniors 20-23,23
1,Oleg Vasyutin,Олег Васютин,M,82.5,80.4,Russia,,,,,,155,160,-167.5,160,,,,,,,160,B,Raw,Yes,Amateur Open,41
2,Aleksey Zakharov,Алексей Захаров,M,82.5,81.6,Russia,,,,,,150,157.5,160,160,,,,,,,160,B,Raw,Yes,Amateur Open,28
3,Aleksey Pustovoytov,Алексей Пустовойтов,M,82.5,81.9,Russia,,,,,,155,-160,160,160,,,,,,,160,B,Raw,Yes,Amateur Open,32
4,Valeriy Ruban,Валерий Рубан,M,82.5,81.7,Russia,,,,,,147.5,152.5,-157.5,152.5,,,,,,,152.5,B,Raw,Yes,Amateur Open,27
5,Arseniy Kechkin,Арсений Кечкин,M,82.5,81.1,Russia,,,,,,145,-147.5,150,150,,,,,,,150,B,Raw,Yes,Amateur Open,28
6,Dmitriy Kozlov,Дмитрий Козлов,M,82.5,81.3,Russia,,,,,,112.5,127.5,135,135,,,,,,,135,B,Raw,Yes,Amateur Open,26
7,Aleksandr Bogachkin,Александр Богачкин,M,82.5,81.5,Russia,,,,,,125,132.5,-140,132.5,,,,,,,132.5,B,Raw,Yes,Amateur Open,31
8,Sergey Molev,Сергей Молев,M,82.5,78.4,Russia,,,,,,127.5,-132.5,-135,127.5,,,,,,,127.5,B,Raw,Yes,Amateur Open,29
9,Pavel Bodrenkov,Павел Бодренков,M,82.5,80.4,Russia,,,,,,102.5,112.5,-115,112.5,,,,,,,112.5,B,Raw,Yes,Amateur Open,25
10,Dmitriy Motov,Дмитрий Мотов,M,82.5,80.1,Russia,,,,,,92.5,-102.5,-102.5,92.5,,,,,,,92.5,B,Raw,Yes,Amateur Open,33
DQ,Konstantin Pashkin,Константин Пашкин,M,82.5,79.7,Russia,,,,,,-120,-120,-120,,,,,,,,,B,Raw,Yes,Amateur Open,25
DQ,Vitaliy Kolobanov,Виталий Колобанов,M,82.5,81.8,Russia,,,,,,-127.5,-127.5,-127.5,,,,,,,,,B,Raw,Yes,Amateur Open,38
1,Igor Borisov,Игорь Борисов,M,82.5,77.75,Russia,,,,,,-100,-100,100,100,,,,,,,100,B,Raw,Yes,Amateur Masters 40-44,43
1,Dmitriy Kislitsyn,Дмитрий Кислицын,M,82.5,79.6,Russia,,,,,,90,100,102.5,102.5,,,,,,,102.5,B,Raw,Yes,Amateur Masters 45-49,45
1,Vladimir Kapuza,Владимир Капуза,M,82.5,81.9,Russia,,,,,,135,145,147.5,147.5,,,,,,,147.5,B,Raw,Yes,Amateur Masters 50-54,54
2,Vladimir Fateev,Владимир Фатеев,M,82.5,79.65,Russia,,,,,,110,115,117.5,117.5,,,,,,,117.5,B,Raw,Yes,Amateur Masters 50-54,52
1,Mohammad Bahaeddin Azizibaneh,,M,82.5,81.2,Iran,,,,,,130,140,-150,140,,,,,,,140,B,Raw,Yes,Amateur Masters 55-59,57
2,Vadim Bogomolov,Вадим Богомолов,M,82.5,81.8,Russia,,,,,,125,132.5,135,135,,,,,,,135,B,Raw,Yes,Amateur Masters 55-59,58
DQ,Vladimir Manusevich,Владимир Манусевич,M,82.5,76.7,Russia,,,,,,-95,-102.5,-102.5,,,,,,,,,B,Raw,Yes,Amateur Masters 70-74,71
1,Aleksandr Pogosov,Александр Погосов,M,90,88.4,Russia,,,,,,52.5,55,57.5,57.5,,,,,,,57.5,B,Raw,Yes,Amateur Teen 13-15,14
1,Aleksey Evteev,Алексей Евтеев,M,90,89,Russia,,,,,,170,175,180,180,,,,,,,180,B,Raw,Yes,Amateur Juniors 20-23,22
2,Ivan Nekrylov,Иван Некрылов,M,90,89.3,Russia,,,,,,142.5,-152.5,-152.5,142.5,,,,,,,142.5,B,Raw,Yes,Amateur Juniors 20-23,22
3,Aleksey Repkin,Алексей Репкин,M,90,87.2,Russia,,,,,,127.5,132.5,137.5,137.5,,,,,,,137.5,B,Raw,Yes,Amateur Juniors 20-23,23
4,Ivan Khvorostyuk,Иван Хворостюк,M,90,87.3,Russia,,,,,,127.5,132.5,137.5,137.5,,,,,,,137.5,B,Raw,Yes,Amateur Juniors 20-23,21
1,Ramil Bektemirov,Рамиль Бектемиров,M,90,89.2,Russia,,,,,,180,185,190,190,,,,,,,190,B,Raw,Yes,Amateur Open,29
2,Aleksey Blintsov,Алексей Блинцов,M,90,87.7,Russia,,,,,,175,180,-190,180,,,,,,,180,B,Raw,Yes,Amateur Open,37
3,Sergey Ovsyannikov,Сергей Овсянников,M,90,86.6,Russia,,,,,,165,170,175,175,,,,,,,175,B,Raw,Yes,Amateur Open,37
4,Bair Badmadashiev,Баир Бадмадашиев,M,90,90,Russia,,,,,,170,175,-177.5,175,,,,,,,175,B,Raw,Yes,Amateur Open,40
5,Konstantin Kuvezenkov,Константин Кувезенков,M,90,88.8,Russia,,,,,,155,165,-170,165,,,,,,,165,B,Raw,Yes,Amateur Open,36
6,Vadim Shabanov,Вадим Шабанов,M,90,89,Russia,,,,,,152.5,160,-162.5,160,,,,,,,160,B,Raw,Yes,Amateur Open,45
7,Mikhail Korobkov,Михаил Коробков,M,90,88.5,Russia,,,,,,147.5,-152.5,-152.5,147.5,,,,,,,147.5,B,Raw,Yes,Amateur Open,28
8,Aleksey Pakhomov,Алексей Пахомов,M,90,87.8,Russia,,,,,,145,-152.5,-152.5,145,,,,,,,145,B,Raw,Yes,Amateur Open,24
9,Aleksandr Fomichev #3,Александр Фомичев,M,90,86.7,Russia,,,,,,135,140,-152.5,140,,,,,,,140,B,Raw,Yes,Amateur Open,27
10,Vladimir Dziraev,Владимир Дзираев,M,90,88.5,Russia,,,,,,125,132.5,,132.5,,,,,,,132.5,B,Raw,Yes,Amateur Open,35
11,Sergey Vorobyov,Сергей Воробьёв,M,90,87.2,Russia,,,,,,115,-120,120,120,,,,,,,120,B,Raw,Yes,Amateur Open,37
DQ,Stanislav Zolkin,Станислав Золкин,M,90,87.9,Russia,,,,,,-152.5,-152.5,-152.5,,,,,,,,,B,Raw,Yes,Amateur Open,29
DQ,Marat Shaymurzin,Марат Шаймурзин,M,90,89.3,Russia,,,,,,-175,-175,-175,,,,,,,,,B,Raw,Yes,Amateur Open,33
DQ,Dmitriy Ionov,Дмитрий Ионов,M,90,89.4,Russia,,,,,,-147.5,-147.5,-152.5,,,,,,,,,B,Raw,Yes,Amateur Open,39
1,Andrey Minin,Андрей Минин,M,90,89,Russia,,,,,,175,180,-190,180,,,,,,,180,B,Raw,Yes,Amateur Masters 40-44,41
2,Bair Badmadashiev,Баир Бадмадашиев,M,90,90,Russia,,,,,,170,175,-177.5,175,,,,,,,175,B,Raw,Yes,Amateur Masters 40-44,40
3,Aleksandr Kazakov,Александр Казаков,M,90,88.2,Russia,,,,,,125,-132.5,132.5,132.5,,,,,,,132.5,B,Raw,Yes,Amateur Masters 40-44,43
DQ,Yuriy Gurkovskiy,Юрий Гурковский,M,90,88,Russia,,,,,,-152.5,-152.5,-152.5,,,,,,,,,B,Raw,Yes,Amateur Masters 40-44,42
1,Vyacheslav Volkov,Вячеслав Волков,M,90,89.2,Russia,,,,,,-160,160,175,175,,,,,,,175,B,Raw,Yes,Amateur Masters 45-49,45
2,Vadim Shabanov,Вадим Шабанов,M,90,89,Russia,,,,,,152.5,160,-162.5,160,,,,,,,160,B,Raw,Yes,Amateur Masters 45-49,45
1,Sergey Bazanov,Сергей Базанов,M,90,86.15,Russia,,,,,,150,155,160,160,,,,,,,160,B,Raw,Yes,Amateur Masters 50-54,54
1,Nikolay Krasnov,Николай Краснов,M,90,82.65,Russia,,,,,,150,160,170,170,,,,,,,170,B,Raw,Yes,Amateur Masters 55-59,56
DQ,Sergey Shityakov,Сергей Шитяков,M,100,98.9,Russia,,,,,,-112.5,-112.5,-112.5,,,,,,,,,B,Raw,Yes,Amateur Teen 16-17,16
1,Dmitriy Markelov,Дмитрий Маркелов,M,100,94.9,Russia,,,,,,150,165,-172.5,165,,,,,,,165,B,Raw,Yes,Amateur Teen 18-19,18
2,Mikhail Vetrenko,Михаил Ветренко,M,100,99.1,Russia,,,,,,145,-150,150,150,,,,,,,150,B,Raw,Yes,Amateur Teen 18-19,19
1,Ilya Zlobin,Илья Злобин,M,100,97.6,Russia,,,,,,162.5,170,-180,170,,,,,,,170,B,Raw,Yes,Amateur Juniors 20-23,20
2,Yuriy Poluektov,Юрий Полуэктов,M,100,97.4,Russia,,,,,,130,140,-145,140,,,,,,,140,B,Raw,Yes,Amateur Juniors 20-23,21
3,Ilnar Aptyukeev,Ильнар Аптюкеев,M,100,97,Russia,,,,,,130,-140,-140,130,,,,,,,130,B,Raw,Yes,Amateur Juniors 20-23,21
1,Ilya Orlov,Илья Орлов,M,100,96.85,Russia,,,,,,195,205,210,210,,,,,,,210,B,Raw,Yes,Amateur Open,34
2,Ilya Bychkov,Илья Бычков,M,100,98.1,Russia,,,,,,180,185,-190,185,,,,,,,185,B,Raw,Yes,Amateur Open,24
3,Tornik Nazaryan,Торник Назарян,M,100,97.9,Russia,,,,,,180,-185,-185,180,,,,,,,180,B,Raw,Yes,Amateur Open,25
4,Andrey Pirogov,Андрей Пирогов,M,100,98.2,Russia,,,,,,-180,180,-185,180,,,,,,,180,B,Raw,Yes,Amateur Open,30
5,Aleksey Shustov,Алексей Шустов,M,100,95.4,Russia,,,,,,170,175,-180,175,,,,,,,175,B,Raw,Yes,Amateur Open,31
6,Aleksandr Smolyakov,Александр Смоляков,M,100,94.5,Russia,,,,,,150,-155,162.5,162.5,,,,,,,162.5,B,Raw,Yes,Amateur Open,35
7,Evgeniy Pavlikhin,Евгений Павлихин,M,100,97.5,Russia,,,,,,-152.5,157.5,-162.5,157.5,,,,,,,157.5,B,Raw,Yes,Amateur Open,36
8,Roman Vinokurov,Роман Винокуров,M,100,97.7,Russia,,,,,,-135,150,-162.5,150,,,,,,,150,B,Raw,Yes,Amateur Open,33
9,Roman Kornyukhin,Роман Корнюхин,M,100,92.3,Russia,,,,,,-140,140,145,145,,,,,,,145,B,Raw,Yes,Amateur Open,27
10,Boris Pankov,Борис Панков,M,100,98.1,Russia,,,,,,-140,140,-150,140,,,,,,,140,B,Raw,Yes,Amateur Open,24
1,Aleksandr Dymov,Александр Дымов,M,100,92.65,Russia,,,,,,170,175,177.5,177.5,,,,,,,177.5,B,Raw,Yes,Amateur Masters 40-44,43
2,Vadim Sazonov,Вадим Сазонов,M,100,98.9,Russia,,,,,,155,165,170,170,,,,,,,170,B,Raw,Yes,Amateur Masters 40-44,41
3,Andrey Kondrushin,Андрей Кондрушин,M,100,99.2,Russia,,,,,,145,152.5,-160,152.5,,,,,,,152.5,B,Raw,Yes,Amateur Masters 40-44,40
1,Ali Sorkhi,,M,100,98,Iran,,,,,,160,175,180,180,,,,,,,180,B,Raw,Yes,Amateur Masters 45-49,48
2,Vladlen Gladchenko,Владлен Гладченко,M,100,99.2,Russia,,,,,,140,-150,-150,140,,,,,,,140,B,Raw,Yes,Amateur Masters 45-49,46
1,Natig Aliev,Натиг Алиев,M,100,98,Russia,,,,,,190,-202.5,-202.5,190,,,,,,,190,B,Raw,Yes,Amateur Masters 50-54,53
2,Nikolay Fokin,Николай Фокин,M,100,98.35,Russia,,,,,,-152.5,152.5,162.5,162.5,,,,,,,162.5,B,Raw,Yes,Amateur Masters 50-54,51
3,Igor Usachev,Игорь Усачев,M,100,95.7,Russia,,,,,,140,152.5,155,155,,,,,,,155,B,Raw,Yes,Amateur Masters 50-54,52
DQ,Pavel Portnov,Павел Портнов,M,100,93.8,Russia,,,,,,-100,-100,-100,,,,,,,,,B,Raw,Yes,Amateur Masters 50-54,54
1,Shahriar Ahmadpoor,,M,110,102.9,Iran,,,,,,200,220,-240,220,,,,,,,220,B,Raw,Yes,Amateur Open,33
2,Viktor Knyazev,Виктор Князев,M,110,103.2,Russia,,,,,,200,207.5,-215,207.5,,,,,,,207.5,B,Raw,Yes,Amateur Open,26
3,Maksim Skoropupov,Максим Скоропупов,M,110,105.8,Russia,,,,,,-190,190,-195,190,,,,,,,190,B,Raw,Yes,Amateur Open,29
4,Maksim Sevryukov,Максим Севрюков,M,110,109.5,Russia,,,,,,175,185,-195,185,,,,,,,185,B,Raw,Yes,Amateur Open,32
5,Vitaliy Zhukov,Виталий Жуков,M,110,107,Russia,,,,,,160,167.5,-170,167.5,,,,,,,167.5,B,Raw,Yes,Amateur Open,31
6,Arslan Isabekov,Арслан Исабеков,M,110,104.55,Russia,,,,,,150,-160,-160,150,,,,,,,150,B,Raw,Yes,Amateur Open,37
DQ,Anton Tarasov,Антон Тарасов,M,110,102.4,Russia,,,,,,-160,-162.5,-165,,,,,,,,,B,Raw,Yes,Amateur Open,30
1,Vitaliy Stolbovoy,Виталий Столбовой,M,110,109,Russia,,,,,,180,190,195,195,,,,,,,195,B,Raw,Yes,Amateur Masters 40-44,44
2,Igor Kulakov,Игорь Кулаков,M,110,109,Russia,,,,,,167.5,180,-190,180,,,,,,,180,B,Raw,Yes,Amateur Masters 40-44,43
3,Aleksey Kovalskiy,Алексей Ковальский,M,110,105.2,Russia,,,,,,150,160,167.5,167.5,,,,,,,167.5,B,Raw,Yes,Amateur Masters 40-44,41
4,Sergey Lipovskiy,Сергей Липовский,M,110,100.75,Russia,,,,,,-160,165,-175,165,,,,,,,165,B,Raw,Yes,Amateur Masters 40-44,41
DQ,Aleksandr Khokhlov,Александр Хохлов,M,110,106.5,Russia,,,,,,-140,-147.5,-147.5,,,,,,,,,B,Raw,Yes,Amateur Masters 40-44,42
1,Dmitriy Kireev,Дмитрий Киреев,M,110,108.4,Russia,,,,,,160,165,167.5,167.5,,,,,,,167.5,B,Raw,Yes,Amateur Masters 45-49,47
2,Andrey Makarov,Андрей Макаров,M,110,102.1,Russia,,,,,,135,140,-145,140,,,,,,,140,B,Raw,Yes,Amateur Masters 45-49,47
1,Pavel Zhdanov,Павел Жданов,M,125,119.4,Russia,,,,,,190,-195,-195,190,,,,,,,190,B,Raw,Yes,Amateur Open,36
2,Mikhail Sidelnikov,Михаил Сидельников,M,125,119.9,Russia,,,,,,172.5,177.5,182.5,182.5,,,,,,,182.5,B,Raw,Yes,Amateur Open,33
3,Aleksandr Frolov,Александр Фролов,M,125,123,Russia,,,,,,155,160,165,165,,,,,,,165,B,Raw,Yes,Amateur Open,29
4,Dmitriy Esin,Дмитрий Есин,M,125,119.8,Russia,,,,,,140,152.5,160,160,,,,,,,160,B,Raw,Yes,Amateur Open,30
5,Ivan Tsygankov,Иван Цыганков,M,125,122.5,Russia,,,,,,160,-170,-177.5,160,,,,,,,160,B,Raw,Yes,Amateur Open,29
1,Vladimir Seleznev,Владимир Селезнев,M,125,123.3,Russia,,,,,,170,175,-180,175,,,,,,,175,B,Raw,Yes,Amateur Masters 40-44,40
2,Dobrogor Raskhodchikov,Доброгор Расходчиков,M,125,114.1,Russia,,,,,,165,-167.5,-167.5,165,,,,,,,165,B,Raw,Yes,Amateur Masters 40-44,40
1,Dmitriy Belov,Дмитрий Белов,M,125,123.05,Russia,,,,,,180,187.5,-190,187.5,,,,,,,187.5,B,Raw,Yes,Amateur Masters 45-49,45
2,Igor Bychkov,Игорь Бычков,M,125,114.65,Russia,,,,,,170,177.5,-180,177.5,,,,,,,177.5,B,Raw,Yes,Amateur Masters 45-49,46
1,Vladimir Chubarov,Владимир Чубаров,M,125,123.8,Russia,,,,,,167.5,172.5,-177.5,172.5,,,,,,,172.5,B,Raw,Yes,Amateur Masters 50-54,53
1,Mikhail Nikolaev,Михаил Николаев,M,125,122.4,Russia,,,,,,175,-185,190,190,,,,,,,190,B,Raw,Yes,Amateur Masters 55-59,56
2,Grigoriy Tsyganskiy,Григорий Цыганский,M,125,112.3,Russia,,,,,,150,-160,-162.5,150,,,,,,,150,B,Raw,Yes,Amateur Masters 55-59,59
1,Evgeniy Zuykov,Евгений Зуйков,M,140,130.9,Russia,,,,,,200,-205,-205,200,,,,,,,200,B,Raw,Yes,Amateur Juniors 20-23,23
1,Ali Khosravi Pouya,,M,140,126,Iran,,,,,,210,230,-250,230,,,,,,,230,B,Raw,Yes,Amateur Open,32
2,Vasiliy Tarasov,Василий Тарасов,M,140,133.1,Russia,,,,,,200,210,215,215,,,,,,,215,B,Raw,Yes,Amateur Open,39
1,Vladimir Popov,Владимир Попов,M,140,128.1,Russia,,,,,,165,170,172.5,172.5,,,,,,,172.5,B,Raw,Yes,Amateur Masters 60-64,61
1,Aleksandr Lyubtsov,Александр Любцов,M,140+,160.95,Russia,,,,,,145,155,-162.5,155,,,,,,,155,B,Raw,Yes,Amateur Open,32
1,Boris Trofimov,Борис Трофимов,M,140+,148.9,Russia,,,,,,220,232.5,-235,232.5,,,,,,,232.5,B,Raw,Yes,Amateur Masters 45-49,45
1,Igor Nasteka,Игорь Настека,M,140+,158.5,Russia,,,,,,200,205,-210,205,,,,,,,205,B,Raw,Yes,Amateur Masters 50-54,52
1,Yuliya Kuznetsova,Юлия Кузнецова,F,67.5,63.2,Russia,,,,,,130,135,140,140,,,,,,,140,B,Single-ply,Yes,Amateur Open,44
1,Hannah Venn-Munns,,F,82.5,81.2,UK,,,,,,82.5,-87.5,-90,82.5,,,,,,,82.5,B,Single-ply,Yes,Amateur Open,30
DQ,Aleksey Karlov,Алексей Карлов,M,67.5,65.5,Russia,,,,,,-152.5,-152.5,-152.5,,,,,,,,,B,Single-ply,Yes,Amateur Open,24
1,Anton Sosunov,Антон Сосунов,M,75,73.8,Russia,,,,,,150,155,-165,155,,,,,,,155,B,Single-ply,Yes,Amateur Open,36
1,Evgeniy Emelin,Евгений Емелин,M,75,73.8,Russia,,,,,,-145,145,-152.5,145,,,,,,,145,B,Single-ply,Yes,Amateur Masters 50-54,52
1,Denis Zaytsev,Денис Зайцев,M,82.5,78,Russia,,,,,,150,155,157.5,157.5,,,,,,,157.5,B,Single-ply,Yes,Amateur Open,34
1,Igor Petrov,Игорь Петров,M,82.5,81.2,Russia,,,,,,150,-152.5,152.5,152.5,155,,,,,,152.5,B,Single-ply,Yes,Amateur Masters 60-64,60
1,Denis Dobryanskiy,Денис Добрянский,M,90,86.3,Russia,,,,,,200,-212.5,-212.5,200,,,,,,,200,B,Single-ply,Yes,Amateur Open,39
2,Dmitriy Korneev,Дмитрий Корнеев,M,90,89.1,Russia,,,,,,177.5,185,190,190,,,,,,,190,B,Single-ply,Yes,Amateur Open,30
3,Kirill Sidorenko,Кирилл Сидоренко,M,90,87.5,Russia,,,,,,150,152.5,-155,152.5,,,,,,,152.5,B,Single-ply,Yes,Amateur Open,37
1,Aleksandr Dorofeev,Александр Дорофеев,M,100,99.8,Russia,,,,,,207.5,215,-227.5,215,,,,,,,215,B,Single-ply,Yes,Amateur Open,35
1,Nematollah Shabazi,,M,110,103.4,Iran,,,,,,170,190,210,210,,,,,,,210,B,Single-ply,Yes,Amateur Open,38
1,Aliashraf Nargesi,,M,110,102.1,Iran,,,,,,170,200,-220,200,,,,,,,200,B,Single-ply,Yes,Amateur Masters 45-49,49
1,Vyacheslav Frank,Вячеслав Франк,M,110,100.4,Russia,,,,,,165,170,-177.5,170,,,,,,,170,B,Single-ply,Yes,Amateur Masters 55-59,55
1,Afshin Rajabi,,M,125,120.5,Iran,,,,,,-230,230,-250,230,,,,,,,230,B,Single-ply,Yes,Amateur Open,39
1,Vladimir Popov,Владимир Попов,M,140,128.1,Russia,,,,,,190,200,-210,200,,,,,,,200,B,Single-ply,Yes,Amateur Masters 60-64,61
1,Majid Nazarkhani,,M,90,89.7,Iran,,,,,,130,145,-155,145,,,,,,,145,B,Multi-ply,Yes,Amateur Open,36
1,Oleg Loktionov,Олег Локтионов,M,100,98.2,Russia,,,,,,200,-220,-220,200,,,,,,,200,B,Multi-ply,Yes,Amateur Masters 40-44,40
1,Pavel Guzev,Павел Гузев,M,125,123.5,Russia,,,,,,-270,-270,270,270,-300.5,,,,,,270,B,Multi-ply,Yes,Amateur Open,51
1,Pavel Guzev,Павел Гузев,M,125,123.5,Russia,,,,,,-270,-270,270,270,-300.5,,,,,,270,B,Multi-ply,Yes,Amateur Masters 50-54,51
1,Elena Berezkova,Елена Березкова,F,48,46.3,Russia,,,,,,,,,,,-75,-75,75,75,,75,D,Raw,Yes,Amateur Juniors 20-23,23
1,Darya Polyakova,Дарья Полякова,F,48,45.3,Russia,,,,,,,,,,,115,122.5,-125,122.5,,122.5,D,Raw,Yes,Amateur Open,28
2,Galina Vavilkina,Галина Вавилкина,F,48,47.75,Russia,,,,,,,,,,,102.5,107.5,-110,107.5,,107.5,D,Raw,Yes,Amateur Open,46
3,Mariya Lukasevich,Мария Лукасевич,F,48,47.4,Russia,,,,,,,,,,,-87.5,-87.5,92.5,92.5,,92.5,D,Raw,Yes,Amateur Open,28
1,Anna Melnikova,Анна Мельникова,F,52,52,Russia,,,,,,,,,,,90,-100,-100,90,,90,D,Raw,Yes,Amateur Teen 18-19,18
1,Valeriya Pereyaslova,Валерия Переяслова,F,52,51.7,Russia,,,,,,,,,,,-110,110,-115,110,,110,D,Raw,Yes,Amateur Juniors 20-23,21
1,Georgina Hodson,,F,52,50.1,UK,,,,,,,,,,,100,112.5,120,120,,120,D,Raw,Yes,Amateur Open,30
2,Alla Babinchuk,Алла Бабинчук,F,52,51.3,Russia,,,,,,,,,,,80,82.5,87.5,87.5,,87.5,D,Raw,Yes,Amateur Open,31
DQ,Irina Golovunina,Ирина Головунина,F,52,51,Russia,,,,,,,,,,,-142.5,-142.5,-142.5,,,,D,Raw,Yes,Amateur Open,35
1,Vasilisa Chernikova,Василиса Черникова,F,56,55.2,Russia,,,,,,,,,,,100,105,115,115,,115,D,Raw,Yes,Amateur Juniors 20-23,23
2,Elena Mikhaylovskaya,Елена Михайловская,F,56,54.2,Russia,,,,,,,,,,,95,100,105,105,,105,D,Raw,Yes,Amateur Juniors 20-23,22
1,Nadezhda Galustyan,Надежда Галустян,F,56,54.4,Russia,,,,,,,,,,,122.5,130,135,135,,135,D,Raw,Yes,Amateur Open,28
2,Natalya Levenkova,Наталья Левенкова,F,56,55,Russia,,,,,,,,,,,132.5,-140,-140,132.5,,132.5,D,Raw,Yes,Amateur Open,28
3,Anastasiya Zhdanova,Анастасия Жданова,F,56,55.4,Russia,,,,,,,,,,,115,122.5,127.5,127.5,,127.5,D,Raw,Yes,Amateur Open,36
4,Ekaterina Chaplygina,Екатерина Чаплыгина,F,56,55.8,Russia,,,,,,,,,,,105,-110,-110,105,,105,D,Raw,Yes,Amateur Open,25
5,Ekaterina Smirnova,Екатерина Смирнова,F,56,55.3,Russia,,,,,,,,,,,72.5,85,92.5,92.5,,92.5,D,Raw,Yes,Amateur Open,29
6,Tatyana Ataniyazova,Татьяна Атаниязова,F,56,54.7,Russia,,,,,,,,,,,72.5,-85,-85,72.5,,72.5,D,Raw,Yes,Amateur Open,33
1,Lyudmila Omelchenko,Людмила Омельченко,F,56,54.9,Russia,,,,,,,,,,,92.5,-105,-105,92.5,,92.5,D,Raw,Yes,Amateur Masters 40-44,40
1,Tatyana Tikhonova,Татьяна Тихонова,F,60,59.8,Russia,,,,,,,,,,,120,122.5,127.5,127.5,,127.5,D,Raw,Yes,Amateur Teen 18-19,19
1,Anastasiya Melnik,Анастасия Мельник,F,60,59.2,Russia,,,,,,,,,,,100,110,-122.5,110,,110,D,Raw,Yes,Amateur Juniors 20-23,20
1,Mariya Yultsova,Мария Юльцова,F,60,59.9,Russia,,,,,,,,,,,125,132.5,135,135,,135,D,Raw,Yes,Amateur Open,34
2,Mariya Ogorodnikova,Мария Огородникова,F,60,59.7,Russia,,,,,,,,,,,125,-130,-132.5,125,,125,D,Raw,Yes,Amateur Open,35
3,Darya Chizhova,Дарья Чижова,F,60,59.7,Russia,,,,,,,,,,,100,110,117.5,117.5,,117.5,D,Raw,Yes,Amateur Open,26
4,Margarita Motalyga,Маргарита Моталыга,F,60,59.1,Russia,,,,,,,,,,,-92.5,95,-97.5,95,,95,D,Raw,Yes,Amateur Open,28
5,Irina Lukyanova,Ирина Лукьянова,F,60,57.9,Russia,,,,,,,,,,,90,92.5,-97.5,92.5,,92.5,D,Raw,Yes,Amateur Open,32
1,Natalya Kucherova,Наталья Кучерова,F,67.5,61.3,Russia,,,,,,,,,,,100,105,-117.5,105,,105,D,Raw,Yes,Amateur Open,42
1,Yuliya Makarova,Юлия Макарова,F,67.5,65.9,Russia,,,,,,,,,,,140,145,150,150,,150,D,Raw,Yes,Amateur Masters 45-49,47
1,Anastasiya Denisova,Анастасия Денисова,F,75,74.5,Russia,,,,,,,,,,,130,142.5,,142.5,,142.5,D,Raw,Yes,Amateur Open,29
2,Polina Orlova,Полина Орлова,F,75,73.6,Russia,,,,,,,,,,,110,120,125,125,,125,D,Raw,Yes,Amateur Open,33
DQ,Svetlana Murtuzalieva,Светлана Муртузалиева,F,75,73.5,Russia,,,,,,,,,,,-95,-95,-95,,,,D,Raw,Yes,Amateur Open,29
1,Anastasiya Li,Анастасия Ли,F,82.5,81.5,Russia,,,,,,,,,,,115,-120,-120,115,,115,D,Raw,Yes,Amateur Juniors 20-23,22
1,Elena Ilina,Елена Ильина,F,82.5,78.6,Russia,,,,,,,,,,,90,95,100,100,,100,D,Raw,Yes,Amateur Open,30
1,Viktor Kovachev,Виктор Ковачев,M,60,58.6,Russia,,,,,,,,,,,120,132.5,-140,132.5,,132.5,D,Raw,Yes,Amateur Teen 13-15,14
1,Egor Garashchuk,Егор Гаращук,M,60,59.7,Russia,,,,,,,,,,,-105,105,115,115,,115,D,Raw,Yes,Amateur Teen 18-19,18
1,Maksim Popov #1,Максим Попов,M,60,57.7,Russia,,,,,,,,,,,225,-232.5,-232.5,225,,225,D,Raw,Yes,Amateur Open,32
1,Petr Naumov,Петр Наумов,M,67.5,67.5,Russia,,,,,,,,,,,110,140,-160,140,,140,D,Raw,Yes,Amateur Masters 70-74,71
1,Yuriy Zubov,Юрий Зубов,M,67.5,67.2,Russia,,,,,,,,,,,150,155,160,160,,160,D,Raw,Yes,Amateur Masters,77
1,Denis Akinin,Денис Акинин,M,75,69.3,Russia,,,,,,,,,,,140,150,155,155,,155,D,Raw,Yes,Amateur Teen 16-17,17
1,Gleb Solodkov,Глеб Солодков,M,75,71.8,Russia,,,,,,,,,,,195,202.5,-210,202.5,,202.5,D,Raw,Yes,Amateur Teen 18-19,19
1,Mikhail Boganovskiy,Михаил Богановский,M,75,71.5,Russia,,,,,,,,,,,185,202.5,-210,202.5,,202.5,D,Raw,Yes,Amateur Juniors 20-23,20
2,Timofey Konchakov,Тимофей Кончаков,M,75,73,Russia,,,,,,,,,,,202.5,-207.5,-207.5,202.5,,202.5,D,Raw,Yes,Amateur Juniors 20-23,21
3,Eduard Lipchanskiy,Эдуард Липчанский,M,75,71.5,Russia,,,,,,,,,,,175,-182.5,-182.5,175,,175,D,Raw,Yes,Amateur Juniors 20-23,20
1,David Hodson,,M,75,74.5,UK,,,,,,,,,,,215,232.5,250,250,,250,D,Raw,Yes,Amateur Open,32
2,Evgeniy Shevchuk,Евгений Шевчук,M,75,74,Russia,,,,,,,,,,,190,202.5,210,210,,210,D,Raw,Yes,Amateur Open,24
3,Sergey Artyushenko,Сергей Артюшенко,M,75,74.3,Russia,,,,,,,,,,,177.5,202.5,-210,202.5,,202.5,D,Raw,Yes,Amateur Open,37
4,Yuriy Pokazanev,Юрий Показаньев,M,75,72.3,Russia,,,,,,,,,,,180,-192.5,-202.5,180,,180,D,Raw,Yes,Amateur Open,31
1,Mikhail Buyanov,Михаил Буянов,M,75,74,Russia,,,,,,,,,,,200,212.5,220,220,,220,D,Raw,Yes,Amateur Masters 40-44,42
2,Oleg Pavlushin,Олег Павлушин,M,75,72,Russia,,,,,,,,,,,150,160,165,165,,165,D,Raw,Yes,Amateur Masters 40-44,43
1,Aleksey Shalunov,Алексей Шалунов,M,75,73.7,Russia,,,,,,,,,,,180,185,-190,185,,185,D,Raw,Yes,Amateur Masters 45-49,47
2,Ivan Kopyrin,Иван Копырин,M,75,75,Russia,,,,,,,,,,,170,180,-187.5,180,,180,D,Raw,Yes,Amateur Masters 45-49,49
1,Andreyan Kharitonov,Андреян Харитонов,M,75,72.2,Russia,,,,,,,,,,,160,170,-185,170,,170,D,Raw,Yes,Amateur Masters 50-54,52
1,Nikolay Konstantinov,Николай Константинов,M,75,74.2,Russia,,,,,,,,,,,180,195,-205,195,,195,D,Raw,Yes,Amateur Masters 60-64,60
1,Aleksandr Dambinov,Александр Дамбинов,M,75,68.5,Russia,,,,,,,,,,,150,155,-160,155,,155,D,Raw,Yes,Amateur Masters,81
1,Nikita Kratt,Никита Кратт,M,82.5,80.8,Russia,,,,,,,,,,,202.5,212.5,222.5,222.5,,222.5,D,Raw,Yes,Amateur Teen 16-17,16
2,Dmitriy Vorobyov,Дмитрий Воробьёв,M,82.5,76.6,Russia,,,,,,,,,,,190,200,-205,200,,200,D,Raw,Yes,Amateur Teen 16-17,17
3,Maksim Shalunov,Максим Шалунов,M,82.5,79.5,Russia,,,,,,,,,,,-175,175,-180,175,,175,D,Raw,Yes,Amateur Teen 16-17,16
1,Bogdan Bachinskiy,Богдан Бачинский,M,82.5,78.7,Russia,,,,,,,,,,,195,205,215,215,,215,D,Raw,Yes,Amateur Teen 18-19,18
2,Evgeniy Pedurets,Евгений Пэдурец,M,82.5,79.8,Russia,,,,,,,,,,,170,190,-200,190,,190,D,Raw,Yes,Amateur Teen 18-19,18
3,Ramazan Yakubkhanov,Рамазан Якубханов,M,82.5,79.7,Russia,,,,,,,,,,,-107.5,107.5,-115,107.5,,107.5,D,Raw,Yes,Amateur Teen 18-19,18
1,Egor Korenkov,Егор Кореньков,M,82.5,81.5,Russia,,,,,,,,,,,210,222.5,235,235,,235,D,Raw,Yes,Amateur Juniors 20-23,20
2,Yuriy Klimanov,Юрий Климанов,M,82.5,82,Russia,,,,,,,,,,,192.5,205,-215,205,,205,D,Raw,Yes,Amateur Juniors 20-23,21
3,Andrey Vanyakin,Андрей Ванякин,M,82.5,79.5,Russia,,,,,,,,,,,150,162.5,172.5,172.5,,172.5,D,Raw,Yes,Amateur Juniors 20-23,22
1,Aleksandr Grechukhin,Александр Гречухин,M,82.5,81.9,Russia,,,,,,,,,,,230,-245,-245,230,,230,D,Raw,Yes,Amateur Open,27
2,Yuriy Nikitin,Юрий Никитин,M,82.5,78.8,Russia,,,,,,,,,,,215,220,-225,220,,220,D,Raw,Yes,Amateur Open,29
3,Oleg Ionov,Олег Ионов,M,82.5,77.1,Russia,,,,,,,,,,,215,-230,,215,,215,D,Raw,Yes,Amateur Open,33
4,Mikhail Kostikov,Михаил Костиков,M,82.5,81.7,Russia,,,,,,,,,,,177.5,-187.5,-187.5,177.5,,177.5,D,Raw,Yes,Amateur Open,41
1,Dmitriy Shapilov,Дмитрий Шапилов,M,82.5,81.3,Russia,,,,,,,,,,,-220,220,233,233,,232.5,D,Raw,Yes,Amateur Masters 40-44,41
1,Viktor Skokin,Виктор Скокин,M,82.5,79.8,Russia,,,,,,,,,,,180,190,205,205,,205,D,Raw,Yes,Amateur Masters 55-59,59
2,Vladimir Shchemelev,Владимир Щемелев,M,82.5,79.4,Russia,,,,,,,,,,,175,185,-200,185,,185,D,Raw,Yes,Amateur Masters 55-59,56
1,Aleksey Bender,Алексей Бендер,M,90,87.3,Russia,,,,,,,,,,,195,-207.5,-207.5,195,,195,D,Raw,Yes,Amateur Juniors 20-23,20
2,Aleksandr Bykanov,Александр Быканов,M,90,87.6,Russia,,,,,,,,,,,160,180,-195,180,,180,D,Raw,Yes,Amateur Juniors 20-23,22
1,Sergey Gorbunov,Сергей Горбунов,M,90,87.9,Russia,,,,,,,,,,,245,-250,-250,245,,245,D,Raw,Yes,Amateur Open,25
2,Viktor Chalenko,Виктор Чаленко,M,90,88.5,Russia,,,,,,,,,,,225,-235,235,235,,235,D,Raw,Yes,Amateur Open,29
3,Sergey Kravchenko,Сергей Кравченко,M,90,86.8,Russia,,,,,,,,,,,215,222.5,232.5,232.5,,232.5,D,Raw,Yes,Amateur Open,38
4,Sergey Romanko,Сергей Романько,M,90,85.5,Russia,,,,,,,,,,,210,222.5,230,230,,230,D,Raw,Yes,Amateur Open,33
5,Aleksey Gerasimov,Алексей Герасимов,M,90,88.7,Russia,,,,,,,,,,,195,210,222.5,222.5,,222.5,D,Raw,Yes,Amateur Open,26
6,Mikhail Sergeev,Михаил Сергеев,M,90,86.8,Russia,,,,,,,,,,,195,207.5,-222.5,207.5,,207.5,D,Raw,Yes,Amateur Open,26
7,Grigoriy Vovchenko,Григорий Вовченко,M,90,88.4,Russia,,,,,,,,,,,195,202.5,205,205,,205,D,Raw,Yes,Amateur Open,33
1,Vladimir Epifanov,Владимир Епифанов,M,90,88.3,Russia,,,,,,,,,,,200,215,-217.5,215,,215,D,Raw,Yes,Amateur Masters 45-49,46
1,Vadim Zaytsev,Вадим Зайцев,M,90,83.1,Russia,,,,,,,,,,,210,220,230,230,,230,D,Raw,Yes,Amateur Masters 55-59,56
2,Sergey Gnatyuk,Сергей Гнатюк,M,90,84.8,Russia,,,,,,,,,,,180,190,-195,190,,190,D,Raw,Yes,Amateur Masters 55-59,56
1,Nikolay Belokurov,Николай Белокуров,M,90,88.1,Russia,,,,,,,,,,,150,170,180,180,,180,D,Raw,Yes,Amateur Masters 60-64,61
1,Vyacheslav Chevordaev,Вячеслав Чевордаев,M,90,83.6,Russia,,,,,,,,,,,190,205,-210,205,,205,D,Raw,Yes,Amateur Masters 65-69,69
DQ,Sergey Gramotkin,Сергей Грамоткин,M,90,89.1,Russia,,,,,,,,,,,-200,-205,-210,,,,D,Raw,Yes,Amateur Masters 65-69,65
1,Nikita Akinshin,Никита Акиньшин,M,100,98.6,Russia,,,,,,,,,,,177.5,190,202.5,202.5,,202.5,D,Raw,Yes,Amateur Teen 18-19,19
1,Andrey Pisarev,Андрей Писарев,M,100,96.5,Russia,,,,,,,,,,,-250,-250,250,250,,250,D,Raw,Yes,Amateur Juniors 20-23,21
2,Aleksandr Klimanov,Александр Климанов,M,100,96.3,Russia,,,,,,,,,,,180,-192.5,-202.5,180,,180,D,Raw,Yes,Amateur Juniors 20-23,21
1,Pavel Papenkov,Павел Папенков,M,100,99.65,Russia,,,,,,,,,,,250,262.5,272.5,272.5,,272.5,D,Raw,Yes,Amateur Open,37
2,Ruslan Volkov,Руслан Волков,M,100,97,Russia,,,,,,,,,,,270,-280,-280,270,,270,D,Raw,Yes,Amateur Open,24
3,Mikhail Zhukov,Михаил Жуков,M,100,97.9,Russia,,,,,,,,,,,240,270,-280,270,,270,D,Raw,Yes,Amateur Open,30
4,Oleg Varvarin,Олег Варварин,M,100,95.4,Russia,,,,,,,,,,,250,260,267.5,267.5,,267.5,D,Raw,Yes,Amateur Open,31
5,Ivan Lakhanov,Иван Лаханов,M,100,96.3,Russia,,,,,,,,,,,217.5,232.5,-242.5,232.5,,232.5,D,Raw,Yes,Amateur Open,29
6,Evgeniy Filippin,Евгений Филиппин,M,100,97,Russia,,,,,,,,,,,205,232.5,-240,232.5,,232.5,D,Raw,Yes,Amateur Open,33
7,Daniil Kuligovskiy,Даниил Кулиговский,M,100,96.9,Russia,,,,,,,,,,,-202.5,202.5,210,210,,210,D,Raw,Yes,Amateur Open,18
DQ,Anton Kaftaylov,Антон Кафтайлов,M,100,98.6,Russia,,,,,,,,,,,-220,-220,,,,,D,Raw,Yes,Amateur Open,25
DQ,Lasha Roinishvili,Лаша Роинишвили,M,100,99.9,Russia,,,,,,,,,,,-270,-270,-270,,,,D,Raw,Yes,Amateur Open,25
1,Pavel Bychkov,Павел Бычков,M,100,96.3,Russia,,,,,,,,,,,235,250,-255,250,,250,D,Raw,Yes,Amateur Masters 40-44,41
1,Vladlen Gladchenko,Владлен Гладченко,M,100,99.2,Russia,,,,,,,,,,,202.5,210,215,215,,215,D,Raw,Yes,Amateur Masters 45-49,46
1,Igor Usachev,Игорь Усачев,M,100,95.7,Russia,,,,,,,,,,,190,200,210,210,,210,D,Raw,Yes,Amateur Masters 50-54,52
1,Innokentiy Makarov,Иннокентий Макаров,M,100,95.1,Russia,,,,,,,,,,,190,210,-232.5,210,,210,D,Raw,Yes,Amateur Masters 55-59,59
1,Petr Battakhov,Петр Баттахов,M,100,95.9,Russia,,,,,,,,,,,150,-200,,150,,150,D,Raw,Yes,Amateur Masters 65-69,65
1,Ilya Lisitskiy,Илья Лисицкий,M,110,100.8,Russia,,,,,,,,,,,200,215,225,225,,225,D,Raw,Yes,Amateur Juniors 20-23,23
1,Oleg Zakharov,Олег Захаров,M,110,108.7,Russia,,,,,,,,,,,260,280,-285,280,,280,D,Raw,Yes,Amateur Open,41
2,Nikita Tulyakov,Никита Туляков,M,110,109.2,Russia,,,,,,,,,,,250,262.5,275,275,,275,D,Raw,Yes,Amateur Open,29
3,Ruslan Kulebyakin,Руслан Кулебякин,M,110,108,Russia,,,,,,,,,,,250,260,-270,260,,260,D,Raw,Yes,Amateur Open,26
4,Sergey Shatokhin,Сергей Шатохин,M,110,106.1,Russia,,,,,,,,,,,207.5,227.5,240,240,,240,D,Raw,Yes,Amateur Open,32
5,Anton Gavrilenko,Антон Гавриленко,M,110,108.2,Russia,,,,,,,,,,,240,-260,-260,240,,240,D,Raw,Yes,Amateur Open,32
1,Aleksandr Smirnov,Александр Смирнов,M,110,109.3,Russia,,,,,,,,,,,220,-230,-230,220,,220,D,Raw,Yes,Amateur Masters 40-44,43
1,Evgeniy Prosolov,Евгений Просолов,M,110,102.7,Russia,,,,,,,,,,,220,230,-240,230,,230,D,Raw,Yes,Amateur Masters 45-49,49
2,Andrey Makarov,Андрей Макаров,M,110,102.1,Russia,,,,,,,,,,,190,200,-207.5,200,,200,D,Raw,Yes,Amateur Masters 45-49,47
1,Andrey Burakov,Андрей Бураков,M,110,104,Russia,,,,,,,,,,,-200,205,210,210,,210,D,Raw,Yes,Amateur Masters 55-59,58
1,Aleksey Averyanov,Алексей Аверьянов,M,125,112.6,Russia,,,,,,,,,,,270,-285,-285,270,,270,D,Raw,Yes,Amateur Juniors 20-23,23
1,Ilya Naroditskiy,Илья Народицкий,M,125,111,Russia,,,,,,,,,,,247.5,255,-262.5,255,,255,D,Raw,Yes,Amateur Open,27
2,Yuriy Konovalov,Юрий Коновалов,M,125,114.1,Russia,,,,,,,,,,,220,240,255,255,,255,D,Raw,Yes,Amateur Open,32
3,Ivan Tsygankov,Иван Цыганков,M,125,122.5,Russia,,,,,,,,,,,250,-260,-270,250,,250,D,Raw,Yes,Amateur Open,29
1,Nadezhda Stadnik,Надежда Стадник,F,60,58.4,Russia,,,,,,,,,,,135,145,-155,145,,145,D,Single-ply,Yes,Amateur Open,28
1,Denis Sevostyanov,Денис Севостьянов,M,67.5,66.7,Russia,,,,,,,,,,,175,190,-200,190,,190,D,Single-ply,Yes,Amateur Juniors 20-23,20
1,David Hodson,,M,75,74.5,UK,,,,,,,,,,,215,232.5,247.5,247.5,,247.5,D,Single-ply,Yes,Amateur Open,32
1,Igor Filippov,Игорь Филиппов,M,82.5,81.1,Russia,,,,,,,,,,,240,255,-267.5,255,,255,D,Single-ply,Yes,Amateur Open,32
1,Sergey Merzlikin,Сергей Мерзликин,M,100,94.8,Russia,,,,,,,,,,,220,230,240,240,,240,D,Single-ply,Yes,Amateur Open,34
1,Austin Hickey,,M,110,101.8,Ireland,,,,,,,,,,,240,265,,265,,265,D,Multi-ply,Yes,Amateur Open,37
