Place,Sex,Name,CyrillicName,BodyweightKg,Squat1Kg,Squat2Kg,Squat3Kg,Best3SquatKg,Squat4Kg,Bench1Kg,Bench2Kg,Bench3Kg,Best3BenchKg,Bench4Kg,Deadlift1Kg,Deadlift2Kg,Deadlift3Kg,Best3DeadliftKg,Deadlift4Kg,TotalKg,WeightClassKg,Event,Equipment,Tested,Division,Age,BirthDate
1,M,Evgeniy Seroshenko,Евгений Серошенко,105.1,-140,140,150,150,,125,135,-140,135,,125,135,175,175,,460,110,SBD,Raw,Yes,Open,27,1991-10-06
1,F,Olesya Skiba,Олеся Скиба,73.5,-105,-105,105,105,,50,55,60,60,,100,110,120,120,,285,75,SBD,Raw,No,Open,32,1986-11-17
1,M,Aleksandr Zubov,Александр Зубов,97,170,190,205,205,,120,135,145,145,,180,200,220,220,,570,100,SBD,Raw,No,Open,24,1994-08-28
1,M,Igor Tretyakov,Игорь Третьяков,95.7,90,100,-110,100,,70,-80,-80,70,,130,140,-150,140,,310,100,SBD,Raw,No,Masters 55-59,56,1962-07-14
1,M,Pavel Dedik,Павел Дедик,107.6,190,200,210,210,,137.5,145,-152.5,145,,235,245,-250,245,,600,110,SBD,Raw,No,Masters 40-44,44,1975-05-04
1,M,Vladimir Oleynikov,Владимир Олейников,71,160,-177.5,177.5,177.5,,100,-105,107.5,107.5,,200,215,-230,215,,500,75,SBD,Wraps,Yes,Open,31,1987-07-23
1,F,Marina Inkina,Марина Инкина,55.1,105,112.5,-117.5,112.5,,52.5,57.5,-60,57.5,,105,112.5,117.5,117.5,,287.5,56,SBD,Wraps,No,Open,36,1982-10-01
1,M,Igor Kuznetsov,Игорь Кузнецов,70.65,230,237.5,-245,237.5,,155,157.5,-160,157.5,,250,-260,,250,,645,75,SBD,Wraps,No,Open,29,1989-08-17
1,M,Artem Krylov,Артем Крылов,92,300,320,330,330,,180,187.5,190,190,,280,300,305,305,,825,100,SBD,Wraps,No,Open,28,1990-09-03
1,M,Dmitriy Pys,Дмитрий Пысь,120,320,340,350,350,,210,220,225,225,,310,320,327.5,327.5,,902.5,125,SBD,Wraps,No,Open,33,1986-05-04
1,M,Daniil Lobanov,Даниил Лобанов,93,250,-270,280,280,,-150,170,180,180,,240,-260,280,280,,740,100,SBD,Single-ply,No,Open,35,1984-01-23
1,M,Vadim Denisov,Вадим Денисов,89.7,225,-240,250,250,,180,-205,205,205,,-235,240,255,255,,710,90,SBD,Multi-ply,No,Open,29,1990-04-18
1,M,Evgeniy Dmitriev,Евгений Дмитриев,123.9,270,-290,300,300,,215,230,240,240,,240,-255,265,265,,805,125,SBD,Multi-ply,No,Masters 60-64,63,1955-08-18
1,F,Aleksandra Pankova,Александра Панкова,70.4,107.5,112.5,115,115,,,,,,,,,,,,115,75,S,Raw,Yes,Open,26,1992-09-29
DQ,M,Artyom Kopaygora,Артём Копайгора,86.9,-215,-215,-215,,,,,,,,,,,,,,90,S,Wraps,Yes,Open,28,1991-04-15
1,M,Vasiliy Lyashko,Василий Ляшко,108,265,280,-290,280,,,,,,,,,,,,280,110,S,Wraps,Yes,Open,36,1982-07-15
1,M,Aleksandr Boykov,Александр Бойков,66.75,,,,,,80,85,90,90,,,,,,,90,67.5,B,Raw,Yes,Teen 13-15,15,2004-05-19
1,M,Vladimir Abramov,Владимир Абрамов,66.65,,,,,,-107.5,107.5,115,115,,,,,,,115,67.5,B,Raw,Yes,Open,28,1991-03-25
1,M,Vyacheslav Demyanov,Вячеслав Демьянов,74,,,,,,-125,125,-135,125,,,,,,,125,75,B,Raw,Yes,Open,29,1990-03-15
1,M,Aleksey Vasilyaka,Алексей Василяка,81.35,,,,,,-120,120,-127.5,120,,,,,,,120,82.5,B,Raw,Yes,Masters 45-49,45,1973-12-11
1,M,Vitaliy Buts,Виталий Буц,87.8,,,,,,130,132.5,135,135,,,,,,,135,90,B,Raw,Yes,Open,31,1988-03-18
1,M,Yaroslav Gritsaenko,Ярослав Грицаенко,98.6,,,,,,-132.5,132.5,135,135,,,,,,,135,100,B,Raw,Yes,Masters 40-44,40,1978-12-30
1,M,Aleksandr Muratov,Александр Муратов,109.3,,,,,,167.5,175,177.5,177.5,,,,,,,177.5,110,B,Raw,Yes,Open,34,1984-11-15
1,F,Kristina Dyachenko,Кристина Дьяченко,51.85,,,,,,50,-55,-55,50,,,,,,,50,52,B,Raw,No,Open,25,1994-02-16
1,F,Natalya Lyashko,Наталья Ляшко,59,,,,,,60,67.5,-70,67.5,,,,,,,67.5,60,B,Raw,No,Open,33,1986-01-06
2,F,Khadizhat Bazanova,Хадижат Базанова,59,,,,,,40,-47.5,-47.5,40,,,,,,,40,60,B,Raw,No,Open,29,1989-09-18
1,M,Vadim Leshchenko,Вадим Лещенко,74.75,,,,,,130,-145,155,155,,,,,,,155,75,B,Raw,No,Juniors 20-23,22,1997-03-23
1,M,Aleksandr Podkopaev,Александр Подкопаев,79.65,,,,,,-167.5,172.5,-177.5,172.5,,,,,,,172.5,82.5,B,Raw,No,Juniors 20-23,22,1996-08-30
1,M,Pavel Fedosov,Павел Федосов,80.9,,,,,,160,-165,165,165,,,,,,,165,82.5,B,Raw,No,Open,27,1991-08-12
DQ,M,Roman Kulish,Роман Кулиш,81.7,,,,,,-155,-155,-155,,,,,,,,,82.5,B,Raw,No,Open,29,1989-08-18
1,M,Kirill Yasenok,Кирилл Ясенок,86.9,,,,,,170,-175,-175,170,,,,,,,170,90,B,Raw,No,Open,27,1992-03-26
2,M,Evgeniy Parkhomin,Евгений Пархомин,87.7,,,,,,-140,-145,145,145,,,,,,,145,90,B,Raw,No,Open,28,1990-08-14
1,M,Roman Nasonov,Роман Насонов,97.8,,,,,,175,-182.5,182.5,182.5,,,,,,,182.5,100,B,Raw,No,Open,28,1990-12-10
2,M,Igor Shalamay,Игорь Шаламай,97.5,,,,,,160,165,170,170,,,,,,,170,100,B,Raw,No,Open,29,1989-08-23
3,M,Sergey Fedorov #3,Сергей Федоров,94.5,,,,,,150,160,-165,160,,,,,,,160,100,B,Raw,No,Open,35,1984-03-17
1,M,Igor Tretyakov,Игорь Третьяков,95.7,,,,,,70,-80,-80,70,,,,,,,70,100,B,Raw,No,Masters 55-59,56,1962-07-14
1,M,Aleksandr Salenko,Александр Саленко,93.5,,,,,,165,-175,-175,165,,,,,,,165,100,B,Raw,No,Masters 45-49,45,1974-05-28
1,M,Bogdan Lapshin,Богдан Лапшин,108.9,,,,,,180,-192.5,-192.5,180,,,,,,,180,110,B,Raw,No,Open,27,1992-01-20
1,M,Yaroslav Zabolotniy,Ярослав Заболотний,119,,,,,,180,202.5,-210,202.5,,,,,,,202.5,125,B,Raw,No,Open,24,1995-06-02
2,M,Sergey Chubkov,Сергей Чубков,116.2,,,,,,-197.5,197.5,-202.5,197.5,,,,,,,197.5,125,B,Raw,No,Open,40,1979-05-03
1,M,Aleksandr Figer,Александр Фигер,74.5,,,,,,-160,170,180,180,,,,,,,180,75,B,Single-ply,No,Open,24,1995-01-18
1,M,Stanislav Denisenko,Станислав Денисенко,79.6,,,,,,170,-190,190,190,,,,,,,190,82.5,B,Single-ply,No,Open,25,1994-04-25
1,M,Sergey Vorobev,Сергей Воробьев,101,,,,,,212.5,-227.5,232.5,232.5,,,,,,,232.5,110,B,Single-ply,No,Open,27,1992-03-26
1,M,Anton Sosunkevich,Антон Сосункевич,124.2,,,,,,220,-240,250,250,,,,,,,250,125,B,Single-ply,No,Open,28,1990-07-29
DQ,M,Roman Kulish,Роман Кулиш,81.7,,,,,,-205,-205,-205,,,,,,,,,82.5,B,Multi-ply,No,Open,29,1989-08-18
1,M,Marat Yakupov,Марат Якупов,107.25,,,,,,245,-252.5,252.5,252.5,,,,,,,252.5,110,B,Multi-ply,No,Open,42,1977-05-06
1,F,Anna Shokhaeva,Анна Шохаева,55.9,,,,,,,,,,,90,100,-110,100,,100,56,D,Raw,Yes,Open,20,1998-12-14
1,F,Bella Stepkina,Бэлла Степкина,71,,,,,,,,,,,130,-140,-147.5,130,,130,75,D,Raw,Yes,Open,40,1978-10-22
1,M,Vladimir Abramov,Владимир Абрамов,66.65,,,,,,,,,,,-170,170,,170,,170,67.5,D,Raw,Yes,Open,28,1991-03-25
1,M,Aleksandr Vinogradskiy,Александр Виноградский,106.5,,,,,,,,,,,220,235,-247.5,235,,235,110,D,Raw,Yes,Open,26,1992-08-18
1,F,Olga Shilina,Ольга Шилина,51.8,,,,,,,,,,,120,130,135,135,,135,52,D,Raw,No,Open,36,1983-01-03
1,F,Inna Gusarova,Инна Гусарова,54.5,,,,,,,,,,,97.5,100,105,105,,105,56,D,Raw,No,Open,36,1983-04-30
1,F,Irina Burakova,Ирина Буракова,66.1,,,,,,,,,,,130,-145,160,160,,160,67.5,D,Raw,No,Open,34,1985-05-01
1,M,Igor Kuznetsov,Игорь Кузнецов,70.65,,,,,,,,,,,250,-260,,250,,250,75,D,Raw,No,Open,29,1989-08-17
1,M,Vladislav Annushkin,Владислав Аннушкин,79.9,,,,,,,,,,,210,227.5,-230,227.5,,227.5,82.5,D,Raw,No,Open,28,1990-11-06
2,M,Vladimir Shalyapin,Владимир Шаляпин,82.3,,,,,,,,,,,205,212.5,-217.5,212.5,,212.5,82.5,D,Raw,No,Open,34,1985-01-26
1,M,Nikita Penyaga,Никита Пеняга,89.9,,,,,,,,,,,160,170,180,180,,180,90,D,Raw,No,Juniors 20-23,21,1997-12-05
1,M,Sergey Makeev,Сергей Макеев,87.2,,,,,,,,,,,240,260,265,265,,265,90,D,Raw,No,Open,32,1986-08-17
1,M,Andrey Burov,Андрей Буров,87.9,,,,,,,,,,,160,170,175,175,,175,90,D,Raw,No,Masters 50-54,51,1967-12-13
DQ,M,Aleksey Kiselev,Алексей Киселев,98.15,,,,,,,,,,,-270,-270,,,,,100,D,Raw,No,Open,45,1974-04-27
1,M,Igor Tretyakov,Игорь Третьяков,95.7,,,,,,,,,,,130,140,-150,140,,140,100,D,Raw,No,Masters 55-59,56,1962-07-14
1,M,Marat Yakupov,Марат Якупов,109.8,,,,,,,,,,,-270,270,-280,270,,270,110,D,Raw,No,Masters 40-44,42,1977-05-06
1,M,Evgeniy Tkach,Евгений Ткач,118.3,,,,,,,,,,,205,212.5,217.5,217.5,,217.5,125,D,Raw,No,Masters 40-44,40,1978-08-18
