Sex,Name,CyrillicName,BodyweightKg,Squat1Kg,Squat2Kg,Squat3Kg,Best3SquatKg,Squat4Kg,Bench1Kg,Bench2Kg,Bench3Kg,Best3BenchKg,Bench4Kg,Deadlift1Kg,Deadlift2Kg,Deadlift3Kg,Best3DeadliftKg,Deadlift4Kg,TotalKg,WeightClassKg,Event,Equipment,Tested,Division,BirthDate,Place
F,Veronika Pavlenko,Вероника Павленко,48,85,-95,-95,85,,47.5,50,52.5,52.5,,85,92.5,-97.5,92.5,,230,48,SBD,Raw,No,Pro Teen 13-15,2003-10-14,1
F,Kseniya Polyanskaya,Ксения Полянская,47.6,85,92.5,-97.5,92.5,,52.5,-57.5,57.5,57.5,,125,135,-140,135,,285,48,SBD,Raw,No,Pro Open,1988-11-22,1
F,Veronika Pavlenko,Вероника Павленко,48,85,-95,-95,85,,47.5,50,52.5,52.5,,85,92.5,-97.5,92.5,,230,48,SBD,Raw,No,Pro Open,2003-10-14,2
F,Yuliya Chabannaya,Юлия Чабанная,52,80,85,-87.5,85,,45,50,52.5,52.5,,112.5,-122.5,122.5,122.5,,260,52,SBD,Raw,No,Pro Open,1986-02-12,1
F,Yuliya Lymar,Юлия Лымар,51.9,80,85,-90,85,,40,45,47.5,47.5,,120,-127.5,-132.5,120,,252.5,52,SBD,Raw,No,Pro Open,1991-10-15,2
F,Oksana Zhukova,Оксана Жукова,51,-72.5,80,-87.5,80,,55,-60,-60,55,,95,102.5,-110,102.5,,237.5,52,SBD,Raw,No,Pro Open,1984-07-06,3
F,Olga Gorbatyuk,Ольга Горбатюк,51.6,-92.5,-97.5,-97.5,,,-47.5,,,,,-97.5,,,,,,52,SBD,Raw,No,Pro Open,1991-01-06,DQ
F,Bozhena Lavrinenko,Божена Лавриненко,55.4,77.5,82.5,-87.5,82.5,,40,45,-47.5,45,,102.5,112.5,-122.5,112.5,,240,56,SBD,Raw,No,Pro Open,1983-07-26,1
F,Ekaterina Budakovskaya,Екатерина Будаковская,59.7,90,100,-105,100,,52.5,57.5,-60,57.5,,150,-160,-160,150,,307.5,60,SBD,Raw,No,Pro Open,1982-02-05,1
F,Oksana Khrabovskaya,Оксана Храбовская,74,120,130,-135,130,,60,65,-67.5,65,,120,132.5,140,140,,335,75,SBD,Raw,No,Pro Open,1974-11-08,1
F,Oksana Khrabovskaya,Оксана Храбовская,74,120,130,-135,130,,60,65,-67.5,65,,120,132.5,140,140,,335,75,SBD,Raw,No,Pro Masters 40-44,1974-11-08,1
M,Nikita Maksimov,Никита Максимов,73.3,90,100,105,105,,60,65,-70,65,,110,120,-125,120,,290,75,SBD,Raw,No,Pro Teen 16-17,2002-05-18,1
M,Vladimir Raskachnov,Владимир Раскачнов,78.8,160,170,-180,170,,120,-125,-127.5,120,,200,210,-220,210,,500,82.5,SBD,Raw,No,Pro Juniors 20-23,1996-04-27,2
M,Timofey Zhidkov,Тимофей Жидков,77.9,150,-160,160,160,,110,120,-125,120,,210,-230,-230,210,,490,82.5,SBD,Raw,No,Pro Open,1981-11-21,1
M,Andrey Nosenko,Андрей Носенко,78.3,130,145,160,160,,-105,110,-120,110,,160,180,-190,180,,450,82.5,SBD,Raw,No,Pro Open,1982-10-05,2
M,Sergey Sitalo,Сергей Ситало,86.6,155,162.5,-165,162.5,,120,127.5,130,130,,180,190,195,195,,487.5,90,SBD,Raw,No,Pro Open,1982-06-01,2
M,Igor Kozyubchenko,Игорь Козюбченко,98.5,205,215,225,225,,160,167.5,175,175,,215,-225,230,230,,630,100,SBD,Raw,No,Pro Open,1989-06-01,3
M,Vitaliy Makhnychev,Виталий Махнычев,98.2,195,200,-210,200,,120,-125,125,125,,210,230,,230,,555,100,SBD,Raw,No,Pro Open,1982-01-01,4
F,Svetlana Lupinogina,Светлана Лупиногина,52,95,102.5,-107.5,102.5,,52.5,57.5,-60,57.5,,120,127.5,-132.5,127.5,,287.5,52,SBD,Raw,No,Pro Open,1982-01-05,1
F,Oksana Pakhuchaya,Оксана Пахучая,55.3,95,105,110,110,,-45,45,50,50,,132.5,142.5,-145,142.5,,302.5,56,SBD,Raw,No,Pro Open,1978-09-19,1
F,Oksana Vasilchenko,Оксана Васильченко,58,-90,-100,-105,,,-40,,,,,-90,,,,,,60,SBD,Raw,No,Pro Teen 16-17,2002-06-02,DQ
M,Ruslan Kamalov,Руслан Камалов,91.8,215,230,240,240,,110,-122.5,122.5,122.5,,215,230,-240,230,,592.5,100,SBD,Raw,No,Pro Teen 18-19,1999-10-04,1
F,Veronika Pavlenko,Вероника Павленко,48,,,,,,47.5,50,52.5,52.5,,,,,,,52.5,48,B,Raw,No,Pro Teen 13-15,2003-10-14,1
F,Kseniya Polyanskaya,Ксения Полянская,47.6,,,,,,-52.5,57.5,-60,57.5,,,,,,,57.5,48,B,Raw,No,Pro Open,1988-11-22,1
F,Veronika Pavlenko,Вероника Павленко,48,,,,,,47.5,50,52.5,52.5,,,,,,,52.5,48,B,Raw,No,Pro Open,2003-10-14,2
F,Oksana Zhukova,Оксана Жукова,51,,,,,,57.5,-60,-60,57.5,,,,,,,57.5,52,B,Raw,No,Pro Open,1984-07-06,1
F,Marina Bakay,Марина Бакай,54.6,,,,,,-55,55,-62.5,55,,,,,,,55,56,B,Raw,No,Pro Open,1973-02-06,1
F,Elena Gorelova,Елена Горелова,60,,,,,,-50,-55,-55,,,,,,,,,60,B,Raw,No,Pro Open,1982-11-13,DQ
F,Gulbakhor Dzhalilova,Гулбахор Джалилова,64.8,,,,,,-55,-65,-65,,,,,,,,,67.5,B,Raw,No,Pro Juniors 20-23,1997-08-18,DQ
F,Olga Drozdova,Ольга Дроздова,61.1,,,,,,57.5,-62.5,-62.5,57.5,,,,,,,57.5,67.5,B,Raw,No,Pro Open,1992-08-07,1
M,Andrey Konko,Андрей Конько,63.5,,,,,,-80,-85,85,85,,,,,,,85,67.5,B,Raw,No,Pro Teen 13-15,2002-12-23,1
M,Artem Bobernaga,Артем Бобернага,65.6,,,,,,115,-120,-125,115,,,,,,,115,67.5,B,Raw,No,Pro Teen 16-17,2000-11-25,1
M,Nikolay Ponomarev,Николай Пономарев,75,,,,,,110,112.5,,112.5,,,,,,,112.5,75,B,Raw,No,Pro Teen 18-19,2000-01-08,1
M,Sergey Zubko,Сергей Зубко,72.7,,,,,,127.5,-135,140,140,,,,,,,140,75,B,Raw,No,Pro Juniors 20-23,1994-12-10,1
M,Andrey Shipov,Андрей Шипов,71.8,,,,,,125,-135,-140,125,,,,,,,125,75,B,Raw,No,Pro Juniors 20-23,1996-12-15,2
M,Viktor Garmatin,Виктор Гарматин,74,,,,,,135,-140,-140,135,,,,,,,135,75,B,Raw,No,Pro Open,1983-08-27,1
M,Gamzat Akhmedov,Гамзат Ахмедов,74,,,,,,110,-117.5,117.5,117.5,,,,,,,117.5,75,B,Raw,No,Pro Masters 40-44,1978-01-07,1
M,Vadim Vysotskiy,Вадим Высоцкий,80.8,,,,,,-160,165,-167.5,165,,,,,,,165,82.5,B,Raw,No,Pro Open,1984-11-12,1
M,Evgeniy Sivenko,Евгений Сивенко,81.4,,,,,,162.5,-167.5,-167.5,162.5,,,,,,,162.5,82.5,B,Raw,No,Pro Open,1987-10-10,2
M,Aleksandr Prokopenko,Александр Прокопенко,82.1,,,,,,150,157.5,-162.5,157.5,,,,,,,157.5,82.5,B,Raw,No,Pro Open,1988-11-18,3
M,Evgeniy Chistyakov,Евгений Чистяков,80.7,,,,,,120,-127.5,-132.5,120,,,,,,,120,82.5,B,Raw,No,Pro Open,1993-04-11,5
M,Konstantin Lebedev,Константин Лебедев,79.2,,,,,,-127.5,-127.5,-127.5,,,,,,,,,82.5,B,Raw,No,Pro Open,1987-02-03,DQ
M,Azamat Kulumbegov,Азамат Кулумбегов,89.9,,,,,,120,132.5,-135,132.5,,,,,,,132.5,90,B,Raw,No,Pro Juniors 20-23,1998-06-04,1
M,Damir Ishmametov,Дамир Ишмаметов,87.6,,,,,,110,-115,-115,110,,,,,,,110,90,B,Raw,No,Pro Open,1982-08-03,2
M,Igor Doronin,Игорь Доронин,97.5,,,,,,140,150,-157.5,150,,,,,,,150,100,B,Raw,No,Pro Open,1980-05-04,3
M,Grigoriy Kutsenko,Григорий Куценко,93.8,,,,,,130,135,140,140,,,,,,,140,100,B,Raw,No,Pro Open,1990-06-16,4
M,Maksim Uchaev,Максим Учаев,109.9,,,,,,150,160,167.5,167.5,,,,,,,167.5,110,B,Raw,No,Pro Open,1980-06-21,3
M,Viktor Aleynikov,Виктор Алейников,106.4,,,,,,-150,-150,,,,,,,,,,110,B,Raw,No,Pro Masters 40-44,1977-05-28,DQ
F,Kseniya Polyanskaya,Ксения Полянская,47.6,,,,,,,,,,,122.5,-132.5,,122.5,,122.5,48,D,Raw,No,Pro Open,1988-11-22,1
F,Veronika Orlova,Вероника Орлова,55.4,,,,,,,,,,,85,90,-95,90,,90,56,D,Raw,No,Pro Teen 18-19,1998-10-11,1
F,Oksana Pakhuchaya,Оксана Пахучая,55.3,,,,,,,,,,,130,140,,140,,140,56,D,Raw,No,Pro Open,1978-09-19,1
F,Bozhena Lavrinenko,Божена Лавриненко,55.4,,,,,,,,,,,102.5,112.5,-122.5,112.5,,112.5,56,D,Raw,No,Pro Open,1983-07-26,2
F,Yuliya Ageeva,Юлия Агеева,55.2,,,,,,,,,,,-110,110,-122.5,110,,110,56,D,Raw,No,Pro Open,1986-01-13,3
F,Ekaterina Budakovskaya,Екатерина Будаковская,59.7,,,,,,,,,,,140,150,-160,150,,150,60,D,Raw,No,Pro Open,1982-02-05,1
M,Zakhar Shishkin,Захар Шишкин,65.1,,,,,,,,,,,145,155,165,165,,165,67.5,D,Raw,No,Pro Open,1992-11-04,1
M,Daniil Pakhuchiy,Даниил Пахучий,71.9,,,,,,,,,,,157.5,167.5,-177.5,167.5,,167.5,75,D,Raw,No,Pro Teen 16-17,2001-09-12,1
M,Nikolay Ponomarev,Николай Пономарев,75,,,,,,,,,,,170,177.5,182.5,182.5,,182.5,75,D,Raw,No,Pro Teen 18-19,2000-01-08,1
M,Luka Aydinyan,Лука Айдинян,72.3,,,,,,,,,,,170,180,185,185,,185,75,D,Raw,No,Pro Juniors 20-23,1997-01-06,1
M,Artur Lepeshinskiy,Артур Лепешинский,74,,,,,,,,,,,-170,-170,-170,,,,75,D,Raw,No,Pro Open,1987-08-28,DQ
M,Georgiy Pyasetskiy,Георгий Пясецкий,82.3,,,,,,,,,,,202.5,212.5,215,215,,215,82.5,D,Raw,No,Pro Juniors 20-23,1995-02-23,1
M,Evgeniy Chistyakov,Евгений Чистяков,80.7,,,,,,,,,,,202.5,212.5,,212.5,,212.5,82.5,D,Raw,No,Pro Open,1993-04-11,3
M,Roman Borodin,Роман Бородин,82.4,,,,,,,,,,,185,202.5,-215,202.5,,202.5,82.5,D,Raw,No,Pro Open,1985-04-17,4
M,Sergey Plaksunov,Сергей Плаксунов,79.2,,,,,,,,,,,155,170,-180,170,,170,82.5,D,Raw,No,Pro Open,1984-02-06,5
M,Andrey Katretskiy,Андрей Катрецкий,88.4,,,,,,,,,,,200,210,215,215,,215,90,D,Raw,No,Pro Open,1981-07-25,1
M,Dmitriy Nosenko,Дмитрий Носенко,86.8,,,,,,,,,,,190,205,-215,205,,205,90,D,Raw,No,Pro Open,1976-10-12,2
M,Mikhail Kublikov,Михаил Кубликов,84,,,,,,,,,,,160,180,-195,180,,180,90,D,Raw,No,Pro Masters 45-49,1970-08-12,1
M,Vitaliy Makhnychev,Виталий Махнычев,98.2,,,,,,,,,,,220,235,240,240,,240,100,D,Raw,No,Pro Open,1982-01-01,1
M,Artur Fesenko,Артур Фесенко,97,,,,,,,,,,,210,222.5,-232.5,222.5,,222.5,100,D,Raw,No,Pro Open,1991-05-16,2
M,Aleksandr Sulatskiy,Александр Сулацкий,97.4,,,,,,,,,,,207.5,217.5,-232.5,217.5,,217.5,100,D,Raw,No,Pro Open,1985-12-13,3
M,Denis Katerinichev,Денис Катериничев,96.3,,,,,,,,,,,195,205,-212.5,205,,205,100,D,Raw,No,Pro Open,1989-03-02,4
M,Aleksandr Pakhuchiy,Александр Пахучий,109.3,,,,,,,,,,,280,300,-310,300,,300,110,D,Raw,No,Pro Open,1978-04-24,2
M,Viktor Popov,Виктор Попов,105.9,,,,,,,,,,,230,-240,-240,230,,230,110,D,Raw,No,Pro Open,1987-12-18,3
F,Svetlana Pyatygina,Светлана Пятыгина,67.1,-115,115,130,130,,70,77.5,82.5,82.5,,125,135,140,140,,352.5,67.5,SBD,Raw,No,Pro Open,1986-02-25,1
M,Daniil Fomin #2,Даниил Фомин,61.7,-120,125,-130,125,,65,70,-75,70,,135,140,-145,140,,335,67.5,SBD,Raw,No,Pro Teen 18-19,1999-06-03,1
M,Ildar Kuzyashev,Ильдар Кузяшев,81.8,130,140,150,150,,120,130,135,135,,140,150,160,160,,445,82.5,SBD,Raw,No,Pro Open,1987-03-16,3
M,Igor Kozlov #5,Игорь Козлов,99.2,210,225,235,235,,170,180,185,185,,265,275,280,280,,700,100,SBD,Raw,No,Pro Open,1979-02-12,2
F,Natalya Ivanova,Наталья Иванова,58.8,110,120,-125,120,,50,55,-60,55,,125,130,135,135,,310,60,SBD,Raw,No,Pro Open,1986-04-25,1
M,Maksim Tarasov,Максим Тарасов,76.8,210,225,250,250,,140,155,162.5,162.5,,215,225,235,235,,647.5,82.5,SBD,Raw,No,Pro Juniors 20-23,1997-05-14,1
M,Nikolay Klimov,Николай Климов,87.5,210,225,-232.5,225,,130,137.5,-142.5,137.5,,260,-275,-275,260,,622.5,90,SBD,Raw,No,Pro Open,1992-09-01,1
M,Andrey Filippov,Андрей Филиппов,90.7,-280,280,290,290,,-190,190,,190,,240,-260,,240,,720,100,SBD,Raw,No,Pro Open,1991-11-08,1
M,Vladimir Mashyanov,Владимир Машьянов,93.2,-195,205,-220,205,,135,-142.5,-142.5,135,,210,,,210,,550,100,SBD,Raw,No,Pro Open,1990-12-26,5
M,Kirill Tarasov,Кирилл Тарасов,95.7,-260,-260,-270,,,-160,,,,,-220,,,,,,100,SBD,Raw,No,Pro Open,1993-04-13,DQ
M,Yaroslav Shutyaev,Ярослав Шутяев,109.7,265,285,-292.5,285,,200,205,-207.5,205,,300,310,-315,310,,800,110,SBD,Raw,No,Pro Open,1990-05-13,1
M,Arkadiy Osaulenko,Аркадий Осауленко,80.6,,,,,,140,150,-160,150,,,,,,,150,82.5,B,Raw,No,Pro Open,1987-04-30,4
M,Aleksandr Yakovenko,Александр Яковенко,89,,,,,,-180,-180,180,180,,,,,,,180,90,B,Raw,No,Pro Open,1996-03-22,1
M,Kirill Tarasov,Кирилл Тарасов,95.7,,,,,,150,165,172.5,172.5,,,,,,,172.5,100,B,Raw,No,Pro Open,1993-04-13,1
M,Andrey Palagin,Андрей Палагин,96,,,,,,165,-172.5,-172.5,165,,,,,,,165,100,B,Raw,No,Pro Open,1980-01-03,2
M,Aleksey Saga,Алексей Сага,103.3,,,,,,-175,175,180,180,,,,,,,180,110,B,Raw,No,Pro Open,1982-10-11,1
M,Suren Nagabedyan,Сурен Нагабедян,109.4,,,,,,-165,170,-172.5,170,,,,,,,170,110,B,Raw,No,Pro Open,1980-02-09,2
M,Dmitriy Kovalev,Дмитрий Ковалев,113.4,,,,,,175,180,-182.5,180,,,,,,,180,125,B,Raw,No,Pro Juniors 20-23,1995-11-15,1
M,Vladimir Shulzhenko,Владимир Шульженко,113.4,,,,,,-130,135,-142.5,135,,,,,,,135,125,B,Raw,No,Pro Juniors 20-23,1997-12-24,2
M,Vadim Bespalov,Вадим Беспалов,115.9,,,,,,182.5,190,195,195,,,,,,,195,125,B,Raw,No,Pro Open,1979-04-20,1
M,Vladimir Zhabin,Владимир Жабин,91.7,,,,,,210,220,230,230,,,,,,,230,100,B,Unlimited,No,Pro Open,1980-06-27,1
M,Roman Eknadiosov,Роман Экнадиосов,94.6,,,,,,180,-190,-190,180,,,,,,,180,100,B,Unlimited,No,Pro Open,1991-09-07,2
F,Anastasiya Marchuk,Анастасия Марчук,51.1,,,,,,,,,,,125,-135,-135,125,,125,52,D,Raw,No,Pro Open,1992-02-04,1
M,Dmitriy Pavlov,Дмитрий Павлов,74.7,,,,,,,,,,,250,257.5,260,260,,260,75,D,Raw,No,Pro Open,1992-10-24,1
M,Anatoliy Gukov,Анатолий Гуков,82.5,,,,,,,,,,,210,222.5,235,235,,235,82.5,D,Raw,No,Pro Open,1992-03-17,1
M,Sergey Bulgakov,Сергей Булгаков,79.3,,,,,,,,,,,-220,220,-230,220,,220,82.5,D,Raw,No,Pro Open,1993-02-15,2
M,Aleksey Orlov,Алексей Орлов,87.3,,,,,,,,,,,250,265,270,270,,270,90,D,Raw,No,Pro Juniors 20-23,1995-07-25,1
M,Aleksandr Ilyutkin,Александр Илюткин,106.7,,,,,,,,,,,285,-300,300,300,,300,110,D,Raw,No,Pro Open,1993-02-03,1
M,Roman Khaustov,Роман Хаустов,88.3,,,,,,,,,,,280,295,305,305,,305,90,D,Single-ply,No,Pro Open,1983-04-30,1
