Name,CyrillicName,Division,BirthDate,BodyweightKg,WeightClassKg,Sex,Bench1Kg,Bench2Kg,Bench3Kg,Best3BenchKg,Deadlift1Kg,Deadlift2Kg,Deadlift3Kg,Best3DeadliftKg,TotalKg,Event,Equipment,Place
Avaz Abasov,Аваз Абасов,Pro Teen 13-15,1999-09-05,50.8,52,M,,,,,-145,145,-165,145,145,D,Single-ply,1
Georgiy Mashurov,Георгий Машуров,Pro Open,1982-11-05,81.2,82.5,M,,,,,200,220,-237.5,220,220,D,Single-ply,1
Vladimir Konopatskiy,Владимир Конопацкий,Pro Masters 40-44,1973-08-06,108.2,110,M,,,,,270,-287.5,295,295,295,D,Single-ply,1
Nadezhda Kozhevnikova,Надежда Кожевникова,Pro Teen 13-15,2000-01-03,48,48,F,,,,,70,72.5,75,75,75,D,Raw,1
Elena Girfanova,Елена Гирфанова,Pro Teen 13-15,2000-01-12,51.3,52,F,,,,,90,95,97.5,97.5,97.5,D,Raw,1
Anastasiya Ryzhkova,Анастасия Рыжкова,Pro Juniors 20-23,1994-03-14,50,52,F,,,,,80,90,-100,90,90,D,Raw,1
Anastasiya Ivanova,Анастасия Иванова,Pro Teen 16-17,1998-07-12,56,56,F,,,,,70,75,77.5,77.5,77.5,D,Raw,1
Polina Medvedeva,Полина Медведева,Pro Teen 18-19,1996-01-28,54.5,56,F,,,,,95,105,110,110,110,D,Raw,1
Anastasiya Kirillova,Анастасия Кириллова,Pro Juniors 20-23,1994-12-15,55.9,56,F,,,,,-100,105,-115,105,105,D,Raw,1
Anastasiya Ruzich,Анастасия Рузич,Pro Open,1991-07-01,54.9,56,F,,,,,-60,70,80,80,80,D,Raw,1
Darya Kuchma,Дарья Кучма,Pro Teen 13-15,2000-11-24,67.5,67.5,F,,,,,142.5,-147.5,-147.5,142.5,142.5,D,Raw,1
Tatyana Potapova,Татьяна Потапова,Pro Masters 40-44,1974-06-22,73.3,75,F,,,,,95,102.5,107.5,107.5,107.5,D,Raw,1
Nikita Fyodorov,Никита Фёдоров,Pro Teen 13-15,2002-06-09,41.2,52,M,,,,,50,55,60,60,60,D,Raw,1
Dmitriy Chagrinskiy,Дмитрий Чагринский,Pro Teen 16-17,1998-08-20,50.5,52,M,,,,,80,90,-105,90,90,D,Raw,1
Konstantin Kurbatov,Константин Курбатов,Pro Teen 13-15,2000-03-09,59.3,60,M,,,,,115,120,130,130,130,D,Raw,1
Nikolay Kuchma,Николай Кучма,Pro Teen 13-15,1999-12-28,67.4,67.5,M,,,,,-160,160,170,170,170,D,Raw,1
Egor Anoshkin,Егор Аношкин,Pro Teen 13-15,1999-12-06,60.5,67.5,M,,,,,125,132.5,-137.5,132.5,132.5,D,Raw,2
Ivan Shinkarenko,Иван Шинкаренко,Pro Teen 13-15,2000-08-24,60.5,67.5,M,,,,,110,120,130,130,130,D,Raw,3
Vladimir Rossol,Владимир Россоль,Pro Teen 13-15,2000-10-07,65.6,67.5,M,,,,,100,-115,120,120,120,D,Raw,4
Nikolay Golyshev,Николай Голышев,Pro Teen 18-19,1996-04-03,64.1,67.5,M,,,,,140,150,-160,150,150,D,Raw,1
Daniil Yasakov,Даниил Ясаков,Pro Teen 13-15,1999-12-24,73.5,75,M,,,,,160,-170,170,170,170,D,Raw,1
Dmitriy Antonov,Дмитрий Антонов,Pro Teen 18-19,1997-07-12,71.4,75,M,,,,,-195,205,-210,205,205,D,Raw,1
Nikolay Altunin,Николай Алтунин,Pro Open,1977-07-24,72.6,75,M,,,,,220,-227.5,-227.5,220,220,D,Raw,1
Stanislav Isakov,Станислав Исаков,Pro Open,1991-07-27,72.9,75,M,,,,,160,170,-180,170,170,D,Raw,2
Andrey Dvurechenskiy,Андрей Двуреченский,Pro Teen 13-15,2000-09-17,81.2,82.5,M,,,,,190,200,210,210,210,D,Raw,1
Pavel Tushin,Павел Тушин,Pro Teen 16-17,1998-01-09,80.2,82.5,M,,,,,190,205,210,210,210,D,Raw,1
Daniil Mikhaylov,Даниил Михайлов,Pro Teen 16-17,1997-12-13,78.9,82.5,M,,,,,150,160,-172.5,160,160,D,Raw,2
Vladislav Kologorov,Владислав Кологоров,Pro Teen 18-19,1995-12-01,80.6,82.5,M,,,,,215,225,-230,225,225,D,Raw,1
Daniil Shestov,Даниил Шестов,Pro Teen 18-19,1996-03-08,79,82.5,M,,,,,-190,190,-210,190,190,D,Raw,2
Georgiy Mashurov,Георгий Машуров,Pro Open,1982-11-05,81.2,82.5,M,,,,,210,225,-230,225,225,D,Raw,1
Yuriy Prokhorov,Юрий Прохоров,Pro Open,1989-08-17,81.2,82.5,M,,,,,130,-140,-140,130,130,D,Raw,2
Dmitriy Bichul,Дмитрий Бичуль,Pro Teen 16-17,1997-10-16,86.1,90,M,,,,,-150,165,180,180,180,D,Raw,1
Maksim Sasin,Максим Сасин,Pro Teen 16-17,1998-07-18,88.7,90,M,,,,,150,165,175,175,175,D,Raw,2
Dmitriy Ruzich,Дмитрий Рузич,Pro Open,1987-04-22,83.2,90,M,,,,,150,165,180,180,180,D,Raw,1
Aleksandr Mavrinskiy,Александр Мавринский,Pro Open,1982-11-22,98.3,100,M,,,,,280,300,-305,300,300,D,Raw,1
Oleg Mardanov,Олег Марданов,Pro Open,1985-07-02,99,100,M,,,,,-240,250,255,255,255,D,Raw,2
Aleksey Kutukov,Алексей Кутуков,Pro Open,1982-08-01,94.7,100,M,,,,,240,250,-255,250,250,D,Raw,3
Dmitriy Khoroshilov,Дмитрий Хорошилов,Pro Teen 16-17,1999-05-14,104.1,110,M,,,,,-185,-190,-190,,,D,Raw,DQ
Denis Lyovin,Денис Лёвин,Pro Open,1989-11-11,109.9,110,M,,,,,150,,,150,150,D,Raw,1
Vitaliy Nikolaev,Виталий Николаев,Pro Open,1983-12-15,112.5,125,M,,,,,280,300,310,310,310,D,Raw,1
Aleksey Popov,Алексей Попов,Pro Open,1986-12-26,80.4,82.5,M,-180,180,192.5,192.5,,,,,192.5,B,Multi-ply,1
Pavel Dvoryadkin,Павел Дворядкин,Pro Open,1986-07-17,84.5,90,M,200,220,230,230,,,,,230,B,Single-ply,1
Vladimir Konopatskiy,Владимир Конопацкий,Pro Masters 40-44,1973-08-06,108.2,110,M,235,245,-252.5,245,,,,,245,B,Single-ply,1
Aleksey Kuchma,Алексей Кучма,Pro Open,1979-01-04,116.4,125,M,250,262.5,270,270,,,,,270,B,Single-ply,1
Nadezhda Kozhevnikova,Надежда Кожевникова,Pro Teen 13-15,2000-01-03,48,48,F,42.5,45,-47.5,45,,,,,45,B,Raw,1
Anastasiya Ryzhkova,Анастасия Рыжкова,Pro Juniors 20-23,1994-03-14,50,52,F,35,-40,40,40,,,,,40,B,Raw,1
Anastasiya Ivanova,Анастасия Иванова,Pro Teen 16-17,1998-07-12,56,56,F,40,42.5,45,45,,,,,45,B,Raw,1
Ekaterina Gorbunova,Екатерина Горбунова,Pro Teen 16-17,1997-10-23,53.1,56,F,35,40,-42.5,40,,,,,40,B,Raw,2
Polina Medvedeva,Полина Медведева,Pro Teen 18-19,1996-01-28,54.5,56,F,40,-45,45,45,,,,,45,B,Raw,1
Yuliya Izyumova,Юлия Изюмова,Pro Open,1989-07-08,54.2,56,F,50,-52.5,52.5,52.5,,,,,52.5,B,Raw,1
Irina Zharenova,Ирина Жаренова,Pro Open,1984-01-29,52.1,56,F,-40,40,-55,40,,,,,40,B,Raw,2
Anastasiya Ruzich,Анастасия Рузич,Pro Open,1991-07-01,54.9,56,F,30,35,-40,35,,,,,35,B,Raw,3
Yana Rekechinskaya,Яна Рекечинская,Pro Open,1990-05-09,58.4,60,F,32.5,37.5,40,40,,,,,40,B,Raw,1
Lidiya Yarkovaya,Лидия Ярковая,Pro Open,1982-01-18,70.5,75,F,50,55,-60,55,,,,,55,B,Raw,1
Artak Avetisyan,Артак Аветисян,Pro Teen 13-15,2000-06-17,51.1,52,M,40,45,-50,45,,,,,45,B,Raw,1
Gleb Kharitonov,Глеб Харитонов,Pro Teen 13-15,2000-09-08,53.8,56,M,42.5,-47.5,50,50,,,,,50,B,Raw,1
Egor Anoshkin,Егор Аношкин,Pro Teen 13-15,1999-12-06,60.5,67.5,M,65,70,75,75,,,,,75,B,Raw,1
Nikolay Golyshev,Николай Голышев,Pro Teen 18-19,1996-04-03,64.1,67.5,M,90,-95,-95,90,,,,,90,B,Raw,1
Ulugbek Boboev,Улугбек Бобоев,Pro Juniors 20-23,1992-04-10,66.1,67.5,M,-125,125,-127.5,125,,,,,125,B,Raw,1
Aleksandr Gorbunov,Александр Горбунов,Pro Juniors 20-23,1992-08-17,63.8,67.5,M,-105,105,-107.5,105,,,,,105,B,Raw,2
Stanislav Isakov,Станислав Исаков,Pro Open,1991-07-27,72.9,75,M,135,142.5,-150,142.5,,,,,142.5,B,Raw,1
Dmitriy Ezhelev,Дмитрий Ежелев,Pro Open,1991-03-31,74,75,M,140,-150,-150,140,,,,,140,B,Raw,2
Ilya Simkovich,Илья Симкович,Pro Open,1988-07-29,74.9,75,M,105,112.5,120,120,,,,,120,B,Raw,3
Dmiriy Zhuravlyov,Дмирий Журавлёв,Pro Teen 13-15,2001-02-27,81.6,82.5,M,55,62.5,-70,62.5,,,,,62.5,B,Raw,1
Nikolay Ryazantsev,Николай Рязанцев,Pro Teen 16-17,1998-01-30,80.8,82.5,M,105,115,-117.5,115,,,,,115,B,Raw,1
Daniil Mikhaylov,Даниил Михайлов,Pro Teen 16-17,1997-12-13,78.9,82.5,M,100,107.5,112.5,112.5,,,,,112.5,B,Raw,2
Daniil Shestov,Даниил Шестов,Pro Teen 18-19,1996-03-08,79,82.5,M,140,145,147.5,147.5,,,,,147.5,B,Raw,1
Vladislav Kologorov,Владислав Кологоров,Pro Teen 18-19,1995-12-01,80.6,82.5,M,115,120,-125,120,,,,,120,B,Raw,2
Evgeniy Sevryukov,Евгений Севрюков,Pro Open,1991-07-08,75.9,82.5,M,150,160,170,170,,,,,170,B,Raw,1
Aleksey Popov,Алексей Попов,Pro Open,1986-12-26,80.4,82.5,M,150,160,167.5,167.5,,,,,167.5,B,Raw,2
Mikhail Bulgakov,Михаил Булгаков,Pro Open,1990-09-13,80.4,82.5,M,132.5,140,147.5,147.5,,,,,147.5,B,Raw,3
Igor Guseynov,Игорь Гусейнов,Pro Open,1988-05-06,81.8,82.5,M,-147.5,147.5,-152.5,147.5,,,,,147.5,B,Raw,4
Georgiy Mashurov,Георгий Машуров,Pro Open,1982-11-05,81.2,82.5,M,137.5,140,,140,,,,,140,B,Raw,5
Dmitriy Pimenov,Дмитрий Пименов,Pro Open,1990-01-31,82.3,82.5,M,-110,110,-120,110,,,,,110,B,Raw,6
Aleksey Antonov,Алексей Антонов,Pro Juniors 20-23,1992-08-26,90,90,M,150,160,-180,160,,,,,160,B,Raw,1
Andrey Zharenov,Андрей Жаренов,Pro Open,1988-06-27,90,90,M,200,210,,210,,,,,210,B,Raw,1
Ruslan Kadyrov,Руслан Кадыров,Pro Open,1988-02-16,88.9,90,M,170,180,190,190,,,,,190,B,Raw,2
Ildar Slaev,Ильдар Слаев,Pro Open,1987-05-19,89.6,90,M,160,-180,180,180,,,,,180,B,Raw,3
Pavel Dvoryadkin,Павел Дворядкин,Pro Open,1986-07-17,84.5,90,M,160,-170,170,170,,,,,170,B,Raw,4
Konstantin Bochkarev,Константин Бочкарев,Pro Open,1979-02-06,90,90,M,160,-180,-180,160,,,,,160,B,Raw,5
Aleksandr Polyanskiy,Александр Полянский,Pro Open,1989-02-09,89.1,90,M,140,145,-147.5,145,,,,,145,B,Raw,6
Mikhail Shchankin,Михаил Щанькин,Pro Masters 40-44,1975-04-22,88.6,90,M,160,165,167.5,167.5,,,,,167.5,B,Raw,1
Vadim Chernykh,Вадим Черных,Pro Teen 16-17,1997-11-16,93.6,100,M,160,-170,-180,160,,,,,160,B,Raw,1
Dmitriy Ivanov,Дмитрий Иванов,Pro Open,1985-08-18,95,100,M,160,190,,190,,,,,190,B,Raw,1
Aleksey Kutukov,Алексей Кутуков,Pro Open,1982-08-01,94.7,100,M,165,170,175,175,,,,,175,B,Raw,2
Aleksandr Marants,Александр Маранц,Pro Open,1986-12-23,94.1,100,M,130,137.5,142.5,142.5,,,,,142.5,B,Raw,3
Dmitriy Khoroshilov,Дмитрий Хорошилов,Pro Teen 16-17,1999-05-14,104.1,110,M,100,105,-110,105,,,,,105,B,Raw,1
Ruslan Glebchev,Руслан Глебчев,Pro Juniors 20-23,1995-03-16,102.4,110,M,120,140,-150,140,,,,,140,B,Raw,1
Vladislav Kryuchkov,Владислав Крючков,Pro Open,1982-12-03,100.7,110,M,170,185,-192.5,185,,,,,185,B,Raw,1
Denis Lyovin,Денис Лёвин,Pro Open,1989-11-11,109.9,110,M,140,160,-180,160,,,,,160,B,Raw,2
Viktor Gruntov,Виктор Грунтов,Pro Masters 40-44,1972-05-27,108.8,110,M,197.5,-202.5,,197.5,,,,,197.5,B,Raw,1
Dmitriy Poltoratskiy,Дмитрий Полторацкий,Pro Juniors 20-23,1992-10-19,113.7,125,M,-130,140,-145,140,,,,,140,B,Raw,1
Evgeniy Sokolov,Евгений Соколов,Pro Open,1984-07-21,110.7,125,M,140,145,-150,145,,,,,145,B,Raw,1
Nikolay Utenkov,Николай Утенков,Pro Masters 45-49,1967-06-07,124.4,125,M,120,-130,-130,120,,,,,120,B,Raw,1
