Place,Name,Division,BirthYear,BodyweightKg,Bench1Kg,Bench2Kg,Bench3Kg,Best3BenchKg,Bench4Kg,WeightClassKg,Sex,CyrillicName,Tested,Equipment,Deadlift1Kg,Deadlift2Kg,Deadlift3Kg,Best3DeadliftKg,Deadlift4Kg,Event,TotalKg,Squat1Kg,Squat2Kg,Squat3Kg,Best3SquatKg,Squat4Kg
1,Natalya Savelyeva,Amateur Juniors 20-23,1991,43.5,40,-47.5,-47.5,40,,44,F,Наталья Савельева,Yes,Raw,,,,,,B,40,,,,,
1,Yuliya Murasheva,Amateur Open,1970,43.3,72.5,-75,75,75,,44,F,Юлия Мурашева,Yes,Raw,,,,,,B,75,,,,,
1,Viktoriya Yultsova,Amateur Teen 13-15,2002,48,62.5,67.5,-70,67.5,,48,F,Виктория Юльцова,Yes,Raw,,,,,,B,67.5,,,,,
1,Alina Shestiglazova,Amateur Teen 18-19,1995,47.4,40,-45,-45,40,,48,F,Алина Шестиглазова,Yes,Raw,,,,,,B,40,,,,,
1,Viktoriya Klementyeva,Amateur Juniors 20-23,1994,47.6,52.5,55,-57.5,55,,48,F,Виктория Клементьева,Yes,Raw,,,,,,B,55,,,,,
1,Viktoriya Yultsova,Amateur Open,2002,48,62.5,67.5,70,70,,48,F,Виктория Юльцова,Yes,Raw,,,,,,B,70,,,,,
2,Tatyana Primak,Amateur Open,1983,48,52.5,57.5,-60,57.5,,48,F,Татьяна Примак,Yes,Raw,,,,,,B,57.5,,,,,
3,Anastasiya Popkova,Amateur Open,1989,47.1,45,-52.5,-52.5,45,,48,F,Анастасия Попкова,Yes,Raw,,,,,,B,45,,,,,
1,Margarita Ryabchikova,Amateur Juniors 20-23,1994,52,60,-62.5,-62.5,60,,52,F,Маргарита Рябчикова,Yes,Raw,,,,,,B,60,,,,,
2,Izabel Botasheva,Amateur Juniors 20-23,1992,50.7,-45,47.5,50,50,,52,F,Изабель Боташева,Yes,Raw,,,,,,B,50,,,,,
3,Kseniya Zimina,Amateur Juniors 20-23,1991,51.5,-42.5,42.5,-50,42.5,,52,F,Ксения Зимина,Yes,Raw,,,,,,B,42.5,,,,,
1,Ekaterina Ryabchikova,Amateur Open,1988,51.2,42.5,45,-47.5,45,,52,F,Екатерина Рябчикова,Yes,Raw,,,,,,B,45,,,,,
1,Vasilisa Dudareva,Amateur Teen 16-17,1997,55.4,55,60,-62.5,60,,56,F,Василиса Дударева,Yes,Raw,,,,,,B,60,,,,,
1,Margarita Mishlova,Amateur Juniors 20-23,1994,54,57.5,62.5,-65,62.5,,56,F,Маргарита Мишлова,Yes,Raw,,,,,,B,62.5,,,,,
2,Taisiya Novikova,Amateur Juniors 20-23,1994,52.9,37.5,42.5,47.5,47.5,,56,F,Таисия Новикова,Yes,Raw,,,,,,B,47.5,,,,,
3,Kseniya Gavrilenko,Amateur Juniors 20-23,1992,55.1,25,27.5,-30,27.5,,56,F,Ксения Гавриленко,Yes,Raw,,,,,,B,27.5,,,,,
1,Tatyana Krotova,Amateur Open,1986,55.3,60,65,70,70,,56,F,Татьяна Кротова,Yes,Raw,,,,,,B,70,,,,,
2,Ekaterina Ilinskaya,Amateur Open,1988,55.7,67.5,70,-72.5,70,,56,F,Екатерина Ильинская,Yes,Raw,,,,,,B,70,,,,,
3,Yuliya Arsentyeva,Amateur Open,1990,55.9,57.5,-62.5,-62.5,57.5,,56,F,Юлия Арсентьева,Yes,Raw,,,,,,B,57.5,,,,,
4,Irina Ulyanova,Amateur Open,1986,52.9,55,-57.5,-57.5,55,,56,F,Ирина Ульянова,Yes,Raw,,,,,,B,55,,,,,
2,Ekaterina Mansurova,Amateur Open,1980,55.7,50,-55,-55,50,,56,F,Екатерина Мансурова,Yes,Raw,,,,,,B,50,,,,,
1,Nataliya Sorochinskaya,Amateur Masters 40-44,1974,54.9,60,62.5,-67.5,62.5,,56,F,Наталия Сорочинская,Yes,Raw,,,,,,B,62.5,,,,,
2,Olga Pavlova,Amateur Masters 40-44,1974,54.8,-42.5,42.5,-45,42.5,,56,F,Ольга Павлова,Yes,Raw,,,,,,B,42.5,,,,,
1,Irina Trefilova,Amateur Masters 50-54,1962,54.9,-42.5,42.5,-47.5,42.5,,56,F,Ирина Трефилова,Yes,Raw,,,,,,B,42.5,,,,,
1,Raisa Sharueva,Amateur Open,1983,58.9,60,65,67.5,67.5,,60,F,Раиса Шаруева,Yes,Raw,,,,,,B,67.5,,,,,
2,Galina Lazareva,Amateur Open,1983,59.4,-65,65,-67.5,65,,60,F,Галина Лазарева,Yes,Raw,,,,,,B,65,,,,,
3,Marina Antropova,Amateur Open,1981,57.1,52.5,55,-57.5,55,,60,F,Марина Антропова,Yes,Raw,,,,,,B,55,,,,,
4,Svetlana Cherkasova,Amateur Open,1989,58,52.5,-57.5,-57.5,52.5,,60,F,Светлана Черкасова,Yes,Raw,,,,,,B,52.5,,,,,
5,Olga Krichmar,Amateur Open,1982,58.9,52.5,-55,-55,52.5,,60,F,Ольга Кричмар,Yes,Raw,,,,,,B,52.5,,,,,
1,Marina Lukyanova,Amateur Masters 40-44,1972,59.7,80,-85,90,90,,60,F,Марина Лукьянова,Yes,Raw,,,,,,B,90,,,,,
1,Mariya Tsyganok,Amateur Juniors 20-23,1995,65.3,65,72.5,75,75,,67.5,F,Мария Цыганок,Yes,Raw,,,,,,B,75,,,,,
1,Yuliya Kuznetsova,Amateur Open,1973,65.5,90,95,-98,95,,67.5,F,Юлия Кузнецова,Yes,Raw,,,,,,B,95,,,,,
2,Svetlana Grigoryeva,Amateur Open,1982,66.9,60,-65,-65,60,,67.5,F,Светлана Григорьева,Yes,Raw,,,,,,B,60,,,,,
3,Lyudmila Moskvicheva,Amateur Open,1991,66.2,50,55,-60,55,,67.5,F,Людмила Москвичева,Yes,Raw,,,,,,B,55,,,,,
1,Elena Vinogradova,Amateur Masters 50-54,1963,67.5,40,45,-47.5,45,,67.5,F,Елена Виноградова,Yes,Raw,,,,,,B,45,,,,,
1,Marina Zoschik,Amateur Open,1976,72.6,77.5,80,-85,80,,75,F,Марина Зощик,Yes,Raw,,,,,,B,80,,,,,
2,Anna Karachanskaya,Amateur Open,1979,71.7,65,70,-75,70,,75,F,Анна Карачанская,Yes,Raw,,,,,,B,70,,,,,
DQ,Angelina Shitova,Amateur Open,1985,75,-50,-50,-50,,,75,F,Ангелина Шитова,Yes,Raw,,,,,,B,,,,,,
DQ,Evgeniya Antonenko,Amateur Juniors 20-23,1994,89.8,-95,,,,,90,F,Евгения Антоненко,Yes,Raw,,,,,,B,,,,,,
1,Natalya Tyulyukova,Amateur Open,1979,86.5,-57.5,-60,60,60,,90,F,Наталья Тюлюкова,Yes,Raw,,,,,,B,60,,,,,
1,Tatyana Sivkovich,Amateur Masters 45-49,1965,101.8,75,-80,80,80,,90+,F,Татьяна Сивкович,Yes,Raw,,,,,,B,80,,,,,
1,Fedor Zakharov,Amateur Teen 13-15,1999,55,80,-85,-90,80,,56,M,Федор Захаров,Yes,Raw,,,,,,B,80,,,,,
1,Oleg Vaschenko,Amateur Open,1980,54.8,82.5,90,,90,,56,M,Олег Ващенко,Yes,Raw,,,,,,B,90,,,,,
1,Daniil Ershov,Amateur Teen 13-15,2000,60,70,75,-77.5,75,,60,M,Даниил Ершов,Yes,Raw,,,,,,B,75,,,,,
1,Vladimir Domnin,Amateur Teen 18-19,1995,58.4,90,95,-100,95,,60,M,Владимир Домнин,Yes,Raw,,,,,,B,95,,,,,
1,Vazgen Baloyan,Amateur Teen 13-15,2000,65.2,75,80,85,85,,67.5,M,Вазген Балоян,Yes,Raw,,,,,,B,85,,,,,
1,Aleksandr Karavaev,Amateur Teen 16-17,1998,65.5,-70,-75,75,75,,67.5,M,Александр Караваев,Yes,Raw,,,,,,B,75,,,,,
1,Aleksey Kolosov,Amateur Juniors 20-23,1993,66.3,-120,120,125,125,,67.5,M,Алексей Колосов,Yes,Raw,,,,,,B,125,,,,,
2,Andrey Merkulov,Amateur Juniors 20-23,1992,65.1,75,-87.5,-87.5,75,,67.5,M,Андрей Меркулов,Yes,Raw,,,,,,B,75,,,,,
1,Dmitriy Mitin,Amateur Open,1984,67,135,-140,-140,135,,67.5,M,Дмитрий Митин,Yes,Raw,,,,,,B,135,,,,,
2,Nikita Samokhvalov,Amateur Open,1988,63.8,127.5,132.5,-137.5,132.5,,67.5,M,Никита Самохвалов,Yes,Raw,,,,,,B,132.5,,,,,
3,Ivan Ratnykh,Amateur Open,1984,67.1,115,-125,125,125,,67.5,M,Иван Ратных,Yes,Raw,,,,,,B,125,,,,,
4,Aleksandr Fomichev #3,Amateur Open,1990,67.4,107.5,-112.5,112.5,112.5,,67.5,M,Александр Фомичев,Yes,Raw,,,,,,B,112.5,,,,,
5,Dmitriy Shesterov,Amateur Open,1987,67.5,107.5,-110,110,110,,67.5,M,Дмитрий Шестеров,Yes,Raw,,,,,,B,110,,,,,
6,Nikolay Novikov,Amateur Open,1987,63.3,102.5,107.5,-110,107.5,,67.5,M,Николай Новиков,Yes,Raw,,,,,,B,107.5,,,,,
1,Evgeniy Gorshkov,Amateur Teen 13-15,1999,75,-90,90,-100,90,,75,M,Евгений Горшков,Yes,Raw,,,,,,B,90,,,,,
1,Dmitriy Sataev,Amateur Teen 16-17,1997,71.5,-105,105,-117.5,105,,75,M,Дмитрий Сатаев,Yes,Raw,,,,,,B,105,,,,,
2,Maksim Kamenschikov,Amateur Teen 16-17,1997,73.1,105,-117.5,-117.5,105,,75,M,Максим Каменьщиков,Yes,Raw,,,,,,B,105,,,,,
3,Kirill Zhuravlev,Amateur Teen 16-17,1997,71.1,-82.5,-82.5,82.5,82.5,,75,M,Кирилл Журавлев,Yes,Raw,,,,,,B,82.5,,,,,
1,Daniil Arzhakov,Amateur Teen 18-19,1995,74.6,-142.5,-145,145,145,-152.5,75,M,Даниил Аржаков,Yes,Raw,,,,,,B,145,,,,,
2,Dmitriy Karpenkov,Amateur Teen 18-19,1996,74,107.5,112.5,117.5,117.5,,75,M,Дмитрий Карпенков,Yes,Raw,,,,,,B,117.5,,,,,
3,Valentin Snisar,Amateur Teen 18-19,1995,69.6,-105,105,-117.5,105,,75,M,Валентин Снисарь,Yes,Raw,,,,,,B,105,,,,,
4,Stepan Aniskin,Amateur Teen 18-19,1995,73.5,-85,90,-95,90,,75,M,Степан Анискин,Yes,Raw,,,,,,B,90,,,,,
DQ,Dmitriy Grishanin,Amateur Teen 18-19,1996,71.4,-107.5,-107.5,-107.5,,,75,M,Дмитрий Гришанин,Yes,Raw,,,,,,B,,,,,,
1,Mikhail Bezin,Amateur Juniors 20-23,1993,73.6,130,135,140,140,,75,M,Михаил Безин,Yes,Raw,,,,,,B,140,,,,,
2,Andrey Dezhin,Amateur Juniors 20-23,1992,74.2,125,132.5,-137.5,132.5,,75,M,Андрей Дежин,Yes,Raw,,,,,,B,132.5,,,,,
3,David Davtyan,Amateur Juniors 20-23,1994,72.7,125,130,-135,130,,75,M,Давид Давтян,Yes,Raw,,,,,,B,130,,,,,
4,Firdavs Rasulov,Amateur Juniors 20-23,1994,74.3,-125,130,-137.5,130,,75,M,,Yes,Raw,,,,,,B,130,,,,,
5,Andrey Amosov,Amateur Juniors 20-23,1993,75,117.5,125,-135,125,,75,M,Андрей Амосов,Yes,Raw,,,,,,B,125,,,,,
6,Andrey Fomushkin,Amateur Juniors 20-23,1994,73.4,117.5,-125,-125,117.5,,75,M,Андрей Фомушкин,Yes,Raw,,,,,,B,117.5,,,,,
7,Aleksey Bogdanov,Amateur Juniors 20-23,1992,74.5,115,117.5,-122.5,117.5,,75,M,Алексей Богданов,Yes,Raw,,,,,,B,117.5,,,,,
8,Anton Spirin,Amateur Juniors 20-23,1991,75,100,105,-117.5,105,,75,M,Антон Спирин,Yes,Raw,,,,,,B,105,,,,,
1,Teimurazi Matsonashvili,Amateur Open,1983,71.4,135,145,150,150,,75,M,Теймурази Мацонашвили,Yes,Raw,,,,,,B,150,,,,,
2,Roman Petrakov,Amateur Open,1981,74.3,140,145,147.5,147.5,,75,M,Роман Петраков,Yes,Raw,,,,,,B,147.5,,,,,
3,Dmitriy Putov,Amateur Open,1985,71.8,127.5,135,140,140,,75,M,Дмитрий Путов,Yes,Raw,,,,,,B,140,,,,,
4,Oleg Schetinin,Amateur Open,1989,73.8,135,137.5,140,140,,75,M,Олег Щетинин,Yes,Raw,,,,,,B,140,,,,,
5,Ivan Palekha,Amateur Open,1990,73.2,135,-137.5,-137.5,135,,75,M,Иван Палеха,Yes,Raw,,,,,,B,135,,,,,
6,Denis Martsishenko,Amateur Open,1986,74.1,120,135,-140,135,,75,M,Денис Марцишенко,Yes,Raw,,,,,,B,135,,,,,
7,Dmitriy Kapitulskiy,Amateur Open,1989,71.9,122.5,127.5,130,130,,75,M,Дмитрий Капитульский,Yes,Raw,,,,,,B,130,,,,,
8,Aleksey Usachev,Amateur Open,1989,72.3,117.5,127.5,-135,127.5,,75,M,Алексей Усачев,Yes,Raw,,,,,,B,127.5,,,,,
9,Sergey Polosin,Amateur Open,1989,72.7,127.5,-135,-135,127.5,,75,M,Сергей Полосин,Yes,Raw,,,,,,B,127.5,,,,,
10,Sergey Radushko,Amateur Open,1989,71.1,-125,125,-135,125,,75,M,Сергей Радушко,Yes,Raw,,,,,,B,125,,,,,
11,Vitaliy Zharinov,Amateur Open,1986,71.6,105,117.5,125,125,,75,M,Виталий Жаринов,Yes,Raw,,,,,,B,125,,,,,
12,Maksim Maller,Amateur Open,1981,72.2,120,-135,-135,120,,75,M,Максим Маллер,Yes,Raw,,,,,,B,120,,,,,
13,Aleksey Pankratov,Amateur Open,1991,71.4,-117.5,117.5,-130,117.5,,75,M,Алексей Панкратов,Yes,Raw,,,,,,B,117.5,,,,,
14,Dmitriy Buravtsov,Amateur Open,1983,72.5,117.5,-135,-135,117.5,,75,M,Дмитрий Буравцов,Yes,Raw,,,,,,B,117.5,,,,,
15,Vladimir Vorobyev,Amateur Open,1985,72.5,110,-117.5,117.5,117.5,,75,M,Владимир Воробьев,Yes,Raw,,,,,,B,117.5,,,,,
16,Roman Yudin,Amateur Open,1990,73,-117.5,-117.5,117.5,117.5,,75,M,Роман Юдин,Yes,Raw,,,,,,B,117.5,,,,,
17,Valeriy Ruban,Amateur Open,1990,73.4,-110,117.5,-125,117.5,,75,M,Валерий Рубан,Yes,Raw,,,,,,B,117.5,,,,,
18,German Zhukov,Amateur Open,1986,74,117.5,-135,,117.5,,75,M,Герман Жуков,Yes,Raw,,,,,,B,117.5,,,,,
19,Denis Lybin,Amateur Open,1980,74.6,105,-117.5,117.5,117.5,,75,M,Денис Лыбин,Yes,Raw,,,,,,B,117.5,,,,,
20,Aleksey Ushakov,Amateur Open,1987,73,105,110,-117.5,110,,75,M,Алексей Ушаков,Yes,Raw,,,,,,B,110,,,,,
21,Sergey Cheredov,Amateur Open,1979,74.7,110,-117.5,-117.5,110,,75,M,Сергей Чередов,Yes,Raw,,,,,,B,110,,,,,
22,Denis Vavilov,Amateur Open,1990,73.5,-107.5,107.5,-117.5,107.5,,75,M,Денис Вавилов,Yes,Raw,,,,,,B,107.5,,,,,
23,Dmitriy Potekho,Amateur Open,1990,75,-105,105,-117.5,105,,75,M,Дмитрий Потехо,Yes,Raw,,,,,,B,105,,,,,
DQ,Aleksey Svechnikov,Amateur Open,1990,69,-130,-135,-135,,,75,M,Алексей Свечников,Yes,Raw,,,,,,B,,,,,,
DQ,Pavel Petkov,Amateur Open,1990,73,-125,-125,,,,75,M,Павел Петков,Yes,Raw,,,,,,B,,,,,,
1,Aleksandr Yartsev,Amateur Masters 40-44,1971,71,135,-140,-140,135,,75,M,Александр Ярцев,Yes,Raw,,,,,,B,135,,,,,
2,Sergey Sidorovskiy,Amateur Masters 40-44,1971,74.5,120,125,-127.5,125,,75,M,Сергей Сидоровский,Yes,Raw,,,,,,B,125,,,,,
DQ,Pavel Kurinkov,Amateur Masters 40-44,1974,73.5,-132.5,-132.5,-132.5,,,75,M,Павел Куринков,Yes,Raw,,,,,,B,,,,,,
1,Daniil Buslakov,Amateur Teen 16-17,1997,79.2,110,115,117.5,117.5,,82.5,M,Даниил Буслаков,Yes,Raw,,,,,,B,117.5,,,,,
2,Saveliy Bokarev,Amateur Teen 16-17,1998,77.9,110,-115,-117.5,110,,82.5,M,Савелий Бокарев,Yes,Raw,,,,,,B,110,,,,,
1,Mikhail Pavlenko,Amateur Teen 18-19,1995,81.2,125,135,140,140,,82.5,M,Михаил Павленко,Yes,Raw,,,,,,B,140,,,,,
2,Nail Galimulin,Amateur Teen 18-19,1996,82.5,120,125,-127.5,125,,82.5,M,Наиль Галимулин,Yes,Raw,,,,,,B,125,,,,,
3,Anton Evlashkin,Amateur Teen 18-19,1995,80.1,117.5,-127.5,-127.5,117.5,,82.5,M,Антон Евлашкин,Yes,Raw,,,,,,B,117.5,,,,,
4,Nikita Volobuev,Amateur Teen 18-19,1995,79.2,95,100,105,105,,82.5,M,Никита Волобуев,Yes,Raw,,,,,,B,105,,,,,
1,Daniil Tsarev,Amateur Juniors 20-23,1994,80.5,130,145,-150,145,,82.5,M,Даниил Царев,Yes,Raw,,,,,,B,145,,,,,
2,Dmitriy Titov,Amateur Juniors 20-23,1992,80.6,130,145,-150,145,,82.5,M,Дмитрий Титов,Yes,Raw,,,,,,B,145,,,,,
3,Denis Stepanov,Amateur Juniors 20-23,1991,81.3,-145,145,-150,145,,82.5,M,Денис Степанов,Yes,Raw,,,,,,B,145,,,,,
4,Georgiy Gusakov,Amateur Juniors 20-23,1993,82.5,120,127.5,135,135,,82.5,M,Георгий Гусаков,Yes,Raw,,,,,,B,135,,,,,
5,Igor Rybko,Amateur Juniors 20-23,1992,76.2,-127.5,127.5,132.5,132.5,,82.5,M,Игорь Рыбко,Yes,Raw,,,,,,B,132.5,,,,,
6,Aleksandr Vorona,Amateur Juniors 20-23,1992,80.7,-125,-127.5,127.5,127.5,,82.5,M,Александр Ворона,Yes,Raw,,,,,,B,127.5,,,,,
7,Aleksandr Antonov,Amateur Juniors 20-23,1992,77.9,112.5,-127.5,-127.5,112.5,,82.5,M,Александр Антонов,Yes,Raw,,,,,,B,112.5,,,,,
DQ,Dmitriy Ulyanov,Amateur Juniors 20-23,1993,77.5,-120,-120,-127.5,,,82.5,M,Дмитрий Ульянов,Yes,Raw,,,,,,B,,,,,,
DQ,Maksim Pyslar,Amateur Juniors 20-23,1991,80.1,-137.5,-137.5,-137.5,,,82.5,M,Максим Пысларь,Yes,Raw,,,,,,B,,,,,,
1,Aleksandr Mochalov,Amateur Open,1986,81.4,145,150,-152.5,150,,82.5,M,Александр Мочалов,Yes,Raw,,,,,,B,150,,,,,
2,Sergey Kokorev,Amateur Open,1990,82.4,145,150,-155,150,,82.5,M,Сергей Кокорев,Yes,Raw,,,,,,B,150,,,,,
3,Dmitriy Khomenko,Amateur Open,1990,79.2,130,145,-147.5,145,,82.5,M,Дмитрий Хоменко,Yes,Raw,,,,,,B,145,,,,,
4,Aleksandr Aliev,Amateur Open,1987,80.6,140,145,-147.5,145,,82.5,M,Александр Алиев,Yes,Raw,,,,,,B,145,,,,,
5,Aleksandr Makhotkin,Amateur Open,1986,82.2,137.5,142.5,145,145,,82.5,M,Александр Махоткин,Yes,Raw,,,,,,B,145,,,,,
6,Aleksey Schekunov,Amateur Open,1984,80.3,130,137.5,-145,137.5,,82.5,M,Алексей Щекунов,Yes,Raw,,,,,,B,137.5,,,,,
7,Dmitriy Chesnokov,Amateur Open,1988,80.5,127.5,137.5,-142.5,137.5,,82.5,M,Дмитрий Чесноков,Yes,Raw,,,,,,B,137.5,,,,,
8,Evgeniy Erokhin,Amateur Open,1982,82.4,127.5,130,135,135,,82.5,M,Евгений Ерохин,Yes,Raw,,,,,,B,135,,,,,
9,Ozod Saidov,Amateur Open,1981,82.5,127.5,132.5,135,135,,82.5,M,Озод Саидов,Yes,Raw,,,,,,B,135,,,,,
10,Aleksey Vorontsov,Amateur Open,1977,80.5,125,132.5,-140,132.5,,82.5,M,Алексей Воронцов,Yes,Raw,,,,,,B,132.5,,,,,
11,Mikhail Zuev,Amateur Open,1985,78.4,-120,125,130,130,,82.5,M,Михаил Зуев,Yes,Raw,,,,,,B,130,,,,,
12,Nikolay Nikulin,Amateur Open,1988,77.2,-120,-125,127.5,127.5,,82.5,M,Николай Никулин,Yes,Raw,,,,,,B,127.5,,,,,
13,Maksim Novoselskiy,Amateur Open,1984,81.3,120,127.5,-132.5,127.5,,82.5,M,Максим Новосельский,Yes,Raw,,,,,,B,127.5,,,,,
14,Ruslan Dzybov,Amateur Open,1986,81.5,127.5,-137.5,-137.5,127.5,,82.5,M,Руслан Дзыбов,Yes,Raw,,,,,,B,127.5,,,,,
15,Dmitriy Roik,Amateur Open,1981,82.2,-127.5,127.5,-130,127.5,,82.5,M,Дмитрий Роик,Yes,Raw,,,,,,B,127.5,,,,,
16,Andrey Samoylov,Amateur Open,1983,76.8,112.5,120,-127.5,120,,82.5,M,Андрей Самойлов,Yes,Raw,,,,,,B,120,,,,,
17,Gennadiy Odintsov,Amateur Open,1984,79,105,112.5,120,120,,82.5,M,Геннадий Одинцов,Yes,Raw,,,,,,B,120,,,,,
18,Yakov Shalabaev,Amateur Open,1996,79.2,112.5,117.5,120,120,,82.5,M,Яков Шалабаев,Yes,Raw,,,,,,B,120,,,,,
19,Sergey Ulmer,Amateur Open,1977,80.8,110,115,117.5,117.5,,82.5,M,Сергей Ульмер,Yes,Raw,,,,,,B,117.5,,,,,
20,Boris Khalilov,Amateur Open,1983,81.2,110,-127.5,-127.5,110,,82.5,M,Борис Халилов,Yes,Raw,,,,,,B,110,,,,,
21,Aleksey Latyntsev,Amateur Open,1987,79.9,102.5,-112.5,-112.5,102.5,,82.5,M,Алексей Латынцев,Yes,Raw,,,,,,B,102.5,,,,,
DQ,Anton Groshev,Amateur Open,1982,79.7,-105,-105,-127.5,,,82.5,M,Антон Грошев,Yes,Raw,,,,,,B,,,,,,
1,Roman Kolpakov,Amateur Masters 40-44,1972,82.3,127.5,132.5,135,135,,82.5,M,Роман Колпаков,Yes,Raw,,,,,,B,135,,,,,
1,Dmitriy Karezin,Amateur Masters 45-49,1970,80.7,157.5,162.5,165,165,,82.5,M,Дмитрий Карезин,Yes,Raw,,,,,,B,165,,,,,
2,Sergey Katin,Amateur Masters 45-49,1970,80.5,-145,145,-155,145,,82.5,M,Сергей Катин,Yes,Raw,,,,,,B,145,,,,,
1,Vasiliy Mosin,Amateur Masters 55-59,1956,80.5,140,145,-147.5,145,,82.5,M,Василий Мосин,Yes,Raw,,,,,,B,145,,,,,
1,Vladimir Panfilov,Amateur Masters 60-64,1953,81.6,-110,110,115,115,,82.5,M,Владимир Панфилов,Yes,Raw,,,,,,B,115,,,,,
1,Daniil Nasyrov,Amateur Teen 13-15,1999,85.4,87.5,97.5,-102.5,97.5,,90,M,Даниил Насыров,Yes,Raw,,,,,,B,97.5,,,,,
1,Thomas Leviev,Amateur Teen 16-17,1997,89.3,115,-132.5,-132.5,115,,90,M,,Yes,Raw,,,,,,B,115,,,,,
2,Nikita Antonenko,Amateur Teen 16-17,1998,89.9,-95,95,100,100,,90,M,Никита Антоненко,Yes,Raw,,,,,,B,100,,,,,
1,David Matevosyan,Amateur Teen 18-19,1996,89.5,180,190,-200,190,,90,M,Давид Матевосян,Yes,Raw,,,,,,B,190,,,,,
2,Mikhail Panov,Amateur Teen 18-19,1996,89.6,127.5,132.5,-140,132.5,,90,M,Михаил Панов,Yes,Raw,,,,,,B,132.5,,,,,
1,Valeriy Maksimov,Amateur Juniors 20-23,1991,89,145,157.5,165,165,,90,M,Валерий Максимов,Yes,Raw,,,,,,B,165,,,,,
2,Nikita Romanov,Amateur Juniors 20-23,1992,86.3,145,152.5,157.5,157.5,,90,M,Никита Романов,Yes,Raw,,,,,,B,157.5,,,,,
3,Konstantin Izmaylov,Amateur Juniors 20-23,1991,86.9,145,152.5,-157.5,152.5,,90,M,Константин Измайлов,Yes,Raw,,,,,,B,152.5,,,,,
4,Farkhad Bikzhanov,Amateur Juniors 20-23,1992,87.6,-140,147.5,152.5,152.5,,90,M,Фархад Бикжанов,Yes,Raw,,,,,,B,152.5,,,,,
5,Andrey Usov,Amateur Juniors 20-23,1991,88.1,140,152.5,-155,152.5,,90,M,Андрей Усов,Yes,Raw,,,,,,B,152.5,,,,,
6,Viktor Tovkalenko,Amateur Juniors 20-23,1991,88.7,137.5,145,-152.5,145,,90,M,Виктор Товкаленко,Yes,Raw,,,,,,B,145,,,,,
7,Daniil Annenkov,Amateur Juniors 20-23,1992,88.2,-135,135,-140,135,,90,M,Даниил Анненков,Yes,Raw,,,,,,B,135,,,,,
8,Marsel Minnakhmedov,Amateur Juniors 20-23,1991,89.3,-125,125,132.5,132.5,,90,M,Марсель Миннахмедов,Yes,Raw,,,,,,B,132.5,,,,,
DQ,Igor Pronin,Amateur Juniors 20-23,1991,87.7,-132.5,-132.5,-132.5,,,90,M,Игорь Пронин,Yes,Raw,,,,,,B,,,,,,
1,Leonid Schukin,Amateur Open,1982,88.9,160,170,177.5,177.5,,90,M,Леонид Щукин,Yes,Raw,,,,,,B,177.5,,,,,
2,Farkhad Khudaverdiev,Amateur Open,1981,90,170,172.5,-175,172.5,,90,M,Фархад Худавердиев,Yes,Raw,,,,,,B,172.5,,,,,
3,Ilya Vorontsov,Amateur Open,1982,87.8,-165,170,-175,170,,90,M,Илья Воронцов,Yes,Raw,,,,,,B,170,,,,,
4,Oleg Trunov,Amateur Open,1988,86.6,-165,165,-170,165,,90,M,Олег Трунов,Yes,Raw,,,,,,B,165,,,,,
5,Anton Kovalchuk,Amateur Open,1990,87.2,140,152.5,160,160,,90,M,Антон Ковальчук,Yes,Raw,,,,,,B,160,,,,,
6,Alan Byazrov,Amateur Open,1986,87.9,-152.5,152.5,160,160,,90,M,Алан Бязров,Yes,Raw,,,,,,B,160,,,,,
7,Anton Avdevnin,Amateur Open,1986,88.1,145,152.5,160,160,,90,M,Антон Авдевнин,Yes,Raw,,,,,,B,160,,,,,
8,Andrey Danilkov,Amateur Open,1988,89.5,155,-175,,155,,90,M,Андрей Данилков,Yes,Raw,,,,,,B,155,,,,,
9,Aleksey Belov,Amateur Open,1986,86.7,152.5,-165,-165,152.5,,90,M,Алексей Белов,Yes,Raw,,,,,,B,152.5,,,,,
10,Mikhail Kleymenov,Amateur Open,1990,87.3,140,152.5,-160,152.5,,90,M,Михаил Клейменов,Yes,Raw,,,,,,B,152.5,,,,,
11,Sergey Kondratyev,Amateur Open,1990,87.6,-152.5,-152.5,152.5,152.5,,90,M,Сергей Кондратьев,Yes,Raw,,,,,,B,152.5,,,,,
12,Roman Shikhaleev,Amateur Open,1990,87.7,-145,152.5,-160,152.5,,90,M,Роман Шихалеев,Yes,Raw,,,,,,B,152.5,,,,,
13,Artem Barsukov,Amateur Open,1988,88.1,-140,152.5,-162.5,152.5,,90,M,Артем Барсуков,Yes,Raw,,,,,,B,152.5,,,,,
14,Rustam Begerin,Amateur Open,1994,85.3,140,145,150,150,,90,M,Рустам Бегерин,Yes,Raw,,,,,,B,150,,,,,
15,Vasiliy Sablin,Amateur Open,1991,83.5,-127.5,127.5,145,145,,90,M,Василий Саблин,Yes,Raw,,,,,,B,145,,,,,
16,Dmitriy Volobuev,Amateur Open,1989,87.1,-145,145,-152.5,145,,90,M,Дмитрий Волобуев,Yes,Raw,,,,,,B,145,,,,,
17,Stanislav Chereugin,Amateur Open,1987,88.8,-132.5,135,140,140,,90,M,Станислав Череугин,Yes,Raw,,,,,,B,140,,,,,
18,Aleksey Borisov,Amateur Open,1987,88.8,132.5,137.5,140,140,,90,M,Алексей Борисов,Yes,Raw,,,,,,B,140,,,,,
19,Dmitriy Fedorov,Amateur Open,1985,89.2,140,,-155,140,,90,M,Дмитрий Федоров,Yes,Raw,,,,,,B,140,,,,,
20,Andrey Lukyanov,Amateur Open,1989,86.3,122.5,132.5,137.5,137.5,,90,M,Андрей Лукьянов,Yes,Raw,,,,,,B,137.5,,,,,
21,Leonid Sikorov,Amateur Open,1988,84.3,132.5,135,,135,,90,M,Леонид Сикоров,Yes,Raw,,,,,,B,135,,,,,
22,Pavel Kretts,Amateur Open,1986,87.2,132.5,135,-137.5,135,,90,M,Павел Кретц,Yes,Raw,,,,,,B,135,,,,,
23,Ruslan Sharibzhanov,Amateur Open,1982,88.6,132.5,135,-137.5,135,,90,M,Руслан Шарибжанов,Yes,Raw,,,,,,B,135,,,,,
24,Aleksey Yakovlev,Amateur Open,1983,84.6,132.5,-137.5,-137.5,132.5,,90,M,Алексей Яковлев,Yes,Raw,,,,,,B,132.5,,,,,
25,Vitaliy Volodin,Amateur Open,1985,87.5,132.5,-140,-152.5,132.5,,90,M,Виталий Володин,Yes,Raw,,,,,,B,132.5,,,,,
26,Krist Mokobo,Amateur Open,1990,88.9,125,132.5,,132.5,,90,M,Крист Мокобо,Yes,Raw,,,,,,B,132.5,,,,,
27,Evgeniy Froltsev,Amateur Open,1986,90,132.5,-152.5,-152.5,132.5,,90,M,Евгений Фрольцев,Yes,Raw,,,,,,B,132.5,,,,,
28,Ilya Generalskiy,Amateur Open,1987,87.3,110,120,-125,120,,90,M,Илья Генеральский,Yes,Raw,,,,,,B,120,,,,,
29,Nikita Shirokov,Amateur Open,1989,89,-120,120,-132.5,120,,90,M,Никита Широков,Yes,Raw,,,,,,B,120,,,,,
30,Aleksandr Lukin,Amateur Open,1987,89.9,-120,-120,120,120,,90,M,Александр Лукин,Yes,Raw,,,,,,B,120,,,,,
31,Aleksey Lischuk,Amateur Open,1986,85.5,-110,117.5,-120,117.5,,90,M,Алексей Лищук,Yes,Raw,,,,,,B,117.5,,,,,
DQ,Andrey Minin,Amateur Open,1976,87.1,-150,-152.5,-152.5,,,90,M,Андрей Минин,Yes,Raw,,,,,,B,,,,,,
1,Igor Kotlov,Amateur Masters 40-44,1972,86.2,145,150,-152.5,150,,90,M,Игорь Котлов,Yes,Raw,,,,,,B,150,,,,,
2,Kirill Ponomarev,Amateur Masters 40-44,1970,86.1,115,120,-125,120,,90,M,Кирилл Пономарев,Yes,Raw,,,,,,B,120,,,,,
1,Aleksandr Rumyantsev,Amateur Masters 45-49,1969,87.8,-152.5,155,-160,155,,90,M,Александр Румянцев,Yes,Raw,,,,,,B,155,,,,,
2,Igor Polunin,Amateur Masters 45-49,1966,88.4,-145,145,-152.5,145,,90,M,Игорь Полунин,Yes,Raw,,,,,,B,145,,,,,
3,Gennadiy Kamyshnikov,Amateur Masters 45-49,1969,88.6,110,120,-122.5,120,,90,M,Геннадий Камышников,Yes,Raw,,,,,,B,120,,,,,
1,Sergey Zherebtsov,Amateur Teen 16-17,1998,94.9,140,145,152.5,152.5,,100,M,Сергей Жеребцов,Yes,Raw,,,,,,B,152.5,,,,,
DQ,Ilya Alekhin,Amateur Teen 16-17,1998,95.7,-140,-140,-140,,,100,M,Илья Алехин,Yes,Raw,,,,,,B,,,,,,
1,Egor Levit,Amateur Teen 18-19,1996,96.9,105,110,115,115,,100,M,Егор Левит,Yes,Raw,,,,,,B,115,,,,,
1,Vladislav Palchik,Amateur Juniors 20-23,1992,93.5,162.5,167.5,172.5,172.5,,100,M,Владислав Пальчик,Yes,Raw,,,,,,B,172.5,,,,,
2,Faridun Imomatov,Amateur Juniors 20-23,1993,98.8,160,165,-170,165,,100,M,Фаридун Имоматов,Yes,Raw,,,,,,B,165,,,,,
3,Andrey Podlipaev,Amateur Juniors 20-23,1992,92.2,150,155,-162.5,155,,100,M,Андрей Подлипаев,Yes,Raw,,,,,,B,155,,,,,
4,Dmitriy Yankov,Amateur Juniors 20-23,1992,97.8,145,150,155,155,,100,M,Дмитрий Янков,Yes,Raw,,,,,,B,155,,,,,
5,Aleksey Nikonov,Amateur Juniors 20-23,1993,95.3,130,-140,,130,,100,M,Алексей Никонов,Yes,Raw,,,,,,B,130,,,,,
6,Artem Marchenko,Amateur Juniors 20-23,1991,93.4,125,,,125,,100,M,Артем Марченко,Yes,Raw,,,,,,B,125,,,,,
1,Pavel Milovanov,Amateur Open,1977,100,210,220,-223,220,,100,M,Павел Милованов,Yes,Raw,,,,,,B,220,,,,,
2,Semen Borkin,Amateur Open,1981,98.7,162.5,-172.5,172.5,172.5,,100,M,Семен Борькин,Yes,Raw,,,,,,B,172.5,,,,,
3,Pavel Aleksandrov,Amateur Open,1982,98,162.5,167.5,-170,167.5,,100,M,Павел Александров,Yes,Raw,,,,,,B,167.5,,,,,
4,Artur Zenkin,Amateur Open,1982,99.5,162.5,165,-170,165,,100,M,Артур Зенкин,Yes,Raw,,,,,,B,165,,,,,
5,Akhmed Musaev,Amateur Open,1980,99.3,155,-162.5,162.5,162.5,,100,M,Ахмед Мусаев,Yes,Raw,,,,,,B,162.5,,,,,
6,Artur Kovalev,Amateur Open,1990,98.5,140,150,155,155,,100,M,Артур Ковалев,Yes,Raw,,,,,,B,155,,,,,
7,Dmitriy Zaytsev,Amateur Open,1989,99.7,-150,155,-162.5,155,,100,M,Дмитрий Зайцев,Yes,Raw,,,,,,B,155,,,,,
8,Sergey Ushakov,Amateur Open,1983,97.9,140,150,-165,150,,100,M,Сергей Ушаков,Yes,Raw,,,,,,B,150,,,,,
9,Aleksey Cherepkov,Amateur Open,1988,97.7,140,145,147.5,147.5,,100,M,Алексей Черепков,Yes,Raw,,,,,,B,147.5,,,,,
10,Oleg Shutov,Amateur Open,1990,94.7,130,140,145,145,,100,M,Олег Шутов,Yes,Raw,,,,,,B,145,,,,,
11,Stanislav Uspenskiy,Amateur Open,1978,97.1,135,140,145,145,,100,M,Станислав Успенский,Yes,Raw,,,,,,B,145,,,,,
12,Dmitriy Govorukhin,Amateur Open,1990,97,140,-145,-145,140,,100,M,Дмитрий Говорухин,Yes,Raw,,,,,,B,140,,,,,
13,Aleksey Shibalkin,Amateur Open,1983,98.3,120,132.5,140,140,,100,M,Алексей Шибалкин,Yes,Raw,,,,,,B,140,,,,,
14,Maksim Rodin,Amateur Open,1981,99.3,-130,130,-140,130,,100,M,Максим Родин,Yes,Raw,,,,,,B,130,,,,,
15,Aleksey Kalchenko,Amateur Open,1986,94.2,125,-140,-140,125,,100,M,Алексей Кальченко,Yes,Raw,,,,,,B,125,,,,,
16,Sergey Nosov,Amateur Open,1990,97.3,115,-122.5,-122.5,115,,100,M,Сергей Носов,Yes,Raw,,,,,,B,115,,,,,
DQ,Evgeniy Pronin,Amateur Open,1982,97.1,-135,-135,-140,,,100,M,Евгений Пронин,Yes,Raw,,,,,,B,,,,,,
1,Aleksey Lileev,Amateur Masters 40-44,1972,98.2,140,-152.5,152.5,152.5,,100,M,Алексей Лилеев,Yes,Raw,,,,,,B,152.5,,,,,
2,Aleksey Strulev,Amateur Masters 40-44,1971,100,140,147.5,150,150,,100,M,Алексей Струлев,Yes,Raw,,,,,,B,150,,,,,
DQ,Aleksandr Romanov,Amateur Masters 40-44,1973,97.5,-140,-142.5,-142.5,,,100,M,Александр Романов,Yes,Raw,,,,,,B,,,,,,
DQ,Roman Pavlenko,Amateur Masters 40-44,1974,98.9,-150,-150,-150,,,100,M,Роман Павленко,Yes,Raw,,,,,,B,,,,,,
1,Sergey Dyakonov,Amateur Masters 55-59,1957,99.5,150,-155,-155,150,,100,M,Сергей Дьяконов,Yes,Raw,,,,,,B,150,,,,,
2,Aleksandr Vdovushkin,Amateur Masters 55-59,1956,92.4,140,147.5,-150,147.5,,100,M,Александр Вдовушкин,Yes,Raw,,,,,,B,147.5,,,,,
1,Sergey Kundus,Amateur Masters 60-64,1953,93.9,115,-122.5,122.5,122.5,,100,M,Сергей Кундус,Yes,Raw,,,,,,B,122.5,,,,,
1,Dmitriy Odnorog,Amateur Juniors 20-23,1992,109.5,147.5,152.5,-155,152.5,,110,M,Дмитрий Однорог,Yes,Raw,,,,,,B,152.5,,,,,
1,Viorel Bulgak,Amateur Open,1985,110,180,195,202.5,202.5,,110,M,Виорел Булгак,Yes,Raw,,,,,,B,202.5,,,,,
2,Vadim Pronin,Amateur Open,1979,109.4,175,180,187.5,187.5,,110,M,Вадим Пронин,Yes,Raw,,,,,,B,187.5,,,,,
3,Denis Matyushin,Amateur Open,1984,102.1,170,182.5,-187.5,182.5,,110,M,Денис Матюшин,Yes,Raw,,,,,,B,182.5,,,,,
4,Igor Unanov,Amateur Open,1982,101.6,167.5,175,-185,175,,110,M,Игорь Унанов,Yes,Raw,,,,,,B,175,,,,,
5,Evgeniy Marinov,Amateur Open,1983,109.6,170,-175,-177.5,170,,110,M,Евгений Маринов,Yes,Raw,,,,,,B,170,,,,,
6,Sergey Vlasov,Amateur Open,1985,108.3,160,167.5,-170,167.5,,110,M,Сергей Власов,Yes,Raw,,,,,,B,167.5,,,,,
7,Dmitriy Solomakhin,Amateur Open,1986,108.5,150,167.5,-175,167.5,,110,M,Дмитрий Соломахин,Yes,Raw,,,,,,B,167.5,,,,,
8,Mikhail Stenin,Amateur Open,1982,109.8,147.5,162.5,-167.5,162.5,,110,M,Михаил Стенин,Yes,Raw,,,,,,B,162.5,,,,,
9,Kirill Bulatov,Amateur Open,1989,108.9,140,147.5,152.5,152.5,,110,M,Кирилл Булатов,Yes,Raw,,,,,,B,152.5,,,,,
10,Viktor Zheltushko,Amateur Open,1978,104.1,150,-160,,150,,110,M,Виктор Желтушко,Yes,Raw,,,,,,B,150,,,,,
11,Semen Filatov,Amateur Open,1985,105.9,-150,150,-167.5,150,,110,M,Семен Филатов,Yes,Raw,,,,,,B,150,,,,,
12,Oleg Vshivkov,Amateur Open,1976,108.8,-135,135,-147.5,135,,110,M,Олег Вшивков,Yes,Raw,,,,,,B,135,,,,,
1,Kirill Kharabadze,Amateur Masters 40-44,1972,107.5,160,-167.5,-167.5,160,,110,M,Кирилл Харабадзе,Yes,Raw,,,,,,B,160,,,,,
1,Evgeniy Prosolov,Amateur Masters 45-49,1968,108,165,170,175,175,,110,M,Евгений Просолов,Yes,Raw,,,,,,B,175,,,,,
1,Oleg Vashkin,Amateur Juniors 20-23,1994,117,165,175,180,180,,125,M,Олег Вашкин,Yes,Raw,,,,,,B,180,,,,,
2,Sergey Sventitskiy,Amateur Juniors 20-23,1994,121.4,-167.5,-177.5,177.5,177.5,,125,M,Сергей Свентицкий,Yes,Raw,,,,,,B,177.5,,,,,
3,Dmitriy Rychagov,Amateur Juniors 20-23,1994,114.5,137.5,142.5,-147.5,142.5,,125,M,Дмитрий Рычагов,Yes,Raw,,,,,,B,142.5,,,,,
1,Aleksandr Kuznetsov #1,Amateur Open,1979,112,200,207.5,-212.5,207.5,,125,M,Александр Кузнецов,Yes,Raw,,,,,,B,207.5,,,,,
2,Vyacheslav Popkov,Amateur Open,1984,124,180,200,-210,200,,125,M,Вячеслав Попков,Yes,Raw,,,,,,B,200,,,,,
3,Andrey Konin,Amateur Open,1981,112.5,147.5,152.5,-157.5,152.5,,125,M,Андрей Конин,Yes,Raw,,,,,,B,152.5,,,,,
4,Dmitriy Esin,Amateur Open,1987,117.6,137.5,-152.5,,137.5,,125,M,Дмитрий Есин,Yes,Raw,,,,,,B,137.5,,,,,
5,Aleksandr Evstafyev,Amateur Open,1975,116.5,90,105,-110,105,,125,M,Александр Евстафьев,Yes,Raw,,,,,,B,105,,,,,
1,Denis Plenkin,Amateur Masters 40-44,1974,115.8,152.5,160,-167.5,160,,125,M,Денис Пленкин,Yes,Raw,,,,,,B,160,,,,,
2,Artem Berdnik,Amateur Masters 40-44,1974,115.8,135,-140,-140,135,,125,M,Артем Бердник,Yes,Raw,,,,,,B,135,,,,,
3,Aleksey Ilyakov,Amateur Masters 40-44,1973,117,105,115,122.5,122.5,,125,M,Алексей Ильяков,Yes,Raw,,,,,,B,122.5,,,,,
1,Vladimir Chubarov,Amateur Masters 50-54,1964,111.7,147.5,-152.5,152.5,152.5,,125,M,Владимир Чубаров,Yes,Raw,,,,,,B,152.5,,,,,
1,Maksim Bogomolov,Amateur Juniors 20-23,1993,137.4,150,157.5,162.5,162.5,,140,M,Максим Богомолов,Yes,Raw,,,,,,B,162.5,,,,,
1,Ivan Varenitsyn,Amateur Open,1988,131.6,170,-182.5,-182.5,170,,140,M,Иван Вареницын,Yes,Raw,,,,,,B,170,,,,,
2,Dmitriy Ivasenko,Amateur Open,1976,129.1,142.5,150,-157.5,150,,140,M,Дмитрий Ивасенко,Yes,Raw,,,,,,B,150,,,,,
1,Roman Mishurenkov,Amateur Open,1982,142.5,200,210,220,220,-220.5,140+,M,Роман Мишуренков,Yes,Raw,,,,,,B,220,,,,,
1,Kristina Gurova,Pro Open,1987,60,65,72.5,-77.5,72.5,,60,F,Кристина Гурова,No,Raw,,,,,,B,72.5,,,,,
2,Svetlana Rubtsova,Pro Open,1982,58.4,50,57.5,60,60,,60,F,Светлана Рубцова,No,Raw,,,,,,B,60,,,,,
1,Kseniya Schekina,Pro Teen 18-19,1995,67.5,60,65,-70,65,,67.5,F,Ксения Щекина,No,Raw,,,,,,B,65,,,,,
1,Anzhela Kulagina,Pro Open,1988,65.7,100,-107.5,112.5,112.5,,67.5,F,Анжела Кулагина,No,Raw,,,,,,B,112.5,,,,,
2,Olga Sokolova,Pro Open,1981,67,80,-85,-85,80,,67.5,F,Ольга Соколова,No,Raw,,,,,,B,80,,,,,
3,Irina Smolentseva,Pro Open,1988,67.2,47.5,50,-52.5,50,,67.5,F,Ирина Смоленцева,No,Raw,,,,,,B,50,,,,,
1,Zung Nguen Dyk,Pro Juniors 20-23,1994,73.1,120,-130,-140,120,,75,M,Дык-Зунг Нгуен,No,Raw,,,,,,B,120,,,,,
1,Dmitriy Kovalenko,Pro Masters 40-44,1972,70.3,77.5,82.5,85,85,,75,M,Дмитрий Коваленко,No,Raw,,,,,,B,85,,,,,
1,Nikolay Ionov,Pro Masters 65-69,1949,74.4,100,105,110,110,,75,M,Николай Ионов,No,Raw,,,,,,B,110,,,,,
1,Alekandr Kanaykin,Pro Juniors 20-23,1993,79.8,160,170,-180,170,,82.5,M,Алекандр Канайкин,No,Raw,,,,,,B,170,,,,,
1,Vladimir Kazemirov,Pro Open,1986,81.8,147.5,150,-155,150,,82.5,M,Владимир Каземиров,No,Raw,,,,,,B,150,,,,,
2,Nikolay Petrakovich,Pro Open,1979,80,130,135,140,140,,82.5,M,Николай Петракович,No,Raw,,,,,,B,140,,,,,
3,Ilya Rozenkrants,Pro Open,1984,76.9,110,122.5,127.5,127.5,,82.5,M,Илья Розенкранц,No,Raw,,,,,,B,127.5,,,,,
1,Sergey Goncharov,Pro Masters 60-64,1952,81.5,120,125,127.5,127.5,,82.5,M,Сергей Гончаров,No,Raw,,,,,,B,127.5,,,,,
1,Vladislav Sannikov,Pro Masters 75-79,1938,78.5,80,85,-87.5,85,,82.5,M,Владислав Санников,No,Raw,,,,,,B,85,,,,,
1,Eduard Martirosov,Pro Teen 18-19,1995,85.7,135,145,152.5,152.5,,90,M,Эдуард Мартиросов,No,Raw,,,,,,B,152.5,,,,,
1,Grigoriy Demtsev,Pro Juniors 20-23,1991,89.2,147.5,-157.5,160,160,,90,M,Григорий Демцев,No,Raw,,,,,,B,160,,,,,
2,Daniil Yuzbekov,Pro Juniors 20-23,1995,89.3,-160,160,-170,160,,90,M,Даниил Юзбеков,No,Raw,,,,,,B,160,,,,,
1,Roman Lugovoy,Pro Open,1984,87.6,-180,180,-185,180,,90,M,Роман Луговой,No,Raw,,,,,,B,180,,,,,
2,Kirill Goryachov,Pro Open,1990,89.9,165,175,180,180,,90,M,Кирилл Горячов,No,Raw,,,,,,B,180,,,,,
3,Semen Lyubimskiy,Pro Open,1986,86.5,177.5,-182.5,-182.5,177.5,,90,M,Семен Любимский,No,Raw,,,,,,B,177.5,,,,,
4,Evgeniy Chistyakov,Pro Open,1989,90,150,157.5,162.5,162.5,,90,M,Евгений Чистяков,No,Raw,,,,,,B,162.5,,,,,
5,Nikita Zotov,Pro Open,1989,86.9,150,-157.5,-157.5,150,,90,M,Никита Зотов,No,Raw,,,,,,B,150,,,,,
DQ,Artem Vereschagin,Pro Open,1988,89.1,-145,-152.5,-152.5,,,90,M,Артем Верещагин,No,Raw,,,,,,B,,,,,,
1,Andrey Latyshev,Pro Masters 40-44,1973,90,170,177.5,185,185,-190.5,90,M,Андрей Латышев,No,Raw,,,,,,B,185,,,,,
2,Anatoliy Shitikov,Pro Masters 40-44,1972,87.7,-165,165,-180,165,,90,M,Анатолий Шитиков,No,Raw,,,,,,B,165,,,,,
1,Alexander Petrov,Pro Masters 50-54,1960,90,185,192.5,197.5,197.5,,90,M,Александр Петров,No,Raw,,,,,,B,197.5,,,,,
1,Nikolay Koziyuk,Pro Teen 16-17,1997,100,-110,-110,110,110,,100,M,Николай Козиюк,No,Raw,,,,,,B,110,,,,,
1,Ion Samusenkov,Pro Juniors 20-23,1993,94.2,170,180,190,190,,100,M,Ион Самусенков,No,Raw,,,,,,B,190,,,,,
1,Mikhail Kostromin,Pro Open,1987,97.5,200,205,-210,205,,100,M,Михаил Костромин,No,Raw,,,,,,B,205,,,,,
2,Arseniy Mikhaylenko,Pro Open,1987,95.2,192.5,-200,-200,192.5,,100,M,Арсений Михайленко,No,Raw,,,,,,B,192.5,,,,,
3,Anton Doroshenkov,Pro Open,1979,93,190,-200,-200,190,,100,M,Антон Дорошенков,No,Raw,,,,,,B,190,,,,,
4,Aleksey Melnikov,Pro Open,1987,95.4,180,190,-195,190,,100,M,Алексей Мельников,No,Raw,,,,,,B,190,,,,,
5,Vadim Korsakov,Pro Open,1985,96.9,-180,-190,190,190,,100,M,Вадим Корсаков,No,Raw,,,,,,B,190,,,,,
6,Anton Dolgikh,Pro Open,1987,97.9,175,185,-190,185,,100,M,Антон Долгих,No,Raw,,,,,,B,185,,,,,
7,Dmitriy Voznyuk,Pro Open,1981,98.4,180,-190,-190,180,,100,M,Дмитрий Вознюк,No,Raw,,,,,,B,180,,,,,
DQ,Denis Borisov,Pro Open,1977,97.2,-190,-190,,,,100,M,Денис Борисов,No,Raw,,,,,,B,,,,,,
1,Oleg Maryshev,Pro Masters 40-44,1972,99.2,170,-190,190,190,,100,M,Олег Марышев,No,Raw,,,,,,B,190,,,,,
2,Dmitriy Aleksandrov,Pro Masters 40-44,1973,98.1,170,180,185,185,,100,M,Дмитрий Александров,No,Raw,,,,,,B,185,,,,,
1,Maksim Yakushev,Pro Teen 18-19,1995,102.2,160,172.5,-180,172.5,,110,M,Максим Якушев,No,Raw,,,,,,B,172.5,,,,,
1,Anatoliy Klyuev,Pro Juniors 20-23,1992,107.9,180,190,-200,190,,110,M,Анатолий Клюев,No,Raw,,,,,,B,190,,,,,
2,Kirill Saulenko,Pro Juniors 20-23,1992,104.7,-180,180,-185,180,,110,M,Кирилл Сауленко,No,Raw,,,,,,B,180,,,,,
1,Evgeniy Spirkin,Pro Open,1987,107.8,205,-215,-217.5,205,,110,M,Евгений Спиркин,No,Raw,,,,,,B,205,,,,,
2,Leonid Zakharchenko,Pro Open,1977,108.9,177.5,-187.5,187.5,187.5,,110,M,Леонид Захарченко,No,Raw,,,,,,B,187.5,,,,,
3,Viktor Kotov,Pro Open,1989,108.6,155,-172.5,-172.5,155,,110,M,Виктор Котов,No,Raw,,,,,,B,155,,,,,
4,Mikhail Antonov,Pro Open,1977,107,135,145,-155,145,,110,M,Михаил Антонов,No,Raw,,,,,,B,145,,,,,
DQ,Maksim Antonov,Pro Open,1981,107,-135,,,,,110,M,Максим Антонов,No,Raw,,,,,,B,,,,,,
1,Igor Lipachev,Pro Masters 45-49,1968,105.1,210,217.5,222.5,222.5,,110,M,Игорь Липачев,No,Raw,,,,,,B,222.5,,,,,
1,Vyacheslav Filin,Pro Masters 50-54,1961,104.6,190,195,200,200,,110,M,Вячеслав Филин,No,Raw,,,,,,B,200,,,,,
2,Andrey Skorobogatko,Pro Masters 50-54,1963,108.9,155,162.5,-167.5,162.5,,110,M,Андрей Скоробогатько,No,Raw,,,,,,B,162.5,,,,,
1,Aleksandr Vorontsov,Pro Juniors 20-23,1994,120,-180,180,190,190,,125,M,Александр Воронцов,No,Raw,,,,,,B,190,,,,,
1,Maksim Lisyutin,Pro Open,1985,113.6,210,220,227.5,227.5,,125,M,Максим Лисютин,No,Raw,,,,,,B,227.5,,,,,
2,Dmitriy Kostin,Pro Open,1985,119.1,215,220,225,225,,125,M,Дмитрий Костин,No,Raw,,,,,,B,225,,,,,
3,Andrey Grudkin,Pro Open,1984,111.6,210,215,-222.5,215,,125,M,Андрей Грудкин,No,Raw,,,,,,B,215,,,,,
4,Sergey Gerasimov,Pro Open,1975,125,207.5,215,-225,215,,125,M,Сергей Герасимов,No,Raw,,,,,,B,215,,,,,
1,Eduard Dmitriev,Pro Masters 40-44,1972,111.9,200,215,220,220,,125,M,Эдуард Дмитриев,No,Raw,,,,,,B,220,,,,,
2,Vadim Pchelkin,Pro Masters 40-44,1971,118.3,195,205,210,210,,125,M,Вадим Пчелкин,No,Raw,,,,,,B,210,,,,,
3,Dmitriy Belov,Pro Masters 40-44,1972,124.1,197.5,202.5,205,205,,125,M,Дмитрий Белов,No,Raw,,,,,,B,205,,,,,
4,Valeriy Bryusov,Pro Masters 40-44,1973,114.1,190,202.5,-207.5,202.5,,125,M,Валерий Брюсов,No,Raw,,,,,,B,202.5,,,,,
1,Maksim Kuchin,Pro Teen 18-19,1995,130.4,180,190,200,200,,140,M,Максим Кучин,No,Raw,,,,,,B,200,,,,,
1,Anton Privalov,Pro Open,1986,127.2,200,210,-225,210,,140,M,Антон Привалов,No,Raw,,,,,,B,210,,,,,
1,Sergey Mironov,Pro Masters 40-44,1973,132.3,200,210,-220,210,,140,M,Сергей Миронов,No,Raw,,,,,,B,210,,,,,
1,Viktor Maslyuk,Amateur Masters 40-44,1974,97.5,-160,160,165,165,,100,M,Виктор Маслюк,Yes,Multi-ply,,,,,,B,165,,,,,
1,Maksim Kirilin,Amateur Open,1983,106.7,160,170,-175,170,,110,M,Максим Кирилин,Yes,Multi-ply,,,,,,B,170,,,,,
1,Yuliya Kuznetsova,Amateur Open,1973,65.5,110,115,120,120,,67.5,F,Юлия Кузнецова,Yes,Single-ply,,,,,,B,120,,,,,
2,Natalya Soroko,Amateur Open,1990,64.3,75,82.5,-90,82.5,,67.5,F,Наталья Сороко,Yes,Single-ply,,,,,,B,82.5,,,,,
1,Egor Savelyev,Amateur Teen 18-19,1995,66.4,127.5,132.5,-135,132.5,,67.5,M,Егор Савельев,Yes,Single-ply,,,,,,B,132.5,,,,,
1,Andrey Dezhin,Amateur Juniors 20-23,1992,74.2,150,-165,-165,150,,75,M,Андрей Дежин,Yes,Single-ply,,,,,,B,150,,,,,
1,Anton Sosunov,Amateur Open,1980,74.7,150,-160,160,160,,75,M,Антон Сосунов,Yes,Single-ply,,,,,,B,160,,,,,
2,Andrey Dezhin,Amateur Open,1992,74.2,150,-165,-165,150,,75,M,Андрей Дежин,Yes,Single-ply,,,,,,B,150,,,,,
1,Dmitriy Korneev,Amateur Open,1987,82.5,175,-180,182.5,182.5,,82.5,M,Дмитрий Корнеев,Yes,Single-ply,,,,,,B,182.5,,,,,
2,Aleksandr Sharay,Amateur Open,1986,82.3,162.5,170,-187.5,170,,82.5,M,Александр Шарай,Yes,Single-ply,,,,,,B,170,,,,,
1,Aleksey Selischev,Amateur Open,1978,89.2,120,125,-130,125,,90,M,Алексей Селищев,Yes,Single-ply,,,,,,B,125,,,,,
DQ,Yuriy Golubkov,Amateur Open,1985,96.7,-150,-162.5,-162.5,,,100,M,Юрий Голубков,Yes,Single-ply,,,,,,B,,,,,,
DQ,Pavel Efremenkov,Amateur Open,1986,97.2,-200,-200,-200,,,100,M,Павел Ефременков,Yes,Single-ply,,,,,,B,,,,,,
DQ,Denis Karpov,Amateur Open,1981,98.3,-190,-190,-190,,,100,M,Денис Карпов,Yes,Single-ply,,,,,,B,,,,,,
1,Mikhail Evstigneev,Amateur Open,1976,105,255,-265,265,265,,110,M,Михаил Евстигнеев,Yes,Single-ply,,,,,,B,265,,,,,
1,Dmitriy Zaytsev,Pro Open,1981,81.3,162.5,-170,170,170,,82.5,M,Дмитрий Зайцев,No,Single-ply,,,,,,B,170,,,,,
1,Sergey Nikolskiy,Pro Open,1977,98.3,190,200,-207.5,200,,100,M,Сергей Никольский,No,Single-ply,,,,,,B,200,,,,,
1,Dmitriy Obrazumov,Pro Open,1980,108.9,210,-220,-220,210,,110,M,Дмитрий Образумов,No,Single-ply,,,,,,B,210,,,,,
1,Viktoriya Kononenko,Amateur Teen 18-19,1996,44,,,,,,44,F,Виктория Кононенко,Yes,Raw,70,75,80,80,,D,80,,,,,
1,Anastasiya Vedeneeva,Amateur Open,1981,47.5,,,,,,48,F,Анастасия Веденеева,Yes,Raw,110,115,-120,115,,D,115,,,,,
1,Ekaterina Shmakova,Amateur Teen 16-17,1998,52,,,,,,52,F,Екатерина Шмакова,Yes,Raw,90,100,105,105,,D,105,,,,,
1,Olesya Shishkina,Amateur Juniors 20-23,1994,51.7,,,,,,52,F,Олеся Шишкина,Yes,Raw,115,120,125,125,,D,125,,,,,
2,Aleksandra Chaplygina,Amateur Juniors 20-23,1992,50.1,,,,,,52,F,Александра Чаплыгина,Yes,Raw,50,60,-70,60,,D,60,,,,,
1,Anastasiya Mortikova,Amateur Open,1986,51.8,,,,,,52,F,Анастасия Мортикова,Yes,Raw,80,90,-100,90,,D,90,,,,,
DQ,Anna Ivanova #6,Amateur Open,1984,50.7,,,,,,52,F,Анна Иванова,Yes,Raw,-95,-95,-95,,,D,,,,,,
1,Oksana Maksutova,Amateur Masters 40-44,1973,51.3,,,,,,52,F,Оксана Максутова,Yes,Raw,110,-117.5,117.5,117.5,,D,117.5,,,,,
1,Kseniya Listratova,Amateur Teen 13-15,2000,55.7,,,,,,56,F,Ксения Листратова,Yes,Raw,95,105,110,110,,D,110,,,,,
1,Polina Dontsova,Amateur Teen 16-17,1998,54.8,,,,,,56,F,Полина Донцова,Yes,Raw,95,105,-110,105,,D,105,,,,,
1,Svetlana Dragunova,Amateur Juniors 20-23,1991,55.5,,,,,,56,F,Светлана Драгунова,Yes,Raw,100,105,110,110,,D,110,,,,,
2,Ekaterina Dudareva,Amateur Juniors 20-23,1993,56,,,,,,56,F,Екатерина Дударева,Yes,Raw,105,110,-115,110,,D,110,,,,,
1,Alla Selukova,Amateur Open,1991,54,,,,,,56,F,Алла Селукова,Yes,Raw,105,115,-122.5,115,,D,115,,,,,
1,Ekaterina Podkhomutnikova,Amateur Open,1982,57.4,,,,,,60,F,Екатерина Подхомутникова,Yes,Raw,100,-110,-110,100,,D,100,,,,,
1,Angelina Karpova,Amateur Teen 16-17,1997,65.4,,,,,,67.5,F,Ангелина Карпова,Yes,Raw,105,117.5,120,120,,D,120,,,,,
1,Anastasiya Kiseleva,Amateur Juniors 20-23,1994,63.6,,,,,,67.5,F,Анастасия Киселева,Yes,Raw,120,127.5,135,135,,D,135,,,,,
2,Olesya Platova,Amateur Juniors 20-23,1992,66,,,,,,67.5,F,Олеся Платова,Yes,Raw,90,95,102.5,102.5,,D,102.5,,,,,
1,Ekaterina Morozova,Amateur Open,1988,65.5,,,,,,67.5,F,Екатерина Морозова,Yes,Raw,102.5,117.5,,117.5,,D,117.5,,,,,
2,Svetlana Grigoryeva,Amateur Open,1982,66.9,,,,,,67.5,F,Светлана Григорьева,Yes,Raw,110,117.5,-122.5,117.5,,D,117.5,,,,,
3,Ekaterina Shapyrina,Amateur Open,1984,61.8,,,,,,67.5,F,Екатерина Шапырина,Yes,Raw,90,100,-112.5,100,,D,100,,,,,
1,Yuliya Makarova,Amateur Masters 45-49,1969,64.3,,,,,,67.5,F,Юлия Макарова,Yes,Raw,100,110,120,120,,D,120,,,,,
1,Anna Panasenko,Amateur Open,1983,73,,,,,,75,F,Анна Панасенко,Yes,Raw,110,115,117.5,117.5,,D,117.5,,,,,
2,Angelina Shitova,Amateur Open,1985,75,,,,,,75,F,Ангелина Шитова,Yes,Raw,100,-120,-125,100,,D,100,,,,,
1,Irina Belokopytova,Amateur Masters 55-59,1958,74.8,,,,,,75,F,Ирина Белокопытова,Yes,Raw,85,87.5,90,90,,D,90,,,,,
1,Valeriya Valiullina,Amateur Open,1986,79.4,,,,,,82.5,F,Валерия Валиуллина,Yes,Raw,120,130,135,135,,D,135,,,,,
1,Oleg Vaschenko,Amateur Open,1980,54.8,,,,,,56,M,Олег Ващенко,Yes,Raw,130,142.5,147.5,147.5,,D,147.5,,,,,
1,Feliks Garbar,Amateur Teen 16-17,1998,65.1,,,,,,67.5,M,,Yes,Raw,-130,130,135,135,,D,135,,,,,
1,Grigoriy Laptev,Amateur Teen 18-19,1996,67.5,,,,,,67.5,M,Григорий Лаптев,Yes,Raw,-145,145,155,155,,D,155,,,,,
1,Aleksey Yushin,Amateur Open,1982,66.5,,,,,,67.5,M,Алексей Юшин,Yes,Raw,195,202.5,-210,202.5,,D,202.5,,,,,
2,Maksim Popov #1,Amateur Open,1984,64.4,,,,,,67.5,M,Максим Попов,Yes,Raw,165,175,185,185,,D,185,,,,,
3,Aleksandr Fomichev #3,Amateur Open,1990,67.4,,,,,,67.5,M,Александр Фомичев,Yes,Raw,170,175,-185,175,,D,175,,,,,
4,Vladimir Andreev,Amateur Open,1988,66.2,,,,,,67.5,M,Владимир Андреев,Yes,Raw,150,170,-180,170,,D,170,,,,,
1,Yuriy Zubov,Amateur Masters 75-79,1939,65.8,,,,,,67.5,M,Юрий Зубов,Yes,Raw,145,-150,,145,,D,145,,,,,
1,Evgeniy Pedurets,Amateur Teen 13-15,1999,73.2,,,,,,75,M,Евгений Пэдурец,Yes,Raw,165,170,177.5,177.5,,D,177.5,,,,,
1,Aleksandr Safronov,Amateur Teen 16-17,1997,73.3,,,,,,75,M,Александр Сафронов,Yes,Raw,145,155,160,160,,D,160,,,,,
1,Ruslan Volkov,Amateur Juniors 20-23,1993,74.5,,,,,,75,M,Руслан Волков,Yes,Raw,225,-240,245,245,,D,245,,,,,
2,Dmitriy Troshin,Amateur Juniors 20-23,1993,72.7,,,,,,75,M,Дмитрий Трошин,Yes,Raw,192.5,202.5,-207.5,202.5,,D,202.5,,,,,
3,Igor Baryshnikov,Amateur Juniors 20-23,1994,74,,,,,,75,M,Игорь Барышников,Yes,Raw,170,-180,-202.5,170,,D,170,,,,,
1,Pavel Zubkov,Amateur Open,1985,74,,,,,,75,M,Павел Зубков,Yes,Raw,235,250,255,255,,D,255,,,,,
2,Dmitriy Gromov,Amateur Open,1987,74.2,,,,,,75,M,Дмитрий Громов,Yes,Raw,220,232.5,-237.5,232.5,,D,232.5,,,,,
3,Aleksandr Grechukhin,Amateur Open,1989,73.8,,,,,,75,M,Александр Гречухин,Yes,Raw,230,-245,-245,230,,D,230,,,,,
4,Aleksey Levashov,Amateur Open,1978,74.1,,,,,,75,M,Алексей Левашов,Yes,Raw,192.5,197.5,202.5,202.5,,D,202.5,,,,,
5,Aleksandr Krutov,Amateur Open,1997,71.1,,,,,,75,M,Александр Крутов,Yes,Raw,-165,177.5,185,185,,D,185,,,,,
6,Mikhail Vishnyakov,Amateur Open,1989,72.4,,,,,,75,M,Михаил Вишняков,Yes,Raw,170,177.5,182.5,182.5,,D,182.5,,,,,
7,Evgeniy Batyaev,Amateur Open,1986,74.4,,,,,,75,M,Евгений Батяев,Yes,Raw,170,-177.5,177.5,177.5,,D,177.5,,,,,
8,Mikhail Myzenkov,Amateur Open,1985,73.2,,,,,,75,M,Михаил Мызенков,Yes,Raw,175,-180,-180,175,,D,175,,,,,
9,Mikhail Kostikov,Amateur Open,1975,74.3,,,,,,75,M,Михаил Костиков,Yes,Raw,155,-165,165,165,,D,165,,,,,
DQ,Aleksey Ushakov,Amateur Open,1987,73,,,,,,75,M,Алексей Ушаков,Yes,Raw,-155,-160,-160,,,D,,,,,,
1,Sergey Sidorovskiy,Amateur Masters 40-44,1971,74.5,,,,,,75,M,Сергей Сидоровский,Yes,Raw,170,180,190,190,,D,190,,,,,
1,Ivan Shuvalov,Amateur Teen 16-17,1997,79.8,,,,,,82.5,M,Иван Шувалов,Yes,Raw,200,-215,-215,200,,D,200,,,,,
2,Fedor Adashev,Amateur Teen 16-17,1997,80.9,,,,,,82.5,M,Федор Адашев,Yes,Raw,-185,185,192.5,192.5,,D,192.5,,,,,
3,Egor Sinelschikov,Amateur Teen 16-17,1997,80.1,,,,,,82.5,M,Егор Синельщиков,Yes,Raw,175,185,190,190,,D,190,,,,,
4,Matvey Kalin,Amateur Teen 16-17,1998,78.8,,,,,,82.5,M,Матвей Калин,Yes,Raw,120,130,135,135,,D,135,,,,,
1,Dmitriy Nikanorov,Amateur Teen 18-19,1996,80.9,,,,,,82.5,M,Дмитрий Никаноров,Yes,Raw,160,175,185,185,,D,185,,,,,
2,Nail Galimulin,Amateur Teen 18-19,1996,82.5,,,,,,82.5,M,Наиль Галимулин,Yes,Raw,185,-195,-195,185,,D,185,,,,,
1,Ivan Fartuna,Amateur Juniors 20-23,1991,80.9,,,,,,82.5,M,Иван Фартуна,Yes,Raw,195,205,215,215,,D,215,,,,,
2,Andrey Yanson,Amateur Juniors 20-23,1991,79.3,,,,,,82.5,M,Андрей Янсон,Yes,Raw,-200,-200,200,200,,D,200,,,,,
3,Andrey Kozlov,Amateur Juniors 20-23,1992,80.6,,,,,,82.5,M,Андрей Козлов,Yes,Raw,170,185,195,195,,D,195,,,,,
4,Igor Rybko,Amateur Juniors 20-23,1992,76.2,,,,,,82.5,M,Игорь Рыбко,Yes,Raw,185,-192.5,192.5,192.5,,D,192.5,,,,,
5,Denis Puchkov,Amateur Juniors 20-23,1991,82.3,,,,,,82.5,M,Денис Пучков,Yes,Raw,180,185,190,190,,D,190,,,,,
1,Vasiliy Perov,Amateur Open,1979,82.1,,,,,,82.5,M,Василий Перов,Yes,Raw,240,255,267.5,267.5,,D,267.5,,,,,
2,Sergey Evseev,Amateur Open,1990,81,,,,,,82.5,M,Сергей Евсеев,Yes,Raw,230,250,-260,250,,D,250,,,,,
3,Sergey Lovyagin,Amateur Open,1984,80.9,,,,,,82.5,M,Сергей Ловягин,Yes,Raw,225,235,-242.5,235,,D,235,,,,,
4,Vadim Malov,Amateur Open,1990,81.9,,,,,,82.5,M,Вадим Малов,Yes,Raw,205,217.5,230,230,,D,230,,,,,
5,Alexey Romanov,Amateur Open,1986,82.5,,,,,,82.5,M,Алексей Романов,Yes,Raw,-220,230,-240,230,,D,230,,,,,
6,Marat Guketlov,Amateur Open,1990,76.3,,,,,,82.5,M,Марат Гукетлов,Yes,Raw,210,220,-240,220,,D,220,,,,,
7,Maksim Novoselskiy,Amateur Open,1984,81.3,,,,,,82.5,M,Максим Новосельский,Yes,Raw,170,185,195,195,,D,195,,,,,
8,Sergey Nikolaev,Amateur Open,1992,77.8,,,,,,82.5,M,Сергей Николаев,Yes,Raw,-165,185,-200,185,,D,185,,,,,
9,Mikhail Zhuravlev,Amateur Open,1988,78.1,,,,,,82.5,M,Михаил Журавлев,Yes,Raw,-185,185,-210,185,,D,185,,,,,
10,Dmitriy Putsenkov,Amateur Open,1989,79.8,,,,,,82.5,M,Дмитрий Пуценков,Yes,Raw,170,-185,185,185,,D,185,,,,,
1,Vladimir Panfilov,Amateur Masters 60-64,1953,81.6,,,,,,82.5,M,Владимир Панфилов,Yes,Raw,160,170,175,175,,D,175,,,,,
1,Sergey Bronzov,Amateur Teen 18-19,1996,88.5,,,,,,90,M,Сергей Бронзов,Yes,Raw,222.5,240,250,250,,D,250,,,,,
2,Ilya Trishkin,Amateur Teen 18-19,1996,84.4,,,,,,90,M,Илья Тришкин,Yes,Raw,200,215,-225,215,,D,215,,,,,
1,Stanislav Motorykin,Amateur Juniors 20-23,1992,86.6,,,,,,90,M,Станислав Моторыкин,Yes,Raw,-200,200,210,210,,D,210,,,,,
1,Vitaliy Zheludev,Amateur Open,1986,87.2,,,,,,90,M,Виталий Желудев,Yes,Raw,250,260,-265,260,,D,260,,,,,
2,Yuriy Shirobokov,Amateur Open,1988,84.9,,,,,,90,M,Юрий Широбоков,Yes,Raw,240,247.5,252.5,252.5,,D,252.5,,,,,
3,Oleg Varvarin,Amateur Open,1986,87.9,,,,,,90,M,Олег Варварин,Yes,Raw,230,240,245,245,,D,245,,,,,
4,Pavel Kretts,Amateur Open,1986,87.2,,,,,,90,M,Павел Кретц,Yes,Raw,222.5,230,240,240,,D,240,,,,,
5,Vladislav Girko,Amateur Open,1987,87.8,,,,,,90,M,Владислав Гирко,Yes,Raw,215,225,235,235,,D,235,,,,,
6,Evgeniy Zaytsev,Amateur Open,1983,86.4,,,,,,90,M,Евгений Зайцев,Yes,Raw,210,222.5,230,230,,D,230,,,,,
7,Aleksandr Lebedev,Amateur Open,1986,88.4,,,,,,90,M,Александр Лебедев,Yes,Raw,210,222.5,230,230,,D,230,,,,,
8,Evgeniy Solopov,Amateur Open,1989,87.5,,,,,,90,M,Евгений Солопов,Yes,Raw,180,205,222.5,222.5,,D,222.5,,,,,
9,Andrey Dronin,Amateur Open,1989,87.9,,,,,,90,M,Андрей Дронин,Yes,Raw,207.5,222.5,-230,222.5,,D,222.5,,,,,
10,Eduard Kanevskiy,Amateur Open,1983,86.5,,,,,,90,M,Эдуард Каневский,Yes,Raw,200,215,-222.5,215,,D,215,,,,,
11,Nikolay Luppov,Amateur Open,1979,87.8,,,,,,90,M,Николай Луппов,Yes,Raw,-210,210,-215,210,,D,210,,,,,
12,Aleksey Borisov,Amateur Open,1987,88.8,,,,,,90,M,Алексей Борисов,Yes,Raw,195,205,-210,205,,D,205,,,,,
13,Denis Popov,Amateur Open,1987,88.1,,,,,,90,M,Денис Попов,Yes,Raw,195,-205,-205,195,,D,195,,,,,
DQ,Leonid Sikorov,Amateur Open,1988,84.3,,,,,,90,M,Леонид Сикоров,Yes,Raw,-195,-195,-195,,,D,,,,,,
1,Dmitriy Shekhovtsov,Amateur Teen 16-17,1997,94.8,,,,,,100,M,Дмитрий Шеховцов,Yes,Raw,202.5,215,232.5,232.5,,D,232.5,,,,,
1,Georgiy Bebiashvili,Amateur Teen 18-19,1997,93.9,,,,,,100,M,Георгий Бебиашвили,Yes,Raw,215,232.5,-240,232.5,,D,232.5,,,,,
2,Ilya Korobkov,Amateur Teen 18-19,1996,93.9,,,,,,100,M,Илья Коробков,Yes,Raw,202.5,215,222.5,222.5,,D,222.5,,,,,
1,Ivan Sholokhov,Amateur Juniors 20-23,1993,95.4,,,,,,100,M,Иван Шолохов,Yes,Raw,230,250,267.5,267.5,,D,267.5,,,,,
2,Konstantin Bezverkhov,Amateur Juniors 20-23,1994,90.4,,,,,,100,M,Константин Безверхов,Yes,Raw,200,-210,215,215,,D,215,,,,,
1,Anton Ilyasov,Amateur Open,1988,95.7,,,,,,100,M,Антон Илясов,Yes,Raw,320,-335,,320,,D,320,,,,,
2,Konstantin Istomin,Amateur Open,1989,93.9,,,,,,100,M,Константин Истомин,Yes,Raw,235,240,250,250,,D,250,,,,,
3,Artem Dymokurov,Amateur Open,1989,97.8,,,,,,100,M,Артем Дымокуров,Yes,Raw,235,250,-265,250,,D,250,,,,,
4,Andrey Dyachev,Amateur Open,1984,100,,,,,,100,M,Андрей Дьячев,Yes,Raw,215,230,-235,230,,D,230,,,,,
5,Ilya Dennikov,Amateur Open,1970,97.6,,,,,,100,M,Илья Денников,Yes,Raw,195,205,210,210,,D,210,,,,,
6,Ruslan Novikov,Amateur Open,1988,97,,,,,,100,M,Руслан Новиков,Yes,Raw,205,-217.5,-217.5,205,,D,205,,,,,
7,Aleksey Cherepkov,Amateur Open,1988,97.7,,,,,,100,M,Алексей Черепков,Yes,Raw,-205,205,-210,205,,D,205,,,,,
8,Aleksey Shibalkin,Amateur Open,1983,98.3,,,,,,100,M,Алексей Шибалкин,Yes,Raw,182.5,195,202.5,202.5,,D,202.5,,,,,
9,Mikhail Solenkov,Amateur Open,1980,98.5,,,,,,100,M,Михаил Соленков,Yes,Raw,190,-202.5,-202.5,190,,D,190,,,,,
1,Aleksey Popov,Amateur Masters 45-49,1968,97.4,,,,,,100,M,,Yes,Raw,230,247.5,,247.5,,D,247.5,,,,,
1,Vadim Pronin,Amateur Open,1979,109.4,,,,,,110,M,Вадим Пронин,Yes,Raw,210,222.5,232.5,232.5,,D,232.5,,,,,
2,Semen Filatov,Amateur Open,1985,105.9,,,,,,110,M,Семен Филатов,Yes,Raw,210,220,230,230,,D,230,,,,,
3,Andrey Starostin,Amateur Open,1981,109.2,,,,,,110,M,Андрей Старостин,Yes,Raw,185,207.5,210,210,,D,210,,,,,
4,Oleg Vshivkov,Amateur Open,1976,108.8,,,,,,110,M,Олег Вшивков,Yes,Raw,-190,190,207.5,207.5,,D,207.5,,,,,
1,Andrey Sokolov,Amateur Masters 40-44,1971,110,,,,,,110,M,Андрей Соколов,Yes,Raw,220,240,250,250,,D,250,,,,,
1,Andrey Burakov,Amateur Masters 55-59,1958,102.5,,,,,,110,M,Андрей Бураков,Yes,Raw,190,200,210,210,,D,210,,,,,
1,Maksim Makarov,Amateur Teen 16-17,1998,111.4,,,,,,125,M,Максим Макаров,Yes,Raw,200,220,-240,220,,D,220,,,,,
1,Denis Leonov,Amateur Juniors 20-23,1992,118.4,,,,,,125,M,Денис Леонов,Yes,Raw,-190,200,215,215,,D,215,,,,,
2,Ruslan Pakhomov,Amateur Juniors 20-23,1991,122.9,,,,,,125,M,Руслан Пахомов,Yes,Raw,-192.5,192.5,215,215,,D,215,,,,,
1,Mikhail Mazurkevich,Amateur Open,1982,122.4,,,,,,125,M,Михаил Мазуркевич,Yes,Raw,200,-215,-215,200,,D,200,,,,,
1,Denis Plenkin,Amateur Masters 40-44,1974,115.8,,,,,,125,M,Денис Пленкин,Yes,Raw,210,225,240,240,,D,240,,,,,
1,Denis Krasnorutskiy,Amateur Open,1983,132,,,,,,140,M,Денис Красноруцкий,Yes,Raw,227.5,232.5,240,240,,D,240,,,,,
2,Sergey Kozlov,Amateur Open,1983,139.4,,,,,,140,M,Сергей Козлов,Yes,Raw,192.5,210,222.5,222.5,,D,222.5,,,,,
3,Dmitriy Ivasenko,Amateur Open,1976,129.1,,,,,,140,M,Дмитрий Ивасенко,Yes,Raw,200,210,-222.5,210,,D,210,,,,,
1,Olga Sokolova,Pro Open,1981,67,,,,,,67.5,F,Ольга Соколова,No,Raw,120,125,130,130,,D,130,,,,,
1,Sergey Buryakov,Pro Open,1977,62.1,,,,,,67.5,M,Сергей Буряков,No,Raw,140,150,160,160,,D,160,,,,,
1,Evgeniy Shuvalov,Pro Open,1983,73.8,,,,,,75,M,Евгений Шувалов,No,Raw,210,-217.5,-217.5,210,,D,210,,,,,
DQ,Andrey Kiselev,Pro Masters 50-54,1964,73,,,,,,75,M,Андрей Киселев,No,Raw,-130,-145,-145,,,D,,,,,,
1,Vladimir Kulakov,Pro Open,1955,77.3,,,,,,82.5,M,Владимир Кулаков,No,Raw,100,115,-122.5,115,,D,115,,,,,
1,Vladimir Kulakov,Pro Masters 55-59,1955,77.3,,,,,,82.5,M,Владимир Кулаков,No,Raw,100,115,-122.5,115,,D,115,,,,,
1,Vladislav Sannikov,Pro Masters 75-79,1938,78.5,,,,,,82.5,M,Владислав Санников,No,Raw,120,-125,125,125,,D,125,,,,,
1,Konstantin Fedorov,Pro Juniors 20-23,1992,89.9,,,,,,90,M,Константин Федоров,No,Raw,230,251,-265,251,,D,251,,,,,
2,Nikita Romanov,Pro Juniors 20-23,1991,87.4,,,,,,90,M,Никита Романов,No,Raw,220,235,-252.5,235,,D,235,,,,,
3,Aleksandr Baranov,Pro Juniors 20-23,1991,89.2,,,,,,90,M,Александр Баранов,No,Raw,190,200,-210,200,,D,200,,,,,
1,Radiy Spitsin,Pro Open,1981,89.3,,,,,,90,M,Радій Спицин,No,Raw,270,280,-292.5,280,,D,280,,,,,
2,Dmitriy Ryzhnikov,Pro Open,1984,88.2,,,,,,90,M,Дмитрий Рыжников,No,Raw,210,230,,230,,D,230,,,,,
1,Aleksey Zhulin,Pro Juniors 20-23,1992,97,,,,,,100,M,Алексей Жулин,No,Raw,255,272.5,277.5,277.5,,D,277.5,,,,,
2,Bogdan Matiko,Pro Juniors 20-23,1992,96.4,,,,,,100,M,Богдан Матико,No,Raw,250,-265,-277.5,250,,D,250,,,,,
3,Artem Lubinov,Pro Juniors 20-23,1992,95.9,,,,,,100,M,Артем Лубинов,No,Raw,220,240,-245,240,,D,240,,,,,
1,Andrey Bulgar,Pro Open,1988,97.2,,,,,,100,M,Андрей Булгарь,No,Raw,270,277.5,290,290,,D,290,,,,,
2,Andrey Arkhipov,Pro Open,1979,96,,,,,,100,M,Андрей Архипов,No,Raw,235,245,-250,245,,D,245,,,,,
1,Dmitriy Alekseev,Pro Masters 40-44,1971,97,,,,,,100,M,Дмитрий Алексеев,No,Raw,-200,210,225,225,,D,225,,,,,
1,Dmitriy Basetskiy,Pro Masters 50-54,1964,94.7,,,,,,100,M,Дмитрий Басецкий,No,Raw,200,220,235,235,,D,235,,,,,
1,Pavel Papenkov,Pro Open,1980,103.9,,,,,,110,M,Павел Папенков,No,Raw,-275,275,290,290,,D,290,,,,,
2,Marat Savosin,Pro Open,1990,107.5,,,,,,110,M,Марат Савосин,No,Raw,270,280,-290,280,,D,280,,,,,
3,Maksim Kuznetsov,Pro Open,1989,106.4,,,,,,110,M,Максим Кузнецов,No,Raw,247.5,257.5,265,265,,D,265,,,,,
DQ,Andrey Shishkin,Pro Masters 50-54,1962,108.1,,,,,,110,M,Андрей Шишкин,No,Raw,-175,,,,,D,,,,,,
1,Vadim Pchelkin,Pro Masters 40-44,1971,118.3,,,,,,125,M,Вадим Пчелкин,No,Raw,240,260,280,280,,D,280,,,,,
1,Viktor Krylov,Pro Open,1985,128,,,,,,140,M,Виктор Крылов,No,Raw,300,310,315,315,,D,315,,,,,
1,Konstantin Sapunkov,Amateur Open,1981,82.1,,,,,,82.5,M,Константин Сапунков,Yes,Single-ply,265,-280,-280,265,,D,265,,,,,
1,Aleksey Selischev,Amateur Open,1978,89.2,,,,,,90,M,Алексей Селищев,Yes,Single-ply,-210,210,,210,,D,210,,,,,
1,Kristina Chudnova,Pro Juniors 20-23,1994,55.3,,,,,,56,F,Кристина Чуднова,No,Single-ply,137.5,145,150,150,155,D,150,,,,,
1,Roman Korshunov,Pro Open,1980,74.5,,,,,,75,M,Роман Коршунов,No,Single-ply,215,225,-230,225,,D,225,,,,,
1,Vladimir Kulakov,Pro Open,1955,77.3,,,,,,82.5,M,Владимир Кулаков,No,Single-ply,105,117.5,125,125,,D,125,,,,,
2,Vladimir Kulakov,Pro Masters 55-59,1955,77.3,,,,,,82.5,M,Владимир Кулаков,No,Single-ply,105,117.5,125,125,,D,125,,,,,
1,Dmitry Gorelikov,Pro Open,1968,87.6,,,,,,90,M,Дмитрий Гореликов,No,Single-ply,267.5,-282.5,,267.5,,D,267.5,,,,,
1,Dmitry Gorelikov,Pro Masters 45-49,1968,87.6,,,,,,90,M,Дмитрий Гореликов,No,Single-ply,267.5,-282.5,,267.5,,D,267.5,,,,,
1,Denis Demkin,Pro Open,1979,106.7,,,,,,110,M,Денис Демкин,No,Single-ply,210,-235,,210,,D,210,,,,,
1,Svetlana Kadantseva,Amateur Juniors 20-23,1991,47.4,-45,45,-50,45,,48,F,Светлана Каданцева,Yes,Raw,100,-105,-105,100,,SBD,245,85,95,100,100,105
1,Polina Andreeva,Amateur Open,1987,48,55,60,-65,60,,48,F,Полина Андреева,Yes,Raw,95,105,110,110,,SBD,282.5,95,105,112.5,112.5,
2,Svetlana Kadantseva,Amateur Open,1991,47.4,-45,45,-50,45,,48,F,Светлана Каданцева,Yes,Raw,100,-105,-105,100,,SBD,245,85,95,100,100,105
3,Anna Yusupova,Amateur Open,1988,46.8,-37.5,37.5,-40,37.5,,48,F,Анна Юсупова,Yes,Raw,105,110,112.5,112.5,,SBD,222.5,62.5,67.5,72.5,72.5,
4,Evgeniya Astafyeva,Amateur Open,1982,47.6,-47.5,47.5,50,50,,48,F,Евгения Астафьева,Yes,Raw,90,-97.5,-97.5,90,,SBD,217.5,75,77.5,-80,77.5,
5,Irina Golovunina,Amateur Open,1981,47.1,37.5,40,-45,40,,48,F,Ирина Головунина,Yes,Raw,-90,90,92.5,92.5,,SBD,210,-77.5,-77.5,77.5,77.5,
1,Bella Salmaeva,Amateur Open,1986,51.3,50,55,-57.5,55,,52,F,Бэлла Салмаева,Yes,Raw,70,80,-87.5,80,,SBD,217.5,70,75,82.5,82.5,
1,Aleksandra Chizh,Amateur Juniors 20-23,1992,54.7,55,60,62.5,62.5,,56,F,Александра Чиж,Yes,Raw,120,-130,-130,120,,SBD,282.5,-90,90,100,100,
2,Svetlana Dragunova,Amateur Juniors 20-23,1991,55.7,45,-50,-50,45,,56,F,Светлана Драгунова,Yes,Raw,90,-100,100,100,,SBD,235,80,90,-100,90,
1,Olga Pyzhova,Amateur Open,1986,55.1,-50,-50,50,50,,56,F,Ольга Пыжова,Yes,Raw,100,-102.5,-102.5,100,,SBD,255,80,100,105,105,
2,Anna Ratnikova,Amateur Open,1982,55.1,55,-57.5,-57.5,55,,56,F,Анна Ратникова,Yes,Raw,97.5,102.5,105,105,,SBD,242.5,80,82.5,-85,82.5,
3,Irina Kolmogorova,Amateur Open,1979,53.9,45,50,-55,50,,56,F,Ирина Колмогорова,Yes,Raw,-90,97.5,105,105,,SBD,235,70,75,80,80,
4,Lidiya Soldatova,Amateur Open,1985,54.6,47.5,50,-52.5,50,,56,F,Лидия Солдатова,Yes,Raw,95,100,110,110,,SBD,235,70,-75,75,75,
5,Natalya Levenkova,Amateur Open,1988,53.9,45,-50,-50,45,,56,F,Наталья Левенкова,Yes,Raw,90,-100,100,100,,SBD,220,70,75,-80,75,
6,Polina Pecherskikh,Amateur Open,1988,54.2,30,-37.5,-37.5,30,,56,F,Полина Печерских,Yes,Raw,70,80,-90,80,,SBD,170,-60,60,-70,60,
DQ,Mariya Nekrasova,Amateur Open,1989,54.2,-45,,,,,56,F,Мария Некрасова,Yes,Raw,-100,,,,,SBD,,-90,-90,-90,,
1,Aleksandra Vuller,Amateur Juniors 20-23,1991,56.4,37.5,40,-42.5,40,,60,F,Александра Вуллер,Yes,Raw,90,95,102.5,102.5,,SBD,217.5,-67.5,-75,75,75,
1,Irina Karpova,Amateur Open,1989,58.2,65,67.5,70,70,,60,F,Ирина Карпова,Yes,Raw,120,130,-135,130,,SBD,315,102.5,110,115,115,
2,Natalya Mironova,Amateur Open,1974,58.6,55,,,55,,60,F,Наталья Миронова,Yes,Raw,127.5,,,127.5,,SBD,280,97.5,,,97.5,
3,Darya Evdokimova,Amateur Open,1988,56.5,47.5,50,52.5,52.5,,60,F,Дарья Евдокимова,Yes,Raw,117.5,125,135,135,,SBD,267.5,-65,80,-82.5,80,
4,Darya Frolkina,Amateur Open,1987,59.2,50,-52.5,-52.5,50,,60,F,Дарья Фролкина,Yes,Raw,87.5,92.5,-97.5,92.5,,SBD,227.5,80,85,-90,85,
1,Natalya Mironova,Amateur Masters 40-44,1974,58.6,-52.5,55,-60,55,,60,F,Наталья Миронова,Yes,Raw,115,127.5,-135,127.5,,SBD,280,80,90,97.5,97.5,
1,Evgeniya Rozhkova,Amateur Teen 18-19,1996,61.1,42.5,45,-47.5,45,,67.5,F,Евгения Рожкова,Yes,Raw,75,82.5,85,85,,SBD,200,-70,70,-75,70,
1,Ekaterina Pozdnyakova,Amateur Juniors 20-23,1991,67.5,65,67.5,-70,67.5,,67.5,F,Екатерина Позднякова,Yes,Raw,135,145,-150,145,,SBD,342.5,115,125,130,130,
1,Oksana Fomenko,Amateur Open,1988,64.9,57.5,-62.5,-62.5,57.5,,67.5,F,Оксана Фоменко,Yes,Raw,120,-130,-130,120,,SBD,292.5,110,115,-120,115,
2,Anna Kuznetsova,Amateur Open,1984,64.4,55,60,62.5,62.5,,67.5,F,Анна Кузнецова,Yes,Raw,110,120,-125,120,,SBD,282.5,90,95,100,100,
3,Elena Gusarkina,Amateur Open,1978,62.1,60,-65,-65,60,,67.5,F,Елена Гусаркина,Yes,Raw,-120,120,-130,120,,SBD,270,80,85,90,90,
4,Svetlana Grigoryeva,Amateur Open,1982,64.9,55,60,-65,60,,67.5,F,Светлана Григорьева,Yes,Raw,100,110,-120,110,,SBD,260,80,90,-100,90,
5,Yuliya Kurova,Amateur Open,1981,64,42.5,45,-47.5,45,,67.5,F,Юлия Курова,Yes,Raw,90,100,-105,100,,SBD,235,90,-95,-95,90,
DQ,Valeriya Kalaeva,Amateur Open,1990,65.5,-70,-75,-75,,,67.5,F,Валерия Калаева,Yes,Raw,-130,,,,,SBD,,110,120,-130,120,
1,Mariya Savkina,Amateur Open,1989,71.2,-75,75,-77.5,75,,75,F,Мария Савкина,Yes,Raw,125,130,135,135,,SBD,325,105,110,115,115,
2,Oksana Novikova,Amateur Open,1984,72.3,65,-70,,65,,75,F,Оксана Новикова,Yes,Raw,130,140,-145,140,,SBD,325,115,-120,120,120,
3,Anastasiya Pykhova,Amateur Open,1989,73.2,55,57.5,60,60,,75,F,Анастасия Пыхова,Yes,Raw,-140,150,160,160,,SBD,320,95,100,-105,100,
4,Elena Davydova,Amateur Open,1973,74.2,65,70,72.5,72.5,,75,F,Елена Давыдова,Yes,Raw,130,137.5,-142.5,137.5,,SBD,320,105,-110,110,110,
5,Ekaterina Shaeva,Amateur Open,1985,74.2,55,60,-62.5,60,,75,F,Екатерина Шаева,Yes,Raw,125,130,-140,130,,SBD,310,-110,110,120,120,
6,Olga Karkischenko,Amateur Open,1983,75,62.5,67.5,70,70,,75,F,Ольга Каркищенко,Yes,Raw,100,110,-115,110,,SBD,295,100,110,115,115,
1,Anna Shaykhutdinova,Amateur Open,1986,80.9,75,80,-85,80,,82.5,F,Анна Шайхутдинова,Yes,Raw,135,150,-155,150,,SBD,375,-135,135,145,145,
1,Natalya Tyulyukova,Amateur Open,1979,85.8,55,60,62.5,62.5,,90,F,Наталья Тюлюкова,Yes,Raw,70,80,92.5,92.5,,SBD,240,75,85,-95,85,
1,Oleg Vaschenko,Amateur Open,1980,54.8,80,85,-90,85,,56,M,Олег Ващенко,Yes,Raw,-135,135,,135,,SBD,357.5,125,132.5,137.5,137.5,
1,Evgeniy Pleshkov,Amateur Teen 18-19,1995,58.9,65,70,72.5,72.5,,60,M,Евгений Плешков,Yes,Raw,125,140,-145,140,,SBD,322.5,-100,105,110,110,
1,Vitaliy Beskorovaynyy,Amateur Teen 13-15,1999,65.3,75,80,85,85,,67.5,M,Виталий Бескоровайный,Yes,Raw,120,135,-150,135,,SBD,320,85,90,100,100,
1,Vladimir Panyutin,Amateur Teen 16-17,1997,64.7,115,117.5,120,120,,67.5,M,Владимир Панютин,Yes,Raw,175,185,190,190,,SBD,490,165,172.5,180,180,
1,Artur Ten,Amateur Teen 18-19,1996,66,100,105,-110,105,,67.5,M,Артур Тен,Yes,Raw,175,185,195,195,,SBD,460,150,160,-165,160,
2,Aleksandr Bubnov,Amateur Teen 18-19,1996,65.3,95,102.5,-105,102.5,,67.5,M,Александр Бубнов,Yes,Raw,135,142.5,-145,142.5,,SBD,380,125,132.5,135,135,
1,Boris Belousov,Amateur Juniors 20-23,1992,61,95,100,102.5,102.5,,67.5,M,Борис Белоусов,Yes,Raw,150,-155,155,155,,SBD,397.5,120,140,-145,140,
2,Anton Tolubaev,Amateur Juniors 20-23,1991,65.1,-75,75,-77.5,75,,67.5,M,Антон Толубаев,Yes,Raw,167.5,177.5,-185,177.5,,SBD,377.5,115,120,125,125,
3,Rafael Achilov,Amateur Juniors 20-23,1992,65.2,90,-97.5,-97.5,90,,67.5,M,Рафаэль Ачилов,Yes,Raw,135,140,150,150,,SBD,355,105,110,115,115,
1,Aleksandr Scherbakov,Amateur Open,1987,65.9,-80,80,87.5,87.5,,67.5,M,Александр Щербаков,Yes,Raw,150,-162.5,162.5,162.5,,SBD,380,120,130,-135,130,
1,Georgiy Kovalevskiy,Amateur Teen 16-17,1997,72.5,117.5,125,-130,125,,75,M,Георгий Ковалевский,Yes,Raw,160,180,200,200,,SBD,500,160,167.5,175,175,
2,Denis Vikulov,Amateur Teen 16-17,1997,71.4,100,107.5,-112.5,107.5,,75,M,Денис Викулов,Yes,Raw,-142.5,152.5,-162.5,152.5,,SBD,390,125,130,-137.5,130,
3,Ilya Kobzar,Amateur Teen 16-17,1998,69.5,60,70,-80,70,,75,M,Илья Кобзарь,Yes,Raw,100,120,-130,120,,SBD,300,100,110,-120,110,
4,Mikhail Pozharitskiy,Amateur Teen 16-17,1998,73.1,60,-65,-65,60,,75,M,Михаил Пожарицкий,Yes,Raw,100,125,-132.5,125,,SBD,265,-80,80,-100,80,
DQ,Yulian Ivanov,Amateur Teen 16-17,1997,75,-150,-150,-150,,,75,M,Юлиан Иванов,Yes,Raw,-200,,,,,SBD,,195,205,-210,205,
DQ,Evgeniy Ozhogin,Amateur Teen 18-19,1996,74.2,-115,,,,,75,M,Евгений Ожогин,Yes,Raw,-180,,,,,SBD,,-170,-170,-170,,
1,Dmitriy Ernestov,Amateur Juniors 20-23,1993,71.1,70,75,-80,75,,75,M,Дмитрий Эрнестов,Yes,Raw,150,160,170,170,,SBD,355,-105,-110,110,110,
DQ,Vasiliy Olar,Amateur Juniors 20-23,1994,72.7,-100,,,,,75,M,,Yes,Raw,-190,,,,,SBD,,-140,-140,-140,,
1,Ivan Palekha,Amateur Open,1990,72.9,-130,130,-135,130,,75,M,Иван Палеха,Yes,Raw,-170,170,190,190,,SBD,490,-165,-170,170,170,
2,Aleksandr Krasnov,Amateur Open,1989,72.1,100,-110,-110,100,,75,M,Александр Краснов,Yes,Raw,170,180,190,190,,SBD,460,170,-185,-185,170,
3,Ravil Salimullin,Amateur Open,1984,70.7,-105,110,-115,110,,75,M,Равиль Салимуллин,Yes,Raw,-170,-170,170,170,,SBD,435,-155,155,-170,155,
4,Vadim Nazarov,Amateur Open,1988,74.7,115,120,125,125,,75,M,Вадим Назаров,Yes,Raw,160,-170,-170,160,,SBD,425,130,140,-150,140,
1,Aleksandr Bakin,Amateur Teen 16-17,1997,81.7,105,107.5,110,110,,82.5,M,Александр Бакин,Yes,Raw,160,170,175,175,,SBD,457.5,155,165,172.5,172.5,
1,Aleksey Smirnov,Amateur Teen 18-19,1995,81.9,130,135,-137.5,135,,82.5,M,Алексей Смирнов,Yes,Raw,230,-235,-235,230,,SBD,575,190,205,210,210,
2,Yaroslav Dikun,Amateur Teen 18-19,1995,82.3,130,-135,-135,130,,82.5,M,Ярослав Дикун,Yes,Raw,190,200,-230,200,,SBD,500,160,170,-180,170,
3,Anton Drynin,Amateur Teen 18-19,1996,80,115,120,125,125,,82.5,M,Антон Дрынин,Yes,Raw,-150,160,170,170,,SBD,467.5,155,165,172.5,172.5,
4,Ilya Tvorogov,Amateur Teen 18-19,1996,80.3,92.5,-100,-100,92.5,,82.5,M,Илья Творогов,Yes,Raw,180,192.5,202.5,202.5,,SBD,455,140,150,160,160,
5,Nail Galimulin,Amateur Teen 18-19,1996,81.3,115,120,-127.5,120,,82.5,M,Наиль Галимулин,Yes,Raw,170,180,195,195,,SBD,455,130,-140,140,140,
6,Aleksandr Volkov,Amateur Teen 18-19,1995,81.4,90,-95,-95,90,,82.5,M,Александр Волков,Yes,Raw,135,145,,145,,SBD,385,130,140,150,150,
1,Andrey Pershin,Amateur Juniors 20-23,1993,81.9,132.5,137.5,-142.5,137.5,,82.5,M,Андрей Першин,Yes,Raw,210,-220,,210,,SBD,527.5,-180,-180,180,180,
2,Mikhail Elizarov,Amateur Juniors 20-23,1993,80.3,110,-120,-120,110,,82.5,M,Михаил Елизаров,Yes,Raw,200,210,222.5,222.5,,SBD,497.5,160,-165,165,165,
3,Ivan Rodionov,Amateur Juniors 20-23,1991,77.9,115,122.5,-127.5,122.5,,82.5,M,Иван Родионов,Yes,Raw,180,192.5,-200,192.5,,SBD,487.5,150,162.5,172.5,172.5,
4,Igor Rybko,Amateur Juniors 20-23,1992,75.7,120,125,-132.5,125,,82.5,M,Игорь Рыбко,Yes,Raw,180,190,-200,190,,SBD,485,150,160,170,170,
DQ,Aleksandr Smelyy,Amateur Juniors 20-23,1993,79.9,-112.5,-112.5,,,,82.5,M,Александр Смелый,Yes,Raw,-170,,,,,SBD,,132.5,140,145,145,
1,Vasiliy Perov,Amateur Open,1979,81.5,152.5,160,-165,160,,82.5,M,Василий Перов,Yes,Raw,250,262.5,275,275,,SBD,660,210,220,225,225,
2,Dmitriy Timofeev,Amateur Open,1987,80.2,150,155,-160,155,,82.5,M,Дмитрий Тимофеев,Yes,Raw,275,285,-290,285,,SBD,655,215,-225,-225,215,
3,Maksim Lyubyatinskiy,Amateur Open,1985,82.5,150,155,157.5,157.5,,82.5,M,Максим Любятинский,Yes,Raw,220,230,237.5,237.5,,SBD,585,180,-190,190,190,
4,Yuriy Ivkin,Amateur Open,1983,77.1,125,130,132.5,132.5,,82.5,M,Юрий Ивкин,Yes,Raw,225,230,-235,230,,SBD,572.5,200,207.5,210,210,
5,Sergey Lebushkin,Amateur Open,1990,79.2,130,137.5,145,145,,82.5,M,Сергей Лебушкин,Yes,Raw,215,230,240,240,,SBD,555,170,-175,-175,170,
6,Aleksandr Kurtsaev,Amateur Open,1989,81.9,120,-130,-130,120,,82.5,M,Александр Курцаев,Yes,Raw,-210,210,-230,210,,SBD,510,170,180,-190,180,
7,Maksim Novoselskiy,Amateur Open,1984,82,120,127.5,-132.5,127.5,,82.5,M,Максим Новосельский,Yes,Raw,170,180,190,190,,SBD,467.5,140,150,-155,150,
8,Andrey Zharov,Amateur Open,1983,81.2,110,-120,-125,110,,82.5,M,Андрей Жаров,Yes,Raw,170,-185,195,195,,SBD,465,-160,-160,160,160,
9,Kirill Marakshin,Amateur Open,1988,79.5,105,107.5,-112.5,107.5,,82.5,M,Кирилл Маракшин,Yes,Raw,190,200,-210,200,,SBD,457.5,150,-160,-160,150,
DQ,Ivan Vlasov,Amateur Open,1989,78.3,-100,-100,-100,,,82.5,M,Иван Власов,Yes,Raw,-160,,,,,SBD,,-145,145,152.5,152.5,
1,Selimkhan Magamedkhanov,Amateur Teen 16-17,1997,88.9,-115,120,122.5,122.5,,90,M,Селимхан Магамедханов,Yes,Raw,190,200,,200,,SBD,487.5,140,157.5,165,165,
2,Svyatoslav Tarasov,Amateur Teen 16-17,1997,85.5,100,110,-117.5,110,,90,M,Святослав Тарасов,Yes,Raw,170,180,195,195,,SBD,475,150,160,170,170,
1,Dmitriy Sobtsov,Amateur Juniors 20-23,1991,86.8,145,-152.5,152.5,152.5,,90,M,Дмитрий Собцов,Yes,Raw,200,215,225,225,,SBD,567.5,170,180,190,190,
2,Kirill Vedeneev,Amateur Juniors 20-23,1991,89.5,132.5,-137.5,137.5,137.5,,90,M,Кирилл Веденеев,Yes,Raw,215,225,232.5,232.5,,SBD,540,170,-180,-180,170,
3,Aleksandr Yudaev,Amateur Juniors 20-23,1994,84.7,130,-140,-140,130,,90,M,Александр Юдаев,Yes,Raw,200,220,-222.5,220,,SBD,537.5,170,180,187.5,187.5,
4,Vadim Aleshin,Amateur Juniors 20-23,1994,87.7,110,-117.5,-117.5,110,,90,M,Вадим Алешин,Yes,Raw,170,180,190,190,,SBD,460,150,-160,160,160,
DQ,Artem Skoropisov,Amateur Juniors 20-23,1994,87.2,-180,,,,,90,M,Артем Скорописов,Yes,Raw,-210,,,,,SBD,,-187.5,-187.5,-187.5,,
1,Aleksey Kuznetsov,Amateur Open,1980,86.7,155,165,170,170,,90,M,Алексей Кузнецов,Yes,Raw,255,265,275,275,,SBD,660,200,210,215,215,
2,Aleksandr Shuralev,Amateur Open,1975,89.5,165,170,175,175,,90,M,Александр Шуралев,Yes,Raw,215,225,-230,225,,SBD,620,205,-220,220,220,
3,Sergey Klyauzov,Amateur Open,1990,87.1,130,140,-145,140,,90,M,Сергей Кляузов,Yes,Raw,200,210,220,220,,SBD,560,-190,-190,200,200,
4,Aleksandr Rodionov,Amateur Open,1986,88.8,130,-135,-135,130,,90,M,Александр Родионов,Yes,Raw,205,220,235,235,,SBD,560,180,190,195,195,
5,Evgeniy Vladimirov,Amateur Open,1964,88.7,-130,130,-135,130,,90,M,Евгений Владимиров,Yes,Raw,200,210,-222.5,210,,SBD,550,200,-210,210,210,
6,Ruslan Aliev,Amateur Open,1981,89.6,130,137.5,142.5,142.5,,90,M,Руслан Алиев,Yes,Raw,185,205,-220,205,,SBD,537.5,175,190,-200,190,
7,Sergey Kurdyumov,Amateur Open,1985,88.8,107.5,112.5,117.5,117.5,,90,M,Сергей Курдюмов,Yes,Raw,165,-175,,165,,SBD,422.5,130,140,-147.5,140,
8,Maksim Zavyalov,Amateur Open,1990,88.9,-95,95,100,100,,90,M,Максим Завьялов,Yes,Raw,170,-175,175,175,,SBD,415,140,-145,-145,140,
DQ,Yuriy Bubentsov,Amateur Open,1988,85.5,-110,-115,-115,,,90,M,Юрий Бубенцов,Yes,Raw,-180,,,,,SBD,,130,140,145,145,
DQ,Sergey Trunov,Amateur Open,1985,86.4,-150,-160,-160,,,90,M,Сергей Трунов,Yes,Raw,-200,,,,,SBD,,180,195,210,210,
1,Aleksandr Beskorovaynyy,Amateur Masters 45-49,1968,88.7,95,-102.5,-102.5,95,,90,M,Александр Бескоровайный,Yes,Raw,150,165,172.5,172.5,,SBD,387.5,-120,120,-135,120,
1,Evgeniy Vladimirov,Amateur Masters 50-54,1964,88.7,-130,130,-135,130,,90,M,Евгений Владимиров,Yes,Raw,200,210,-222.5,210,,SBD,550,200,-210,210,210,
2,Mikhail Kozachuk,Amateur Masters 50-54,1963,88.6,85,-90,-90,85,,90,M,Михаил Козачук,Yes,Raw,140,147.5,-150,147.5,,SBD,377.5,-130,130,145,145,
1,Igor Trishkin,Amateur Masters 55-59,1960,85.3,120,-130,-130,120,,90,M,Игорь Тришкин,Yes,Raw,200,220,-230,220,,SBD,510,160,170,-180,170,
1,Sabaui Taraki,Amateur Teen 16-17,1997,100,107.5,112.5,115,115,,100,M,Сабауи Тараки,Yes,Raw,170,180,190,190,,SBD,465,150,160,-172.5,160,
1,Kirill Matyukhin,Amateur Teen 18-19,1996,98.6,120,130,140,140,,100,M,Кирилл Матюхин,Yes,Raw,230,240,250,250,,SBD,620,215,225,230,230,
2,Artem Zharkov,Amateur Teen 18-19,1996,99.9,120,130,-137.5,130,,100,M,Артем Жарков,Yes,Raw,210,237.5,,237.5,,SBD,567.5,175,185,200,200,
3,Mursal Mamedov,Amateur Teen 18-19,1996,95.5,-115,120,-127.5,120,,100,M,Мурсал Мамедов,Yes,Raw,190,207.5,-222.5,207.5,,SBD,500,150,160,172.5,172.5,
4,Vladimir Koltsov,Amateur Teen 18-19,1996,97.4,125,135,-140,135,,100,M,Владимир Кольцов,Yes,Raw,170,187.5,-197.5,187.5,,SBD,492.5,150,160,170,170,
5,Yuriy Kozlov,Amateur Teen 18-19,1995,98.5,110,117.5,-120,117.5,,100,M,Юрий Козлов,Yes,Raw,150,165,,165,,SBD,447.5,145,155,165,165,
1,Pavel Fokin,Amateur Juniors 20-23,1992,97.4,140,-147.5,-147.5,140,,100,M,Павел Фокин,Yes,Raw,-200,-200,200,200,,SBD,555,200,210,215,215,
2,Petr Zborovskiy,Amateur Juniors 20-23,1994,97.8,125,-135,-135,125,,100,M,Петр Зборовский,Yes,Raw,210,215,-220,215,,SBD,510,165,170,-175,170,
DQ,Aleksey Gavrilov,Amateur Juniors 20-23,1992,97.6,-115,-115,-115,,,100,M,Алексей Гаврилов,Yes,Raw,-200,,,,,SBD,,170,180,185,185,
1,Sergey Anikin,Amateur Open,1981,97.8,150,157.5,162.5,162.5,,100,M,Сергей Аникин,Yes,Raw,245,255,262.5,262.5,,SBD,647.5,200,215,222.5,222.5,
2,Pavel Nikiforov,Amateur Open,1985,100,145,155,-162.5,155,,100,M,Павел Никифоров,Yes,Raw,230,245,257.5,257.5,,SBD,642.5,210,220,230,230,
3,Aleksandr Zinovyev,Amateur Open,1985,93.7,170,-180,-180,170,,100,M,Александр Зиновьев,Yes,Raw,230,242.5,252.5,252.5,,SBD,635,200,212.5,-220,212.5,
4,Aleksey Vorotnikov,Amateur Open,1980,99.5,137.5,142.5,145,145,,100,M,Алексей Воротников,Yes,Raw,225,240,-255,240,,SBD,615,217.5,225,230,230,
5,Nikolay Zabelin,Amateur Open,1985,97.5,145,150,155,155,,100,M,Николай Забелин,Yes,Raw,230,240,-250,240,,SBD,595,180,190,200,200,
6,Yuriy Mitrofanov,Amateur Open,1985,97.8,135,145,150,150,,100,M,Юрий Митрофанов,Yes,Raw,225,235,245,245,,SBD,590,-180,185,195,195,
7,Artem Dymokurov,Amateur Open,1989,96.8,110,120,125,125,,100,M,Артем Дымокуров,Yes,Raw,245,250,260,260,,SBD,585,-190,-190,200,200,
8,Andrey Andreev,Amateur Open,1979,98.4,160,167.5,170,170,,100,M,Андрей Андреев,Yes,Raw,200,210,215,215,,SBD,585,180,200,-210,200,
9,Sergey Pereskokov,Amateur Open,1987,98.7,145,-150,-150,145,,100,M,Сергей Перескоков,Yes,Raw,200,210,-217.5,210,,SBD,552.5,185,197.5,-210,197.5,
10,Aleksandr Scherbakov,Amateur Open,1988,93.1,-135,135,-140,135,,100,M,Александр Щербаков,Yes,Raw,-150,190,215,215,,SBD,535,185,-195,-195,185,
11,Mikhail Solenkov,Amateur Open,1980,97.7,110,115,-120,115,,100,M,Михаил Соленков,Yes,Raw,185,195,202.5,202.5,,SBD,497.5,165,-175,180,180,
12,Dmitriy Fufaev,Amateur Open,1988,97.6,100,-105,-105,100,,100,M,Дмитрий Фуфаев,Yes,Raw,150,160,-190,160,,SBD,410,130,135,150,150,
1,Dmitriy Malov,Amateur Masters 40-44,1974,99.1,130,-135,-135,130,,100,M,Дмитрий Малов,Yes,Raw,180,190,-200,190,,SBD,490,160,-170,170,170,
1,Aleksandr Scherbak,Amateur Masters 45-49,1966,98.9,135,140,145,145,,100,M,Александр Щербак,Yes,Raw,220,230,235,235,,SBD,580,180,192.5,200,200,
1,Nikolay Dergachev,Amateur Masters 50-54,1960,100,140,150,,150,,100,M,Николай Дергачев,Yes,Raw,220,230,,230,,SBD,582.5,180,195,202.5,202.5,
1,Artem Kutsenko,Amateur Teen 18-19,1995,101.3,130,135,-140,135,,110,M,Артем Куценко,Yes,Raw,190,200,-210,200,,SBD,505,155,162.5,170,170,
2,Aleksandr Antonov,Amateur Teen 18-19,1996,107.4,-100,110,120,120,,110,M,Александр Антонов,Yes,Raw,140,180,-210,180,,SBD,500,140,180,200,200,
3,Aleksandr Lokotkov,Amateur Teen 18-19,1995,101.9,120,127.5,132.5,132.5,,110,M,Александр Локотков,Yes,Raw,160,175,180,180,,SBD,460,130,140,147.5,147.5,
DQ,Konstantin Solovyev,Amateur Teen 18-19,1995,109.1,-135,-135,-135,,,110,M,Константин Соловьев,Yes,Raw,-220,,,,,SBD,,170,175,-180,175,
1,Aleksey Averyanov,Amateur Juniors 20-23,1993,102.1,135,142.5,147.5,147.5,,110,M,Алексей Аверьянов,Yes,Raw,200,220,240,240,,SBD,587.5,200,-210,-210,200,
1,Konstantin Morozov #1,Amateur Open,1984,108.2,200,210,212.5,212.5,,110,M,Константин Морозов,Yes,Raw,330,345,350,350,,SBD,807.5,230,245,-250,245,
2,Pavel Shtatnov,Amateur Open,1980,105.6,165,170,-175,170,,110,M,Павел Штатнов,Yes,Raw,270,-280,,270,,SBD,680,230,240,-250,240,
3,Stanislav Karpov,Amateur Open,1982,103.2,150,155,157.5,157.5,,110,M,Станислав Карпов,Yes,Raw,260,-285,,260,,SBD,622.5,-205,-205,205,205,
4,Sergey Scherba,Amateur Open,1981,109.5,140,147.5,152.5,152.5,,110,M,Сергей Щерба,Yes,Raw,225,-232.5,232.5,232.5,,SBD,590,-200,-200,205,205,
DQ,Roman Klimov,Amateur Open,1981,105.4,-160,-160,-160,,,110,M,Роман Климов,Yes,Raw,-255,,,,,SBD,,230,235,,235,
1,Ivan Rak,Amateur Masters 40-44,1974,106.8,135,145,150,150,,110,M,Иван Рак,Yes,Raw,215,235,240,240,,SBD,595,185,195,205,205,
2,Mikhail Rubtsov,Amateur Masters 40-44,1974,102.4,130,140,-150,140,,110,M,Михаил Рубцов,Yes,Raw,200,-210,-210,200,,SBD,540,175,-190,200,200,
3,Sergey Ushakov,Amateur Masters 40-44,1971,109.4,130,-135,,130,,110,M,Сергей Ушаков,Yes,Raw,190,205,-212.5,205,,SBD,520,165,175,185,185,
1,Miroslav Shlapak,Amateur Masters 45-49,1968,105,155,-165,-165,155,,110,M,Мирослав Шлапак,Yes,Raw,245,255,265,265,-270,SBD,630,200,210,-220,210,
1,Igor Sereda,Amateur Masters 50-54,1964,103.3,140,145,-147.5,145,,110,M,Игорь Середа,Yes,Raw,-200,200,210,210,,SBD,522.5,160,167.5,-175,167.5,
1,Sergey Oleynikov,Amateur Open,1981,113,160,167.5,172.5,172.5,,125,M,Сергей Олейников,Yes,Raw,230,245,250,250,,SBD,632.5,190,200,210,210,
1,Aleksey Kozishnikov,Amateur Masters 40-44,1973,125,175,185,-190,185,,125,M,Алексей Козишников,Yes,Raw,260,270,280,280,,SBD,740,250,265,275,275,
1,Daniil Shikuts,Amateur Open,1983,131.2,160,170,175,175,,140,M,Даниил Шикуц,Yes,Raw,220,240,-250,240,,SBD,670,-230,230,255,255,
2,Igor Alferov,Amateur Open,1976,134.9,142.5,155,-160,155,,140,M,Игорь Алферов,Yes,Raw,205,217.5,235,235,,SBD,605,200,215,-225,215,
3,Anton Sitnikov,Amateur Open,1985,137.2,110,-120,,110,,140,M,Антон Ситников,Yes,Raw,190,210,220,220,,SBD,500,170,-185,-200,170,
1,Aleksey Yudin,Amateur Masters 40-44,1974,134.5,160,170,-177.5,170,,140,M,Алексей Юдин,Yes,Raw,230,245,252.5,252.5,,SBD,642.5,200,210,220,220,
1,Elena Ochirova,Pro Open,1975,56.9,50,-52.5,52.5,52.5,55,60,F,Елена Очирова,No,Raw,100,105,-110,105,,SBD,237.5,70,75,80,80,
DQ,Olga Sokolova,Pro Open,1981,67,-70,,,,,67.5,F,Ольга Соколова,No,Raw,-100,,,,,SBD,,-90,,,,
1,Mariya Klintsova,Pro Open,1987,72.5,45,-50,-50,45,,75,F,Мария Клинцова,No,Raw,85,95,105,105,,SBD,230,-70,70,80,80,
1,Alla Pugovkina,Pro Open,1975,81.8,100,-105,-105,100,,82.5,F,Алла Пуговкина,No,Raw,165,177.5,-182.5,177.5,,SBD,410,120,127.5,132.5,132.5,
1,Ivan Eginov,Pro Teen 13-15,1999,66.2,85,90,92.5,92.5,,67.5,M,Иван Егинов,No,Raw,100,110,115,115,,SBD,317.5,100,110,-120,110,
1,Igor Mescheryakov,Pro Teen 18-19,1996,66.5,80,90,-100,90,,67.5,M,Игорь Мещеряков,No,Raw,170,180,-190,180,,SBD,390,110,115,120,120,
DQ,Vladimir Pavlikov,Pro Masters 55-59,1957,74,-85,,,,,75,M,Владимир Павликов,No,Raw,-150,,,,,SBD,,-135,-135,-135,,
1,Aleksandr Skorobogatov,Pro Open,1981,82.3,140,145,-150,145,,82.5,M,Александр Скоробогатов,No,Raw,220,230,240,240,,SBD,635,240,250,-260,250,
2,Aleksandr Korneev,Pro Open,1989,80.8,125,-130,-130,125,,82.5,M,Александр Корнеев,No,Raw,160,180,-190,180,,SBD,425,120,-140,-140,120,
1,Ivan Perekhodko,Pro Teen 18-19,1996,88.9,90,-95,-100,90,,90,M,Иван Переходько,No,Raw,-130,135,142.5,142.5,,SBD,352.5,-120,120,-130,120,
1,Evgeniy Yaskov,Pro Juniors 20-23,1991,88.7,135,140,150,150,,90,M,Евгений Яськов,No,Raw,235,245,257.5,257.5,,SBD,620,200,212.5,,212.5,
2,Vladimir Kvasov,Pro Juniors 20-23,1991,90,135,142.5,145,145,,90,M,Владимир Квасов,No,Raw,230,247.5,-250,247.5,,SBD,612.5,200,210,220,220,
1,Anton Anikanov,Pro Open,1985,87.5,175,182.5,185,185,,90,M,Антон Аниканов,No,Raw,250,260,265,265,,SBD,680,215,225,230,230,
2,Radiy Spitsin,Pro Open,1981,89.3,150,-155,-155,150,,90,M,Радій Спицин,No,Raw,270,280,290,290,,SBD,660,-220,-220,220,220,
3,Artem Glazkov,Pro Open,1990,83.3,140,152.5,160,160,,90,M,Артем Глазков,No,Raw,215,227.5,240,240,,SBD,630,220,230,-240,230,
4,Aleksey Pozdin,Pro Open,1980,88.6,142.5,147.5,150,150,,90,M,Алексей Поздин,No,Raw,195,205,215,215,,SBD,557.5,180,187.5,192.5,192.5,
5,Maksim Kasitsyn,Pro Open,1984,87.3,130,-150,-150,130,,90,M,Максим Касицын,No,Raw,200,220,-240,220,,SBD,540,-170,170,190,190,
1,Andrey Ivanov,Pro Masters 40-44,1971,89.3,100,110,-120,110,,90,M,Андрей Иванов,No,Raw,170,180,190,190,,SBD,475,150,160,175,175,
1,Vladimir Fokin,Pro Masters 45-49,1965,89.6,130,-135,-135,130,,90,M,Владимир Фокин,No,Raw,225,235,237.5,237.5,,SBD,582.5,200,215,-220,215,
DQ,Nikita Kostyuchenkov,Pro Teen 16-17,1997,97.2,-140,-145,-145,,,100,M,Никита Костюченков,No,Raw,-200,,,,,SBD,,150,180,210,210,
DQ,Pavel Dovgopolik,Pro Juniors 20-23,1993,99.4,-170,-170,-170,,,100,M,Павел Довгополик,No,Raw,-220,,,,,SBD,,-200,-200,200,200,
1,Aleksey Sizov,Pro Open,1979,97.9,192.5,202.5,207.5,207.5,,100,M,Алексей Сизов,No,Raw,262.5,285,300,300,,SBD,777.5,255,270,-280,270,
2,Maksim Yakovlev,Pro Open,1987,98.1,165,170,-175,170,,100,M,Максим Яковлев,No,Raw,262.5,-270,-270,262.5,,SBD,682.5,240,250,,250,
3,Andrey Bulgar,Pro Open,1988,98.5,140,147.5,152.5,152.5,,100,M,Андрей Булгарь,No,Raw,270,280,300,300,,SBD,682.5,210,220,230,230,
4,Ivan Kozulya,Pro Open,1983,97.2,175,185,190,190,,100,M,Иван Козуля,No,Raw,240,260,-270,260,,SBD,665,205,215,-230,215,
5,Igor Chupryakov,Pro Open,1975,92.8,170,172.5,175,175,,100,M,Игорь Чупряков,No,Raw,230,240,-245,240,,SBD,625,-200,200,210,210,
6,Dmitriy Melikhov,Pro Open,1979,98.6,140,147.5,-157.5,147.5,,100,M,Дмитрий Мелихов,No,Raw,215,230,242.5,242.5,,SBD,615,195,210,225,225,
7,Nikolay Kotov,Pro Open,1975,99.3,145,152.5,160,160,,100,M,Николай Котов,No,Raw,210,225,235,235,,SBD,595,175,190,200,200,
DQ,Yuriy Gaydarzhi,Pro Masters 40-44,1974,96.4,-160,,,,,100,M,Юрий Гайдаржи,No,Raw,-200,,,,,SBD,,-245,-245,-245,,
1,Mikhail Seregin,Pro Teen 18-19,1995,109.4,145,155,-165,155,,110,M,Михаил Серегин,No,Raw,235,250,271,271,,SBD,641,-200,200,215,215,
1,Vitaliy Ryabykh,Pro Juniors 20-23,1992,105.5,165,172.5,175,175,,110,M,Виталий Рябых,No,Raw,240,250,260,260,,SBD,650,205,215,-220,215,
1,Vladimir Syomochkin,Pro Open,1986,101.6,-170,177.5,185,185,,110,M,Владимир Сёмочкин,No,Raw,250,270,-285,270,,SBD,715,240,250,260,260,
2,Maksim Antonov,Pro Open,1981,108.4,160,170,-175,170,,110,M,Максим Антонов,No,Raw,270,290,-312.5,290,,SBD,710,250,-265,-265,250,
3,Sergey Mineev,Pro Open,1989,108.4,175,185,192.5,192.5,,110,M,Сергей Минеев,No,Raw,-255,255,270,270,,SBD,687.5,210,220,225,225,
4,Aleksey Kochetkov,Pro Open,1988,105.7,150,155,160,160,,110,M,Алексей Кочетков,No,Raw,210,220,230,230,,SBD,600,190,200,210,210,
1,Andrey Shishkin,Pro Masters 50-54,1962,108.1,105,125,-130,125,,110,M,Андрей Шишкин,No,Raw,175,225,235,235,,SBD,580,175,205,220,220,
1,Sergey Ustinov,Pro Open,1988,120.6,180,-190,195,195,,125,M,Сергей Устинов,No,Raw,270,290,-310,290,,SBD,785,270,290,300,300,
1,Mariya Pustovit,Amateur Open,1985,55.1,90,-95,-97.5,90,,56,F,Мария Пустовит,Yes,Single-ply,140,-150,-150,140,,SBD,400,160,170,-175,170,
1,Natalya Guzenina,Amateur Open,1989,66.2,75,82.5,-90,82.5,,67.5,F,Наталья Гузенина,Yes,Single-ply,150,160,-170,160,,SBD,402.5,140,150,160,160,
1,Rinat Khuzin,Amateur Masters 45-49,1969,73.5,110,120,127.5,127.5,,75,M,Ринат Хузин,Yes,Single-ply,140,160,172.5,172.5,,SBD,460,140,150,160,160,
1,Igor Filippov,Amateur Open,1984,80.5,140,150,-155,150,,82.5,M,Игорь Филиппов,Yes,Single-ply,220,237.5,-245,237.5,,SBD,602.5,185,200,215,215,
1,Viktor Skokin,Amateur Masters 55-59,1957,79.6,92.5,95,97.5,97.5,,82.5,M,Виктор Скокин,Yes,Single-ply,230,240,245,245,,SBD,527.5,-185,-185,185,185,195
1,Andrey Chivikov,Amateur Juniors 20-23,1993,98.3,110,115,122.5,122.5,,100,M,Андрей Чивиков,Yes,Single-ply,195,202.5,207.5,207.5,,SBD,525,-190,195,-207.5,195,
DQ,Roman Khomyakov,Amateur Juniors 20-23,1993,97.5,,,,,,100,M,Роман Хомяков,Yes,Single-ply,,,,,,SBD,,-260,-260,-260,,
1,Aleksandr Kalinin,Amateur Open,1975,99,160,-167.5,167.5,167.5,,100,M,Александр Калинин,Yes,Single-ply,245,-260,-260,245,,SBD,662.5,-235,240,250,250,
2,Andrey Karpov,Amateur Open,1985,96.1,170,175,182.5,182.5,,100,M,Андрей Карпов,Yes,Single-ply,210,225,-235,225,,SBD,652.5,220,235,245,245,
3,Maksim Derezhovskiy,Amateur Open,1984,98,-150,150,160,160,,100,M,Максим Дережовский,Yes,Single-ply,220,235,250,250,,SBD,640,200,210,230,230,
DQ,Anton Kiryushkin,Amateur Open,1983,110,,,,,,110,M,Антон Кирюшкин,Yes,Single-ply,,,,,,SBD,,-255,-255,-255,,
1,Dmitriy Vasilenko,Amateur Open,1975,110.4,-150,150,-170,150,,125,M,Дмитрий Василенко,Yes,Single-ply,220,235,245,245,,SBD,665,250,-270,270,270,
1,Maksim Tovstonog,Pro Open,1983,74.5,160,-170,170,170,,75,M,Максим Товстоног,No,Multi-ply,210,225,235,235,,SBD,625,210,220,-230,220,
DQ,Aleksey Nikolaev,Pro Open,1984,82.3,,,,,,82.5,M,Алексей Николаев,No,Single-ply,,,,,,SBD,,-260,-260,-260,,
1,Vladislav Sannikov,Pro Masters 75-79,1938,78.5,87.5,92.5,-95,92.5,,82.5,M,Владислав Санников,No,Single-ply,130,140,-145,140,,SBD,350,-97.5,107.5,117.5,117.5,
1,Mikhail Mironov,Pro Juniors 20-23,1994,87.8,-160,160,-170,160,,90,M,Михаил Миронов,No,Single-ply,230,-255,-270,230,,SBD,660,-260,260,270,270,
1,Aleksey Matvienko,Pro Open,1989,86,130,140,-150,140,,90,M,Алексей Матвиенко,No,Single-ply,160,-180,-180,160,,SBD,470,160,170,-180,170,
1,Aleksey Yagunov,Pro Masters 45-49,1968,89,170,190,-200,190,,90,M,Алексей Ягунов,No,Single-ply,235,-252.5,-252.5,235,,SBD,680,230,255,-265,255,
1,Artem Vavilchenkov,Pro Teen 18-19,1995,94.6,140,150,-160,150,,100,M,Артем Вавильченков,No,Single-ply,-220,220,-240,220,,SBD,630,240,-250,260,260,
1,Andrey Drozhzhin,Pro Open,1977,99.7,190,200,210,210,,100,M,Андрей Дрожжин,No,Single-ply,280,-290,290,290,,SBD,835,300,320,335,335,
2,Artem Tyutikov,Pro Open,1982,90.9,185,195,202.5,202.5,,100,M,Артем Тютиков,No,Single-ply,255,270,285,285,,SBD,802.5,290,300,315,315,
3,Viktor Polosukhin,Pro Open,1988,99.6,-170,170,180,180,,100,M,Виктор Полосухин,No,Single-ply,285,300,-305,300,,SBD,735,245,-255,255,255,
DQ,Ivan Poryadin,Pro Open,1982,96.5,-240,-240,-240,,,100,M,Иван Порядин,No,Single-ply,,,,,,SBD,,300,-310,,300,
1,Dmitriy Postnov,Pro Masters 40-44,1971,92.2,50,,,50,,100,M,Дмитрий Постнов,No,Single-ply,220,240,250,250,,SBD,510,210,,,210,
1,Sergey Kiselev,Pro Teen 18-19,1995,109.4,210,220,230,230,,110,M,Сергей Киселев,No,Single-ply,280,300,-310,300,,SBD,840,290,310,,310,
1,Viktor Zhbankov,Pro Juniors 20-23,1992,117.8,240,255,265,265,,125,M,Виктор Жбанков,No,Single-ply,320,335,,335,,SBD,925,315,325,-330,325,
