Place,Name,CyrillicName,Division,BirthDate,Age,BodyweightKg,WeightClassKg,Sex,Squat1Kg,Squat2Kg,Squat3Kg,Best3SquatKg,Bench1Kg,Bench2Kg,Bench3Kg,Best3BenchKg,Deadlift1Kg,Deadlift2Kg,Deadlift3Kg,Best3DeadliftKg,TotalKg,Event,Equipment,Tested
1,Mariya Romanchenko,Мария Романченко,Amateur Open,1988-10-21,27,51.5,52,F,70,-80,-80,70,40,-45,47.5,47.5,80,90,95,95,212.5,SBD,Wraps,Yes
1,Natalya Burdinskaya,Наталья Бурдинская,Amateur Teen,1996-09-24,19,56,56,F,-75,-75,75,75,-35,42.5,-45,42.5,75,85,90,90,207.5,SBD,Wraps,Yes
1,Kseniya Burchyonkova,Ксения Бурчёнкова,Amateur Open,1992-03-01,24,55.1,56,F,-80,-90,90,90,40,45,47.5,47.5,90,105,120,120,257.5,SBD,Wraps,Yes
1,Ekaterina Ilina,Екатерина Ильина,Amateur Open,1995-05-02,21,59.2,60,F,80,-90,90,90,60,62.5,,62.5,105,115,120,120,272.5,SBD,Wraps,Yes
1,Aleksey Komarov,Алексей Комаров,Amateur Teen,1998-05-22,17,61.3,67.5,M,130,-140,140,140,75,80,-82.5,80,145,-157.5,-157.5,145,365,SBD,Wraps,Yes
1,Valeriya Saveleva,Валерия Савельева,Amateur Juniors 20-23,1993-04-22,23,60.8,67.5,F,-70,75,-85,75,37.5,40,-45,40,75,85,-90,85,200,SBD,Wraps,Yes
1,Aleksandra Nedorchuk,Александра Недорчук,Amateur Open,1990-03-05,26,66.2,67.5,F,120,125,-127.5,125,75,77.5,,77.5,120,122.5,125,125,327.5,SBD,Wraps,Yes
2,Ekaterina Obukhova,Екатерина Обухова,Amateur Open,1988-05-11,27,66.9,67.5,F,60,70,80,80,-40,45,-47.5,45,85,95,105,105,230,SBD,Wraps,Yes
1,Nikita Bushuev,Никита Бушуев,Amateur Teen,1997-10-28,18,74.5,75,M,100,110,120,120,-75,80,90,90,125,135,140,140,350,SBD,Wraps,Yes
1,Svetlana Saburova,Светлана Сабурова,Amateur Masters 40-44,1972-02-20,44,71.7,75,F,80,-87.5,87.5,87.5,-45,45,50,50,120,130,-140,130,267.5,SBD,Wraps,Yes
1,Kostas Telidis,Костас Телидис,Amateur Open,1989-04-18,27,74.6,75,M,202.5,212.5,220,220,150,160,165,165,227.5,237.5,,237.5,622.5,SBD,Wraps,Yes
2,Ivan Kovalskiy #1,Иван Ковальский,Amateur Open,1990-10-03,25,70.2,75,M,140,152.5,165,165,100,-105,105,105,140,190,-205,190,460,SBD,Wraps,Yes
3,Dmitriy Lagutin,Дмитрий Лагутин,Amateur Open,1985-02-07,31,72.2,75,M,140,147.5,155,155,110,-115,-115,110,170,-180,-180,170,435,SBD,Wraps,Yes
1,Sergey Shmakov,Сергей Шмаков,Amateur Teen,1999-12-24,16,79.5,82.5,M,160,170,180,180,100,105,110,110,210,-225,230,230,520,SBD,Wraps,Yes
1,Aleksey Sobovenko,Алексей Собовенко,Amateur Open,1989-10-29,26,96.3,100,M,205,215,-225,215,135,-145,-145,135,220,230,240,240,590,SBD,Wraps,Yes
2,Dmitriy Kozinets,Дмитрий Козинец,Amateur Open,1991-08-10,24,97.8,100,M,190,-200,-200,190,-142.5,142.5,-147.5,142.5,245,-260,-260,245,577.5,SBD,Wraps,Yes
3,Andrey Shitenkov,Андрей Шитенков,Amateur Open,1982-04-28,34,97.8,100,M,200,215,230,230,120,130,-137.5,130,200,210,-230,210,570,SBD,Wraps,Yes
1,Arbi Israilov,Арби Исраилов,Amateur Masters 45-49,1968-07-20,,109.6,110,M,140,,,140,120,125,,125,140,160,170,170,435,SBD,Wraps,Yes
1,Aleksey Alekseev,Алексей Алексеев,Amateur Open,1988-04-15,28,105,110,M,260,-275,,260,200,205,-207.5,205,290,310,-325,310,775,SBD,Wraps,Yes
1,Vladislav Sapin,Владислав Сапин,Amateur Open,1992-04-14,24,115.9,125,M,-245,245,250,250,160,-165,165,165,270,275,280,280,695,SBD,Wraps,Yes
1,Vladislav Sosnin,Владислав Соснин,Pro Juniors 20-23,1994-07-09,21,88.5,90,M,,,,,,,,,220,235,240,240,240,D,Single-ply,No
1,Pavel Strepetilov,Павел Стрепетилов,Pro Open,1982-11-04,33,95.3,100,M,,,,,,,,,255,-270,,255,255,D,Single-ply,No
1,Ivan Arkhipov,Иван Архипов,Pro Open,1982-11-30,33,122.5,125,M,,,,,,,,,-275,290,-305,290,290,D,Single-ply,No
2,Vasiliy Tanasiychuk,Василий Танасийчук,Pro Open,1991-02-08,25,120.15,125,M,,,,,,,,,270,-305,-305,270,270,D,Single-ply,No
1,Artyom Semyonov,Артём Семёнов,Amateur Teen,1998-04-12,18,73.4,75,M,160,170,-180,170,95,-100,100,100,170,180,187.5,187.5,457.5,SBD,Single-ply,Yes
1,Maksim Zavyalov,Максим Завьялов,Amateur Open,1990-08-06,25,72.1,75,M,150,160,-175,160,105,110,112.5,112.5,180,190,195,195,467.5,SBD,Single-ply,Yes
1,Vadim Bogdanov,Вадим Богданов,Amateur Juniors 20-23,1993-05-26,22,79.6,82.5,M,170,-190,-190,170,130,-150,-150,130,170,190,-195,190,490,SBD,Single-ply,Yes
1,Aleksandr Efanov,Александр Ефанов,Amateur Juniors 20-23,1994-01-12,22,89.5,90,M,-227.5,227.5,-232.5,227.5,170,-180,180,180,235,-250,,235,642.5,SBD,Single-ply,Yes
1,Tamara Starodubova,Тамара Стародубова,Amateur Open,1983-02-16,33,51.3,52,F,,,,,-45,45,-50,45,,,,,45,B,Raw,Yes
DQ,Kristina Eremeeva,Кристина Еремеева,Amateur Open,1988-12-29,27,51.7,52,F,,,,,-47.5,-47.5,-50,,,,,,,B,Raw,Yes
1,Kirill Shaposhnikov,Кирилл Шапошников,Amateur Disabled,1998-10-21,17,50.6,52,M,,,,,85,-95,-95,85,,,,,85,B,Raw,Yes
1,Anastasiya Tyshkevich,Анастасия Тышкевич,Amateur Open,1988-11-03,27,54.8,56,F,,,,,50,-55,55,55,,,,,55,B,Raw,Yes
1,Elena Sepik,Елена Сепик,Amateur Open,1981-07-16,34,60,60,F,,,,,-80,-82.5,87.5,87.5,,,,,87.5,B,Raw,Yes
2,Ekaterina Ilina,Екатерина Ильина,Amateur Open,1995-05-02,21,59.2,60,F,,,,,55,60,-65,60,,,,,60,B,Raw,Yes
1,Viktoriya Blotskaya,Виктория Блоцкая,Amateur Open,1985-10-14,30,66.7,67.5,F,,,,,77.5,80,82.5,82.5,,,,,82.5,B,Raw,Yes
2,Aleksandra Nedorchuk,Александра Недорчук,Amateur Open,1990-03-05,26,66.2,67.5,F,,,,,75,77.5,-80,77.5,,,,,77.5,B,Raw,Yes
1,Sergey Semenov,Сергей Семенов,Amateur Teen,1996-09-18,19,75,75,M,,,,,127.5,135,137.5,137.5,,,,,137.5,B,Raw,Yes
2,Nikolay Rachuk,Николай Рачук,Amateur Teen,1999-02-20,17,74.2,75,M,,,,,-110,110,-120,110,,,,,110,B,Raw,Yes
3,Shadig Abdullaev,Шадиг Абдуллаев,Amateur Teen,1996-05-29,19,72.3,75,M,,,,,107.5,-112.5,-112.5,107.5,,,,,107.5,B,Raw,Yes
1,Ruslan Bakanaev,Руслан Баканаев,Amateur Juniors 20-23,1993-05-16,22,75,75,M,,,,,-130,130,-135,130,,,,,130,B,Raw,Yes
1,Ruslan Bakanaev,Руслан Баканаев,Amateur Open,1993-05-16,22,75,75,M,,,,,-130,130,-135,130,,,,,130,B,Raw,Yes
2,Nikolay Frantsev,Николай Францев,Amateur Open,1988-02-01,28,73.6,75,M,,,,,95,-100,100,100,,,,,100,B,Raw,Yes
DQ,German Smotrov,Герман Смотров,Amateur Teen,2001-06-20,14,78.9,82.5,M,,,,,-90,-90,-90,,,,,,,B,Raw,Yes
1,Ramin Yarakhmedov,Рамин Ярахмедов,Amateur Open,1977-11-23,38,82.2,82.5,M,,,,,130,140,-142.5,140,,,,,140,B,Raw,Yes
2,Vitaliy Murashko,Виталий Мурашко,Amateur Open,1983-01-28,33,79.8,82.5,M,,,,,120,127.5,-132.5,127.5,,,,,127.5,B,Raw,Yes
DQ,Vyacheslav Tsoy,Вячеслав Цой,Amateur Open,1983-08-10,32,80.8,82.5,M,,,,,-120,-120,-120,,,,,,,B,Raw,Yes
1,Pavel Kalinichenko,Павел Калиниченко,Amateur Juniors 20-23,1993-06-16,22,89.7,90,M,,,,,145,155,-165,155,,,,,155,B,Raw,Yes
2,Stepan Klimash,Степан Климаш,Amateur Juniors 20-23,1993-07-09,22,88.7,90,M,,,,,-132.5,142.5,-152.5,142.5,,,,,142.5,B,Raw,Yes
3,Ilya Segrenev,Илья Сегренев,Amateur Juniors 20-23,1993-10-30,22,84.7,90,M,,,,,100,110,-115,110,,,,,110,B,Raw,Yes
1,Evgeniy Chernobrodov,Евгений Чернобродов,Amateur Masters 45-49,1970-10-05,45,87.6,90,M,,,,,107.5,115,-120,115,,,,,115,B,Raw,Yes
1,Sergey Yudintsev,Сергей Юдинцев,Amateur Masters 55-59,1958-06-02,57,89.9,90,M,,,,,125,132.5,-137.5,132.5,,,,,132.5,B,Raw,Yes
1,Vladimir Strelnikov,Владимир Стрельников,Amateur Open,1974-10-09,41,89,90,M,,,,,165,-175,-180,165,,,,,165,B,Raw,Yes
2,Stepan Anisimov,Степан Анисимов,Amateur Open,1985-06-01,30,89.3,90,M,,,,,145,152.5,-155,152.5,,,,,152.5,B,Raw,Yes
3,Mikhail Glagolev,Михаил Глаголев,Amateur Open,1986-11-20,29,87.3,90,M,,,,,-152.5,152.5,-160,152.5,,,,,152.5,B,Raw,Yes
4,Oleg Vyrupaev,Олег Вырупаев,Amateur Open,1990-08-11,25,89.4,90,M,,,,,-140,145,-147.5,145,,,,,145,B,Raw,Yes
5,Yuriy Pankin,Юрий Панькин,Amateur Open,1983-03-12,33,89.4,90,M,,,,,-135,-135,137.5,137.5,,,,,137.5,B,Raw,Yes
6,Igor Bogdanov,Игорь Богданов,Amateur Open,1983-03-12,33,89.3,90,M,,,,,110,-120,-125,110,,,,,110,B,Raw,Yes
DQ,Sergey Ilin,Сергей Ильин,Amateur Open,1983-01-28,33,90,90,M,,,,,-165,-175,-180,,,,,,,B,Raw,Yes
1,Bogdan Usenko,Богдан Усенко,Amateur Teen,1998-09-27,17,95.6,100,M,,,,,80,90,-100,90,,,,,90,B,Raw,Yes
1,Anton Yuklov,Антон Юклов,Amateur Open,1990-07-06,25,99.8,100,M,,,,,165,175,-185,175,,,,,175,B,Raw,Yes
2,Ilya Lvov,Илья Львов,Amateur Open,1986-10-15,29,94.2,100,M,,,,,155,162.5,167.5,167.5,,,,,167.5,B,Raw,Yes
1,Evgeniy Smirnov,Евгений Смирнов,Amateur Juniors 20-23,1994-01-28,22,108.9,110,M,,,,,160,165,167.5,167.5,,,,,167.5,B,Raw,Yes
1,Vitaliy Desyatirikov,Виталий Десятириков,Amateur Open,1978-04-23,38,100.7,110,M,,,,,160,170,-182.5,170,,,,,170,B,Raw,Yes
2,Aleksey Khlon,Алексей Хлонь,Amateur Open,1976-07-28,39,107,110,M,,,,,160,-167.5,167.5,167.5,,,,,167.5,B,Raw,Yes
1,Aleksey Tyulyupa,Алексей Тюлюпа,Amateur Open,1983-05-03,33,122.3,125,M,,,,,142.5,-152.5,-152.5,142.5,,,,,142.5,B,Raw,Yes
1,Albert Lyuksin,Альберт Люксин,Amateur Masters 45-49,1971-05-06,45,135.5,140,M,,,,,200,210,-215,210,,,,,210,B,Raw,Yes
1,Albert Lyuksin,Альберт Люксин,Amateur Open,1971-05-06,45,135.5,140,M,,,,,200,210,-215,210,,,,,210,B,Raw,Yes
1,Sergey Kravets,Сергей Кравец,Amateur Juniors 20-23,1994-09-06,21,80.9,82.5,M,,,,,165,170,-180,170,,,,,170,B,Single-ply,Yes
1,Mariya Bondareva,Мария Бондарева,Amateur Open,1982-10-11,33,46.5,48,F,,,,,,,,,85,100,-107.5,100,100,D,Raw,Yes
1,Tamara Starodubova,Тамара Стародубова,Amateur Open,1983-02-16,33,51.2,52,F,,,,,,,,,-100,100,-105,100,100,D,Raw,Yes
2,Natalya Starkova,Наталья Старкова,Amateur Open,1988-12-26,27,51.7,52,F,,,,,,,,,85,-95,95,95,95,D,Raw,Yes
3,Darya Antonova,Дарья Антонова,Amateur Open,1991-01-12,25,51.7,52,F,,,,,,,,,85,-90,-90,85,85,D,Raw,Yes
1,Ekaterina Obukhova,Екатерина Обухова,Amateur Open,1988-05-11,27,66.9,67.5,F,,,,,,,,,90,-105,110,110,110,D,Raw,Yes
1,Artush Malkhasyan,Артуш Малхасян,Amateur Open,1966-08-19,49,67.5,67.5,M,,,,,,,,,180,-190,,180,180,D,Raw,Yes
1,Artush Malkhasyan,Артуш Малхасян,Amateur Masters 45-49,1966-08-19,49,67.5,67.5,M,,,,,,,,,180,-190,,180,180,D,Raw,Yes
DQ,Dmitriy Khamidulin,Дмитрий Хамидулин,Amateur Open,1984-12-28,31,64.9,67.5,M,,,,,,,,,-140,-145,-150,,,D,Raw,Yes
1,Sergey Semyonov,Сергей Семёнов,Amateur Teen,1996-09-18,19,75,75,M,,,,,,,,,210,-220,,210,210,D,Raw,Yes
2,Nikolay Rachuk,Николай Рачук,Amateur Teen,1999-02-20,17,74.2,75,M,,,,,,,,,135,145,-155,145,145,D,Raw,Yes
DQ,Shadig Abdullaev,Шадиг Абдуллаев,Amateur Teen,1996-05-29,,72.3,75,M,,,,,,,,,-135,-135,,,,D,Raw,Yes
1,Eduard Prilutskiy,Эдуард Прилуцкий,Amateur Masters 40-44,1974-02-16,42,74.3,75,M,,,,,,,,,170,180,-190,180,180,D,Raw,Yes
1,Kostas Telidis,Костас Телидис,Amateur Open,1989-04-18,27,74.6,75,M,,,,,,,,,232.5,237.5,,237.5,237.5,D,Raw,Yes
2,Sergey Semyonov,Сергей Семёнов,Amateur Open,1996-09-18,19,75,75,M,,,,,,,,,210,-220,,210,210,D,Raw,Yes
3,Ivan Kovalskiy #1,Иван Ковальский,Amateur Open,1990-10-03,25,70.2,75,M,,,,,,,,,195,-200,-200,195,195,D,Raw,Yes
4,Aleksandr Mamedov,Александр Мамедов,Amateur Open,1988-11-25,27,73.9,75,M,,,,,,,,,157.5,170,177.5,177.5,177.5,D,Raw,Yes
1,Aleksandr Busov,Александр Бусов,Amateur Open,1985-07-14,30,79.9,82.5,M,,,,,,,,,200,-215,-215,200,200,D,Raw,Yes
2,Vyacheslav Tsoy,Вячеслав Цой,Amateur Open,1983-08-10,32,80.8,82.5,M,,,,,,,,,185,195,-205,195,195,D,Raw,Yes
1,Andrey Mayorshin,Андрей Майоршин,Amateur Teen,2000-09-03,15,89,90,M,,,,,,,,,170,182.5,195,195,195,D,Raw,Yes
1,Konstantin Komelin,Константин Комелин,Amateur Open,1986-03-31,30,86.5,90,M,,,,,,,,,240,255,262.5,262.5,262.5,D,Raw,Yes
1,Vladimir Panfilov,Владимир Панфилов,Amateur Teen,1999-12-01,16,98.6,100,M,,,,,,,,,170,-192.5,-192.5,170,170,D,Raw,Yes
1,Sevil Mekhriev,Севил Мехриев,Amateur Open,1985-10-18,30,97.1,100,M,,,,,,,,,240,255,-260,255,255,D,Raw,Yes
2,Aleksey Polyakov,Алексей Поляков,Amateur Open,1979-03-27,37,93,100,M,,,,,,,,,235,237.5,-240,237.5,237.5,D,Raw,Yes
1,Aleksey Tyulyupa,Алексей Тюлюпа,Amateur Open,1983-05-03,33,122.3,125,M,,,,,,,,,-200,215,220,220,220,D,Raw,Yes
1,Maksim Zavyalov,Максим Завьялов,Amateur Open,1990-08-06,25,72.1,75,M,,,,,,,,,185,200,-205,200,200,D,Single-ply,Yes
1,Zaur Mamedov,Заур Мамедов,Pro Open,1990-04-05,26,73.5,75,M,,,,,,,,,235,-250,250,250,250,D,Raw,No
1,Nikita Sidorenko,Никита Сидоренко,Pro Teen,1998-10-20,17,87.4,90,M,,,,,,,,,210,230,-240,230,230,D,Raw,No
1,Ivan Burdinskiy,Иван Бурдинский,Pro Open,1993-12-16,22,88.4,90,M,,,,,,,,,220,240,-250,240,240,D,Raw,No
1,Yuriy Katanov,Юрий Катанов,Pro Open,1981-01-14,,98.7,100,M,,,,,,,,,290,300,310,310,310,D,Raw,No
2,Pavel Strepetilov,Павел Стрепетилов,Pro Open,1982-11-04,33,95.3,100,M,,,,,,,,,240,255,262.5,262.5,262.5,D,Raw,No
1,Yuriy Shantsyn,Юрий Шанцын,Pro Masters 65-69,1949-02-21,67,107.7,110,M,,,,,,,,,180,190,200,200,200,D,Raw,No
1,Vyacheslav Ten,Вячеслав Тен,Pro Open,1987-02-21,29,101.5,110,M,,,,,,,,,255,265,-280,265,265,D,Raw,No
DQ,Andrey Demekhov,Андрей Демехов,Pro Open,1984-04-30,32,107.7,110,M,,,,,,,,,-270,-280,-280,,,D,Raw,No
1,Igor Yakovlev,Игорь Яковлев,Pro Open,1976-12-25,39,136.9,140,M,,,,,,,,,-302.5,302.5,310,310,310,D,Raw,No
1,Andrey Shchur,Андрей Щур,Pro Masters 40-44,1973-06-04,,82.1,82.5,M,,,,,190,-200,-200,190,,,,,190,B,Multi-ply,No
1,Artyom Shudrenko,Артём Шудренко,Pro Open,1983-07-16,32,108.5,110,M,,,,,-170,170,185,185,,,,,185,B,Multi-ply,No
1,Pavel Strepetilov,Павел Стрепетилов,Pro Open,1982-11-04,33,95.3,100,M,,,,,160,167.5,-172.5,167.5,,,,,167.5,B,Single-ply,No
1,Ivan Boyko,Иван Бойко,Pro Open,1986-04-02,30,109.7,110,M,,,,,220,232.5,-240,232.5,,,,,232.5,B,Single-ply,No
1,Alina Ryzhova,Алина Рыжова,Pro Juniors 20-23,1996-02-06,20,59.8,60,F,,,,,55,60,62.5,62.5,,,,,62.5,B,Raw,No
1,Natella Meshulkova,Натэлла Мешулкова,Pro Masters 40-44,1971-11-09,44,62.1,67.5,F,,,,,-77.5,77.5,-82.5,77.5,,,,,77.5,B,Raw,No
1,Natella Meshulkova,Натэлла Мешулкова,Pro Open,1971-11-09,44,62.1,67.5,F,,,,,-77.5,77.5,-82.5,77.5,,,,,77.5,B,Raw,No
1,Ivan Zyryanov,Иван Зырянов,Pro Teen,1996-07-13,19,66.1,67.5,M,,,,,-140,145,-147.5,145,,,,,145,B,Raw,No
1,Olga Baklykova,Ольга Баклыкова,Pro Open,1964-05-07,52,74,75,F,,,,,100,107.5,112.5,112.5,,,,,112.5,B,Raw,No
2,Yuliya Veredova,Юлия Вередова,Pro Open,1980-05-12,35,69.6,75,F,,,,,45,52.5,55,55,,,,,55,B,Raw,No
1,Konstantin Zozulya,Константин Зозуля,Pro Juniors 20-23,1993-04-09,23,73.6,75,M,,,,,135,-150,-150,135,,,,,135,B,Raw,No
1,Aleksandr Mikhaylov,Александр Михайлов,Pro Open,1988-05-11,27,70.3,75,M,,,,,150,160,-165,160,,,,,160,B,Raw,No
2,Aleksandr Pototskiy,Александр Потоцкий,Pro Open,1988-10-10,27,73.8,75,M,,,,,130,-140,-140,130,,,,,130,B,Raw,No
DQ,Aleksey Starkov,Алексей Старков,Pro Open,1991-08-21,24,74.5,75,M,,,,,-140,-140,-140,,,,,,,B,Raw,No
1,Vitaliy Danilov,Виталий Данилов,Pro Open,1990-08-22,25,82.4,82.5,M,,,,,140,150,,150,,,,,150,B,Raw,No
1,Albert Archvava,Альберт Арчвава,Pro Open,1989-07-21,26,87.8,90,M,,,,,-170,175,180,180,,,,,180,B,Raw,No
2,Aleksandr Shabanov,Александр Шабанов,Pro Open,1992-02-28,24,88.2,90,M,,,,,165,175,-180,175,,,,,175,B,Raw,No
3,Eduard Annenkov,Эдуард Анненков,Pro Open,1988-05-03,28,90,90,M,,,,,175,-180,-180,175,,,,,175,B,Raw,No
4,Aleksey Sayapin,Алексей Саяпин,Pro Open,1990-10-20,25,89.3,90,M,,,,,150,157.5,162.5,162.5,,,,,162.5,B,Raw,No
1,Vladislav Zlobin,Владислав Злобин,Pro Teen 18-19,1997-08-08,18,97.2,100,M,,,,,145,152.5,-157.5,152.5,,,,,152.5,B,Raw,No
1,Aleksandr Kichigin,Александр Кичигин,Pro Open,1989-11-21,26,98.6,100,M,,,,,200,-207.5,207.5,207.5,,,,,207.5,B,Raw,No
2,Aleksandr Shulav,Александр Шулав,Pro Open,1990-08-12,25,98.2,100,M,,,,,180,190,-195,190,,,,,190,B,Raw,No
3,Grigor Avetisyan,Григор Аветисян,Pro Open,1989-09-11,26,98.6,100,M,,,,,-190,190,,190,,,,,190,B,Raw,No
4,Sergey Fyodorov,Сергей Фёдоров,Pro Open,1982-12-12,33,99.6,100,M,,,,,170,180,-185,180,,,,,180,B,Raw,No
5,Andrey Paladyuk,Андрей Паладюк,Pro Open,1986-01-20,30,96.1,100,M,,,,,170,-180,,170,,,,,170,B,Raw,No
1,Artyom Fedotov,Артём Федотов,Pro Masters 40-44,1972-02-28,44,104.1,110,M,,,,,180,190,197.5,197.5,,,,,197.5,B,Raw,No
2,Vadim Grechanyy,Вадим Гречаный,Pro Masters 40-44,1973-05-31,42,109.4,110,M,,,,,152.5,-162.5,-172.5,152.5,,,,,152.5,B,Raw,No
1,German Veledeev,Герман Веледеев,Pro Masters 45-49,1969-04-27,47,108.5,110,M,,,,,190,-200,200,200,,,,,200,B,Raw,No
1,Artem Zaytsev #1,Артем Зайцев,Pro Open,1988-02-02,28,105.5,110,M,,,,,-190,192.5,200,200,,,,,200,B,Raw,No
2,Vyacheslav Ten,Вячеслав Тен,Pro Open,1987-02-21,29,101.5,110,M,,,,,175,185,192.5,192.5,,,,,192.5,B,Raw,No
3,Denis Orlov,Денис Орлов,Pro Open,1978-05-22,37,107.7,110,M,,,,,150,155,160,160,,,,,160,B,Raw,No
1,Valeriya Mazurantova,Валерия Мазурантова,Pro Juniors 20-23,1993-11-28,22,57.7,60,F,140,150,155,155,60,65,-67.5,65,120,132.5,-140,132.5,352.5,SBD,Single-ply,No
1,Oleg Reshetnyov,Олег Решетнев,Pro Open,1988-08-04,27,81.6,82.5,M,190,200,207.5,207.5,130,135,-137.5,135,200,210,-220,210,552.5,SBD,Single-ply,No
1,Mikhail Rostovtsev,Михаил Ростовцев,Pro Masters 55-59,1958-05-28,57,90,90,M,250,260,270,270,170,-180,-180,170,220,235,245,245,685,SBD,Single-ply,No
1,Vitaliy Dolgov,Виталий Долгов,Pro Open,1984-05-22,31,89.4,90,M,265,-275,280,280,180,-190,190,190,210,225,-230,225,695,SBD,Single-ply,No
2,Mikhail Rostovtsev,Михаил Ростовцев,Pro Open,1958-05-28,57,90,90,M,250,260,270,270,170,-180,-180,170,220,235,245,245,685,SBD,Single-ply,No
1,Stanislav Ovcharov,Станислав Овчаров,Pro Open,1980-04-28,36,96.4,100,M,270,290,305,305,180,190,200,200,250,270,275,275,780,SBD,Single-ply,No
2,Oleg Bezdenezhnykh,Олег Безденежных,Pro Open,1979-08-13,36,93.3,100,M,-250,250,-265,250,-215,-215,215,215,220,-235,-240,220,685,SBD,Single-ply,No
1,Ivan Boyko,Иван Бойко,Pro Open,1986-04-02,30,109.7,110,M,320,-330,330,330,220,230,235,235,270,280,-290,280,845,SBD,Single-ply,No
2,Elisey Belets,Елисей Белец,Pro Open,1986-06-02,29,102.1,110,M,280,-300,300,300,190,200,-205,200,255,-265,,255,755,SBD,Single-ply,No
1,Maksim Pritula,Максим Притула,Pro Teen,1997-08-29,18,67.2,67.5,M,170,175,180,180,110,115,120,120,-180,180,190,190,490,SBD,Wraps,No
1,Aleksandr Taraev,Александр Тараев,Pro Teen,1997-05-10,18,73,75,M,-140,140,160,160,100,110,-120,110,170,180,190,190,460,SBD,Wraps,No
1,Olga Baklykova,Ольга Баклыкова,Pro Open,1964-05-07,52,74,75,F,120,-125,140,140,105,110,-115,110,130,140,150,150,400,SBD,Wraps,No
DQ,Vladimir Sinelnikov,Владимир Синельников,Pro Juniors 20-23,1994-10-22,21,69.9,75,M,-210,-220,-220,,,,,,,,,,,SBD,Wraps,No
1,Natalya Aksyonova,Наталья Аксёнова,Pro Masters 40-44,1972-08-21,43,78,82.5,F,130,-140,145,145,70,-75,-75,70,130,140,-150,140,355,SBD,Wraps,No
1,Natalya Aksyonova,Наталья Аксёнова,Pro Open,1972-08-21,43,78,82.5,F,130,-140,145,145,70,-75,-75,70,130,140,-150,140,355,SBD,Wraps,No
1,Nikita Cidorenko,Никита Сидоренко,Pro Teen,1998-10-20,17,87.4,90,M,140,155,165,165,110,120,125,125,210,225,235,235,525,SBD,Wraps,No
1,Eduard Annenkov,Эдуард Анненков,Pro Open,1988-05-03,28,90,90,M,-220,220,-222.5,220,170,-175,-175,170,230,240,-245,240,630,SBD,Wraps,No
1,Dmitriy Yurev,Дмитрий Юрьев,Pro Open,1992-01-24,24,102.2,110,M,240,250,260,260,165,175,185,185,250,270,-280,270,715,SBD,Wraps,No
2,Sergey Volkov,Сергей Волков,Pro Open,1992-05-03,24,105.6,110,M,200,210,-220,210,125,-135,-135,125,-220,220,-230,220,555,SBD,Wraps,No
DQ,Andrey Demekhov,Андрей Демехов,Pro Open,1984-04-30,32,107.7,110,M,-230,-230,-230,-230,,,,,,,,,,SBD,Wraps,No
DQ,Ilya Maltsev,Илья Мальцев,Pro Open,1978-08-02,37,57.7,60,M,-265,265,-280,265,,,,,,,,,,SBD,Multi-ply,No
