Place,Name,Country,State,WeightClassKg,BodyweightKg,Age,Best3SquatKg,Best3BenchKg,Best3DeadliftKg,TotalKg,Sex,Division,Equipment,Bench4Kg,Deadlift4Kg,Squat4Kg,Event
1,Kamryn Holmdahl,,WA,56,54.39,13,65,32.5,75,172.5,F,Juniors 13-15,Raw,,,,SBD
1,Ciara Perez,,WA,60,59.96,27,115.5,65,147.5,328,F,Open,Raw,,,,SBD
1,Renae Holmdahl,,WA,67.5,65.73,36,130,77.5,145,352.5,F,Open,Raw,,,,SBD
1,Bella Martinez,,WA,75,74.98,38,150,75,162.5,387.5,F,Open,Raw,,,,SBD
2,Natascha Karlova,,WA,75,73.8,33,100,47.5,137.5,285,F,Open,Raw,,,,SBD
1,Renae Holmdahl,,WA,67.5,65.73,36,130,77.5,145,352.5,F,Submasters 35-39,Raw,,,,SBD
1,Bella Martinez,,WA,75,74.98,38,150,75,162.5,387.5,F,Submasters 35-39,Raw,77.5,181.5,,SBD
DQ,Jeanne Morris,,WA,52,51.98,57,52.5,-30,95,,F,Masters 55-59,Raw,,,,SBD
1,Margie Huston,,WA,82.5,80.83,58,62.5,50,142.5,255,F,Masters 55-59,Raw,,,,SBD
1,Navrit Singh,,WA,67.5,62.32,15,142.5,80,170,392.5,M,Juniors 13-15,Raw,,,,SBD
1,Colby Fasoli,,WA,82.5,78.93,22,205,147.5,247.5,600,M,Juniors 20-23,Raw,,,,SBD
2,Thomas Sheets,,WA,82.5,81.6,23,182.5,135,240,557.5,M,Juniors 20-23,Raw,,,,SBD
1,Avtar Singh,,WA,90,89.81,16,165,87.5,190,442.5,M,Juniors 16-17,Raw,,,,SBD
1,Jeff Thompson,,WA,90,89.45,22,215,160,247.5,622.5,M,Juniors 20-23,Raw,,,,SBD
2,Brandon Belisario,,WA,90,88.04,20,230,155,235,620,M,Juniors 20-23,Raw,,,,SBD
3,Jake Enger,,WA,90,88.95,21,205,122.5,245,572.5,M,Juniors 20-23,Raw,,,,SBD
1,Trystan Leoppard,,WA,110,102.97,18,202.5,150,245,597.5,M,Juniors 18-19,Raw,,,,SBD
1,Emmanuel Madrigal,,WA,67.5,67.18,28,175,115,210,500,M,Open,Raw,,,175.5,SBD
2,Matthew Iguchi,,WA,67.5,67.13,25,175,107.5,215,497.5,M,Open,Raw,,,,SBD
1,Colby Fasoli,,WA,82.5,78.93,22,205,147.5,247.5,600,M,Open,Raw,,,,SBD
2,Thomas Sheets,,WA,82.5,81.6,23,182.5,135,240,557.5,M,Open,Raw,,,,SBD
1,Lee Hammer,,ID,90,87.5,26,202.5,147.5,247.5,597.5,M,Open,Raw,,,,SBD
2,David Patterson #2,,WA,90,87.5,30,175,112.5,205,492.5,M,Open,Raw,,,,SBD
1,Ben Rice,,WA,100,97.79,25,295,177.5,335,807.5,M,Open,Raw,,,,SBD
2,Ryan Robson,Canada,,100,99.06,31,262.5,195,290,747.5,M,Open,Raw,,,,SBD
3,Daniel Libre,,WA,100,91.94,28,260,182.5,295,737.5,M,Open,Raw,,,,SBD
4,Brandon Love,,WA,100,99.97,24,247.5,195,272.5,715,M,Open,Raw,,,,SBD
5,Jamon Coulter,,WA,100,99.97,25,177.5,165,195,537.5,M,Open,Raw,,,,SBD
DQ,Aaron Tea,,WA,100,92.71,28,-172.5,137.5,200,,M,Open,Raw,,,,SBD
1,Joshua Dakin,,ID,125,118.21,25,305,182.5,350,837.5,M,Open,Raw,,,,SBD
2,Kyle Byrd,,WA,125,117.48,26,210,145,245,600,M,Open,Raw,,,,SBD
1,Sean Gervais,,WA,140,130.63,24,220,167.5,272.5,660,M,Open,Raw,,,,SBD
1,Kristian Haglund,,WA,100,96.39,40,165,142.5,200,507.5,M,Masters 40-44,Raw,,,,SBD
DQ,Eric Leland,,WA,100,99.29,48,-182.5,,,,M,Masters 45-49,Raw,,,,SBD
1,Kelly Keophilavanh,,WA,90+,99.88,22,167.5,72.5,150,390,F,Juniors 20-23,Wraps,,,,SBD
1,Ashley Condray,,WA,60,59.33,26,142.5,77.5,187.5,407.5,F,Open,Wraps,,,,SBD
1,Malinda Sanchez,,WA,75,73.39,32,130,80,127.5,337.5,F,Open,Wraps,,,,SBD
1,Kris Woods,,WA,90,89.4,19,192.5,130,227.5,550,M,Juniors 18-19,Wraps,,,,SBD
1,Ruben Ramirez,,WA,90,89.63,20,247.5,140,257.5,645,M,Juniors 20-23,Wraps,,260,,SBD
1,Hayden Whitehurst,,OR,100,98.57,19,182.5,157.5,125,465,M,Juniors 18-19,Wraps,,,,SBD
1,Tyler Carpenter,,OR,110,108.91,21,247.5,142.5,295,685,M,Juniors 20-23,Wraps,,,,SBD
1,Rob Brooks,,WA,82.5,76.48,28,227.5,135,242.5,605,M,Open,Wraps,,,,SBD
1,Ibn Mahama,,WA,90,89.68,27,305,182.5,292.5,780,M,Open,Wraps,,,,SBD
2,Ruben Ramirez,,WA,90,89.63,20,247.5,140,257.5,645,M,Open,Wraps,,,,SBD
1,Roger Sargent,,WA,100,91.85,61,142.5,85,200,427.5,M,Open,Wraps,,,,SBD
1,Ben Seath,,WA,125,118.39,24,350,215,307.5,872.5,M,Open,Wraps,,,,SBD
DQ,Kevin Corbett,,WA,82.5,82.15,55,-165,85,165,,M,Masters 55-59,Wraps,,,,SBD
1,Steve Stallings,,WA,90,85.91,52,157.5,102.5,167.5,427.5,M,Masters 50-54,Wraps,,,,SBD
1,Roger Sargent,,WA,100,91.85,61,142.5,85,200,427.5,M,Masters 60-64,Wraps,,,,SBD
1,Rajjat Chauhan,,WA,67.5,64.32,17,195,90,190,475,M,Juniors 16-17,Single-ply,,195,,SBD
DQ,Stefan Green,,WA,90,87.54,21,-287.5,,,,M,Juniors 20-23,Single-ply,,,,SBD
1,Stetson Kinnison,,OR,110,109.09,19,217.5,165,240,622.5,M,Juniors 18-19,Single-ply,,,,SBD
1,Kristy Scott,,WA,90,89.36,32,,147.5,,147.5,F,Open,Raw,,,,B
1,Amy Evans #4,,WA,90,85.32,35,,70,,70,F,Submasters 35-39,Raw,,,,B
1,John Talkington,,WA,110,105.14,20,,130,,130,M,Juniors 20-23,Raw,,,,B
1,Robert Miller,,WA,90,89.18,48,,185,,185,M,Open,Raw,,,,B
2,Anastacio Vazquez,,WA,90,86.64,34,,135,,135,M,Open,Raw,,,,B
1,Matt Phelps,,ID,100,99.97,31,,245,,245,M,Open,Raw,,,,B
2,Mitch Crowe,,WA,100,95.35,53,,160,,160,M,Open,Raw,,,,B
3,Jaime Contreras,,WA,100,97.93,30,,107.5,,107.5,M,Open,Raw,,,,B
1,Adam Evans,,WA,140+,144.11,35,,157.5,,157.5,M,Submasters 35-39,Raw,,,,B
1,Robert Miller,,WA,90,89.18,48,,185,,185,M,Masters 45-49,Raw,,,,B
1,Mitch Crowe,,WA,100,95.35,53,,160,,160,M,Masters 50-54,Raw,,,,B
2,Keith Thompson #2,,ID,100,99.97,50,,150,,150,M,Masters 50-54,Raw,,,,B
1,Howie Chaves,,WA,100,98.34,64,,140,,140,M,Masters 60-64,Raw,,,,B
DQ,Daren Flolo,,ID,125,117.25,45,,-257.5,,,M,Masters 45-49,Single-ply,,,,B
1,Kristy Scott,,WA,90,89.36,32,,,257.5,257.5,F,Open,Raw,,,,D
1,Amy Evans #4,,WA,90,85.32,35,,,120,120,F,Submasters 35-39,Raw,,127.5,,D
1,Margie Huston,,WA,82.5,80.83,58,,,142.5,142.5,F,Masters 55-59,Raw,,,,D
1,Anastacio Vazquez,,WA,90,86.64,34,,,202.5,202.5,M,Open,Raw,,,,D
1,Adam Evans,,WA,140+,144.11,35,,,237.5,237.5,M,Submasters 35-39,Raw,,,,D
