Place,Name,CyrillicName,BirthYear,Sex,WeightClassKg,BodyweightKg,Best3SquatKg,Best3BenchKg,Best3DeadliftKg,TotalKg,Event,Equipment,Division
1,Kadriya Volkova,Кадрия Волкова,1986,F,48,47.55,120,70,130,320,SBD,Single-ply,Open
2,Aygul Redzhepova,Айгуль Реджепова,1989,F,48,46.9,127.5,70,117.5,315,SBD,Single-ply,Open
3,Aleksandra Churkina,Александра Чуркина,1992,F,48,46,130,67.5,115,312.5,SBD,Single-ply,Open
DQ,Anna Sheina,Анна Шеина,1988,F,48,47.05,,,,,SBD,Single-ply,Open
1,Natalia Salnikova,Наталья Сальникова,1986,F,52,51.85,170,100,180,450,SBD,Single-ply,Open
2,Tatyana Koroleva,Татьяна Королёва,1986,F,52,50.8,155,70,150,375,SBD,Single-ply,Open
3,Ekaterina Nikolaeva,Екатерина Николаева,1984,F,52,52,160,77.5,137.5,375,SBD,Single-ply,Open
4,Aygul Abzalova,Айгуль Абзалова,1987,F,52,51.2,125,70,130,325,SBD,Single-ply,Open
5,Valentina Khmelnikova,Валентина Хмельникова,1983,F,52,52,135,55,125,315,SBD,Single-ply,Open
6,Guzel Timerkhanova,Гузель Тимерханова,1987,F,52,51.3,130,45,130,305,SBD,Single-ply,Open
7,Lyubov Ivanova,Любовь Иванова,1986,F,52,50.95,115,60,105,280,SBD,Single-ply,Open
DQ,Tatyana Azyamova,Татьяна Азямова,1989,F,52,51.1,130,,,,SBD,Single-ply,Open
1,Larisa Kotkova,Лариса Коткова,1974,F,56,55.75,175,137.5,172.5,485,SBD,Single-ply,Open
2,Mariya Ushakova,Мария Ушакова,1986,F,56,55.65,162.5,100,167.5,430,SBD,Single-ply,Open
3,Evgeniya Savitskaya,Евгения Савицкая,1981,F,56,56,162.5,82.5,155,400,SBD,Single-ply,Open
4,Ekaterina Ageeva,Екатерина Агеева,1983,F,56,54,165,65,140,370,SBD,Single-ply,Open
5,Elena Lyakh,Елена Лях,1976,F,56,54.8,155,75,130,360,SBD,Single-ply,Open
DQ,Olga Ogorodova,Ольга Огородова,1975,F,56,55.45,170,80,,,SBD,Single-ply,Open
DQ,Albina Mukminova,Альбина Мукминова,1991,F,56,55.6,,,,,SBD,Single-ply,Open
1,Tatyana Isharina,Татьяна Ишарина,1986,F,60,56.1,140,70,115,325,SBD,Single-ply,Open
DQ,Anastasiya Goch,Анастасия Гоч,1987,F,60,59.75,160,,,,SBD,Single-ply,Open
DQ,Anastasiya Lyubimova,Анастасия Любимова,1982,F,60,59.55,,,,,SBD,Single-ply,Open
DQ,Anna Melnikova,Анна Мельникова,1987,F,60,59.6,,,,,SBD,Single-ply,Open
1,Svetlana Sharifullina,Светлана Шарифуллина,1979,F,67.5,66.9,190,135,190,515,SBD,Single-ply,Open
2,Anastasia Lorents,Анастасия Лоренц,1985,F,67.5,63,180,135,170,485,SBD,Single-ply,Open
3,Elena Kuznetsova,Елена Кузнецова,1985,F,67.5,63.6,180,100,190,470,SBD,Single-ply,Open
DQ,Viktoriya Nechaeva,Виктория Нечаева,1983,F,67.5,66.65,,,,,SBD,Single-ply,Open
1,Irina Kashuba,Ирина Кашуба,1982,F,75,73.85,202.5,122.5,217.5,542.5,SBD,Single-ply,Open
2,Elvira Fattakhova,Эльвира Фаттахова,1988,F,75,68.3,190,100,150,440,SBD,Single-ply,Open
3,Ellina Kudryavtseva,Эллина Кудрявцева,1975,F,75,73.6,165,100,145,410,SBD,Single-ply,Open
1,Irina Grishanova,Ирина Гришанова,1984,F,82.5,82.5,172.5,107.5,150,430,SBD,Single-ply,Open
2,Svetlana Bochko,Светлана Бочко,1963,F,82.5,78.6,125,80,150,355,SBD,Single-ply,Open
1,Kadriya Volkova,Кадрия Волкова,1986,F,48,47.55,120,70,130,320,SBD,Wraps,Open
1,Roman Manukyan,Роман Манукян,1989,M,56,55.95,192.5,115,205,512.5,SBD,Single-ply,Open
2,Anatoliy Afanasev,Анатолий Афанасьев,1989,M,56,56,195,112.5,202.5,510,SBD,Single-ply,Open
3,Artur Gafiyatullin,Артур Гафиятуллин,1989,M,56,55.85,180,125,190,495,SBD,Single-ply,Open
4,Sergey Trifonov,Сергей Трифонов,1990,M,56,55.25,165,105,180,450,SBD,Single-ply,Open
1,Aleksandr Lyubimov,Александр Любимов,1985,M,60,60,222.5,127.5,210,560,SBD,Single-ply,Open
2,Mikhail Gladyshev,Михаил Гладышев,1989,M,60,59.55,202.5,115,215,532.5,SBD,Single-ply,Open
3,Vladimir Druzhinin,Владимир Дружинин,1985,M,60,57.05,195,140,180,515,SBD,Single-ply,Open
4,Dmitriy Lapin,Дмитрий Лапин,1989,M,60,58.75,180,107.5,200,487.5,SBD,Single-ply,Open
5,Aleksandr Shevelyov,Александр Шевелёв,1991,M,60,59.55,187.5,105,187.5,480,SBD,Single-ply,Open
6,Nikita Kuzmin,Никита Кузьмин,1989,M,60,58.15,160,110,200,470,SBD,Single-ply,Open
DQ,Marsel Akhmadeev,Марсель Ахмадеев,1989,M,60,59.1,222.5,122.5,,,SBD,Single-ply,Open
DQ,Dmitriy Shutyak,Дмитрий Шутяк,1986,M,60,59.3,,,,,SBD,Single-ply,Open
1,Pavel Chernikov,Павел Черников,1973,M,67.5,67.25,280,157.5,242.5,680,SBD,Single-ply,Open
2,Dmitriy Shishov,Дмитрий Шишов,1987,M,67.5,67.2,245,165,227.5,637.5,SBD,Single-ply,Open
3,Igor Dolzhenko,Ігор Долженко,1988,M,67.5,67.35,250,157.5,225,632.5,SBD,Single-ply,Open
4,Mikhail Ponachevnyy,Михаил Поначевный,1988,M,67.5,66.8,250,137.5,237.5,625,SBD,Single-ply,Open
5,Ruzel Khabibulin,Рузель Хабибулин,1983,M,67.5,67.3,230,140,225,595,SBD,Single-ply,Open
6,Maksim Lavrenyuk,Максим Лавренюк,1987,M,67.5,66.6,242.5,120,220,582.5,SBD,Single-ply,Open
7,Konstantin Kudryavtsev,Константин Кудрявцев,1985,M,67.5,66.55,200,120,200,520,SBD,Single-ply,Open
8,Maksim Soltsin,Максим Сольцин,1990,M,67.5,67.35,200,100,205,505,SBD,Single-ply,Open
9,Egor Lukin,Егор Лукин,1990,M,67.5,62.25,180,120,192.5,492.5,SBD,Single-ply,Open
DQ,Anton Sychyov,Антон Сычёв,1984,M,67.5,67.2,,,,,SBD,Single-ply,Open
1,Aleksandr Tryastsin,Александр Трясцин,1983,M,75,73.9,265,172.5,230,667.5,SBD,Single-ply,Open
2,Igor Bukhranov,Игорь Бухранов,1988,M,75,74.65,262.5,150,245,657.5,SBD,Single-ply,Open
3,Mikhail Khmelnikov,Михаил Хмельников,1988,M,75,75,230,160,220,610,SBD,Single-ply,Open
4,Radik Bariev,Радик Бариев,1986,M,75,70.7,220,130,230,580,SBD,Single-ply,Open
DQ,Konstantin Timshin,Константин Тимшин,1986,M,75,72.05,250,140,,,SBD,Single-ply,Open
DQ,Andrey Vozovikov,Андрей Возовиков,1984,M,75,73.75,242.5,,,,SBD,Single-ply,Open
1,Andrey Zhuravlyov,Андрей Журавлёв,1988,M,82.5,82.05,315,240,280,835,SBD,Single-ply,Open
2,Vladimir Tolstykh,Владимир Толстых,1986,M,82.5,80.4,282.5,180,265,727.5,SBD,Single-ply,Open
3,Sergey Chupakhin,Сергей Чупахин,1988,M,82.5,82.45,282.5,170,275,727.5,SBD,Single-ply,Open
4,Sergey Golovanov,Сергей Голованов,1984,M,82.5,81.05,277.5,197.5,245,720,SBD,Single-ply,Open
5,Aleksandr Vasilkov,Александр Васильков,1988,M,82.5,81.45,255,180,285,720,SBD,Single-ply,Open
6,Aleksandr Golyashov,Александр Голяшов,1983,M,82.5,80.9,285,175,235,695,SBD,Single-ply,Open
DQ,Dmitriy Volgarev,Дмитрий Волгарев,1982,M,82.5,82.5,262.5,,,,SBD,Single-ply,Open
DQ,Anton Poptsov,Антон Попцов,1982,M,82.5,81.8,,,,,SBD,Single-ply,Open
DQ,Alik Khuramshin,Алик Хурамшин,1990,M,82.5,80.1,,,,,SBD,Single-ply,Open
DQ,Andrey Dorogoychenkov,Андрей Дорогойченков,1984,M,82.5,82.45,,,,,SBD,Single-ply,Open
1,Anton Rudenko,Антон Руденко,1986,M,90,89.65,330,200,320,850,SBD,Single-ply,Open
2,Artyom Zaytsev #1,Артём Зайцев,1985,M,90,83.9,322.5,190,290,802.5,SBD,Single-ply,Open
3,Andrey Markelov,Андрей Маркелов,1984,M,90,89.25,305,185,282.5,772.5,SBD,Single-ply,Open
4,Ilya Borisov,Илья Борисов,1986,M,90,89.15,290,190,280,760,SBD,Single-ply,Open
5,Aydar Sitdikov,Айдар Ситдиков,1984,M,90,86.25,287.5,180,282.5,750,SBD,Single-ply,Open
6,Mikhail Zakurdaev,Михаил Закурдаев,1987,M,90,88.75,285,175,290,750,SBD,Single-ply,Open
7,Aleksandr Lednyov,Александр Леднёв,1987,M,90,88.95,290,160,300,750,SBD,Single-ply,Open
8,Ruslan Minibaev,Руслан Минибаев,1985,M,90,89.95,285,160,285,730,SBD,Single-ply,Open
9,Maksim Kuznetsov,Максим Кузнецов,1987,M,90,88.8,285,160,250,695,SBD,Single-ply,Open
10,Evgeniy Brezgin,Евгений Брезгин,1987,M,90,87.65,250,150,230,630,SBD,Single-ply,Open
DQ,Sergey Shutkin,Сергей Шуткин,1969,M,90,89.25,,,,,SBD,Single-ply,Open
1,Sergey Burov,Сергей Буров,1977,M,100,99.85,335,190,310,835,SBD,Single-ply,Open
2,Vladimir Sibalakov,Владимир Сибалаков,1981,M,100,99.9,320,215,300,835,SBD,Single-ply,Open
3,Dmitriy Iventev,Дмитрий Ивентьев,1986,M,100,94.45,335,187.5,265,787.5,SBD,Single-ply,Open
4,Vadim Prodanov,Вадим Проданов,1978,M,100,96.2,295,187.5,302.5,785,SBD,Single-ply,Open
5,Anton Bogdanov,Антон Богданов,1973,M,100,96.55,320,170,290,780,SBD,Single-ply,Open
6,Oleg Ivashkin,Олег Ивашкин,1971,M,100,99.95,290,220,270,780,SBD,Single-ply,Open
7,Stanislav Khayrullin,Станислав Хайруллин,1987,M,100,99.3,290,195,290,775,SBD,Single-ply,Open
8,Sergey Shpota,Сергей Шпота,1985,M,100,95.15,290,200,275,765,SBD,Single-ply,Open
9,Yuriy Kovalenko,Юрій Коваленко,1983,M,100,97.8,290,180,250,720,SBD,Single-ply,Open
10,Ruslan Zhukov,Руслан Жуков,1989,M,100,98.15,290,157.5,262.5,710,SBD,Single-ply,Open
DQ,Vitaliy Balashov,Виталий Балашов,1988,M,100,93.7,,,,,SBD,Single-ply,Open
DQ,Aleksandr Muratkin,Александр Мураткин,1987,M,100,96.4,,,,,SBD,Single-ply,Open
1,Aleksandr Sykmenyov,Александр Сыкменёв,1978,M,110,109.55,317.5,290,285,892.5,SBD,Single-ply,Open
2,Mikhail Chukhontsev,Михаил Чухонцев,1979,M,110,107.1,335,235,305,875,SBD,Single-ply,Open
3,Aleksey Fyodorov,Алексей Фёдоров,1978,M,110,109.8,320,215,315,850,SBD,Single-ply,Open
4,Evgeniy Sidorin,Евгений Сидорин,1987,M,110,108.2,305,230,290,825,SBD,Single-ply,Open
5,Dmitriy Yashurin,Дмитрий Яшурин,1982,M,110,106.25,315,192.5,310,817.5,SBD,Single-ply,Open
6,Maksim Prokhorov,Максим Прохоров,1989,M,110,109.75,320,175,300,795,SBD,Single-ply,Open
1,Mikhail Mochalov,Михаил Мочалов,1974,M,125,115.5,370,270,370,1010,SBD,Single-ply,Open
2,Timur Gadiev,Тимур Гадиев,1985,M,125,120.2,370,247.5,332.5,950,SBD,Single-ply,Open
3,Igor Prokhorov,Игорь Прохоров,1976,M,125,119.45,355,242.5,340,937.5,SBD,Single-ply,Open
4,Andrey Frolov,Андрей Фролов,1977,M,125,120.4,315,240,310,865,SBD,Single-ply,Open
5,Ruslan Akhmadiev,Руслан Ахмадиев,1984,M,125,120.05,330,220,310,860,SBD,Single-ply,Open
6,Sergey Kurilo,Сергей Курило,1971,M,125,116.4,300,225,295,820,SBD,Single-ply,Open
7,Albert Makhiyanov,Альберт Махиянов,1986,M,125,119.2,300,240,280,820,SBD,Single-ply,Open
8,Sergey Dyatlov,Сергей Дятлов,1969,M,125,117.15,325,195,282.5,802.5,SBD,Single-ply,Open
9,Sergey Sychev,Сергей Сычёв,1986,M,125,118.6,305,210,260,775,SBD,Single-ply,Open
10,Aleksey Tyutin,Алексей Тютин,1986,M,125,118.75,295,190,290,775,SBD,Single-ply,Open
DQ,Aleksandr Volkov,Александр Волков,1965,M,125,117.7,290,,,,SBD,Single-ply,Open
DQ,Viktor Medvedev,Виктор Медведев,1967,M,125,124.5,,,,,SBD,Single-ply,Open
DQ,Sergey Makarov,Сергей Макаров,1983,M,125,124.95,,,,,SBD,Single-ply,Open
DQ,Kirill Kropis,Кирилл Кропис,1987,M,125,115.85,,,,,SBD,Single-ply,Open
DQ,Igor Filippov,Игорь Филиппов,1989,M,125,120.85,,,,,SBD,Single-ply,Open
1,Andrey Konovalov #1,Андрей Коновалов,1986,M,125+,146.45,380,290,347.5,1017.5,SBD,Single-ply,Open
2,Dmitriy Ivanov,Дмитрий Иванов,1984,M,125+,142.8,360,230,347.5,937.5,SBD,Single-ply,Open
3,Nikolay Simankov,Николай Симаньков,1967,M,125+,126.25,355,260,320,935,SBD,Single-ply,Open
DQ,Igor Garifullin,Игорь Гарифуллин,1977,M,125+,130.55,360,180,,,SBD,Single-ply,Open
1,Anton Bogdanov,Антон Богданов,1973,M,100,96.55,320,170,290,780,SBD,Wraps,Open
