Name,Sex,Equipment,BodyweightKg,WeightClassKg,Division,Best3SquatKg,Best3BenchKg,Best3DeadliftKg,TotalKg,Place,Event,AgeRange
Aimee Margott,F,Raw,81.3,84,F-C-U18,100,55,95,250,1,SBD,0-17.5
Joe Farrugia,M,Raw,75.5,83,M-C-N,130,90,185,405,1,SBD,23.5-38.5
Toby Eves,M,Raw,110.5,120,M-C-N,130,100,185,415,1,SBD,23.5-38.5
Cameron Keyes,M,Raw,81.1,83,M-C-U18,150,85,207.5,442.5,1,SBD,0-17.5
Daniel Fletcher,M,Raw,104.9,105,M-C-U18,160,95,190,445,1,SBD,0-17.5
David Cridland,M,Raw,115.6,120,M-C-U18,182.5,120,205,507.5,1,SBD,0-17.5
Andrew Dixon #2,M,Raw,67.7,74,M-C-U20,150,92.5,215,457.5,1,SBD,0-19.5
Rickie Stevens,M,Raw,73.8,74,M-C-U20,170,115,170,455,2,SBD,0-19.5
